netcdf gsic {
dimensions:
	longitude = 36 ;
	longitude_1 = 36 ;
	longitude_2 = 36 ;
	latitude = 36 ;
	latitude_1 = 36 ;
	latitude_2 = 36 ;
	time = 1 ;
	month = 1 ;
	year = 1 ;
variables:
	float longitude(longitude) ;
		longitude:long_name = "longitude" ;
		longitude:units = "degrees_east" ;
		longitude:missing_value = -99999.f ;
	float longitude_1(longitude_1) ;
		longitude_1:long_name = "longitude" ;
		longitude_1:units = "degrees_east" ;
		longitude_1:missing_value = -99999.f ;
	float longitude_2(longitude_2) ;
		longitude_2:long_name = "longitude" ;
		longitude_2:units = "degrees_east" ;
		longitude_2:missing_value = -99999.f ;
	float latitude(latitude) ;
		latitude:long_name = "latitude" ;
		latitude:units = "degrees_north" ;
		latitude:missing_value = -99999.f ;
	float latitude_1(latitude_1) ;
		latitude_1:long_name = "latitude" ;
		latitude_1:units = "degrees_north" ;
		latitude_1:missing_value = -99999.f ;
	float latitude_2(latitude_2) ;
		latitude_2:long_name = "latitude" ;
		latitude_2:units = "degrees_north" ;
		latitude_2:missing_value = -99999.f ;
	float time(time) ;
		time:long_name = "time" ;
		time:units = "years" ;
		time:missing_value = -99999.f ;
	float month(month) ;
		month:long_name = "month" ;
		month:units = "months" ;
		month:missing_value = -99999.f ;
	float year(year) ;
		year:long_name = "year" ;
		year:units = "years" ;
		year:missing_value = -99999.f ;
	float sic_height(time, latitude, longitude) ;
		sic_height:long_name = "Sea-ice height" ;
		sic_height:units = "m" ;
		sic_height:missing_value = -99999.f ;
	float sic_cover(time, latitude, longitude) ;
		sic_cover:long_name = "Sea-ice fractional cover" ;
		sic_cover:units = "dimensionless" ;
		sic_cover:missing_value = -99999.f ;
	float sic_temp(time, latitude, longitude) ;
		sic_temp:long_name = "Sea-ice temperature" ;
		sic_temp:units = "C" ;
		sic_temp:missing_value = -99999.f ;
	float sic_albedo(time, latitude, longitude) ;
		sic_albedo:long_name = "Sea-ice albedo" ;
		sic_albedo:units = "dimensionless" ;
		sic_albedo:missing_value = -99999.f ;
	float delta_height(time, latitude, longitude) ;
		delta_height:long_name = "Change in sea-ice height" ;
		delta_height:units = "m/s" ;
		delta_height:missing_value = -99999.f ;
	float delta_cover(time, latitude, longitude) ;
		delta_cover:long_name = "Change in sea-ice fractional cover" ;
		delta_cover:units = "dimensionless" ;
		delta_cover:missing_value = -99999.f ;
	float sic_heat(time, latitude, longitude) ;
		sic_heat:long_name = "Sea-ice heat flux" ;
		sic_heat:units = "W/m2" ;
		sic_heat:missing_value = -99999.f ;
	float sic_fw(time, latitude, longitude) ;
		sic_fw:long_name = "Sea-ice freshwater flux" ;
		sic_fw:units = "mm/s" ;
		sic_fw:missing_value = -99999.f ;

// global attributes:
		:title = "Produced using writenc6 program by PJV" ;
data:

 longitude = -255, -245, -235, -225, -215, -205, -195, -185, -175, -165, 
    -155, -145, -135, -125, -115, -105, -95, -85, -75, -65, -55, -45, -35, 
    -25, -15, -5, 5, 15, 25, 35, 45, 55, 65, 75, 85, 95 ;

 longitude_1 = -260, -250, -240, -230, -220, -210, -200, -190, -180, -170, 
    -160, -150, -140, -130, -120, -110, -100, -90, -80, -70, -60, -50, -40, 
    -30, -20, -10, 0, 10, 20, 30, 40, 50, 60, 70, 80, 90 ;

 longitude_2 = -255, -245, -235, -225, -215, -205, -195, -185, -175, -165, 
    -155, -145, -135, -125, -115, -105, -95, -85, -75, -65, -55, -45, -35, 
    -25, -15, -5, 5, 15, 25, 35, 45, 55, 65, 75, 85, 95 ;

 latitude = -76.4638, -66.44353, -59.44157, -53.66394, -48.59038, -43.98296, 
    -39.70901, -35.68533, -31.85543, -28.17864, -24.62432, -21.16845, 
    -17.79159, -14.47751, -11.21227, -7.983556, -4.780192, -1.591754, 
    1.591754, 4.780192, 7.983556, 11.21227, 14.47751, 17.79159, 21.16845, 
    24.62432, 28.17864, 31.85543, 35.68533, 39.70901, 43.98296, 48.59038, 
    53.66394, 59.44157, 66.44353, 76.4638 ;

 latitude_1 = -76.4638, -66.44353, -59.44157, -53.66394, -48.59038, 
    -43.98296, -39.70901, -35.68533, -31.85543, -28.17864, -24.62432, 
    -21.16845, -17.79159, -14.47751, -11.21227, -7.983556, -4.780192, 
    -1.591754, 1.591754, 4.780192, 7.983556, 11.21227, 14.47751, 17.79159, 
    21.16845, 24.62432, 28.17864, 31.85543, 35.68533, 39.70901, 43.98296, 
    48.59038, 53.66394, 59.44157, 66.44353, 76.4638 ;

 latitude_2 = -90, -70.81187, -62.73396, -56.44269, -51.05756, -46.23826, 
    -41.81031, -37.66989, -33.74899, -30, -26.3878, -22.88538, -19.47122, 
    -16.12762, -12.83959, -9.594069, -6.37937, -3.184739, 0, 3.184739, 
    6.37937, 9.594069, 12.83959, 16.12762, 19.47122, 22.88538, 26.3878, 30, 
    33.74899, 37.66989, 41.81031, 46.23826, 51.05756, 56.44269, 62.73396, 
    70.81187 ;

 time = 8.25 ;

 month = 3 ;

 year = 9 ;

 sic_height =
  NaNf, NaNf, NaNf, NaNf, NaNf, NaNf, NaNf, NaNf, NaNf, NaNf, NaNf, NaNf, 
    NaNf, NaNf, NaNf, NaNf, NaNf, NaNf, NaNf, NaNf, NaNf, NaNf, NaNf, NaNf, 
    NaNf, NaNf, NaNf, NaNf, NaNf, NaNf, NaNf, NaNf, NaNf, NaNf, NaNf, NaNf,
  NaNf, 0.5041977, 0.4045471, 0.3903512, 0.3428119, 0.2880974, 0.2350002, 
    0.1407941, 0.03883382, 0.01228211, 0, 0, 0, 0, 0, 0, 0, 0, 0, 0, 0, 0, 0, 
    0.04171463, 0.04750071, 0.1163956, 0.1256658, 0.1726812, 0.2293466, 
    0.3083049, 0.3586393, 0.385412, 0.4228314, 0.4240984, 0.4725029, NaNf,
  0.01640259, 0.09772296, 0.03228808, 0.02331242, 0.01611571, 0.0161906, 
    0.01143271, 0, 0, 0, 0, 0, 0, 0, 0, 0, 0, 0, 0, 0, 0, 0, 0, 0, 0, 0, 0, 
    0, 0.01106989, 0, 0.0102855, 0.01597454, 0.02375883, 0.03543153, 
    0.05932374, 0,
  0, 0, 0, 0, 0, 0, 0, 0, 0, 0, 0, 0, 0, 0, 0, 0, 0, 0, 0, 0, 0, 0, 0, 0, 0, 
    0, 0, 0, 0, 0, 0, 0, 0, 0, 0, 0,
  0, 0, 0, 0, 0, 0, 0, 0, 0, 0, 0, 0, 0, 0, 0, 0, 0, 0, 0, NaNf, 0, 0, 0, 0, 
    0, 0, 0, 0, 0, 0, 0, 0, 0, 0, 0, 0,
  0, 0, 0, 0, 0, 0, 0, 0, 0, 0, 0, 0, 0, 0, 0, 0, 0, 0, 0, NaNf, 0, 0, 0, 0, 
    0, 0, 0, 0, 0, 0, 0, 0, 0, 0, 0, 0,
  0, 0, 0, 0, 0, 0, 0, 0, 0, 0, 0, 0, 0, 0, 0, 0, 0, 0, 0, NaNf, 0, 0, 0, 0, 
    0, 0, 0, 0, 0, 0, 0, 0, 0, 0, 0, 0,
  0, 0, 0, 0, NaNf, 0, 0, 0, 0, 0, 0, 0, 0, 0, 0, 0, 0, 0, 0, NaNf, 0, 0, 0, 
    0, 0, 0, 0, 0, 0, 0, 0, 0, 0, 0, 0, 0,
  0, 0, 0, NaNf, NaNf, 0, 0, 0, 0, 0, 0, 0, 0, 0, 0, 0, 0, 0, 0, NaNf, NaNf, 
    0, 0, 0, 0, 0, 0, 0, NaNf, 0, 0, 0, 0, 0, 0, 0,
  0, 0, NaNf, NaNf, NaNf, 0, 0, 0, 0, 0, 0, 0, 0, 0, 0, 0, 0, 0, 0, NaNf, 
    NaNf, 0, 0, 0, 0, 0, 0, 0, NaNf, 0, 0, 0, 0, 0, 0, 0,
  0, 0, NaNf, NaNf, NaNf, 0, 0, 0, 0, 0, 0, 0, 0, 0, 0, 0, 0, 0, 0, NaNf, 
    NaNf, 0, 0, 0, 0, 0, 0, 0, NaNf, 0, 0, 0, 0, 0, 0, 0,
  0, 0, NaNf, NaNf, NaNf, 0, 0, 0, 0, 0, 0, 0, 0, 0, 0, 0, 0, 0, 0, NaNf, 
    NaNf, NaNf, 0, 0, 0, 0, 0, NaNf, NaNf, 0, 0, 0, 0, 0, 0, 0,
  0, 0, NaNf, NaNf, 0, 0, 0, 0, 0, 0, 0, 0, 0, 0, 0, 0, 0, 0, 0, NaNf, NaNf, 
    NaNf, 0, 0, 0, 0, 0, NaNf, NaNf, NaNf, 0, 0, 0, 0, 0, 0,
  0, 0, NaNf, NaNf, 0, 0, 0, 0, 0, 0, 0, 0, 0, 0, 0, 0, 0, 0, NaNf, NaNf, 
    NaNf, NaNf, 0, 0, 0, 0, 0, NaNf, NaNf, NaNf, 0, 0, 0, 0, 0, 0,
  0, 0, NaNf, NaNf, 0, 0, 0, 0, 0, 0, 0, 0, 0, 0, 0, 0, 0, 0, NaNf, NaNf, 
    NaNf, NaNf, 0, 0, 0, 0, 0, NaNf, NaNf, NaNf, 0, 0, 0, 0, 0, 0,
  0, NaNf, 0, 0, 0, 0, 0, 0, 0, 0, 0, 0, 0, 0, 0, 0, 0, 0, NaNf, NaNf, NaNf, 
    NaNf, 0, 0, 0, 0, 0, NaNf, NaNf, NaNf, 0, 0, 0, 0, 0, 0,
  0, NaNf, 0, 0, 0, 0, 0, 0, 0, 0, 0, 0, 0, 0, 0, 0, 0, 0, NaNf, NaNf, NaNf, 
    NaNf, 0, 0, 0, 0, 0, NaNf, NaNf, NaNf, 0, 0, 0, 0, 0, 0,
  NaNf, NaNf, 0, 0, 0, 0, 0, 0, 0, 0, 0, 0, 0, 0, 0, 0, 0, 0, NaNf, NaNf, 
    NaNf, 0, 0, 0, 0, 0, 0, NaNf, NaNf, NaNf, 0, 0, 0, 0, 0, 0,
  NaNf, NaNf, 0, 0, 0, 0, 0, 0, 0, 0, 0, 0, 0, 0, 0, 0, 0, 0, NaNf, NaNf, 
    NaNf, 0, 0, 0, 0, 0, 0, NaNf, NaNf, NaNf, 0, 0, 0, 0, 0, 0,
  NaNf, 0, 0, 0, 0, 0, 0, 0, 0, 0, 0, 0, 0, 0, 0, 0, 0, 0, NaNf, NaNf, 0, 0, 
    0, 0, 0, 0, 0, NaNf, NaNf, NaNf, 0, 0, 0, 0, 0, 0,
  NaNf, 0, 0, 0, 0, 0, 0, 0, 0, 0, 0, 0, 0, 0, 0, 0, 0, 0, NaNf, NaNf, 0, 0, 
    0, 0, 0, NaNf, NaNf, NaNf, NaNf, NaNf, NaNf, 0, 0, 0, 0, 0,
  NaNf, 0, 0, 0, 0, 0, 0, 0, 0, 0, 0, 0, 0, 0, 0, 0, 0, 0, NaNf, 0, 0, 0, 0, 
    0, 0, NaNf, NaNf, NaNf, NaNf, NaNf, NaNf, 0, 0, 0, 0, 0,
  NaNf, 0, 0, 0, 0, 0, 0, 0, 0, 0, 0, 0, 0, 0, 0, 0, 0, NaNf, 0, 0, 0, 0, 0, 
    0, 0, NaNf, NaNf, NaNf, NaNf, NaNf, NaNf, 0, 0, 0, 0, 0,
  NaNf, 0, 0, 0, 0, 0, 0, 0, 0, 0, 0, 0, 0, 0, 0, 0, NaNf, 0, 0, 0, 0, 0, 0, 
    0, 0, NaNf, NaNf, NaNf, NaNf, NaNf, NaNf, 0, 0, NaNf, 0, 0,
  NaNf, 0, 0, 0, 0, 0, 0, 0, 0, 0, 0, 0, 0, 0, 0, NaNf, 0, 0, 0, 0, 0, 0, 0, 
    0, 0, NaNf, NaNf, NaNf, NaNf, NaNf, NaNf, 0, 0, NaNf, NaNf, NaNf,
  NaNf, NaNf, 0, 0, 0, 0, 0, 0, 0, 0, 0, 0, 0, 0, 0, NaNf, 0, 0, 0, 0, 0, 0, 
    0, 0, 0, NaNf, NaNf, NaNf, NaNf, NaNf, NaNf, 0, 0, NaNf, NaNf, NaNf,
  NaNf, NaNf, 0, 0, 0, 0, 0, 0, 0, 0, 0, 0, 0, 0, 0, NaNf, 0, 0, 0, 0, 0, 0, 
    0, 0, 0, NaNf, NaNf, NaNf, NaNf, NaNf, NaNf, NaNf, NaNf, NaNf, NaNf, NaNf,
  NaNf, NaNf, 0, 0, 0, 0, 0, 0, 0, 0, 0, 0, 0, 0, 0, NaNf, NaNf, NaNf, 0, 0, 
    0, 0, 0, 0, 0, NaNf, NaNf, 0, 0, NaNf, NaNf, NaNf, NaNf, NaNf, NaNf, NaNf,
  NaNf, NaNf, NaNf, 0, 0, 0, 0, 0, 0, 0, 0, 0, 0, 0, NaNf, NaNf, NaNf, NaNf, 
    0, 0, 0, 0, 0, 0, 0, 0, 0, 0, 0, 0, NaNf, NaNf, NaNf, NaNf, NaNf, NaNf,
  NaNf, NaNf, NaNf, 0, 0, 0, 0, 0, 0, 0, 0, 0, 0, 0, NaNf, NaNf, NaNf, NaNf, 
    0, 0, 0, 0, 0, 0, 0, NaNf, 0, 0, NaNf, NaNf, NaNf, NaNf, NaNf, NaNf, 
    NaNf, NaNf,
  NaNf, NaNf, NaNf, 0, 0, 0, 0, 0, 0, 0, 0, 0, 0, 0, NaNf, NaNf, NaNf, NaNf, 
    NaNf, 0, 0, 0, 0, 0, 0, 0, NaNf, NaNf, NaNf, NaNf, NaNf, NaNf, NaNf, 
    NaNf, NaNf, NaNf,
  NaNf, NaNf, NaNf, NaNf, 0.04672015, 0, 0, 0, 0, 0, 0, 0, 0, 0, NaNf, NaNf, 
    NaNf, NaNf, NaNf, NaNf, 0, 0, 0, 0, 0, 0, NaNf, NaNf, NaNf, NaNf, NaNf, 
    NaNf, NaNf, NaNf, NaNf, NaNf,
  NaNf, NaNf, NaNf, NaNf, 0.3788711, 0.01610866, 0.01341162, 0, 0, 0, 0, 0, 
    0, NaNf, NaNf, NaNf, NaNf, NaNf, NaNf, NaNf, 0, 0, 0, 0, 0, NaNf, NaNf, 
    NaNf, NaNf, NaNf, NaNf, NaNf, NaNf, NaNf, NaNf, NaNf,
  NaNf, NaNf, NaNf, NaNf, NaNf, NaNf, 0, 0.01613603, 0, 0.1722227, 0, 0, 
    NaNf, NaNf, NaNf, NaNf, NaNf, NaNf, NaNf, NaNf, 0.3596851, 0.03083276, 0, 
    0, 0, 0.02586858, NaNf, NaNf, NaNf, NaNf, NaNf, NaNf, NaNf, NaNf, NaNf, 
    NaNf,
  NaNf, NaNf, NaNf, NaNf, NaNf, NaNf, NaNf, NaNf, NaNf, 1.871839, NaNf, NaNf, 
    NaNf, NaNf, NaNf, NaNf, NaNf, NaNf, NaNf, 2.397233, 1.897265, NaNf, NaNf, 
    0, 0.3378909, 0.497506, 0.8269266, 1.039852, NaNf, NaNf, NaNf, NaNf, 
    NaNf, NaNf, NaNf, NaNf,
  3.361418, 3.45018, 3.53459, 3.627264, 3.736676, 3.821201, 3.892674, 
    3.953024, 4.002186, 4.034575, 4.168448, 4.284316, 4.384207, 4.47379, 
    4.49687, 4.429533, 4.347209, 4.304939, 4.175421, 4.129859, NaNf, NaNf, 
    NaNf, NaNf, 1.76775, 1.673583, 1.791388, 1.896275, 2.102024, 2.243104, 
    2.403121, 2.594903, 2.82233, 2.96494, 3.120305, 3.240724 ;

 sic_cover =
  NaNf, NaNf, NaNf, NaNf, NaNf, NaNf, NaNf, NaNf, NaNf, NaNf, NaNf, NaNf, 
    NaNf, NaNf, NaNf, NaNf, NaNf, NaNf, NaNf, NaNf, NaNf, NaNf, NaNf, NaNf, 
    NaNf, NaNf, NaNf, NaNf, NaNf, NaNf, NaNf, NaNf, NaNf, NaNf, NaNf, NaNf,
  NaNf, 1, 0.9501619, 0.9683496, 0.9370706, 0.9311578, 0.9392591, 0.9364187, 
    0.7016883, 0.7567825, 0, 0, 0, 0, 0, 0, 0, 0, 0, 0, 0, 0, 0, 1, 
    0.7744706, 1, 0.918578, 0.947181, 0.9355198, 1, 1, 1, 1, 0.9239852, 
    0.9666184, NaNf,
  1, 1, 0.1181379, 0.09214804, 0.07734004, 0.05934358, 0.0543213, 0, 0, 0, 0, 
    0, 0, 0, 0, 0, 0, 0, 0, 0, 0, 0, 0, 0, 0, 0, 0, 0, 0.05480815, 0, 
    0.0567095, 0.07145869, 0.09104569, 0.1191367, 1, 0,
  0, 0, 0, 0, 0, 0, 0, 0, 0, 0, 0, 0, 0, 0, 0, 0, 0, 0, 0, 0, 0, 0, 0, 0, 0, 
    0, 0, 0, 0, 0, 0, 0, 0, 0, 0, 0,
  0, 0, 0, 0, 0, 0, 0, 0, 0, 0, 0, 0, 0, 0, 0, 0, 0, 0, 0, NaNf, 0, 0, 0, 0, 
    0, 0, 0, 0, 0, 0, 0, 0, 0, 0, 0, 0,
  0, 0, 0, 0, 0, 0, 0, 0, 0, 0, 0, 0, 0, 0, 0, 0, 0, 0, 0, NaNf, 0, 0, 0, 0, 
    0, 0, 0, 0, 0, 0, 0, 0, 0, 0, 0, 0,
  0, 0, 0, 0, 0, 0, 0, 0, 0, 0, 0, 0, 0, 0, 0, 0, 0, 0, 0, NaNf, 0, 0, 0, 0, 
    0, 0, 0, 0, 0, 0, 0, 0, 0, 0, 0, 0,
  0, 0, 0, 0, NaNf, 0, 0, 0, 0, 0, 0, 0, 0, 0, 0, 0, 0, 0, 0, NaNf, 0, 0, 0, 
    0, 0, 0, 0, 0, 0, 0, 0, 0, 0, 0, 0, 0,
  0, 0, 0, NaNf, NaNf, 0, 0, 0, 0, 0, 0, 0, 0, 0, 0, 0, 0, 0, 0, NaNf, NaNf, 
    0, 0, 0, 0, 0, 0, 0, NaNf, 0, 0, 0, 0, 0, 0, 0,
  0, 0, NaNf, NaNf, NaNf, 0, 0, 0, 0, 0, 0, 0, 0, 0, 0, 0, 0, 0, 0, NaNf, 
    NaNf, 0, 0, 0, 0, 0, 0, 0, NaNf, 0, 0, 0, 0, 0, 0, 0,
  0, 0, NaNf, NaNf, NaNf, 0, 0, 0, 0, 0, 0, 0, 0, 0, 0, 0, 0, 0, 0, NaNf, 
    NaNf, 0, 0, 0, 0, 0, 0, 0, NaNf, 0, 0, 0, 0, 0, 0, 0,
  0, 0, NaNf, NaNf, NaNf, 0, 0, 0, 0, 0, 0, 0, 0, 0, 0, 0, 0, 0, 0, NaNf, 
    NaNf, NaNf, 0, 0, 0, 0, 0, NaNf, NaNf, 0, 0, 0, 0, 0, 0, 0,
  0, 0, NaNf, NaNf, 0, 0, 0, 0, 0, 0, 0, 0, 0, 0, 0, 0, 0, 0, 0, NaNf, NaNf, 
    NaNf, 0, 0, 0, 0, 0, NaNf, NaNf, NaNf, 0, 0, 0, 0, 0, 0,
  0, 0, NaNf, NaNf, 0, 0, 0, 0, 0, 0, 0, 0, 0, 0, 0, 0, 0, 0, NaNf, NaNf, 
    NaNf, NaNf, 0, 0, 0, 0, 0, NaNf, NaNf, NaNf, 0, 0, 0, 0, 0, 0,
  0, 0, NaNf, NaNf, 0, 0, 0, 0, 0, 0, 0, 0, 0, 0, 0, 0, 0, 0, NaNf, NaNf, 
    NaNf, NaNf, 0, 0, 0, 0, 0, NaNf, NaNf, NaNf, 0, 0, 0, 0, 0, 0,
  0, NaNf, 0, 0, 0, 0, 0, 0, 0, 0, 0, 0, 0, 0, 0, 0, 0, 0, NaNf, NaNf, NaNf, 
    NaNf, 0, 0, 0, 0, 0, NaNf, NaNf, NaNf, 0, 0, 0, 0, 0, 0,
  0, NaNf, 0, 0, 0, 0, 0, 0, 0, 0, 0, 0, 0, 0, 0, 0, 0, 0, NaNf, NaNf, NaNf, 
    NaNf, 0, 0, 0, 0, 0, NaNf, NaNf, NaNf, 0, 0, 0, 0, 0, 0,
  NaNf, NaNf, 0, 0, 0, 0, 0, 0, 0, 0, 0, 0, 0, 0, 0, 0, 0, 0, NaNf, NaNf, 
    NaNf, 0, 0, 0, 0, 0, 0, NaNf, NaNf, NaNf, 0, 0, 0, 0, 0, 0,
  NaNf, NaNf, 0, 0, 0, 0, 0, 0, 0, 0, 0, 0, 0, 0, 0, 0, 0, 0, NaNf, NaNf, 
    NaNf, 0, 0, 0, 0, 0, 0, NaNf, NaNf, NaNf, 0, 0, 0, 0, 0, 0,
  NaNf, 0, 0, 0, 0, 0, 0, 0, 0, 0, 0, 0, 0, 0, 0, 0, 0, 0, NaNf, NaNf, 0, 0, 
    0, 0, 0, 0, 0, NaNf, NaNf, NaNf, 0, 0, 0, 0, 0, 0,
  NaNf, 0, 0, 0, 0, 0, 0, 0, 0, 0, 0, 0, 0, 0, 0, 0, 0, 0, NaNf, NaNf, 0, 0, 
    0, 0, 0, NaNf, NaNf, NaNf, NaNf, NaNf, NaNf, 0, 0, 0, 0, 0,
  NaNf, 0, 0, 0, 0, 0, 0, 0, 0, 0, 0, 0, 0, 0, 0, 0, 0, 0, NaNf, 0, 0, 0, 0, 
    0, 0, NaNf, NaNf, NaNf, NaNf, NaNf, NaNf, 0, 0, 0, 0, 0,
  NaNf, 0, 0, 0, 0, 0, 0, 0, 0, 0, 0, 0, 0, 0, 0, 0, 0, NaNf, 0, 0, 0, 0, 0, 
    0, 0, NaNf, NaNf, NaNf, NaNf, NaNf, NaNf, 0, 0, 0, 0, 0,
  NaNf, 0, 0, 0, 0, 0, 0, 0, 0, 0, 0, 0, 0, 0, 0, 0, NaNf, 0, 0, 0, 0, 0, 0, 
    0, 0, NaNf, NaNf, NaNf, NaNf, NaNf, NaNf, 0, 0, NaNf, 0, 0,
  NaNf, 0, 0, 0, 0, 0, 0, 0, 0, 0, 0, 0, 0, 0, 0, NaNf, 0, 0, 0, 0, 0, 0, 0, 
    0, 0, NaNf, NaNf, NaNf, NaNf, NaNf, NaNf, 0, 0, NaNf, NaNf, NaNf,
  NaNf, NaNf, 0, 0, 0, 0, 0, 0, 0, 0, 0, 0, 0, 0, 0, NaNf, 0, 0, 0, 0, 0, 0, 
    0, 0, 0, NaNf, NaNf, NaNf, NaNf, NaNf, NaNf, 0, 0, NaNf, NaNf, NaNf,
  NaNf, NaNf, 0, 0, 0, 0, 0, 0, 0, 0, 0, 0, 0, 0, 0, NaNf, 0, 0, 0, 0, 0, 0, 
    0, 0, 0, NaNf, NaNf, NaNf, NaNf, NaNf, NaNf, NaNf, NaNf, NaNf, NaNf, NaNf,
  NaNf, NaNf, 0, 0, 0, 0, 0, 0, 0, 0, 0, 0, 0, 0, 0, NaNf, NaNf, NaNf, 0, 0, 
    0, 0, 0, 0, 0, NaNf, NaNf, 0, 0, NaNf, NaNf, NaNf, NaNf, NaNf, NaNf, NaNf,
  NaNf, NaNf, NaNf, 0, 0, 0, 0, 0, 0, 0, 0, 0, 0, 0, NaNf, NaNf, NaNf, NaNf, 
    0, 0, 0, 0, 0, 0, 0, 0, 0, 0, 0, 0, NaNf, NaNf, NaNf, NaNf, NaNf, NaNf,
  NaNf, NaNf, NaNf, 0, 0, 0, 0, 0, 0, 0, 0, 0, 0, 0, NaNf, NaNf, NaNf, NaNf, 
    0, 0, 0, 0, 0, 0, 0, NaNf, 0, 0, NaNf, NaNf, NaNf, NaNf, NaNf, NaNf, 
    NaNf, NaNf,
  NaNf, NaNf, NaNf, 0, 0, 0, 0, 0, 0, 0, 0, 0, 0, 0, NaNf, NaNf, NaNf, NaNf, 
    NaNf, 0, 0, 0, 0, 0, 0, 0, NaNf, NaNf, NaNf, NaNf, NaNf, NaNf, NaNf, 
    NaNf, NaNf, NaNf,
  NaNf, NaNf, NaNf, NaNf, 0.1071963, 0, 0, 0, 0, 0, 0, 0, 0, 0, NaNf, NaNf, 
    NaNf, NaNf, NaNf, NaNf, 0, 0, 0, 0, 0, 0, NaNf, NaNf, NaNf, NaNf, NaNf, 
    NaNf, NaNf, NaNf, NaNf, NaNf,
  NaNf, NaNf, NaNf, NaNf, 0.8513609, 0.06312032, 0.072728, 0, 0, 0, 0, 0, 0, 
    NaNf, NaNf, NaNf, NaNf, NaNf, NaNf, NaNf, 0, 0, 0, 0, 0, NaNf, NaNf, 
    NaNf, NaNf, NaNf, NaNf, NaNf, NaNf, NaNf, NaNf, NaNf,
  NaNf, NaNf, NaNf, NaNf, NaNf, NaNf, 0, 0.08576442, 0, 0.1842139, 0, 0, 
    NaNf, NaNf, NaNf, NaNf, NaNf, NaNf, NaNf, NaNf, 1, 0.07340245, 0, 0, 0, 
    0.04997101, NaNf, NaNf, NaNf, NaNf, NaNf, NaNf, NaNf, NaNf, NaNf, NaNf,
  NaNf, NaNf, NaNf, NaNf, NaNf, NaNf, NaNf, NaNf, NaNf, 0.9626514, NaNf, 
    NaNf, NaNf, NaNf, NaNf, NaNf, NaNf, NaNf, NaNf, 1, 0.9827024, NaNf, NaNf, 
    0, 1, 0.8635275, 0.9881917, 1, NaNf, NaNf, NaNf, NaNf, NaNf, NaNf, NaNf, 
    NaNf,
  1, 1, 0.9983298, 0.9978978, 1, 1, 1, 1, 1, 1, 1, 1, 1, 1, 1, 0.9982681, 
    0.9937663, 1, 0.9869077, 1, NaNf, NaNf, NaNf, NaNf, 1, 0.9695772, 1, 
    0.9944854, 1, 0.9978797, 0.9929715, 0.9965728, 1, 0.9931874, 1, 0.9986334 ;

 sic_temp =
  NaNf, NaNf, NaNf, NaNf, NaNf, NaNf, NaNf, NaNf, NaNf, NaNf, NaNf, NaNf, 
    NaNf, NaNf, NaNf, NaNf, NaNf, NaNf, NaNf, NaNf, NaNf, NaNf, NaNf, NaNf, 
    NaNf, NaNf, NaNf, NaNf, NaNf, NaNf, NaNf, NaNf, NaNf, NaNf, NaNf, NaNf,
  NaNf, -15.51199, -14.46569, -13.8126, -12.86849, -11.7652, -10.10081, 
    -7.749703, -4.426334, 0, 0, 0, 0, 0, 0, 0, 0, 0, 0, 0, 0, 0, 0, 0, 
    -3.680254, -4.510687, -5.846589, -6.921696, -8.23567, -9.496464, 
    -10.6599, -11.58287, -12.27545, -12.76699, -13.67653, NaNf,
  0, -3.716818, -2.951225, -2.613686, -2.46851, 0, 0, 0, 0, 0, 0, 0, 0, 0, 0, 
    0, 0, 0, 0, 0, 0, 0, 0, 0, 0, 0, 0, 0, 0, -2.167431, -2.193256, 
    -2.296292, -2.563874, -2.858483, -3.191584, 0,
  0, 0, 0, 0, 0, 0, 0, 0, 0, 0, 0, 0, 0, 0, 0, 0, 0, 0, 0, 0, 0, 0, 0, 0, 0, 
    0, 0, 0, 0, 0, 0, 0, 0, 0, 0, 0,
  0, 0, 0, 0, 0, 0, 0, 0, 0, 0, 0, 0, 0, 0, 0, 0, 0, 0, 0, NaNf, 0, 0, 0, 0, 
    0, 0, 0, 0, 0, 0, 0, 0, 0, 0, 0, 0,
  0, 0, 0, 0, 0, 0, 0, 0, 0, 0, 0, 0, 0, 0, 0, 0, 0, 0, 0, NaNf, 0, 0, 0, 0, 
    0, 0, 0, 0, 0, 0, 0, 0, 0, 0, 0, 0,
  0, 0, 0, 0, 0, 0, 0, 0, 0, 0, 0, 0, 0, 0, 0, 0, 0, 0, 0, NaNf, 0, 0, 0, 0, 
    0, 0, 0, 0, 0, 0, 0, 0, 0, 0, 0, 0,
  0, 0, 0, 0, NaNf, 0, 0, 0, 0, 0, 0, 0, 0, 0, 0, 0, 0, 0, 0, NaNf, 0, 0, 0, 
    0, 0, 0, 0, 0, 0, 0, 0, 0, 0, 0, 0, 0,
  0, 0, 0, NaNf, NaNf, 0, 0, 0, 0, 0, 0, 0, 0, 0, 0, 0, 0, 0, 0, NaNf, NaNf, 
    0, 0, 0, 0, 0, 0, 0, NaNf, 0, 0, 0, 0, 0, 0, 0,
  0, 0, NaNf, NaNf, NaNf, 0, 0, 0, 0, 0, 0, 0, 0, 0, 0, 0, 0, 0, 0, NaNf, 
    NaNf, 0, 0, 0, 0, 0, 0, 0, NaNf, 0, 0, 0, 0, 0, 0, 0,
  0, 0, NaNf, NaNf, NaNf, 0, 0, 0, 0, 0, 0, 0, 0, 0, 0, 0, 0, 0, 0, NaNf, 
    NaNf, 0, 0, 0, 0, 0, 0, 0, NaNf, 0, 0, 0, 0, 0, 0, 0,
  0, 0, NaNf, NaNf, NaNf, 0, 0, 0, 0, 0, 0, 0, 0, 0, 0, 0, 0, 0, 0, NaNf, 
    NaNf, NaNf, 0, 0, 0, 0, 0, NaNf, NaNf, 0, 0, 0, 0, 0, 0, 0,
  0, 0, NaNf, NaNf, 0, 0, 0, 0, 0, 0, 0, 0, 0, 0, 0, 0, 0, 0, 0, NaNf, NaNf, 
    NaNf, 0, 0, 0, 0, 0, NaNf, NaNf, NaNf, 0, 0, 0, 0, 0, 0,
  0, 0, NaNf, NaNf, 0, 0, 0, 0, 0, 0, 0, 0, 0, 0, 0, 0, 0, 0, NaNf, NaNf, 
    NaNf, NaNf, 0, 0, 0, 0, 0, NaNf, NaNf, NaNf, 0, 0, 0, 0, 0, 0,
  0, 0, NaNf, NaNf, 0, 0, 0, 0, 0, 0, 0, 0, 0, 0, 0, 0, 0, 0, NaNf, NaNf, 
    NaNf, NaNf, 0, 0, 0, 0, 0, NaNf, NaNf, NaNf, 0, 0, 0, 0, 0, 0,
  0, NaNf, 0, 0, 0, 0, 0, 0, 0, 0, 0, 0, 0, 0, 0, 0, 0, 0, NaNf, NaNf, NaNf, 
    NaNf, 0, 0, 0, 0, 0, NaNf, NaNf, NaNf, 0, 0, 0, 0, 0, 0,
  0, NaNf, 0, 0, 0, 0, 0, 0, 0, 0, 0, 0, 0, 0, 0, 0, 0, 0, NaNf, NaNf, NaNf, 
    NaNf, 0, 0, 0, 0, 0, NaNf, NaNf, NaNf, 0, 0, 0, 0, 0, 0,
  NaNf, NaNf, 0, 0, 0, 0, 0, 0, 0, 0, 0, 0, 0, 0, 0, 0, 0, 0, NaNf, NaNf, 
    NaNf, 0, 0, 0, 0, 0, 0, NaNf, NaNf, NaNf, 0, 0, 0, 0, 0, 0,
  NaNf, NaNf, 0, 0, 0, 0, 0, 0, 0, 0, 0, 0, 0, 0, 0, 0, 0, 0, NaNf, NaNf, 
    NaNf, 0, 0, 0, 0, 0, 0, NaNf, NaNf, NaNf, 0, 0, 0, 0, 0, 0,
  NaNf, 0, 0, 0, 0, 0, 0, 0, 0, 0, 0, 0, 0, 0, 0, 0, 0, 0, NaNf, NaNf, 0, 0, 
    0, 0, 0, 0, 0, NaNf, NaNf, NaNf, 0, 0, 0, 0, 0, 0,
  NaNf, 0, 0, 0, 0, 0, 0, 0, 0, 0, 0, 0, 0, 0, 0, 0, 0, 0, NaNf, NaNf, 0, 0, 
    0, 0, 0, NaNf, NaNf, NaNf, NaNf, NaNf, NaNf, 0, 0, 0, 0, 0,
  NaNf, 0, 0, 0, 0, 0, 0, 0, 0, 0, 0, 0, 0, 0, 0, 0, 0, 0, NaNf, 0, 0, 0, 0, 
    0, 0, NaNf, NaNf, NaNf, NaNf, NaNf, NaNf, 0, 0, 0, 0, 0,
  NaNf, 0, 0, 0, 0, 0, 0, 0, 0, 0, 0, 0, 0, 0, 0, 0, 0, NaNf, 0, 0, 0, 0, 0, 
    0, 0, NaNf, NaNf, NaNf, NaNf, NaNf, NaNf, 0, 0, 0, 0, 0,
  NaNf, 0, 0, 0, 0, 0, 0, 0, 0, 0, 0, 0, 0, 0, 0, 0, NaNf, 0, 0, 0, 0, 0, 0, 
    0, 0, NaNf, NaNf, NaNf, NaNf, NaNf, NaNf, 0, 0, NaNf, 0, 0,
  NaNf, 0, 0, 0, 0, 0, 0, 0, 0, 0, 0, 0, 0, 0, 0, NaNf, 0, 0, 0, 0, 0, 0, 0, 
    0, 0, NaNf, NaNf, NaNf, NaNf, NaNf, NaNf, 0, 0, NaNf, NaNf, NaNf,
  NaNf, NaNf, 0, 0, 0, 0, 0, 0, 0, 0, 0, 0, 0, 0, 0, NaNf, 0, 0, 0, 0, 0, 0, 
    0, 0, 0, NaNf, NaNf, NaNf, NaNf, NaNf, NaNf, 0, 0, NaNf, NaNf, NaNf,
  NaNf, NaNf, 0, 0, 0, 0, 0, 0, 0, 0, 0, 0, 0, 0, 0, NaNf, 0, 0, 0, 0, 0, 0, 
    0, 0, 0, NaNf, NaNf, NaNf, NaNf, NaNf, NaNf, NaNf, NaNf, NaNf, NaNf, NaNf,
  NaNf, NaNf, 0, 0, 0, 0, 0, 0, 0, 0, 0, 0, 0, 0, 0, NaNf, NaNf, NaNf, 0, 0, 
    0, 0, 0, 0, 0, NaNf, NaNf, 0, 0, NaNf, NaNf, NaNf, NaNf, NaNf, NaNf, NaNf,
  NaNf, NaNf, NaNf, 0, 0, 0, 0, 0, 0, 0, 0, 0, 0, 0, NaNf, NaNf, NaNf, NaNf, 
    0, 0, 0, 0, 0, 0, 0, 0, 0, 0, 0, 0, NaNf, NaNf, NaNf, NaNf, NaNf, NaNf,
  NaNf, NaNf, NaNf, 0, 0, 0, 0, 0, 0, 0, 0, 0, 0, 0, NaNf, NaNf, NaNf, NaNf, 
    0, 0, 0, 0, 0, 0, 0, NaNf, 0, 0, NaNf, NaNf, NaNf, NaNf, NaNf, NaNf, 
    NaNf, NaNf,
  NaNf, NaNf, NaNf, 0, 0, 0, 0, 0, 0, 0, 0, 0, 0, 0, NaNf, NaNf, NaNf, NaNf, 
    NaNf, 0, 0, 0, 0, 0, 0, 0, NaNf, NaNf, NaNf, NaNf, NaNf, NaNf, NaNf, 
    NaNf, NaNf, NaNf,
  NaNf, NaNf, NaNf, NaNf, 0, 0, 0, 0, 0, 0, 0, 0, 0, 0, NaNf, NaNf, NaNf, 
    NaNf, NaNf, NaNf, 0, 0, 0, 0, 0, 0, NaNf, NaNf, NaNf, NaNf, NaNf, NaNf, 
    NaNf, NaNf, NaNf, NaNf,
  NaNf, NaNf, NaNf, NaNf, -15.45785, -2.943602, 0, 0, 0, 0, 0, 0, 0, NaNf, 
    NaNf, NaNf, NaNf, NaNf, NaNf, NaNf, -2.422333, 0, 0, 0, 0, NaNf, NaNf, 
    NaNf, NaNf, NaNf, NaNf, NaNf, NaNf, NaNf, NaNf, NaNf,
  NaNf, NaNf, NaNf, NaNf, NaNf, NaNf, -8.757988, 0, -2.475415, -4.380591, 
    -2.131939, 0, NaNf, NaNf, NaNf, NaNf, NaNf, NaNf, NaNf, NaNf, -14.42544, 
    0, 0, 0, -1.039345, 0, NaNf, NaNf, NaNf, NaNf, NaNf, NaNf, NaNf, NaNf, 
    NaNf, NaNf,
  NaNf, NaNf, NaNf, NaNf, NaNf, NaNf, NaNf, NaNf, NaNf, -26.90192, NaNf, 
    NaNf, NaNf, NaNf, NaNf, NaNf, NaNf, NaNf, NaNf, -33.99273, -31.19554, 
    NaNf, NaNf, -8.618337, -10.98495, -12.2887, -14.71966, -17.6125, NaNf, 
    NaNf, NaNf, NaNf, NaNf, NaNf, NaNf, NaNf,
  -55.11406, -56.62226, -57.83388, -58.614, -58.88855, -58.62663, -57.87074, 
    -56.85959, -55.81025, -54.84226, -54.09991, -53.59756, -53.31698, 
    -53.23301, -53.28112, -53.3647, -53.67192, -53.95253, -54.05801, 
    -54.32036, NaNf, NaNf, NaNf, NaNf, -45.32676, -42.75478, -41.51115, 
    -41.55671, -42.33162, -43.36727, -44.71891, -46.60896, -48.49147, 
    -50.083, -51.77178, -53.44186 ;

 sic_albedo =
  NaNf, NaNf, NaNf, NaNf, NaNf, NaNf, NaNf, NaNf, NaNf, NaNf, NaNf, NaNf, 
    NaNf, NaNf, NaNf, NaNf, NaNf, NaNf, NaNf, NaNf, NaNf, NaNf, NaNf, NaNf, 
    NaNf, NaNf, NaNf, NaNf, NaNf, NaNf, NaNf, NaNf, NaNf, NaNf, NaNf, NaNf,
  NaNf, 0.7, 0.7, 0.7, 0.7, 0.7, 0.7, 0.7, 0.7, 0, 0, 0, 0, 0, 0, 0, 0, 0, 0, 
    0, 0, 0, 0, 0, 0.656308, 0.6958408, 0.7, 0.7, 0.7, 0.7, 0.7, 0.7, 0.7, 
    0.7, 0.7, NaNf,
  0, 0.611653, 0.5954065, 0.5769234, 0.559, 0, 0, 0, 0, 0, 0, 0, 0, 0, 0, 0, 
    0, 0, 0, 0, 0, 0, 0, 0, 0, 0, 0, 0, 0, 0.5213597, 0.5353221, 0.5507182, 
    0.5660303, 0.5827085, 0.5988377, 0,
  0, 0, 0, 0, 0, 0, 0, 0, 0, 0, 0, 0, 0, 0, 0, 0, 0, 0, 0, 0, 0, 0, 0, 0, 0, 
    0, 0, 0, 0, 0, 0, 0, 0, 0, 0, 0,
  0, 0, 0, 0, 0, 0, 0, 0, 0, 0, 0, 0, 0, 0, 0, 0, 0, 0, 0, NaNf, 0, 0, 0, 0, 
    0, 0, 0, 0, 0, 0, 0, 0, 0, 0, 0, 0,
  0, 0, 0, 0, 0, 0, 0, 0, 0, 0, 0, 0, 0, 0, 0, 0, 0, 0, 0, NaNf, 0, 0, 0, 0, 
    0, 0, 0, 0, 0, 0, 0, 0, 0, 0, 0, 0,
  0, 0, 0, 0, 0, 0, 0, 0, 0, 0, 0, 0, 0, 0, 0, 0, 0, 0, 0, NaNf, 0, 0, 0, 0, 
    0, 0, 0, 0, 0, 0, 0, 0, 0, 0, 0, 0,
  0, 0, 0, 0, NaNf, 0, 0, 0, 0, 0, 0, 0, 0, 0, 0, 0, 0, 0, 0, NaNf, 0, 0, 0, 
    0, 0, 0, 0, 0, 0, 0, 0, 0, 0, 0, 0, 0,
  0, 0, 0, NaNf, NaNf, 0, 0, 0, 0, 0, 0, 0, 0, 0, 0, 0, 0, 0, 0, NaNf, NaNf, 
    0, 0, 0, 0, 0, 0, 0, NaNf, 0, 0, 0, 0, 0, 0, 0,
  0, 0, NaNf, NaNf, NaNf, 0, 0, 0, 0, 0, 0, 0, 0, 0, 0, 0, 0, 0, 0, NaNf, 
    NaNf, 0, 0, 0, 0, 0, 0, 0, NaNf, 0, 0, 0, 0, 0, 0, 0,
  0, 0, NaNf, NaNf, NaNf, 0, 0, 0, 0, 0, 0, 0, 0, 0, 0, 0, 0, 0, 0, NaNf, 
    NaNf, 0, 0, 0, 0, 0, 0, 0, NaNf, 0, 0, 0, 0, 0, 0, 0,
  0, 0, NaNf, NaNf, NaNf, 0, 0, 0, 0, 0, 0, 0, 0, 0, 0, 0, 0, 0, 0, NaNf, 
    NaNf, NaNf, 0, 0, 0, 0, 0, NaNf, NaNf, 0, 0, 0, 0, 0, 0, 0,
  0, 0, NaNf, NaNf, 0, 0, 0, 0, 0, 0, 0, 0, 0, 0, 0, 0, 0, 0, 0, NaNf, NaNf, 
    NaNf, 0, 0, 0, 0, 0, NaNf, NaNf, NaNf, 0, 0, 0, 0, 0, 0,
  0, 0, NaNf, NaNf, 0, 0, 0, 0, 0, 0, 0, 0, 0, 0, 0, 0, 0, 0, NaNf, NaNf, 
    NaNf, NaNf, 0, 0, 0, 0, 0, NaNf, NaNf, NaNf, 0, 0, 0, 0, 0, 0,
  0, 0, NaNf, NaNf, 0, 0, 0, 0, 0, 0, 0, 0, 0, 0, 0, 0, 0, 0, NaNf, NaNf, 
    NaNf, NaNf, 0, 0, 0, 0, 0, NaNf, NaNf, NaNf, 0, 0, 0, 0, 0, 0,
  0, NaNf, 0, 0, 0, 0, 0, 0, 0, 0, 0, 0, 0, 0, 0, 0, 0, 0, NaNf, NaNf, NaNf, 
    NaNf, 0, 0, 0, 0, 0, NaNf, NaNf, NaNf, 0, 0, 0, 0, 0, 0,
  0, NaNf, 0, 0, 0, 0, 0, 0, 0, 0, 0, 0, 0, 0, 0, 0, 0, 0, NaNf, NaNf, NaNf, 
    NaNf, 0, 0, 0, 0, 0, NaNf, NaNf, NaNf, 0, 0, 0, 0, 0, 0,
  NaNf, NaNf, 0, 0, 0, 0, 0, 0, 0, 0, 0, 0, 0, 0, 0, 0, 0, 0, NaNf, NaNf, 
    NaNf, 0, 0, 0, 0, 0, 0, NaNf, NaNf, NaNf, 0, 0, 0, 0, 0, 0,
  NaNf, NaNf, 0, 0, 0, 0, 0, 0, 0, 0, 0, 0, 0, 0, 0, 0, 0, 0, NaNf, NaNf, 
    NaNf, 0, 0, 0, 0, 0, 0, NaNf, NaNf, NaNf, 0, 0, 0, 0, 0, 0,
  NaNf, 0, 0, 0, 0, 0, 0, 0, 0, 0, 0, 0, 0, 0, 0, 0, 0, 0, NaNf, NaNf, 0, 0, 
    0, 0, 0, 0, 0, NaNf, NaNf, NaNf, 0, 0, 0, 0, 0, 0,
  NaNf, 0, 0, 0, 0, 0, 0, 0, 0, 0, 0, 0, 0, 0, 0, 0, 0, 0, NaNf, NaNf, 0, 0, 
    0, 0, 0, NaNf, NaNf, NaNf, NaNf, NaNf, NaNf, 0, 0, 0, 0, 0,
  NaNf, 0, 0, 0, 0, 0, 0, 0, 0, 0, 0, 0, 0, 0, 0, 0, 0, 0, NaNf, 0, 0, 0, 0, 
    0, 0, NaNf, NaNf, NaNf, NaNf, NaNf, NaNf, 0, 0, 0, 0, 0,
  NaNf, 0, 0, 0, 0, 0, 0, 0, 0, 0, 0, 0, 0, 0, 0, 0, 0, NaNf, 0, 0, 0, 0, 0, 
    0, 0, NaNf, NaNf, NaNf, NaNf, NaNf, NaNf, 0, 0, 0, 0, 0,
  NaNf, 0, 0, 0, 0, 0, 0, 0, 0, 0, 0, 0, 0, 0, 0, 0, NaNf, 0, 0, 0, 0, 0, 0, 
    0, 0, NaNf, NaNf, NaNf, NaNf, NaNf, NaNf, 0, 0, NaNf, 0, 0,
  NaNf, 0, 0, 0, 0, 0, 0, 0, 0, 0, 0, 0, 0, 0, 0, NaNf, 0, 0, 0, 0, 0, 0, 0, 
    0, 0, NaNf, NaNf, NaNf, NaNf, NaNf, NaNf, 0, 0, NaNf, NaNf, NaNf,
  NaNf, NaNf, 0, 0, 0, 0, 0, 0, 0, 0, 0, 0, 0, 0, 0, NaNf, 0, 0, 0, 0, 0, 0, 
    0, 0, 0, NaNf, NaNf, NaNf, NaNf, NaNf, NaNf, 0, 0, NaNf, NaNf, NaNf,
  NaNf, NaNf, 0, 0, 0, 0, 0, 0, 0, 0, 0, 0, 0, 0, 0, NaNf, 0, 0, 0, 0, 0, 0, 
    0, 0, 0, NaNf, NaNf, NaNf, NaNf, NaNf, NaNf, NaNf, NaNf, NaNf, NaNf, NaNf,
  NaNf, NaNf, 0, 0, 0, 0, 0, 0, 0, 0, 0, 0, 0, 0, 0, NaNf, NaNf, NaNf, 0, 0, 
    0, 0, 0, 0, 0, NaNf, NaNf, 0, 0, NaNf, NaNf, NaNf, NaNf, NaNf, NaNf, NaNf,
  NaNf, NaNf, NaNf, 0, 0, 0, 0, 0, 0, 0, 0, 0, 0, 0, NaNf, NaNf, NaNf, NaNf, 
    0, 0, 0, 0, 0, 0, 0, 0, 0, 0, 0, 0, NaNf, NaNf, NaNf, NaNf, NaNf, NaNf,
  NaNf, NaNf, NaNf, 0, 0, 0, 0, 0, 0, 0, 0, 0, 0, 0, NaNf, NaNf, NaNf, NaNf, 
    0, 0, 0, 0, 0, 0, 0, NaNf, 0, 0, NaNf, NaNf, NaNf, NaNf, NaNf, NaNf, 
    NaNf, NaNf,
  NaNf, NaNf, NaNf, 0, 0, 0, 0, 0, 0, 0, 0, 0, 0, 0, NaNf, NaNf, NaNf, NaNf, 
    NaNf, 0, 0, 0, 0, 0, 0, 0, NaNf, NaNf, NaNf, NaNf, NaNf, NaNf, NaNf, 
    NaNf, NaNf, NaNf,
  NaNf, NaNf, NaNf, NaNf, 0, 0, 0, 0, 0, 0, 0, 0, 0, 0, NaNf, NaNf, NaNf, 
    NaNf, NaNf, NaNf, 0, 0, 0, 0, 0, 0, NaNf, NaNf, NaNf, NaNf, NaNf, NaNf, 
    NaNf, NaNf, NaNf, NaNf,
  NaNf, NaNf, NaNf, NaNf, 0.7, 0.7, 0, 0, 0, 0, 0, 0, 0, NaNf, NaNf, NaNf, 
    NaNf, NaNf, NaNf, NaNf, 0.5558572, 0, 0, 0, 0, NaNf, NaNf, NaNf, NaNf, 
    NaNf, NaNf, NaNf, NaNf, NaNf, NaNf, NaNf,
  NaNf, NaNf, NaNf, NaNf, NaNf, NaNf, 0.7, 0, 0.6223043, 0.6374109, 
    0.5996566, 0, NaNf, NaNf, NaNf, NaNf, NaNf, NaNf, NaNf, NaNf, 0.7, 0, 0, 
    0, 0.3530989, 0, NaNf, NaNf, NaNf, NaNf, NaNf, NaNf, NaNf, NaNf, NaNf, 
    NaNf,
  NaNf, NaNf, NaNf, NaNf, NaNf, NaNf, NaNf, NaNf, NaNf, 0.7, NaNf, NaNf, 
    NaNf, NaNf, NaNf, NaNf, NaNf, NaNf, NaNf, 0.7, 0.7, NaNf, NaNf, 0.7, 0.7, 
    0.7, 0.7, 0.7, NaNf, NaNf, NaNf, NaNf, NaNf, NaNf, NaNf, NaNf,
  0.7, 0.7, 0.7, 0.7, 0.7, 0.7, 0.7, 0.7, 0.7, 0.7, 0.7, 0.7, 0.7, 0.7, 0.7, 
    0.7, 0.7, 0.7, 0.7, 0.7, NaNf, NaNf, NaNf, NaNf, 0.7, 0.7, 0.7, 0.7, 0.7, 
    0.7, 0.7, 0.7, 0.7, 0.7, 0.7, 0.7 ;

 delta_height =
  NaNf, NaNf, NaNf, NaNf, NaNf, NaNf, NaNf, NaNf, NaNf, NaNf, NaNf, NaNf, 
    NaNf, NaNf, NaNf, NaNf, NaNf, NaNf, NaNf, NaNf, NaNf, NaNf, NaNf, NaNf, 
    NaNf, NaNf, NaNf, NaNf, NaNf, NaNf, NaNf, NaNf, NaNf, NaNf, NaNf, NaNf,
  NaNf, 1.262374e-07, 4.431462e-08, 7.914299e-08, 9.309061e-08, 8.792782e-08, 
    1.160736e-07, 4.750752e-08, -2.566432e-08, 1.848302e-08, 0, 0, 0, 0, 0, 
    0, 0, 0, 0, 0, 0, 0, 0, 1.111358e-07, 4.666004e-08, 1.872545e-07, 
    9.948264e-08, 1.220062e-07, 1.281532e-07, 1.948093e-07, 1.673313e-07, 
    1.050749e-07, 1.695692e-07, 9.718406e-08, 1.204175e-07, NaNf,
  3.562058e-08, 8.136332e-08, -3.156866e-08, -3.158093e-08, -3.954684e-08, 0, 
    0, 0, 0, 0, 0, 0, 0, 0, 0, 0, 0, 0, 0, 0, 0, 0, 0, 0, 0, 0, 0, 0, 0, 
    -5.122092e-08, -4.47218e-08, -3.42438e-08, -3.301422e-08, -2.45803e-08, 
    3.571725e-08, 0,
  0, 0, 0, 0, 0, 0, 0, 0, 0, 0, 0, 0, 0, 0, 0, 0, 0, 0, 0, 0, 0, 0, 0, 0, 0, 
    0, 0, 0, 0, 0, 0, 0, 0, 0, 0, 0,
  0, 0, 0, 0, 0, 0, 0, 0, 0, 0, 0, 0, 0, 0, 0, 0, 0, 0, 0, NaNf, 0, 0, 0, 0, 
    0, 0, 0, 0, 0, 0, 0, 0, 0, 0, 0, 0,
  0, 0, 0, 0, 0, 0, 0, 0, 0, 0, 0, 0, 0, 0, 0, 0, 0, 0, 0, NaNf, 0, 0, 0, 0, 
    0, 0, 0, 0, 0, 0, 0, 0, 0, 0, 0, 0,
  0, 0, 0, 0, 0, 0, 0, 0, 0, 0, 0, 0, 0, 0, 0, 0, 0, 0, 0, NaNf, 0, 0, 0, 0, 
    0, 0, 0, 0, 0, 0, 0, 0, 0, 0, 0, 0,
  0, 0, 0, 0, NaNf, 0, 0, 0, 0, 0, 0, 0, 0, 0, 0, 0, 0, 0, 0, NaNf, 0, 0, 0, 
    0, 0, 0, 0, 0, 0, 0, 0, 0, 0, 0, 0, 0,
  0, 0, 0, NaNf, NaNf, 0, 0, 0, 0, 0, 0, 0, 0, 0, 0, 0, 0, 0, 0, NaNf, NaNf, 
    0, 0, 0, 0, 0, 0, 0, NaNf, 0, 0, 0, 0, 0, 0, 0,
  0, 0, NaNf, NaNf, NaNf, 0, 0, 0, 0, 0, 0, 0, 0, 0, 0, 0, 0, 0, 0, NaNf, 
    NaNf, 0, 0, 0, 0, 0, 0, 0, NaNf, 0, 0, 0, 0, 0, 0, 0,
  0, 0, NaNf, NaNf, NaNf, 0, 0, 0, 0, 0, 0, 0, 0, 0, 0, 0, 0, 0, 0, NaNf, 
    NaNf, 0, 0, 0, 0, 0, 0, 0, NaNf, 0, 0, 0, 0, 0, 0, 0,
  0, 0, NaNf, NaNf, NaNf, 0, 0, 0, 0, 0, 0, 0, 0, 0, 0, 0, 0, 0, 0, NaNf, 
    NaNf, NaNf, 0, 0, 0, 0, 0, NaNf, NaNf, 0, 0, 0, 0, 0, 0, 0,
  0, 0, NaNf, NaNf, 0, 0, 0, 0, 0, 0, 0, 0, 0, 0, 0, 0, 0, 0, 0, NaNf, NaNf, 
    NaNf, 0, 0, 0, 0, 0, NaNf, NaNf, NaNf, 0, 0, 0, 0, 0, 0,
  0, 0, NaNf, NaNf, 0, 0, 0, 0, 0, 0, 0, 0, 0, 0, 0, 0, 0, 0, NaNf, NaNf, 
    NaNf, NaNf, 0, 0, 0, 0, 0, NaNf, NaNf, NaNf, 0, 0, 0, 0, 0, 0,
  0, 0, NaNf, NaNf, 0, 0, 0, 0, 0, 0, 0, 0, 0, 0, 0, 0, 0, 0, NaNf, NaNf, 
    NaNf, NaNf, 0, 0, 0, 0, 0, NaNf, NaNf, NaNf, 0, 0, 0, 0, 0, 0,
  0, NaNf, 0, 0, 0, 0, 0, 0, 0, 0, 0, 0, 0, 0, 0, 0, 0, 0, NaNf, NaNf, NaNf, 
    NaNf, 0, 0, 0, 0, 0, NaNf, NaNf, NaNf, 0, 0, 0, 0, 0, 0,
  0, NaNf, 0, 0, 0, 0, 0, 0, 0, 0, 0, 0, 0, 0, 0, 0, 0, 0, NaNf, NaNf, NaNf, 
    NaNf, 0, 0, 0, 0, 0, NaNf, NaNf, NaNf, 0, 0, 0, 0, 0, 0,
  NaNf, NaNf, 0, 0, 0, 0, 0, 0, 0, 0, 0, 0, 0, 0, 0, 0, 0, 0, NaNf, NaNf, 
    NaNf, 0, 0, 0, 0, 0, 0, NaNf, NaNf, NaNf, 0, 0, 0, 0, 0, 0,
  NaNf, NaNf, 0, 0, 0, 0, 0, 0, 0, 0, 0, 0, 0, 0, 0, 0, 0, 0, NaNf, NaNf, 
    NaNf, 0, 0, 0, 0, 0, 0, NaNf, NaNf, NaNf, 0, 0, 0, 0, 0, 0,
  NaNf, 0, 0, 0, 0, 0, 0, 0, 0, 0, 0, 0, 0, 0, 0, 0, 0, 0, NaNf, NaNf, 0, 0, 
    0, 0, 0, 0, 0, NaNf, NaNf, NaNf, 0, 0, 0, 0, 0, 0,
  NaNf, 0, 0, 0, 0, 0, 0, 0, 0, 0, 0, 0, 0, 0, 0, 0, 0, 0, NaNf, NaNf, 0, 0, 
    0, 0, 0, NaNf, NaNf, NaNf, NaNf, NaNf, NaNf, 0, 0, 0, 0, 0,
  NaNf, 0, 0, 0, 0, 0, 0, 0, 0, 0, 0, 0, 0, 0, 0, 0, 0, 0, NaNf, 0, 0, 0, 0, 
    0, 0, NaNf, NaNf, NaNf, NaNf, NaNf, NaNf, 0, 0, 0, 0, 0,
  NaNf, 0, 0, 0, 0, 0, 0, 0, 0, 0, 0, 0, 0, 0, 0, 0, 0, NaNf, 0, 0, 0, 0, 0, 
    0, 0, NaNf, NaNf, NaNf, NaNf, NaNf, NaNf, 0, 0, 0, 0, 0,
  NaNf, 0, 0, 0, 0, 0, 0, 0, 0, 0, 0, 0, 0, 0, 0, 0, NaNf, 0, 0, 0, 0, 0, 0, 
    0, 0, NaNf, NaNf, NaNf, NaNf, NaNf, NaNf, 0, 0, NaNf, 0, 0,
  NaNf, 0, 0, 0, 0, 0, 0, 0, 0, 0, 0, 0, 0, 0, 0, NaNf, 0, 0, 0, 0, 0, 0, 0, 
    0, 0, NaNf, NaNf, NaNf, NaNf, NaNf, NaNf, 0, 0, NaNf, NaNf, NaNf,
  NaNf, NaNf, 0, 0, 0, 0, 0, 0, 0, 0, 0, 0, 0, 0, 0, NaNf, 0, 0, 0, 0, 0, 0, 
    0, 0, 0, NaNf, NaNf, NaNf, NaNf, NaNf, NaNf, 0, 0, NaNf, NaNf, NaNf,
  NaNf, NaNf, 0, 0, 0, 0, 0, 0, 0, 0, 0, 0, 0, 0, 0, NaNf, 0, 0, 0, 0, 0, 0, 
    0, 0, 0, NaNf, NaNf, NaNf, NaNf, NaNf, NaNf, NaNf, NaNf, NaNf, NaNf, NaNf,
  NaNf, NaNf, 0, 0, 0, 0, 0, 0, 0, 0, 0, 0, 0, 0, 0, NaNf, NaNf, NaNf, 0, 0, 
    0, 0, 0, 0, 0, NaNf, NaNf, 0, 0, NaNf, NaNf, NaNf, NaNf, NaNf, NaNf, NaNf,
  NaNf, NaNf, NaNf, 0, 0, 0, 0, 0, 0, 0, 0, 0, 0, 0, NaNf, NaNf, NaNf, NaNf, 
    0, 0, 0, 0, 0, 0, 0, 0, 0, 0, 0, 0, NaNf, NaNf, NaNf, NaNf, NaNf, NaNf,
  NaNf, NaNf, NaNf, 0, 0, 0, 0, 0, 0, 0, 0, 0, 0, 0, NaNf, NaNf, NaNf, NaNf, 
    0, 0, 0, 0, 0, 0, 0, NaNf, 0, 0, NaNf, NaNf, NaNf, NaNf, NaNf, NaNf, 
    NaNf, NaNf,
  NaNf, NaNf, NaNf, 0, 0, 0, 0, 0, 0, 0, 0, 0, 0, 0, NaNf, NaNf, NaNf, NaNf, 
    NaNf, 0, 0, 0, 0, 0, 0, 0, NaNf, NaNf, NaNf, NaNf, NaNf, NaNf, NaNf, 
    NaNf, NaNf, NaNf,
  NaNf, NaNf, NaNf, NaNf, 0, 0, 0, 0, 0, 0, 0, 0, 0, 0, NaNf, NaNf, NaNf, 
    NaNf, NaNf, NaNf, 0, 0, 0, 0, 0, 0, NaNf, NaNf, NaNf, NaNf, NaNf, NaNf, 
    NaNf, NaNf, NaNf, NaNf,
  NaNf, NaNf, NaNf, NaNf, 2.663456e-08, -5.193314e-08, 0, 0, 0, 0, 0, 0, 0, 
    NaNf, NaNf, NaNf, NaNf, NaNf, NaNf, NaNf, -2.368309e-07, 0, 0, 0, 0, 
    NaNf, NaNf, NaNf, NaNf, NaNf, NaNf, NaNf, NaNf, NaNf, NaNf, NaNf,
  NaNf, NaNf, NaNf, NaNf, NaNf, NaNf, -4.851858e-07, 0, -4.81202e-08, 
    -6.915797e-08, -5.754021e-08, 0, NaNf, NaNf, NaNf, NaNf, NaNf, NaNf, 
    NaNf, NaNf, -5.530634e-09, 0, 0, 0, -2.902433e-07, 0, NaNf, NaNf, NaNf, 
    NaNf, NaNf, NaNf, NaNf, NaNf, NaNf, NaNf,
  NaNf, NaNf, NaNf, NaNf, NaNf, NaNf, NaNf, NaNf, NaNf, 8.643438e-08, NaNf, 
    NaNf, NaNf, NaNf, NaNf, NaNf, NaNf, NaNf, NaNf, 6.640848e-08, 
    5.699271e-08, NaNf, NaNf, -5.532376e-07, 7.006474e-08, -1.320077e-07, 
    -2.181922e-08, 7.237932e-10, NaNf, NaNf, NaNf, NaNf, NaNf, NaNf, NaNf, 
    NaNf,
  1.105239e-07, 1.105735e-07, 1.095294e-07, 1.079713e-07, 1.059694e-07, 
    1.028178e-07, 9.94967e-08, 9.615408e-08, 9.319681e-08, 9.066987e-08, 
    8.701022e-08, 8.39036e-08, 8.139271e-08, 7.946126e-08, 7.895465e-08, 
    8.02824e-08, 8.157976e-08, 1.138603e-07, 8.443061e-08, 1.027482e-07, 
    NaNf, NaNf, NaNf, NaNf, 2.920252e-08, -1.750912e-09, 7.56874e-08, 
    1.281768e-08, 3.429414e-08, 3.176497e-08, 1.45988e-08, 2.286616e-08, 
    1.17586e-07, 1.084213e-07, 1.349792e-07, 1.098153e-07 ;

 delta_cover =
  NaNf, NaNf, NaNf, NaNf, NaNf, NaNf, NaNf, NaNf, NaNf, NaNf, NaNf, NaNf, 
    NaNf, NaNf, NaNf, NaNf, NaNf, NaNf, NaNf, NaNf, NaNf, NaNf, NaNf, NaNf, 
    NaNf, NaNf, NaNf, NaNf, NaNf, NaNf, NaNf, NaNf, NaNf, NaNf, NaNf, NaNf,
  NaNf, 3.297414e-06, 0, 0, 0, 0, 0, 0, -3.084857e-07, 1.848302e-06, 0, 0, 0, 
    0, 0, 0, 0, 0, 0, 0, 0, 0, 0, 1.111358e-05, 0, 8.964576e-06, 0, 0, 0, 
    6.535128e-06, 4.695607e-06, 2.331115e-06, 8.982165e-06, 0, 0, NaNf,
  3.562058e-06, 9.552107e-06, -5.736477e-08, -6.853445e-08, -9.452445e-08, 0, 
    0, 0, 0, 0, 0, 0, 0, 0, 0, 0, 0, 0, 0, 0, 0, 0, 0, 0, 0, 0, 0, 0, 0, 
    -1.094182e-07, -1.326695e-07, -8.738697e-08, -6.886962e-08, -4.56555e-08, 
    4.522097e-06, 0,
  0, 0, 0, 0, 0, 0, 0, 0, 0, 0, 0, 0, 0, 0, 0, 0, 0, 0, 0, 0, 0, 0, 0, 0, 0, 
    0, 0, 0, 0, 0, 0, 0, 0, 0, 0, 0,
  0, 0, 0, 0, 0, 0, 0, 0, 0, 0, 0, 0, 0, 0, 0, 0, 0, 0, 0, NaNf, 0, 0, 0, 0, 
    0, 0, 0, 0, 0, 0, 0, 0, 0, 0, 0, 0,
  0, 0, 0, 0, 0, 0, 0, 0, 0, 0, 0, 0, 0, 0, 0, 0, 0, 0, 0, NaNf, 0, 0, 0, 0, 
    0, 0, 0, 0, 0, 0, 0, 0, 0, 0, 0, 0,
  0, 0, 0, 0, 0, 0, 0, 0, 0, 0, 0, 0, 0, 0, 0, 0, 0, 0, 0, NaNf, 0, 0, 0, 0, 
    0, 0, 0, 0, 0, 0, 0, 0, 0, 0, 0, 0,
  0, 0, 0, 0, NaNf, 0, 0, 0, 0, 0, 0, 0, 0, 0, 0, 0, 0, 0, 0, NaNf, 0, 0, 0, 
    0, 0, 0, 0, 0, 0, 0, 0, 0, 0, 0, 0, 0,
  0, 0, 0, NaNf, NaNf, 0, 0, 0, 0, 0, 0, 0, 0, 0, 0, 0, 0, 0, 0, NaNf, NaNf, 
    0, 0, 0, 0, 0, 0, 0, NaNf, 0, 0, 0, 0, 0, 0, 0,
  0, 0, NaNf, NaNf, NaNf, 0, 0, 0, 0, 0, 0, 0, 0, 0, 0, 0, 0, 0, 0, NaNf, 
    NaNf, 0, 0, 0, 0, 0, 0, 0, NaNf, 0, 0, 0, 0, 0, 0, 0,
  0, 0, NaNf, NaNf, NaNf, 0, 0, 0, 0, 0, 0, 0, 0, 0, 0, 0, 0, 0, 0, NaNf, 
    NaNf, 0, 0, 0, 0, 0, 0, 0, NaNf, 0, 0, 0, 0, 0, 0, 0,
  0, 0, NaNf, NaNf, NaNf, 0, 0, 0, 0, 0, 0, 0, 0, 0, 0, 0, 0, 0, 0, NaNf, 
    NaNf, NaNf, 0, 0, 0, 0, 0, NaNf, NaNf, 0, 0, 0, 0, 0, 0, 0,
  0, 0, NaNf, NaNf, 0, 0, 0, 0, 0, 0, 0, 0, 0, 0, 0, 0, 0, 0, 0, NaNf, NaNf, 
    NaNf, 0, 0, 0, 0, 0, NaNf, NaNf, NaNf, 0, 0, 0, 0, 0, 0,
  0, 0, NaNf, NaNf, 0, 0, 0, 0, 0, 0, 0, 0, 0, 0, 0, 0, 0, 0, NaNf, NaNf, 
    NaNf, NaNf, 0, 0, 0, 0, 0, NaNf, NaNf, NaNf, 0, 0, 0, 0, 0, 0,
  0, 0, NaNf, NaNf, 0, 0, 0, 0, 0, 0, 0, 0, 0, 0, 0, 0, 0, 0, NaNf, NaNf, 
    NaNf, NaNf, 0, 0, 0, 0, 0, NaNf, NaNf, NaNf, 0, 0, 0, 0, 0, 0,
  0, NaNf, 0, 0, 0, 0, 0, 0, 0, 0, 0, 0, 0, 0, 0, 0, 0, 0, NaNf, NaNf, NaNf, 
    NaNf, 0, 0, 0, 0, 0, NaNf, NaNf, NaNf, 0, 0, 0, 0, 0, 0,
  0, NaNf, 0, 0, 0, 0, 0, 0, 0, 0, 0, 0, 0, 0, 0, 0, 0, 0, NaNf, NaNf, NaNf, 
    NaNf, 0, 0, 0, 0, 0, NaNf, NaNf, NaNf, 0, 0, 0, 0, 0, 0,
  NaNf, NaNf, 0, 0, 0, 0, 0, 0, 0, 0, 0, 0, 0, 0, 0, 0, 0, 0, NaNf, NaNf, 
    NaNf, 0, 0, 0, 0, 0, 0, NaNf, NaNf, NaNf, 0, 0, 0, 0, 0, 0,
  NaNf, NaNf, 0, 0, 0, 0, 0, 0, 0, 0, 0, 0, 0, 0, 0, 0, 0, 0, NaNf, NaNf, 
    NaNf, 0, 0, 0, 0, 0, 0, NaNf, NaNf, NaNf, 0, 0, 0, 0, 0, 0,
  NaNf, 0, 0, 0, 0, 0, 0, 0, 0, 0, 0, 0, 0, 0, 0, 0, 0, 0, NaNf, NaNf, 0, 0, 
    0, 0, 0, 0, 0, NaNf, NaNf, NaNf, 0, 0, 0, 0, 0, 0,
  NaNf, 0, 0, 0, 0, 0, 0, 0, 0, 0, 0, 0, 0, 0, 0, 0, 0, 0, NaNf, NaNf, 0, 0, 
    0, 0, 0, NaNf, NaNf, NaNf, NaNf, NaNf, NaNf, 0, 0, 0, 0, 0,
  NaNf, 0, 0, 0, 0, 0, 0, 0, 0, 0, 0, 0, 0, 0, 0, 0, 0, 0, NaNf, 0, 0, 0, 0, 
    0, 0, NaNf, NaNf, NaNf, NaNf, NaNf, NaNf, 0, 0, 0, 0, 0,
  NaNf, 0, 0, 0, 0, 0, 0, 0, 0, 0, 0, 0, 0, 0, 0, 0, 0, NaNf, 0, 0, 0, 0, 0, 
    0, 0, NaNf, NaNf, NaNf, NaNf, NaNf, NaNf, 0, 0, 0, 0, 0,
  NaNf, 0, 0, 0, 0, 0, 0, 0, 0, 0, 0, 0, 0, 0, 0, 0, NaNf, 0, 0, 0, 0, 0, 0, 
    0, 0, NaNf, NaNf, NaNf, NaNf, NaNf, NaNf, 0, 0, NaNf, 0, 0,
  NaNf, 0, 0, 0, 0, 0, 0, 0, 0, 0, 0, 0, 0, 0, 0, NaNf, 0, 0, 0, 0, 0, 0, 0, 
    0, 0, NaNf, NaNf, NaNf, NaNf, NaNf, NaNf, 0, 0, NaNf, NaNf, NaNf,
  NaNf, NaNf, 0, 0, 0, 0, 0, 0, 0, 0, 0, 0, 0, 0, 0, NaNf, 0, 0, 0, 0, 0, 0, 
    0, 0, 0, NaNf, NaNf, NaNf, NaNf, NaNf, NaNf, 0, 0, NaNf, NaNf, NaNf,
  NaNf, NaNf, 0, 0, 0, 0, 0, 0, 0, 0, 0, 0, 0, 0, 0, NaNf, 0, 0, 0, 0, 0, 0, 
    0, 0, 0, NaNf, NaNf, NaNf, NaNf, NaNf, NaNf, NaNf, NaNf, NaNf, NaNf, NaNf,
  NaNf, NaNf, 0, 0, 0, 0, 0, 0, 0, 0, 0, 0, 0, 0, 0, NaNf, NaNf, NaNf, 0, 0, 
    0, 0, 0, 0, 0, NaNf, NaNf, 0, 0, NaNf, NaNf, NaNf, NaNf, NaNf, NaNf, NaNf,
  NaNf, NaNf, NaNf, 0, 0, 0, 0, 0, 0, 0, 0, 0, 0, 0, NaNf, NaNf, NaNf, NaNf, 
    0, 0, 0, 0, 0, 0, 0, 0, 0, 0, 0, 0, NaNf, NaNf, NaNf, NaNf, NaNf, NaNf,
  NaNf, NaNf, NaNf, 0, 0, 0, 0, 0, 0, 0, 0, 0, 0, 0, NaNf, NaNf, NaNf, NaNf, 
    0, 0, 0, 0, 0, 0, 0, NaNf, 0, 0, NaNf, NaNf, NaNf, NaNf, NaNf, NaNf, 
    NaNf, NaNf,
  NaNf, NaNf, NaNf, 0, 0, 0, 0, 0, 0, 0, 0, 0, 0, 0, NaNf, NaNf, NaNf, NaNf, 
    NaNf, 0, 0, 0, 0, 0, 0, 0, NaNf, NaNf, NaNf, NaNf, NaNf, NaNf, NaNf, 
    NaNf, NaNf, NaNf,
  NaNf, NaNf, NaNf, NaNf, 0, 0, 0, 0, 0, 0, 0, 0, 0, 0, NaNf, NaNf, NaNf, 
    NaNf, NaNf, NaNf, 0, 0, 0, 0, 0, 0, NaNf, NaNf, NaNf, NaNf, NaNf, NaNf, 
    NaNf, NaNf, NaNf, NaNf,
  NaNf, NaNf, NaNf, NaNf, 0, -9.974941e-08, 0, 0, 0, 0, 0, 0, 0, NaNf, NaNf, 
    NaNf, NaNf, NaNf, NaNf, NaNf, -2.766469e-07, 0, 0, 0, 0, NaNf, NaNf, 
    NaNf, NaNf, NaNf, NaNf, NaNf, NaNf, NaNf, NaNf, NaNf,
  NaNf, NaNf, NaNf, NaNf, NaNf, NaNf, -1.348223e-06, 0, -6.052645e-08, 
    -4.910549e-08, -6.471534e-08, 0, NaNf, NaNf, NaNf, NaNf, NaNf, NaNf, 
    NaNf, NaNf, 2.865659e-05, 0, 0, 0, -3.920911e-07, 0, NaNf, NaNf, NaNf, 
    NaNf, NaNf, NaNf, NaNf, NaNf, NaNf, NaNf,
  NaNf, NaNf, NaNf, NaNf, NaNf, NaNf, NaNf, NaNf, NaNf, 0, NaNf, NaNf, NaNf, 
    NaNf, NaNf, NaNf, NaNf, NaNf, NaNf, 0, 0, NaNf, NaNf, -2.567223e-06, 
    1.762112e-05, -1.233966e-07, -1.309907e-08, 0, NaNf, NaNf, NaNf, NaNf, 
    NaNf, NaNf, NaNf, NaNf,
  0, 2.953125e-10, 0, 0, 0, 0, 0, 0, 0, 0, 0, 0, 0, 0, 0, 0, 0, 3.065909e-06, 
    0, 2.070147e-06, NaNf, NaNf, NaNf, NaNf, 0, -5.090302e-10, 7.962823e-06, 
    0, 0, 0, 0, 0, 1.271948e-06, 0, 2.751324e-06, 0 ;

 sic_heat =
  NaNf, NaNf, NaNf, NaNf, NaNf, NaNf, NaNf, NaNf, NaNf, NaNf, NaNf, NaNf, 
    NaNf, NaNf, NaNf, NaNf, NaNf, NaNf, NaNf, NaNf, NaNf, NaNf, NaNf, NaNf, 
    NaNf, NaNf, NaNf, NaNf, NaNf, NaNf, NaNf, NaNf, NaNf, NaNf, NaNf, NaNf,
  NaNf, 0, 0, 0, 0, 0, 0, 0, 0, 0, -0, -0, -0, -0, -0, -0, -0, -0, -0, -0, 
    -0, -0, -0, 0, 0, 0, 0, 0, 0, 0, 0, 0, 0, 0, 0, NaNf,
  0, 0, 0, 0, 0, 0, 0, -6.822309, -2.036229, -0, -0, -0, -0, -0, -0, -0, -0, 
    -0, -0, -0, -0, -0, -0, -0, -1.853638, -2.597628, -4.64194, -6.379377, 0, 
    -5.022336, 0, 0, 0, 0, 0, -2.966699,
  -0, -4.132702, -1.875479, -1.293338, -1.139332, -0, -0, -0, -0, -0, -0, -0, 
    -0, -0, -0, -0, -0, -0, -0, -0, -0, -0, -0, -0, -0, -0, -0, -0, -0, 
    -0.9644519, -0.8298979, -0.9270679, -1.45766, -2.075499, -2.659111, -0,
  -0, -0, -0, -0, -0, -0, -0, -0, -0, -0, -0, -0, -0, -0, -0, -0, -0, -0, -0, 
    NaNf, -0, -0, -0, -0, -0, -0, -0, -0, -0, -0, -0, -0, -0, -0, -0, -0,
  -0, -0, -0, -0, -0, -0, -0, -0, -0, -0, -0, -0, -0, -0, -0, -0, -0, -0, -0, 
    NaNf, -0, -0, -0, -0, -0, -0, -0, -0, -0, -0, -0, -0, -0, -0, -0, -0,
  -0, -0, -0, -0, -0, -0, -0, -0, -0, -0, -0, -0, -0, -0, -0, -0, -0, -0, -0, 
    NaNf, -0, -0, -0, -0, -0, -0, -0, -0, -0, -0, -0, -0, -0, -0, -0, -0,
  -0, -0, -0, -0, NaNf, -0, -0, -0, -0, -0, -0, -0, -0, -0, -0, -0, -0, -0, 
    -0, NaNf, -0, -0, -0, -0, -0, -0, -0, -0, -0, -0, -0, -0, -0, -0, -0, -0,
  -0, -0, -0, NaNf, NaNf, -0, -0, -0, -0, -0, -0, -0, -0, -0, -0, -0, -0, -0, 
    -0, NaNf, NaNf, -0, -0, -0, -0, -0, -0, -0, NaNf, -0, -0, -0, -0, -0, -0, -0,
  -0, -0, NaNf, NaNf, NaNf, -0, -0, -0, -0, -0, -0, -0, -0, -0, -0, -0, -0, 
    -0, -0, NaNf, NaNf, -0, -0, -0, -0, -0, -0, -0, NaNf, -0, -0, -0, -0, -0, 
    -0, -0,
  -0, -0, NaNf, NaNf, NaNf, -0, -0, -0, -0, -0, -0, -0, -0, -0, -0, -0, -0, 
    -0, -0, NaNf, NaNf, -0, -0, -0, -0, -0, -0, -0, NaNf, -0, -0, -0, -0, -0, 
    -0, -0,
  -0, -0, NaNf, NaNf, NaNf, -0, -0, -0, -0, -0, -0, -0, -0, -0, -0, -0, -0, 
    -0, -0, NaNf, NaNf, NaNf, -0, -0, -0, -0, -0, NaNf, NaNf, -0, -0, -0, -0, 
    -0, -0, -0,
  -0, -0, NaNf, NaNf, -0, -0, -0, -0, -0, -0, -0, -0, -0, -0, -0, -0, -0, -0, 
    -0, NaNf, NaNf, NaNf, -0, -0, -0, -0, -0, NaNf, NaNf, NaNf, -0, -0, -0, 
    -0, -0, -0,
  -0, -0, NaNf, NaNf, -0, -0, -0, -0, -0, -0, -0, -0, -0, -0, -0, -0, -0, -0, 
    NaNf, NaNf, NaNf, NaNf, -0, -0, -0, -0, -0, NaNf, NaNf, NaNf, -0, -0, -0, 
    -0, -0, -0,
  -0, -0, NaNf, NaNf, -0, -0, -0, -0, -0, -0, -0, -0, -0, -0, -0, -0, -0, -0, 
    NaNf, NaNf, NaNf, NaNf, -0, -0, -0, -0, -0, NaNf, NaNf, NaNf, -0, -0, -0, 
    -0, -0, -0,
  -0, NaNf, -0, -0, -0, -0, -0, -0, -0, -0, -0, -0, -0, -0, -0, -0, -0, -0, 
    NaNf, NaNf, NaNf, NaNf, -0, -0, -0, -0, -0, NaNf, NaNf, NaNf, -0, -0, -0, 
    -0, -0, -0,
  -0, NaNf, -0, -0, -0, -0, -0, -0, -0, -0, -0, -0, -0, -0, -0, -0, -0, -0, 
    NaNf, NaNf, NaNf, NaNf, -0, -0, -0, -0, -0, NaNf, NaNf, NaNf, -0, -0, -0, 
    -0, -0, -0,
  NaNf, NaNf, -0, -0, -0, -0, -0, -0, -0, -0, -0, -0, -0, -0, -0, -0, -0, -0, 
    NaNf, NaNf, NaNf, -0, -0, -0, -0, -0, -0, NaNf, NaNf, NaNf, -0, -0, -0, 
    -0, -0, -0,
  NaNf, NaNf, -0, -0, -0, -0, -0, -0, -0, -0, -0, -0, -0, -0, -0, -0, -0, -0, 
    NaNf, NaNf, NaNf, -0, -0, -0, -0, -0, -0, NaNf, NaNf, NaNf, -0, -0, -0, 
    -0, -0, -0,
  NaNf, -0, -0, -0, -0, -0, -0, -0, -0, -0, -0, -0, -0, -0, -0, -0, -0, -0, 
    NaNf, NaNf, -0, -0, -0, -0, -0, -0, -0, NaNf, NaNf, NaNf, -0, -0, -0, -0, 
    -0, -0,
  NaNf, -0, -0, -0, -0, -0, -0, -0, -0, -0, -0, -0, -0, -0, -0, -0, -0, -0, 
    NaNf, NaNf, -0, -0, -0, -0, -0, NaNf, NaNf, NaNf, NaNf, NaNf, NaNf, -0, 
    -0, -0, -0, -0,
  NaNf, -0, -0, -0, -0, -0, -0, -0, -0, -0, -0, -0, -0, -0, -0, -0, -0, -0, 
    NaNf, -0, -0, -0, -0, -0, -0, NaNf, NaNf, NaNf, NaNf, NaNf, NaNf, -0, -0, 
    -0, -0, -0,
  NaNf, -0, -0, -0, -0, -0, -0, -0, -0, -0, -0, -0, -0, -0, -0, -0, -0, NaNf, 
    -0, -0, -0, -0, -0, -0, -0, NaNf, NaNf, NaNf, NaNf, NaNf, NaNf, -0, -0, 
    -0, -0, -0,
  NaNf, -0, -0, -0, -0, -0, -0, -0, -0, -0, -0, -0, -0, -0, -0, -0, NaNf, -0, 
    -0, -0, -0, -0, -0, -0, -0, NaNf, NaNf, NaNf, NaNf, NaNf, NaNf, -0, -0, 
    NaNf, -0, -0,
  NaNf, -0, -0, -0, -0, -0, -0, -0, -0, -0, -0, -0, -0, -0, -0, NaNf, -0, -0, 
    -0, -0, -0, -0, -0, -0, -0, NaNf, NaNf, NaNf, NaNf, NaNf, NaNf, -0, -0, 
    NaNf, NaNf, NaNf,
  NaNf, NaNf, -0, -0, -0, -0, -0, -0, -0, -0, -0, -0, -0, -0, -0, NaNf, -0, 
    -0, -0, -0, -0, -0, -0, -0, -0, NaNf, NaNf, NaNf, NaNf, NaNf, NaNf, -0, 
    -0, NaNf, NaNf, NaNf,
  NaNf, NaNf, -0, -0, -0, -0, -0, -0, -0, -0, -0, -0, -0, -0, -0, NaNf, -0, 
    -0, -0, -0, -0, -0, -0, -0, -0, NaNf, NaNf, NaNf, NaNf, NaNf, NaNf, NaNf, 
    NaNf, NaNf, NaNf, NaNf,
  NaNf, NaNf, -0, -0, -0, -0, -0, -0, -0, -0, -0, -0, -0, -0, -0, NaNf, NaNf, 
    NaNf, -0, -0, -0, -0, -0, -0, -0, NaNf, NaNf, -0, -0, NaNf, NaNf, NaNf, 
    NaNf, NaNf, NaNf, NaNf,
  NaNf, NaNf, NaNf, -0, -0, -0, -0, -0, -0, -0, -0, -0, -0, -0, NaNf, NaNf, 
    NaNf, NaNf, -0, -0, -0, -0, -0, -0, -0, -0, -0, -0, -0, -0, NaNf, NaNf, 
    NaNf, NaNf, NaNf, NaNf,
  NaNf, NaNf, NaNf, -0, -0, -0, -0, -0, -0, -0, -0, -0, -0, -0, NaNf, NaNf, 
    NaNf, NaNf, -0, -0, -0, -0, -0, -0, -0, NaNf, -0, -0, NaNf, NaNf, NaNf, 
    NaNf, NaNf, NaNf, NaNf, NaNf,
  NaNf, NaNf, NaNf, -0, -0, -0, -0, -0, -0, -0, -0, -0, -0, -0, NaNf, NaNf, 
    NaNf, NaNf, NaNf, -0, -0, -0, -0, -0, -0, -0, NaNf, NaNf, NaNf, NaNf, 
    NaNf, NaNf, NaNf, NaNf, NaNf, NaNf,
  NaNf, NaNf, NaNf, NaNf, 0, -1.397146, -0, -0, -0, -0, -0, -0, -0, -0, NaNf, 
    NaNf, NaNf, NaNf, NaNf, NaNf, -2.61544, -0, -0, -0, -0, -0, NaNf, NaNf, 
    NaNf, NaNf, NaNf, NaNf, NaNf, NaNf, NaNf, NaNf,
  NaNf, NaNf, NaNf, NaNf, 0, 0, 0, -0, -0.8182045, -8.404662, -0.6955032, -0, 
    -0, NaNf, NaNf, NaNf, NaNf, NaNf, NaNf, NaNf, 26.08858, -2.061113, -0, 
    -0, -1.22416, NaNf, NaNf, NaNf, NaNf, NaNf, NaNf, NaNf, NaNf, NaNf, NaNf, 
    NaNf,
  NaNf, NaNf, NaNf, NaNf, NaNf, NaNf, 6.275959, 0, -8.03848, 0, -2.158, 
    -0.8869808, NaNf, NaNf, NaNf, NaNf, NaNf, NaNf, NaNf, NaNf, 0, 0, -0, 
    -5.848208, 62.41171, 0, NaNf, NaNf, NaNf, NaNf, NaNf, NaNf, NaNf, NaNf, 
    NaNf, NaNf,
  NaNf, NaNf, NaNf, NaNf, NaNf, NaNf, NaNf, NaNf, NaNf, 0, NaNf, NaNf, NaNf, 
    NaNf, NaNf, NaNf, NaNf, NaNf, NaNf, 0, 0, NaNf, NaNf, 50.49017, 0, 0, 0, 
    0, NaNf, NaNf, NaNf, NaNf, NaNf, NaNf, NaNf, NaNf,
  0, 0, 0, 0, 0, 0, 0, 0, 0, 0, 0, 0, 0, 0, 0, 0, 0, 0, 0, 0, NaNf, NaNf, 
    NaNf, NaNf, 0, 0, 0, 0, 0, 0, 0, 0, 0, 0, 0, 0 ;

 sic_fw =
  NaNf, NaNf, NaNf, NaNf, NaNf, NaNf, NaNf, NaNf, NaNf, NaNf, NaNf, NaNf, 
    NaNf, NaNf, NaNf, NaNf, NaNf, NaNf, NaNf, NaNf, NaNf, NaNf, NaNf, NaNf, 
    NaNf, NaNf, NaNf, NaNf, NaNf, NaNf, NaNf, NaNf, NaNf, NaNf, NaNf, NaNf,
  NaNf, -0.0001152547, -4.045925e-05, -7.225755e-05, -8.499173e-05, 
    -8.02781e-05, -0.0001059752, -4.337437e-05, 2.343152e-05, -1.6875e-05, 0, 
    0, 0, 0, 0, 0, 0, 0, 0, 0, 0, 0, 0, -0.000101467, -4.260062e-05, 
    -0.0001709633, -9.082765e-05, -0.0001113916, -0.0001170039, 
    -0.0001778609, -0.0001527734, -9.593336e-05, -0.0001548167, 
    -8.872905e-05, -0.0001099411, NaNf,
  -3.252159e-05, -7.428471e-05, 2.882219e-05, 2.883339e-05, 3.610627e-05, -0, 
    -0, 2.042607e-05, 6.096495e-06, 0, 0, 0, 0, 0, 0, 0, 0, 0, 0, 0, 0, 0, 0, 
    0, 5.549814e-06, 7.777328e-06, 1.389802e-05, 1.909993e-05, -0, 
    6.180163e-05, 4.0831e-05, 3.126459e-05, 3.014198e-05, 2.244181e-05, 
    -3.260985e-05, 8.882333e-06,
  0, 1.237336e-05, 5.615207e-06, 3.872271e-06, 3.411175e-06, 0, 0, 0, 0, 0, 
    0, 0, 0, 0, 0, 0, 0, 0, 0, 0, 0, 0, 0, 0, 0, 0, 0, 0, 0, 2.887581e-06, 
    2.484724e-06, 2.775653e-06, 4.364251e-06, 6.214069e-06, 7.961409e-06, 0,
  0, 0, 0, 0, 0, 0, 0, 0, 0, 0, 0, 0, 0, 0, 0, 0, 0, 0, 0, NaNf, 0, 0, 0, 0, 
    0, 0, 0, 0, 0, 0, 0, 0, 0, 0, 0, 0,
  0, 0, 0, 0, 0, 0, 0, 0, 0, 0, 0, 0, 0, 0, 0, 0, 0, 0, 0, NaNf, 0, 0, 0, 0, 
    0, 0, 0, 0, 0, 0, 0, 0, 0, 0, 0, 0,
  0, 0, 0, 0, 0, 0, 0, 0, 0, 0, 0, 0, 0, 0, 0, 0, 0, 0, 0, NaNf, 0, 0, 0, 0, 
    0, 0, 0, 0, 0, 0, 0, 0, 0, 0, 0, 0,
  0, 0, 0, 0, NaNf, 0, 0, 0, 0, 0, 0, 0, 0, 0, 0, 0, 0, 0, 0, NaNf, 0, 0, 0, 
    0, 0, 0, 0, 0, 0, 0, 0, 0, 0, 0, 0, 0,
  0, 0, 0, NaNf, NaNf, 0, 0, 0, 0, 0, 0, 0, 0, 0, 0, 0, 0, 0, 0, NaNf, NaNf, 
    0, 0, 0, 0, 0, 0, 0, NaNf, 0, 0, 0, 0, 0, 0, 0,
  0, 0, NaNf, NaNf, NaNf, 0, 0, 0, 0, 0, 0, 0, 0, 0, 0, 0, 0, 0, 0, NaNf, 
    NaNf, 0, 0, 0, 0, 0, 0, 0, NaNf, 0, 0, 0, 0, 0, 0, 0,
  0, 0, NaNf, NaNf, NaNf, 0, 0, 0, 0, 0, 0, 0, 0, 0, 0, 0, 0, 0, 0, NaNf, 
    NaNf, 0, 0, 0, 0, 0, 0, 0, NaNf, 0, 0, 0, 0, 0, 0, 0,
  0, 0, NaNf, NaNf, NaNf, 0, 0, 0, 0, 0, 0, 0, 0, 0, 0, 0, 0, 0, 0, NaNf, 
    NaNf, NaNf, 0, 0, 0, 0, 0, NaNf, NaNf, 0, 0, 0, 0, 0, 0, 0,
  0, 0, NaNf, NaNf, 0, 0, 0, 0, 0, 0, 0, 0, 0, 0, 0, 0, 0, 0, 0, NaNf, NaNf, 
    NaNf, 0, 0, 0, 0, 0, NaNf, NaNf, NaNf, 0, 0, 0, 0, 0, 0,
  0, 0, NaNf, NaNf, 0, 0, 0, 0, 0, 0, 0, 0, 0, 0, 0, 0, 0, 0, NaNf, NaNf, 
    NaNf, NaNf, 0, 0, 0, 0, 0, NaNf, NaNf, NaNf, 0, 0, 0, 0, 0, 0,
  0, 0, NaNf, NaNf, 0, 0, 0, 0, 0, 0, 0, 0, 0, 0, 0, 0, 0, 0, NaNf, NaNf, 
    NaNf, NaNf, 0, 0, 0, 0, 0, NaNf, NaNf, NaNf, 0, 0, 0, 0, 0, 0,
  0, NaNf, 0, 0, 0, 0, 0, 0, 0, 0, 0, 0, 0, 0, 0, 0, 0, 0, NaNf, NaNf, NaNf, 
    NaNf, 0, 0, 0, 0, 0, NaNf, NaNf, NaNf, 0, 0, 0, 0, 0, 0,
  0, NaNf, 0, 0, 0, 0, 0, 0, 0, 0, 0, 0, 0, 0, 0, 0, 0, 0, NaNf, NaNf, NaNf, 
    NaNf, 0, 0, 0, 0, 0, NaNf, NaNf, NaNf, 0, 0, 0, 0, 0, 0,
  NaNf, NaNf, 0, 0, 0, 0, 0, 0, 0, 0, 0, 0, 0, 0, 0, 0, 0, 0, NaNf, NaNf, 
    NaNf, 0, 0, 0, 0, 0, 0, NaNf, NaNf, NaNf, 0, 0, 0, 0, 0, 0,
  NaNf, NaNf, 0, 0, 0, 0, 0, 0, 0, 0, 0, 0, 0, 0, 0, 0, 0, 0, NaNf, NaNf, 
    NaNf, 0, 0, 0, 0, 0, 0, NaNf, NaNf, NaNf, 0, 0, 0, 0, 0, 0,
  NaNf, 0, 0, 0, 0, 0, 0, 0, 0, 0, 0, 0, 0, 0, 0, 0, 0, 0, NaNf, NaNf, 0, 0, 
    0, 0, 0, 0, 0, NaNf, NaNf, NaNf, 0, 0, 0, 0, 0, 0,
  NaNf, 0, 0, 0, 0, 0, 0, 0, 0, 0, 0, 0, 0, 0, 0, 0, 0, 0, NaNf, NaNf, 0, 0, 
    0, 0, 0, NaNf, NaNf, NaNf, NaNf, NaNf, NaNf, 0, 0, 0, 0, 0,
  NaNf, 0, 0, 0, 0, 0, 0, 0, 0, 0, 0, 0, 0, 0, 0, 0, 0, 0, NaNf, 0, 0, 0, 0, 
    0, 0, NaNf, NaNf, NaNf, NaNf, NaNf, NaNf, 0, 0, 0, 0, 0,
  NaNf, 0, 0, 0, 0, 0, 0, 0, 0, 0, 0, 0, 0, 0, 0, 0, 0, NaNf, 0, 0, 0, 0, 0, 
    0, 0, NaNf, NaNf, NaNf, NaNf, NaNf, NaNf, 0, 0, 0, 0, 0,
  NaNf, 0, 0, 0, 0, 0, 0, 0, 0, 0, 0, 0, 0, 0, 0, 0, NaNf, 0, 0, 0, 0, 0, 0, 
    0, 0, NaNf, NaNf, NaNf, NaNf, NaNf, NaNf, 0, 0, NaNf, 0, 0,
  NaNf, 0, 0, 0, 0, 0, 0, 0, 0, 0, 0, 0, 0, 0, 0, NaNf, 0, 0, 0, 0, 0, 0, 0, 
    0, 0, NaNf, NaNf, NaNf, NaNf, NaNf, NaNf, 0, 0, NaNf, NaNf, NaNf,
  NaNf, NaNf, 0, 0, 0, 0, 0, 0, 0, 0, 0, 0, 0, 0, 0, NaNf, 0, 0, 0, 0, 0, 0, 
    0, 0, 0, NaNf, NaNf, NaNf, NaNf, NaNf, NaNf, 0, 0, NaNf, NaNf, NaNf,
  NaNf, NaNf, 0, 0, 0, 0, 0, 0, 0, 0, 0, 0, 0, 0, 0, NaNf, 0, 0, 0, 0, 0, 0, 
    0, 0, 0, NaNf, NaNf, NaNf, NaNf, NaNf, NaNf, NaNf, NaNf, NaNf, NaNf, NaNf,
  NaNf, NaNf, 0, 0, 0, 0, 0, 0, 0, 0, 0, 0, 0, 0, 0, NaNf, NaNf, NaNf, 0, 0, 
    0, 0, 0, 0, 0, NaNf, NaNf, 0, 0, NaNf, NaNf, NaNf, NaNf, NaNf, NaNf, NaNf,
  NaNf, NaNf, NaNf, 0, 0, 0, 0, 0, 0, 0, 0, 0, 0, 0, NaNf, NaNf, NaNf, NaNf, 
    0, 0, 0, 0, 0, 0, 0, 0, 0, 0, 0, 0, NaNf, NaNf, NaNf, NaNf, NaNf, NaNf,
  NaNf, NaNf, NaNf, 0, 0, 0, 0, 0, 0, 0, 0, 0, 0, 0, NaNf, NaNf, NaNf, NaNf, 
    0, 0, 0, 0, 0, 0, 0, NaNf, 0, 0, NaNf, NaNf, NaNf, NaNf, NaNf, NaNf, 
    NaNf, NaNf,
  NaNf, NaNf, NaNf, 0, 0, 0, 0, 0, 0, 0, 0, 0, 0, 0, NaNf, NaNf, NaNf, NaNf, 
    NaNf, 0, 0, 0, 0, 0, 0, 0, NaNf, NaNf, NaNf, NaNf, NaNf, NaNf, NaNf, 
    NaNf, NaNf, NaNf,
  NaNf, NaNf, NaNf, NaNf, -0, 4.183071e-06, 0, 0, 0, 0, 0, 0, 0, 0, NaNf, 
    NaNf, NaNf, NaNf, NaNf, NaNf, 7.830658e-06, 0, 0, 0, 0, 0, NaNf, NaNf, 
    NaNf, NaNf, NaNf, NaNf, NaNf, NaNf, NaNf, NaNf,
  NaNf, NaNf, NaNf, NaNf, -2.431735e-05, 4.741495e-05, -0, 0, 2.449714e-06, 
    2.516366e-05, 2.082345e-06, 0, 0, NaNf, NaNf, NaNf, NaNf, NaNf, NaNf, 
    NaNf, 0.0001381171, 6.170997e-06, 0, 0, 3.665151e-06, NaNf, NaNf, NaNf, 
    NaNf, NaNf, NaNf, NaNf, NaNf, NaNf, NaNf, NaNf,
  NaNf, NaNf, NaNf, NaNf, NaNf, NaNf, 0.0004241843, -0, 6.800105e-05, 
    6.314123e-05, 5.899529e-05, 2.655631e-06, NaNf, NaNf, NaNf, NaNf, NaNf, 
    NaNf, NaNf, NaNf, 5.049469e-06, -0, 0, 1.750961e-05, 7.813078e-05, -0, 
    NaNf, NaNf, NaNf, NaNf, NaNf, NaNf, NaNf, NaNf, NaNf, NaNf,
  NaNf, NaNf, NaNf, NaNf, NaNf, NaNf, NaNf, NaNf, NaNf, -7.891459e-05, NaNf, 
    NaNf, NaNf, NaNf, NaNf, NaNf, NaNf, NaNf, NaNf, -6.063094e-05, 
    -5.203435e-05, NaNf, NaNf, 0.0003539377, -6.396911e-05, 0.0001205231, 
    1.992095e-05, -6.608233e-07, NaNf, NaNf, NaNf, NaNf, NaNf, NaNf, NaNf, 
    NaNf,
  -0.0001009083, -0.0001009536, -0.0001000004, -9.857777e-05, -9.67501e-05, 
    -9.387263e-05, -9.084048e-05, -8.778868e-05, -8.508869e-05, 
    -8.278159e-05, -7.944033e-05, -7.660399e-05, -7.431154e-05, 
    -7.254813e-05, -7.208559e-05, -7.329783e-05, -7.448233e-05, 
    -0.0001039544, -7.708515e-05, -9.380913e-05, NaNf, NaNf, NaNf, NaNf, 
    -2.66619e-05, 1.598583e-06, -6.91026e-05, -1.170255e-05, -3.131055e-05, 
    -2.900142e-05, -1.332871e-05, -2.087681e-05, -0.000107356, -9.898862e-05, 
    -0.000123236, -0.0001002613 ;
}
