 % time (yr) / global min overturning (Sv) / global max overturning (Sv) / Atlantic min overturning (Sv) / Atlantic max overturning (Sv)
       0.500  -70.258   97.349   -4.584   14.858
       1.500  -70.259   97.349   -4.583   14.866
       2.500  -70.259   97.350   -4.582   14.869
       3.500  -70.260   97.349   -4.582   14.860
