 % time (yr) / global DIC (mol) / global DIC (mol kg-1) / surface DIC (mol kg-1) / benthic DIC (mol kg-1)
       0.500  0.3001940E+19  0.2242779E-02  0.1963647E-02  0.2304762E-02
       1.500  0.3001929E+19  0.2242771E-02  0.1963127E-02  0.2304794E-02
       2.500  0.3001924E+19  0.2242767E-02  0.1962999E-02  0.2304818E-02
       3.500  0.3001919E+19  0.2242764E-02  0.1962842E-02  0.2304839E-02
