 % time (yr) / global opal flux (mol yr-1) / global opal density (mol m-2 yr-1)
       0.500  0.1161654E+14  0.3161157E-01
       1.500  0.1161650E+14  0.3161146E-01
       2.500  0.1161650E+14  0.3161146E-01
       3.500  0.1161650E+14  0.3161146E-01
