 % time (yr) / global O2 (mol) / global O2 (mol kg-1) / surface O2 (mol kg-1) / benthic O2 (mol kg-1)
       0.500  0.2231957E+18  0.1667517E-03  0.2368087E-03  0.1638214E-03
       1.500  0.2231957E+18  0.1667517E-03  0.2368451E-03  0.1638215E-03
       2.500  0.2231941E+18  0.1667505E-03  0.2368356E-03  0.1638227E-03
       3.500  0.2231943E+18  0.1667507E-03  0.2368360E-03  0.1638225E-03
