 % time (yr) / global CaCO3 flux (mol yr-1) / global CaCO3 density (mol m-2 yr-1)
       0.500  0.7327215E+14  0.1993923E+00
       1.500  0.7402316E+14  0.2014360E+00
       2.500  0.7401026E+14  0.2014009E+00
       3.500  0.7393755E+14  0.2012030E+00
