 % time (yr) / global POC flux (mol yr-1) / global POC density (mol m-2 yr-1)
       0.500  0.8954936E+14  0.2436867E+00
       1.500  0.9050406E+14  0.2462847E+00
       2.500  0.9054329E+14  0.2463915E+00
       3.500  0.9050531E+14  0.2462881E+00
