 % time (yr) / global DOM_P flux (mol yr-1) / global DOM_P density (mol m-2 yr-1)
       0.500  0.0000000E+00  0.0000000E+00
       1.500  0.0000000E+00  0.0000000E+00
       2.500  0.0000000E+00  0.0000000E+00
       3.500  0.0000000E+00  0.0000000E+00
