 % time (yr) / global POP flux (mol yr-1) / global POP density (mol m-2 yr-1)
       0.500  0.7653792E+12  0.2082793E-02
       1.500  0.7735390E+12  0.2104998E-02
       2.500  0.7738743E+12  0.2105910E-02
       3.500  0.7735497E+12  0.2105027E-02
