 % time (yr) / global L (mol) / global L (mol kg-1) / surface L (mol kg-1) / benthic L (mol kg-1)
       0.500  0.4528742E+12  0.3383468E-09  0.4124818E-09  0.3960809E-09
       1.500  0.4529424E+12  0.3383977E-09  0.4139350E-09  0.3960705E-09
       2.500  0.4529770E+12  0.3384236E-09  0.4139945E-09  0.3960680E-09
       3.500  0.4530110E+12  0.3384490E-09  0.4140759E-09  0.3960686E-09
