 % time (yr) / global det flux (mol yr-1) / global det density (mol m-2 yr-1)
       0.500  0.1659773E+14  0.4516666E-01
       1.500  0.1659771E+14  0.4516662E-01
       2.500  0.1659771E+14  0.4516662E-01
       3.500  0.1659771E+14  0.4516662E-01
