 % time (yr) / global DOM_Fe (mol) / global DOM_Fe (mol kg-1) / surface DOM_Fe (mol kg-1) / benthic DOM_Fe (mol kg-1)
       0.500  0.1238046E+11  0.9249566E-11  0.2538643E-09  0.5049245E-14
       1.500  0.1241509E+11  0.9275439E-11  0.2545907E-09  0.5043169E-14
       2.500  0.1241470E+11  0.9275147E-11  0.2544502E-09  0.5008022E-14
       3.500  0.1241276E+11  0.9273698E-11  0.2544174E-09  0.4662077E-14
