 % time (yr) / global Ca (mol) / global Ca (mol kg-1) / surface Ca (mol kg-1) / benthic Ca (mol kg-1)
       0.500  0.1372021E+20  0.1025051E-01  0.1017659E-01  0.1029117E-01
       1.500  0.1372021E+20  0.1025051E-01  0.1017639E-01  0.1029121E-01
       2.500  0.1372021E+20  0.1025051E-01  0.1017628E-01  0.1029123E-01
       3.500  0.1372021E+20  0.1025051E-01  0.1017617E-01  0.1029125E-01
