 % time (yr) / salinity (o/oo) / _surS (o/oo) / _benS (o/oo)
       0.500   34.902   34.792   34.976
       1.500   34.902   34.792   34.976
       2.500   34.902   34.792   34.976
       3.500   34.902   34.792   34.976
