 % time (yr) / global POFe flux (mol yr-1) / global POFe density (mol m-2 yr-1)
       0.500  0.6587279E+09  0.1792567E-05
       1.500  0.6635119E+09  0.1805586E-05
       2.500  0.6635174E+09  0.1805601E-05
       3.500  0.6631247E+09  0.1804532E-05
