 % time (yr) / global PO4 (mol) / global PO4 (mol kg-1) / surface PO4 (mol kg-1) / benthic PO4 (mol kg-1)
       0.500  0.2877024E+16  0.2149453E-05  0.3104758E-06  0.2490590E-05
       1.500  0.2876970E+16  0.2149413E-05  0.3078169E-06  0.2490591E-05
       2.500  0.2876964E+16  0.2149408E-05  0.3081247E-06  0.2490586E-05
       3.500  0.2876963E+16  0.2149408E-05  0.3080904E-06  0.2490587E-05
