 % time (yr) / global pO2 (mol) / global pO2 (atm)
       0.500  0.3707076E+20  0.2095340E+00
       1.500  0.3707077E+20  0.2095341E+00
       2.500  0.3707077E+20  0.2095341E+00
       3.500  0.3707077E+20  0.2095341E+00
