 % time (yr) / global rate (mol yr-1) / mean rate (mol kg-1 yr-1)
           0.500   0.123770E+20   0.405426E+00
           1.500   0.123189E+20   0.403523E+00
           2.500   0.123184E+20   0.403505E+00
           3.500   0.123184E+20   0.403508E+00
