 % time (yr) / global rate (mol yr-1) / mean rate (mol kg-1 yr-1)
           0.500   0.215995E+20   0.707523E+00
           1.500   0.220616E+20   0.722657E+00
           2.500   0.220616E+20   0.722657E+00
           3.500   0.220616E+20   0.722657E+00
