 % time (yr) / global rate (mol yr-1) / mean rate (mol kg-1 yr-1)
           0.500   0.220311E+14   0.721658E-06
           1.500   0.221895E+14   0.726848E-06
           2.500   0.221926E+14   0.726950E-06
           3.500   0.221827E+14   0.726624E-06
