 % time (yr) / global pCO2 (mol) / global pCO2 (atm)
       0.500  0.4910410E+17  0.2775497E-03
       1.500  0.4909621E+17  0.2775051E-03
       2.500  0.4909112E+17  0.2774764E-03
       3.500  0.4909454E+17  0.2774957E-03
