 % time (yr) / global CaCO3 flux (mol yr-1) / global CaCO3 density (mol m-2 yr-1)
       0.500  0.1120157E+15  0.3048233E+00
       1.500  0.1131715E+15  0.3079686E+00
       2.500  0.1131598E+15  0.3079368E+00
       3.500  0.1130504E+15  0.3076390E+00
