 % time (yr) / global rate (mol yr-1) / mean rate (mol kg-1 yr-1)
           0.500   0.201875E+20   0.661270E+00
           1.500   0.201877E+20   0.661276E+00
           2.500   0.201876E+20   0.661273E+00
           3.500   0.201877E+20   0.661277E+00
