 % time (yr) / global POFe flux (mol yr-1) / global POFe density (mol m-2 yr-1)
       0.500  0.6565985E+10  0.1786773E-04
       1.500  0.6613766E+10  0.1799775E-04
       2.500  0.6618030E+10  0.1800935E-04
       3.500  0.6609281E+10  0.1798554E-04
