 % time (yr) / global DOM_P (mol) / global DOM_P (mol kg-1) / surface DOM_P (mol kg-1) / benthic DOM_P (mol kg-1)
       0.500  0.1400730E+14  0.1046499E-07  0.2802108E-06  0.5593244E-11
       1.500  0.1405840E+14  0.1050317E-07  0.2813897E-06  0.5586347E-11
       2.500  0.1406443E+14  0.1050768E-07  0.2813542E-06  0.5549283E-11
       3.500  0.1406534E+14  0.1050836E-07  0.2813724E-06  0.5169507E-11
