 % time (yr) / global POM_Fe flux (mol yr-1) / global POM_Fe density (mol m-2 yr-1)
       0.500  0.5548398E+10  0.1509861E-04
       1.500  0.5564246E+10  0.1514174E-04
       2.500  0.5547181E+10  0.1509530E-04
       3.500  0.5526414E+10  0.1503879E-04
