 % time (yr) / global rate (mol yr-1) / mean rate (mol kg-1 yr-1)
           0.500   0.687735E+20   0.225277E+01
           1.500   0.687705E+20   0.225267E+01
           2.500   0.687698E+20   0.225265E+01
           3.500   0.687695E+20   0.225264E+01
