 % time (yr) / global Fe (mol) / global Fe (mol kg-1) / surface Fe (mol kg-1) / benthic Fe (mol kg-1)
       0.500  0.3619477E+11  0.2704147E-10  0.4932236E-10  0.1609373E-10
       1.500  0.3599135E+11  0.2688949E-10  0.4845322E-10  0.1609397E-10
       2.500  0.3582768E+11  0.2676721E-10  0.4826917E-10  0.1609430E-10
       3.500  0.3568462E+11  0.2666033E-10  0.4818881E-10  0.1609366E-10
