 % time (yr) / global ALK (mol) / global ALK (mol kg-1) / surface ALK (mol kg-1) / benthic ALK (mol kg-1)
       0.500  0.3163212E+19  0.2363267E-02  0.2290168E-02  0.2404408E-02
       1.500  0.3163213E+19  0.2363268E-02  0.2289834E-02  0.2404473E-02
       2.500  0.3163213E+19  0.2363268E-02  0.2289597E-02  0.2404521E-02
       3.500  0.3163213E+19  0.2363268E-02  0.2289387E-02  0.2404564E-02
