 % time (yr) / global POC flux (mol yr-1) / global POC density (mol m-2 yr-1)
       0.500  0.9336347E+15  0.2540659E+01
       1.500  0.9438255E+15  0.2568391E+01
       2.500  0.9444600E+15  0.2570118E+01
       3.500  0.9434893E+15  0.2567476E+01
