 % time (yr) / global DOM_C (mol) / global DOM_C (mol kg-1) / surface DOM_C (mol kg-1) / benthic DOM_C (mol kg-1)
       0.500  0.1638854E+16  0.1224404E-05  0.3278466E-04  0.6544095E-09
       1.500  0.1644832E+16  0.1228871E-05  0.3292259E-04  0.6536026E-09
       2.500  0.1645539E+16  0.1229398E-05  0.3291844E-04  0.6492662E-09
       3.500  0.1645645E+16  0.1229478E-05  0.3292057E-04  0.6048323E-09
