 % time (yr) / global POM_Fe flux (mol yr-1) / global POM_Fe density (mol m-2 yr-1)
       0.500  0.1926032E+10  0.5241227E-05
       1.500  0.1911709E+10  0.5202249E-05
       2.500  0.1905318E+10  0.5184857E-05
       3.500  0.1900513E+10  0.5171782E-05
