 % time (yr) / global rate (mol yr-1) / mean rate (mol kg-1 yr-1)
           0.500   0.000000E+00   0.000000E+00
           1.500   0.000000E+00   0.000000E+00
           2.500   0.000000E+00   0.000000E+00
           3.500   0.000000E+00   0.000000E+00
