 % time (yr) / global FeL (mol) / global FeL (mol kg-1) / surface FeL (mol kg-1) / benthic FeL (mol kg-1)
       0.500  0.8856834E+12  0.6617028E-09  0.5854572E-09  0.6055714E-09
       1.500  0.8856152E+12  0.6616519E-09  0.5840027E-09  0.6055817E-09
       2.500  0.8855806E+12  0.6616260E-09  0.5839441E-09  0.6055842E-09
       3.500  0.8855466E+12  0.6616007E-09  0.5838620E-09  0.6055835E-09
