 % time (yr) / temperature (C) / _surT (C) / _benT (C)
       0.500    1.597   20.086   -1.286
       1.500    1.597   20.090   -1.286
       2.500    1.597   20.088   -1.286
       3.500    1.597   20.090   -1.286
