 % time (yr) / global POP flux (mol yr-1) / global POP density (mol m-2 yr-1)
       0.500  0.7979783E+13  0.2171503E-01
       1.500  0.8066884E+13  0.2195206E-01
       2.500  0.8072308E+13  0.2196682E-01
       3.500  0.8064011E+13  0.2194424E-01
