 %     year    /  min land surface temperature (deg C)              
      0.500000    -50.734669
      1.500000    -53.717073
      2.500000    -55.819532
      3.500000    -57.604208
      4.500000    -58.867099
      5.500000    -60.126610
      6.500000    -61.391887
      7.500000    -62.411248
      8.500000    -63.327761
      9.500000    -64.385761
     10.500000    -65.201282
     20.500000    -69.041296
     30.500000    -68.964345
     40.500000    -68.224887
     50.500000    -67.500434
     60.500000    -66.982445
     70.500000    -66.583666
     80.500000    -66.335583
     90.500000    -66.031721
    100.500000    -65.827881
    200.500000    -64.481027
    300.500000    -64.277210
    400.500000    -64.061193
    500.500000    -63.991648
    600.500000    -63.909963
    700.500000    -63.877620
    800.500000    -63.853879
    900.500000    -63.826009
   1000.500000    -63.826785
   2000.500000    -63.816903
   3000.500000    -63.820126
   4000.500000    -63.825155
   5000.500000    -63.819754
   6000.500000    -63.829509
   7000.500000    -63.817543
   8000.500000    -63.820398
   9000.500000    -63.819835
  10000.500000    -63.827768
  20000.500000    -63.814328
