 %     year    /  global average land surface temperature (deg C)   
      0.500000     -5.469392
      1.500000     -4.511971
      2.500000     -4.444221
      3.500000     -4.496405
      4.500000     -4.686307
      5.500000     -4.751034
      6.500000     -4.576006
      7.500000     -4.177244
      8.500000     -3.780517
      9.500000     -3.381289
     10.500000     -3.025973
     20.500000      0.021004
     30.500000      2.684073
     40.500000      4.634911
     50.500000      6.314677
     60.500000      7.729930
     70.500000      9.026036
     80.500000     10.030178
     90.500000     10.837118
    100.500000     11.556703
    200.500000     15.311235
    300.500000     15.970097
    400.500000     16.266129
    500.500000     16.280064
    600.500000     16.322569
    700.500000     16.345812
    800.500000     16.367472
    900.500000     16.370065
   1000.500000     16.384828
   2000.500000     16.386251
   3000.500000     16.409989
   4000.500000     16.410019
   5000.500000     16.409789
   6000.500000     16.409530
   7000.500000     16.408589
   8000.500000     16.409808
   9000.500000     16.410134
  10000.500000     16.403531
  20000.500000     16.405106
