 %     year    /  min land surface productivity (kgC m-2 yr-1)      
      0.500000      0.000000
      1.500000      0.000000
      2.500000      0.000000
      3.500000      0.000000
      4.500000      0.000000
      5.500000      0.000000
      6.500000      0.000000
      7.500000      0.000000
      8.500000      0.000000
      9.500000      0.000000
     10.500000      0.000000
     20.500000      0.000000
     30.500000      0.000000
     40.500000      0.000000
     50.500000      0.000000
     60.500000      0.000000
     70.500000      0.000000
     80.500000      0.000000
     90.500000      0.000000
    100.500000      0.000000
    200.500000      0.000000
    300.500000      0.000000
    400.500000      0.000000
    500.500000      0.000000
    600.500000      0.000000
    700.500000      0.000000
    800.500000      0.000000
    900.500000      0.000000
   1000.500000      0.000000
   2000.500000      0.000000
   3000.500000      0.000000
   4000.500000      0.000000
   5000.500000      0.000000
   6000.500000      0.000000
   7000.500000      0.000000
   8000.500000      0.000000
   9000.500000      0.000000
  10000.500000      0.000000
  20000.500000      0.000000
