 %     year    /  max land surface temperature (deg C)              
      0.500000     13.823847
      1.500000     16.154721
      2.500000     16.771113
      3.500000     16.700265
      4.500000     16.576398
      5.500000     16.747728
      6.500000     17.384475
      7.500000     18.256210
      8.500000     18.971206
      9.500000     19.469966
     10.500000     19.806148
     20.500000     25.717953
     30.500000     28.051300
     40.500000     29.572810
     50.500000     30.793432
     60.500000     31.617724
     70.500000     32.527149
     80.500000     33.549813
     90.500000     34.442084
    100.500000     35.249783
    200.500000     39.172087
    300.500000     40.114599
    400.500000     40.384368
    500.500000     40.427198
    600.500000     40.469028
    700.500000     40.501304
    800.500000     40.519584
    900.500000     40.518662
   1000.500000     40.541442
   2000.500000     40.543083
   3000.500000     40.567056
   4000.500000     40.568181
   5000.500000     40.566881
   6000.500000     40.567035
   7000.500000     40.565669
   8000.500000     40.566915
   9000.500000     40.567092
  10000.500000     40.555452
  20000.500000     40.555470
