 %     year    /  global av land surf productivity (kgC m-2 yr-1)   
      0.500000      0.000183
      1.500000      0.000417
      2.500000      0.001383
      3.500000      0.004771
      4.500000      0.016684
      5.500000      0.053579
      6.500000      0.135651
      7.500000      0.240376
      8.500000      0.295103
      9.500000      0.303318
     10.500000      0.297096
     20.500000      0.392667
     30.500000      0.445113
     40.500000      0.505821
     50.500000      0.585567
     60.500000      0.651632
     70.500000      0.714229
     80.500000      0.768454
     90.500000      0.810826
    100.500000      0.853312
    200.500000      1.092075
    300.500000      1.131690
    400.500000      1.149819
    500.500000      1.149297
    600.500000      1.151635
    700.500000      1.152759
    800.500000      1.153500
    900.500000      1.153708
   1000.500000      1.154587
   2000.500000      1.153772
   3000.500000      1.156704
   4000.500000      1.155573
   5000.500000      1.156693
   6000.500000      1.156677
   7000.500000      1.155546
   8000.500000      1.156790
   9000.500000      1.156723
  10000.500000      1.155605
  20000.500000      1.155353
