 %     year    /  global av atmospheric pCO2 (ppm)                  
      0.500000  2.785201E+02
      1.500000  2.781450E+02
      2.500000  2.780666E+02
      3.500000  2.780119E+02
      4.500000  2.779460E+02
      5.500000  2.778464E+02
      6.500000  2.776902E+02
      7.500000  2.775440E+02
      8.500000  2.775027E+02
      9.500000  2.773995E+02
     10.500000  2.774918E+02
     20.500000  2.776378E+02
     30.500000  2.777400E+02
     40.500000  2.777856E+02
     50.500000  2.777853E+02
     60.500000  2.777752E+02
     70.500000  2.777587E+02
     80.500000  2.777401E+02
     90.500000  2.777339E+02
    100.500000  2.777300E+02
    200.500000  2.777193E+02
    300.500000  2.777188E+02
    400.500000  2.777153E+02
    500.500000  2.777176E+02
    600.500000  2.777167E+02
    700.500000  2.777182E+02
    800.500000  2.777174E+02
    900.500000  2.777179E+02
   1000.500000  2.777173E+02
   2000.500000  2.777171E+02
   3000.500000  2.777135E+02
   4000.500000  2.777156E+02
   5000.500000  2.777135E+02
   6000.500000  2.777132E+02
   7000.500000  2.777160E+02
   8000.500000  2.777135E+02
   9000.500000  2.777136E+02
  10000.500000  2.777147E+02
  20000.500000  2.777157E+02
