 %     year    /  max land surface runoff (mm/s)                    
      0.500000  2.899524E-05
      1.500000  2.640294E-05
      2.500000  3.132307E-05
      3.500000  3.414248E-05
      4.500000  3.671570E-05
      5.500000  3.858842E-05
      6.500000  3.988798E-05
      7.500000  4.062940E-05
      8.500000  4.128145E-05
      9.500000  4.200818E-05
     10.500000  4.262226E-05
     20.500000  5.481622E-05
     30.500000  6.596197E-05
     40.500000  7.262864E-05
     50.500000  7.848139E-05
     60.500000  8.441817E-05
     70.500000  8.933017E-05
     80.500000  9.232575E-05
     90.500000  9.448771E-05
    100.500000  9.691262E-05
    200.500000  1.129130E-04
    300.500000  1.148401E-04
    400.500000  1.180838E-04
    500.500000  1.178326E-04
    600.500000  1.178927E-04
    700.500000  1.179729E-04
    800.500000  1.180501E-04
    900.500000  1.180643E-04
   1000.500000  1.181049E-04
   2000.500000  1.172455E-04
   3000.500000  1.175405E-04
   4000.500000  1.167264E-04
   5000.500000  1.175389E-04
   6000.500000  1.175454E-04
   7000.500000  1.169196E-04
   8000.500000  1.175697E-04
   9000.500000  1.175383E-04
  10000.500000  1.175315E-04
  20000.500000  1.175199E-04
