 %     year    /  min atmospheric pCO2 (ppm)                        
      0.500000  0.000000E+00
      1.500000  0.000000E+00
      2.500000  0.000000E+00
      3.500000  0.000000E+00
      4.500000  0.000000E+00
      5.500000  0.000000E+00
      6.500000  0.000000E+00
      7.500000  0.000000E+00
      8.500000  0.000000E+00
      9.500000  0.000000E+00
     10.500000  0.000000E+00
     20.500000  0.000000E+00
     30.500000  0.000000E+00
     40.500000  0.000000E+00
     50.500000  0.000000E+00
     60.500000  0.000000E+00
     70.500000  0.000000E+00
     80.500000  0.000000E+00
     90.500000  0.000000E+00
    100.500000  0.000000E+00
    200.500000  0.000000E+00
    300.500000  0.000000E+00
    400.500000  0.000000E+00
    500.500000  0.000000E+00
    600.500000  0.000000E+00
    700.500000  0.000000E+00
    800.500000  0.000000E+00
    900.500000  0.000000E+00
   1000.500000  0.000000E+00
   2000.500000  0.000000E+00
   3000.500000  0.000000E+00
   4000.500000  0.000000E+00
   5000.500000  0.000000E+00
   6000.500000  0.000000E+00
   7000.500000  0.000000E+00
   8000.500000  0.000000E+00
   9000.500000  0.000000E+00
  10000.500000  0.000000E+00
  20000.500000  0.000000E+00
