 %     year    /  global average land surface runoff (mm/s)         
      0.500000  1.137340E-05
      1.500000  1.145497E-05
      2.500000  1.179665E-05
      3.500000  1.226087E-05
      4.500000  1.281579E-05
      5.500000  1.357586E-05
      6.500000  1.416586E-05
      7.500000  1.422550E-05
      8.500000  1.378189E-05
      9.500000  1.339657E-05
     10.500000  1.332451E-05
     20.500000  1.582607E-05
     30.500000  1.763619E-05
     40.500000  1.931718E-05
     50.500000  2.085233E-05
     60.500000  2.209257E-05
     70.500000  2.308420E-05
     80.500000  2.400530E-05
     90.500000  2.505696E-05
    100.500000  2.600195E-05
    200.500000  3.014784E-05
    300.500000  3.091092E-05
    400.500000  3.135488E-05
    500.500000  3.132980E-05
    600.500000  3.137275E-05
    700.500000  3.139196E-05
    800.500000  3.141032E-05
    900.500000  3.142698E-05
   1000.500000  3.143666E-05
   2000.500000  3.142211E-05
   3000.500000  3.148038E-05
   4000.500000  3.145149E-05
   5000.500000  3.147993E-05
   6000.500000  3.147833E-05
   7000.500000  3.145198E-05
   8000.500000  3.148436E-05
   9000.500000  3.148126E-05
  10000.500000  3.149845E-05
  20000.500000  3.149218E-05
