 %     year    /  max land surface productivity (kgC m-2 yr-1)      
      0.500000      0.001049
      1.500000      0.003368
      2.500000      0.013592
      3.500000      0.050542
      4.500000      0.179123
      5.500000      0.547254
      6.500000      1.225459
      7.500000      1.721640
      8.500000      1.985365
      9.500000      2.114378
     10.500000      2.157939
     20.500000      2.617000
     30.500000      2.896423
     40.500000      3.150679
     50.500000      3.384792
     60.500000      3.641255
     70.500000      3.823774
     80.500000      3.978949
     90.500000      4.120160
    100.500000      4.291664
    200.500000      5.075131
    300.500000      5.157492
    400.500000      5.181976
    500.500000      5.182839
    600.500000      5.185029
    700.500000      5.186225
    800.500000      5.187107
    900.500000      5.187771
   1000.500000      5.188730
   2000.500000      5.192239
   3000.500000      5.194363
   4000.500000      5.197095
   5000.500000      5.194336
   6000.500000      5.194259
   7000.500000      5.196062
   8000.500000      5.194228
   9000.500000      5.194380
  10000.500000      5.191833
  20000.500000      5.191544
