 %     year    /  DIC_13C weathering flux (mol yr-1)                
      0.500000  1.107791E+11
      1.500000  1.107791E+11
      2.500000  1.107791E+11
      3.500000  1.107791E+11
      4.500000  1.107791E+11
      5.500000  1.107791E+11
      6.500000  1.107791E+11
      7.500000  1.107791E+11
      8.500000  1.107791E+11
      9.500000  1.107791E+11
     10.500000  1.107791E+11
     20.500000  1.107791E+11
     30.500000  1.107791E+11
     40.500000  1.107791E+11
     50.500000  1.107791E+11
     60.500000  1.107791E+11
     70.500000  1.107791E+11
     80.500000  1.107791E+11
     90.500000  1.107791E+11
    100.500000  1.107791E+11
    200.500000  1.107791E+11
    300.500000  1.107791E+11
    400.500000  1.107791E+11
    500.500000  1.107791E+11
    600.500000  1.107791E+11
    700.500000  1.107791E+11
    800.500000  1.107791E+11
    900.500000  1.107791E+11
   1000.500000  1.107791E+11
   2000.500000  1.107791E+11
   3000.500000  1.107791E+11
   4000.500000  1.107791E+11
   5000.500000  1.107791E+11
   6000.500000  1.107791E+11
   7000.500000  1.107791E+11
   8000.500000  1.107791E+11
   9000.500000  1.107791E+11
  10000.500000  1.107791E+11
  20000.500000  1.107791E+11
