 %     year    /  weather_fCaCO3 (mol yr-1)                         
      0.500000  1.000000E+13
      1.500000  1.000000E+13
      2.500000  1.000000E+13
      3.500000  1.000000E+13
      4.500000  1.000000E+13
      5.500000  1.000000E+13
      6.500000  1.000000E+13
      7.500000  1.000000E+13
      8.500000  1.000000E+13
      9.500000  1.000000E+13
     10.500000  1.000000E+13
     20.500000  1.000000E+13
     30.500000  1.000000E+13
     40.500000  1.000000E+13
     50.500000  1.000000E+13
     60.500000  1.000000E+13
     70.500000  1.000000E+13
     80.500000  1.000000E+13
     90.500000  1.000000E+13
    100.500000  1.000000E+13
    200.500000  1.000000E+13
    300.500000  1.000000E+13
    400.500000  1.000000E+13
    500.500000  1.000000E+13
    600.500000  1.000000E+13
    700.500000  1.000000E+13
    800.500000  1.000000E+13
    900.500000  1.000000E+13
   1000.500000  1.000000E+13
   2000.500000  1.000000E+13
   3000.500000  1.000000E+13
   4000.500000  1.000000E+13
   5000.500000  1.000000E+13
   6000.500000  1.000000E+13
   7000.500000  1.000000E+13
   8000.500000  1.000000E+13
   9000.500000  1.000000E+13
  10000.500000  1.000000E+13
  20000.500000  1.000000E+13
