 % time (yr) / global rate (mol yr-1) / mean rate (mol kg-1 yr-1)
           0.500   0.218326E+14   0.715156E-06
           1.500   0.219867E+14   0.720205E-06
           2.500   0.219785E+14   0.719938E-06
           3.500   0.219842E+14   0.720123E-06
           4.500   0.219852E+14   0.720156E-06
           5.500   0.219871E+14   0.720219E-06
           6.500   0.219840E+14   0.720116E-06
           7.500   0.219804E+14   0.719997E-06
           8.500   0.219810E+14   0.720018E-06
           9.500   0.219770E+14   0.719889E-06
          10.500   0.219842E+14   0.720124E-06
          20.479   0.219655E+14   0.719511E-06
          30.479   0.219785E+14   0.719938E-06
          40.479   0.220142E+14   0.721106E-06
          50.479   0.220723E+14   0.723009E-06
          60.479   0.221260E+14   0.724768E-06
          70.479   0.221760E+14   0.726403E-06
          80.479   0.222121E+14   0.727587E-06
          90.479   0.222884E+14   0.730084E-06
         100.479   0.223791E+14   0.733057E-06
         200.479   0.233537E+14   0.764972E-06
