 % time (yr) / global O2 (mol) / global O2 (mol kg-1) / surface O2 (mol kg-1) / benthic O2 (mol kg-1)
       0.500  0.2225278E+18  0.1662528E-03  0.2366280E-03  0.1633588E-03
       1.500  0.2225302E+18  0.1662545E-03  0.2366610E-03  0.1633594E-03
       2.500  0.2225303E+18  0.1662546E-03  0.2366588E-03  0.1633616E-03
       3.500  0.2225318E+18  0.1662557E-03  0.2366574E-03  0.1633625E-03
       4.500  0.2225334E+18  0.1662569E-03  0.2366596E-03  0.1633636E-03
       5.500  0.2225362E+18  0.1662591E-03  0.2366573E-03  0.1633654E-03
       6.500  0.2225368E+18  0.1662594E-03  0.2366646E-03  0.1633673E-03
       7.500  0.2225354E+18  0.1662585E-03  0.2366715E-03  0.1633699E-03
       8.500  0.2225361E+18  0.1662589E-03  0.2366515E-03  0.1633706E-03
       9.500  0.2225370E+18  0.1662596E-03  0.2366528E-03  0.1633727E-03
      10.500  0.2225360E+18  0.1662589E-03  0.2366489E-03  0.1633741E-03
      20.479  0.2225005E+18  0.1662324E-03  0.2365341E-03  0.1633718E-03
      30.479  0.2224675E+18  0.1662076E-03  0.2364692E-03  0.1633590E-03
      40.479  0.2223946E+18  0.1661530E-03  0.2362273E-03  0.1633249E-03
      50.479  0.2222812E+18  0.1660682E-03  0.2360712E-03  0.1632435E-03
      60.479  0.2221931E+18  0.1660023E-03  0.2358092E-03  0.1631194E-03
      70.479  0.2220701E+18  0.1659103E-03  0.2354876E-03  0.1629788E-03
      80.479  0.2218870E+18  0.1657734E-03  0.2350895E-03  0.1628032E-03
      90.479  0.2216566E+18  0.1656011E-03  0.2347728E-03  0.1625926E-03
     100.479  0.2215197E+18  0.1654987E-03  0.2344241E-03  0.1623248E-03
     200.479  0.2185847E+18  0.1633048E-03  0.2295610E-03  0.1588530E-03
