 % time (yr) / global POM_Fe flux (mol yr-1) / global POM_Fe density (mol m-2 yr-1)
       0.500  0.1857667E+10  0.5055188E-05
       1.500  0.1874454E+10  0.5100870E-05
       2.500  0.1874006E+10  0.5099651E-05
       3.500  0.1872821E+10  0.5096426E-05
       4.500  0.1872019E+10  0.5094243E-05
       5.500  0.1872376E+10  0.5095215E-05
       6.500  0.1875377E+10  0.5103382E-05
       7.500  0.1873589E+10  0.5098516E-05
       8.500  0.1874613E+10  0.5101302E-05
       9.500  0.1873576E+10  0.5098481E-05
      10.500  0.1873650E+10  0.5098681E-05
      20.479  0.1843827E+10  0.5017525E-05
      30.479  0.1844168E+10  0.5018453E-05
      40.479  0.1846646E+10  0.5025197E-05
      50.479  0.1843532E+10  0.5016721E-05
      60.479  0.1838262E+10  0.5002381E-05
      70.479  0.1847447E+10  0.5027377E-05
      80.479  0.1851925E+10  0.5039562E-05
      90.479  0.1850393E+10  0.5035392E-05
     100.479  0.1858102E+10  0.5056370E-05
     200.479  0.1913898E+10  0.5208207E-05
