 % time (yr) / temperature (C) / _surT (C) / _benT (C)
       0.500    1.586   20.128   -1.271
       1.500    1.586   20.128   -1.271
       2.500    1.586   20.129   -1.271
       3.500    1.586   20.127   -1.271
       4.500    1.586   20.126   -1.271
       5.500    1.586   20.127   -1.271
       6.500    1.586   20.126   -1.271
       7.500    1.586   20.129   -1.270
       8.500    1.586   20.128   -1.270
       9.500    1.586   20.132   -1.270
      10.500    1.586   20.133   -1.270
      20.479    1.588   20.165   -1.271
      30.479    1.592   20.187   -1.270
      40.479    1.599   20.264   -1.270
      50.479    1.609   20.313   -1.271
      60.479    1.622   20.393   -1.271
      70.479    1.638   20.495   -1.271
      80.479    1.657   20.616   -1.271
      90.479    1.678   20.711   -1.270
     100.479    1.703   20.809   -1.268
     200.479    2.079   22.330   -1.232
