 % time (yr) / dissolved aeolian Fe input (mol yr-1)
       0.500  0.2570E+12
       1.500  0.2570E+12
       2.500  0.2570E+12
       3.500  0.2570E+12
       4.500  0.2570E+12
       5.500  0.2570E+12
       6.500  0.2570E+12
       7.500  0.2570E+12
       8.500  0.2570E+12
       9.500  0.2570E+12
      10.500  0.2570E+12
      20.479  0.2570E+12
      30.479  0.2570E+12
      40.479  0.2570E+12
      50.479  0.2570E+12
      60.479  0.2570E+12
      70.479  0.2570E+12
      80.479  0.2570E+12
      90.479  0.2570E+12
     100.479  0.2570E+12
     200.479  0.2570E+12
