 % time (yr) / global pCO2 flux (mol yr-1) / global pCO2 density (mol m-2 yr-1)  NOTE: includes the net flux associated with any flux or restoring forcing of atmospheric composition  and is thus not necessarily the same as the air-sea flux.
       0.500  0.7182633E+13       0.020
       1.500  0.1803233E+13       0.005
       2.500  0.1074552E+13       0.003
       3.500  0.1960012E+12       0.001
       4.500 -0.9611671E+12      -0.003
       5.500 -0.2163931E+13      -0.006
       6.500 -0.3539466E+13      -0.010
       7.500 -0.5579674E+13      -0.015
       8.500 -0.6598332E+13      -0.018
       9.500 -0.8615341E+13      -0.023
      10.500 -0.1091121E+14      -0.030
      20.479 -0.3458618E+14      -0.094
      30.479 -0.6187392E+14      -0.168
      40.479 -0.9754875E+14      -0.265
      50.479 -0.1325879E+15      -0.361
      60.479 -0.1695390E+15      -0.461
      70.479 -0.2070218E+15      -0.563
      80.479 -0.2469057E+15      -0.672
      90.479 -0.2825218E+15      -0.769
     100.479 -0.3183209E+15      -0.866
     200.479 -0.5928424E+15      -1.613
