 % time (yr) / global min overturning (Sv) / global max overturning (Sv) / Atlantic min overturning (Sv) / Atlantic max overturning (Sv)
       0.500  -70.175   97.456   -4.392   14.903
       1.500  -70.175   97.456   -4.392   14.902
       2.500  -70.175   97.456   -4.392   14.895
       3.500  -70.176   97.456   -4.393   14.880
       4.500  -70.176   97.456   -4.395   14.869
       5.500  -70.177   97.456   -4.396   14.864
       6.500  -70.176   97.456   -4.397   14.857
       7.500  -70.175   97.455   -4.399   14.851
       8.500  -70.174   97.455   -4.400   14.844
       9.500  -70.171   97.455   -4.402   14.840
      10.500  -70.170   97.455   -4.404   14.834
      20.479  -70.132   97.453   -4.412   14.857
      30.479  -70.072   97.445   -4.417   14.818
      40.479  -69.986   97.434   -4.443   14.755
      50.479  -69.887   97.396   -4.582   14.697
      60.479  -69.781   97.368   -4.647   14.634
      70.479  -69.679   97.335   -4.675   14.627
      80.479  -69.601   97.305   -4.680   14.588
      90.479  -69.529   97.279   -4.685   14.476
     100.479  -69.447   97.251   -4.676   14.354
     200.479  -68.104   96.717   -3.963   13.884
