 % time (yr) / mean saturation state
       0.500  0.3546143E+01
       1.500  0.3548886E+01
       2.500  0.3548982E+01
       3.500  0.3548584E+01
       4.500  0.3548279E+01
       5.500  0.3547931E+01
       6.500  0.3547319E+01
       7.500  0.3546956E+01
       8.500  0.3546036E+01
       9.500  0.3545413E+01
      10.500  0.3544444E+01
      20.479  0.3528551E+01
      30.479  0.3497744E+01
      40.479  0.3459013E+01
      50.479  0.3406282E+01
      60.479  0.3345166E+01
      70.479  0.3276310E+01
      80.479  0.3200622E+01
      90.479  0.3115644E+01
     100.479  0.3025428E+01
     200.479  0.2060616E+01
