 % time (yr) / global rate (mol yr-1) / mean rate (mol kg-1 yr-1)
           0.500   0.123365E+20   0.404101E+00
           1.500   0.122756E+20   0.402105E+00
           2.500   0.122743E+20   0.402063E+00
           3.500   0.122750E+20   0.402085E+00
           4.500   0.122748E+20   0.402079E+00
           5.500   0.122750E+20   0.402085E+00
           6.500   0.122743E+20   0.402062E+00
           7.500   0.122740E+20   0.402052E+00
           8.500   0.122738E+20   0.402044E+00
           9.500   0.122742E+20   0.402059E+00
          10.500   0.122732E+20   0.402027E+00
          20.479   0.122630E+20   0.401691E+00
          30.479   0.121545E+20   0.398136E+00
          40.479   0.122585E+20   0.401544E+00
          50.479   0.122358E+20   0.400799E+00
          60.479   0.122147E+20   0.400107E+00
          70.479   0.121878E+20   0.399227E+00
          80.479   0.121542E+20   0.398128E+00
          90.479   0.121213E+20   0.397048E+00
         100.479   0.120852E+20   0.395866E+00
         200.479   0.116610E+20   0.381966E+00
