 % time (yr) / global POC flux (mol yr-1) / global POC density (mol m-2 yr-1)
       0.500  0.8865060E+14  0.2412410E+00
       1.500  0.8957768E+14  0.2437638E+00
       2.500  0.8945462E+14  0.2434289E+00
       3.500  0.8949521E+14  0.2435394E+00
       4.500  0.8958716E+14  0.2437896E+00
       5.500  0.8954245E+14  0.2436679E+00
       6.500  0.8950238E+14  0.2435589E+00
       7.500  0.8954428E+14  0.2436729E+00
       8.500  0.8950086E+14  0.2435548E+00
       9.500  0.8950420E+14  0.2435638E+00
      10.500  0.8930262E+14  0.2430153E+00
      20.479  0.8901629E+14  0.2422361E+00
      30.479  0.8874859E+14  0.2415076E+00
      40.479  0.8929304E+14  0.2429892E+00
      50.479  0.8929329E+14  0.2429899E+00
      60.479  0.8948086E+14  0.2435003E+00
      70.479  0.8959362E+14  0.2438072E+00
      80.479  0.8945767E+14  0.2434372E+00
      90.479  0.8918269E+14  0.2426889E+00
     100.479  0.8921769E+14  0.2427842E+00
     200.479  0.8800780E+14  0.2394917E+00
