 % time (yr) / global rate (mol yr-1) / mean rate (mol kg-1 yr-1)
           0.500   0.000000E+00   0.000000E+00
           1.500   0.000000E+00   0.000000E+00
           2.500   0.000000E+00   0.000000E+00
           3.500   0.000000E+00   0.000000E+00
           4.500   0.000000E+00   0.000000E+00
           5.500   0.000000E+00   0.000000E+00
           6.500   0.000000E+00   0.000000E+00
           7.500   0.000000E+00   0.000000E+00
           8.500   0.000000E+00   0.000000E+00
           9.500   0.000000E+00   0.000000E+00
          10.500   0.000000E+00   0.000000E+00
          20.479   0.000000E+00   0.000000E+00
          30.479   0.000000E+00   0.000000E+00
          40.479   0.000000E+00   0.000000E+00
          50.479   0.000000E+00   0.000000E+00
          60.479   0.000000E+00   0.000000E+00
          70.479   0.000000E+00   0.000000E+00
          80.479   0.000000E+00   0.000000E+00
          90.479   0.000000E+00   0.000000E+00
         100.479   0.000000E+00   0.000000E+00
         200.479   0.000000E+00   0.000000E+00
