 % time (yr) / salinity (o/oo) / _surS (o/oo) / _benS (o/oo)
       0.500   34.902   34.792   34.975
       1.500   34.902   34.792   34.975
       2.500   34.902   34.792   34.975
       3.500   34.902   34.792   34.975
       4.500   34.902   34.792   34.975
       5.500   34.902   34.792   34.975
       6.500   34.902   34.792   34.975
       7.500   34.902   34.792   34.975
       8.500   34.902   34.792   34.975
       9.500   34.902   34.792   34.975
      10.500   34.902   34.792   34.975
      20.479   34.902   34.792   34.975
      30.479   34.902   34.792   34.975
      40.479   34.902   34.793   34.975
      50.479   34.902   34.793   34.975
      60.479   34.902   34.794   34.975
      70.479   34.902   34.796   34.974
      80.479   34.902   34.797   34.974
      90.479   34.902   34.799   34.974
     100.479   34.902   34.801   34.973
     200.479   34.901   34.843   34.965
