 % time (yr) / surface conc_CO2 (mol kg-1)
       0.500  0.9603689E-05
       1.500  0.9585188E-05
       2.500  0.9585329E-05
       3.500  0.9587174E-05
       4.500  0.9588332E-05
       5.500  0.9590144E-05
       6.500  0.9593324E-05
       7.500  0.9594196E-05
       8.500  0.9599590E-05
       9.500  0.9602704E-05
      10.500  0.9606591E-05
      20.479  0.9684487E-05
      30.479  0.9838948E-05
      40.479  0.1003128E-04
      50.479  0.1030809E-04
      60.479  0.1064352E-04
      70.479  0.1103832E-04
      80.479  0.1149360E-04
      90.479  0.1204097E-04
     100.479  0.1266395E-04
     200.479  0.2348721E-04
