 % time (yr) / global pO2 (mol) / global pO2 (atm)
       0.500  0.3707164E+20  0.2095390E+00
       1.500  0.3707165E+20  0.2095390E+00
       2.500  0.3707165E+20  0.2095390E+00
       3.500  0.3707165E+20  0.2095390E+00
       4.500  0.3707164E+20  0.2095390E+00
       5.500  0.3707164E+20  0.2095390E+00
       6.500  0.3707164E+20  0.2095390E+00
       7.500  0.3707164E+20  0.2095390E+00
       8.500  0.3707164E+20  0.2095390E+00
       9.500  0.3707164E+20  0.2095390E+00
      10.500  0.3707164E+20  0.2095390E+00
      20.479  0.3707168E+20  0.2095392E+00
      30.479  0.3707171E+20  0.2095394E+00
      40.479  0.3707179E+20  0.2095399E+00
      50.479  0.3707191E+20  0.2095405E+00
      60.479  0.3707201E+20  0.2095411E+00
      70.479  0.3707214E+20  0.2095418E+00
      80.479  0.3707233E+20  0.2095429E+00
      90.479  0.3707257E+20  0.2095443E+00
     100.479  0.3707273E+20  0.2095451E+00
     200.479  0.3707587E+20  0.2095629E+00
