 % time (yr) / surface conc_HCO3 (mol kg-1)
       0.500  0.1721655E-02
       1.500  0.1721210E-02
       2.500  0.1721195E-02
       3.500  0.1721261E-02
       4.500  0.1721305E-02
       5.500  0.1721365E-02
       6.500  0.1721467E-02
       7.500  0.1721521E-02
       8.500  0.1721679E-02
       9.500  0.1721788E-02
      10.500  0.1721946E-02
      20.479  0.1724631E-02
      30.479  0.1729905E-02
      40.479  0.1736532E-02
      50.479  0.1745641E-02
      60.479  0.1756320E-02
      70.479  0.1768404E-02
      80.479  0.1781735E-02
      90.479  0.1796804E-02
     100.479  0.1812910E-02
     200.479  0.1990284E-02
