 % time (yr) / global Ca (mol) / global Ca (mol kg-1) / surface Ca (mol kg-1) / benthic Ca (mol kg-1)
       0.500  0.1372021E+20  0.1025051E-01  0.1017362E-01  0.1029249E-01
       1.500  0.1372021E+20  0.1025051E-01  0.1017361E-01  0.1029249E-01
       2.500  0.1372021E+20  0.1025051E-01  0.1017359E-01  0.1029250E-01
       3.500  0.1372021E+20  0.1025051E-01  0.1017361E-01  0.1029250E-01
       4.500  0.1372021E+20  0.1025051E-01  0.1017361E-01  0.1029251E-01
       5.500  0.1372021E+20  0.1025051E-01  0.1017361E-01  0.1029251E-01
       6.500  0.1372021E+20  0.1025051E-01  0.1017361E-01  0.1029251E-01
       7.500  0.1372021E+20  0.1025051E-01  0.1017359E-01  0.1029251E-01
       8.500  0.1372021E+20  0.1025051E-01  0.1017362E-01  0.1029251E-01
       9.500  0.1372021E+20  0.1025051E-01  0.1017361E-01  0.1029251E-01
      10.500  0.1372021E+20  0.1025051E-01  0.1017363E-01  0.1029252E-01
      20.479  0.1372021E+20  0.1025050E-01  0.1017368E-01  0.1029251E-01
      30.479  0.1372021E+20  0.1025050E-01  0.1017386E-01  0.1029249E-01
      40.479  0.1372021E+20  0.1025050E-01  0.1017398E-01  0.1029248E-01
      50.479  0.1372021E+20  0.1025049E-01  0.1017426E-01  0.1029245E-01
      60.479  0.1372021E+20  0.1025048E-01  0.1017472E-01  0.1029241E-01
      70.479  0.1372021E+20  0.1025047E-01  0.1017527E-01  0.1029237E-01
      80.479  0.1372021E+20  0.1025047E-01  0.1017588E-01  0.1029228E-01
      90.479  0.1372021E+20  0.1025046E-01  0.1017667E-01  0.1029217E-01
     100.479  0.1372021E+20  0.1025045E-01  0.1017762E-01  0.1029206E-01
     200.479  0.1372021E+20  0.1025038E-01  0.1019348E-01  0.1028965E-01
