 % time (yr) / global FeL (mol) / global FeL (mol kg-1) / surface FeL (mol kg-1) / benthic FeL (mol kg-1)
       0.500  0.8526566E+12  0.6370284E-09  0.5838713E-09  0.5695360E-09
       1.500  0.8525838E+12  0.6369739E-09  0.5825692E-09  0.5695438E-09
       2.500  0.8525812E+12  0.6369720E-09  0.5825528E-09  0.5695419E-09
       3.500  0.8525731E+12  0.6369660E-09  0.5825521E-09  0.5695327E-09
       4.500  0.8525677E+12  0.6369619E-09  0.5825601E-09  0.5695197E-09
       5.500  0.8525592E+12  0.6369555E-09  0.5825597E-09  0.5695063E-09
       6.500  0.8525494E+12  0.6369483E-09  0.5825195E-09  0.5694913E-09
       7.500  0.8525407E+12  0.6369417E-09  0.5824643E-09  0.5694779E-09
       8.500  0.8525352E+12  0.6369376E-09  0.5825251E-09  0.5694669E-09
       9.500  0.8525221E+12  0.6369278E-09  0.5824673E-09  0.5694535E-09
      10.500  0.8525121E+12  0.6369203E-09  0.5824827E-09  0.5694434E-09
      20.479  0.8520803E+12  0.6365977E-09  0.5825192E-09  0.5692165E-09
      30.479  0.8516398E+12  0.6362682E-09  0.5824501E-09  0.5687117E-09
      40.479  0.8532608E+12  0.6374790E-09  0.5834554E-09  0.5691135E-09
      50.479  0.8556747E+12  0.6392820E-09  0.5845401E-09  0.5708275E-09
      60.479  0.8581329E+12  0.6411181E-09  0.5859182E-09  0.5730686E-09
      70.479  0.8606904E+12  0.6430283E-09  0.5873306E-09  0.5754764E-09
      80.479  0.8630147E+12  0.6447644E-09  0.5887790E-09  0.5778417E-09
      90.479  0.8651735E+12  0.6463769E-09  0.5901658E-09  0.5800098E-09
     100.479  0.8670964E+12  0.6478130E-09  0.5914083E-09  0.5818929E-09
     200.479  0.8741222E+12  0.6530572E-09  0.6041530E-09  0.5881684E-09
