 % time (yr) / global DOM_Fe (mol) / global DOM_Fe (mol kg-1) / surface DOM_Fe (mol kg-1) / benthic DOM_Fe (mol kg-1)
       0.500  0.1229923E+11  0.9188880E-11  0.2531587E-09  0.4916079E-14
       1.500  0.1233682E+11  0.9216965E-11  0.2539238E-09  0.4899121E-14
       2.500  0.1233742E+11  0.9217411E-11  0.2538966E-09  0.4935171E-14
       3.500  0.1233728E+11  0.9217307E-11  0.2538405E-09  0.4823681E-14
       4.500  0.1233741E+11  0.9217403E-11  0.2538237E-09  0.4822411E-14
       5.500  0.1233821E+11  0.9218004E-11  0.2538173E-09  0.4983964E-14
       6.500  0.1233709E+11  0.9217162E-11  0.2538083E-09  0.5005050E-14
       7.500  0.1233639E+11  0.9216641E-11  0.2538373E-09  0.4948104E-14
       8.500  0.1233600E+11  0.9216347E-11  0.2538118E-09  0.4791880E-14
       9.500  0.1233536E+11  0.9215875E-11  0.2538409E-09  0.4908418E-14
      10.500  0.1233635E+11  0.9216608E-11  0.2538381E-09  0.4888757E-14
      20.479  0.1233967E+11  0.9219090E-11  0.2540981E-09  0.5104855E-14
      30.479  0.1235125E+11  0.9227736E-11  0.2542239E-09  0.4640509E-14
      40.479  0.1238009E+11  0.9249283E-11  0.2549518E-09  0.4989932E-14
      50.479  0.1241628E+11  0.9276311E-11  0.2554026E-09  0.5378258E-14
      60.479  0.1246587E+11  0.9313350E-11  0.2561169E-09  0.4579876E-14
      70.479  0.1253049E+11  0.9361624E-11  0.2571643E-09  0.4242787E-14
      80.479  0.1260029E+11  0.9413764E-11  0.2585221E-09  0.3926157E-14
      90.479  0.1267330E+11  0.9468308E-11  0.2595656E-09  0.3832981E-14
     100.479  0.1275754E+11  0.9531238E-11  0.2607417E-09  0.3625780E-14
     200.479  0.1396969E+11  0.1043677E-10  0.2802525E-09  0.3702660E-14
