 % time (yr) / surface dCO3_cal (mol kg-1)
       0.500  0.1854381E-03
       1.500  0.1856176E-03
       2.500  0.1856227E-03
       3.500  0.1855977E-03
       4.500  0.1855784E-03
       5.500  0.1855552E-03
       6.500  0.1855156E-03
       7.500  0.1854914E-03
       8.500  0.1854314E-03
       9.500  0.1853888E-03
      10.500  0.1853255E-03
      20.479  0.1842771E-03
      30.479  0.1822613E-03
      40.479  0.1797090E-03
      50.479  0.1762541E-03
      60.479  0.1722422E-03
      70.479  0.1677275E-03
      80.479  0.1627704E-03
      90.479  0.1572211E-03
     100.479  0.1513346E-03
     200.479  0.8861467E-04
