 % time (yr) / global DIC (mol) / global DIC (mol kg-1) / surface DIC (mol kg-1) / benthic DIC (mol kg-1)
       0.500  0.3000097E+19  0.2241403E-02  0.1958665E-02  0.2304624E-02
       1.500  0.3000087E+19  0.2241396E-02  0.1958383E-02  0.2304625E-02
       2.500  0.3000086E+19  0.2241394E-02  0.1958372E-02  0.2304625E-02
       3.500  0.3000085E+19  0.2241394E-02  0.1958416E-02  0.2304626E-02
       4.500  0.3000085E+19  0.2241394E-02  0.1958443E-02  0.2304627E-02
       5.500  0.3000086E+19  0.2241395E-02  0.1958480E-02  0.2304626E-02
       6.500  0.3000089E+19  0.2241397E-02  0.1958547E-02  0.2304625E-02
       7.500  0.3000094E+19  0.2241401E-02  0.1958577E-02  0.2304624E-02
       8.500  0.3000100E+19  0.2241405E-02  0.1958682E-02  0.2304625E-02
       9.500  0.3000108E+19  0.2241411E-02  0.1958750E-02  0.2304624E-02
      10.500  0.3000118E+19  0.2241418E-02  0.1958849E-02  0.2304623E-02
      20.479  0.3000339E+19  0.2241583E-02  0.1960565E-02  0.2304620E-02
      30.479  0.3000821E+19  0.2241942E-02  0.1963979E-02  0.2304639E-02
      40.479  0.3001614E+19  0.2242534E-02  0.1968240E-02  0.2304706E-02
      50.479  0.3002758E+19  0.2243387E-02  0.1974174E-02  0.2304863E-02
      60.479  0.3004260E+19  0.2244507E-02  0.1981174E-02  0.2305109E-02
      70.479  0.3006133E+19  0.2245905E-02  0.1989133E-02  0.2305437E-02
      80.479  0.3008393E+19  0.2247591E-02  0.1997957E-02  0.2305859E-02
      90.479  0.3011033E+19  0.2249563E-02  0.2008020E-02  0.2306370E-02
     100.479  0.3014027E+19  0.2251798E-02  0.2018859E-02  0.2307026E-02
     200.479  0.3061239E+19  0.2287053E-02  0.2144258E-02  0.2319732E-02
