 % time (yr) / global rate (mol yr-1) / mean rate (mol kg-1 yr-1)
           0.500   0.201682E+20   0.660637E+00
           1.500   0.201691E+20   0.660666E+00
           2.500   0.201678E+20   0.660625E+00
           3.500   0.201679E+20   0.660628E+00
           4.500   0.201691E+20   0.660668E+00
           5.500   0.201686E+20   0.660650E+00
           6.500   0.201684E+20   0.660643E+00
           7.500   0.201689E+20   0.660662E+00
           8.500   0.201692E+20   0.660671E+00
           9.500   0.201690E+20   0.660665E+00
          10.500   0.201718E+20   0.660756E+00
          20.479   0.201820E+20   0.661090E+00
          30.479   0.202028E+20   0.661771E+00
          40.479   0.202348E+20   0.662820E+00
          50.479   0.202769E+20   0.664198E+00
          60.479   0.203240E+20   0.665738E+00
          70.479   0.203800E+20   0.667572E+00
          80.479   0.204414E+20   0.669584E+00
          90.479   0.205028E+20   0.671596E+00
         100.479   0.205708E+20   0.673821E+00
         200.479   0.214437E+20   0.702408E+00
