 % time (yr) / global pO2 sea->air transfer flux (mol yr-1) / global pO2 density (mol m-2 yr-1)
       0.500 -0.1324865E+14      -0.036
       1.500  0.9058926E+12       0.002
       2.500  0.1605409E+12       0.000
       3.500 -0.1351248E+13      -0.004
       4.500 -0.1678907E+13      -0.005
       5.500 -0.2044732E+13      -0.006
       6.500 -0.1222087E+13      -0.003
       7.500  0.2694589E+13       0.007
       8.500 -0.3035582E+13      -0.008
       9.500  0.5212171E+12       0.001
      10.500  0.2761321E+13       0.008
      20.479  0.3895869E+13       0.011
      30.479 -0.5713896E+13      -0.016
      40.479  0.1482358E+14       0.040
      50.479  0.1093356E+14       0.030
      60.479  0.1093693E+14       0.030
      70.479  0.1954336E+14       0.053
      80.479  0.3081963E+14       0.084
      90.479  0.1920938E+14       0.052
     100.479  0.1302799E+14       0.035
     200.479  0.4202805E+14       0.114
