 % time (yr) / surface RF0 (mol kg-1)
       0.500  0.9403109E+01
       1.500  0.9396715E+01
       2.500  0.9396748E+01
       3.500  0.9397540E+01
       4.500  0.9398043E+01
       5.500  0.9398632E+01
       6.500  0.9399823E+01
       7.500  0.9399984E+01
       8.500  0.9401832E+01
       9.500  0.9402835E+01
      10.500  0.9404045E+01
      20.479  0.9429437E+01
      30.479  0.9481838E+01
      40.479  0.9543854E+01
      50.479  0.9635520E+01
      60.479  0.9744857E+01
      70.479  0.9871617E+01
      80.479  0.1001598E+02
      90.479  0.1019006E+02
     100.479  0.1038501E+02
     200.479  0.1319204E+02
