 % time (yr) / global POM_Fe flux (mol yr-1) / global POM_Fe density (mol m-2 yr-1)
       0.500  0.5356989E+10  0.1457774E-04
       1.500  0.5358452E+10  0.1458172E-04
       2.500  0.5357378E+10  0.1457880E-04
       3.500  0.5363202E+10  0.1459464E-04
       4.500  0.5360278E+10  0.1458669E-04
       5.500  0.5364232E+10  0.1459745E-04
       6.500  0.5371045E+10  0.1461599E-04
       7.500  0.5359741E+10  0.1458523E-04
       8.500  0.5363001E+10  0.1459410E-04
       9.500  0.5367275E+10  0.1460573E-04
      10.500  0.5360862E+10  0.1458828E-04
      20.479  0.5441603E+10  0.1480799E-04
      30.479  0.5376640E+10  0.1463121E-04
      40.479  0.5104179E+10  0.1388978E-04
      50.479  0.5103465E+10  0.1388783E-04
      60.479  0.5056678E+10  0.1376051E-04
      70.479  0.5083213E+10  0.1383272E-04
      80.479  0.5103032E+10  0.1388666E-04
      90.479  0.5126910E+10  0.1395163E-04
     100.479  0.5146357E+10  0.1400455E-04
     200.479  0.5365494E+10  0.1460088E-04
