 % time (yr) / global CaCO3 flux (mol yr-1) / global CaCO3 density (mol m-2 yr-1)
       0.500  0.1103493E+15  0.3002888E+00
       1.500  0.1115000E+15  0.3034199E+00
       2.500  0.1114497E+15  0.3032832E+00
       3.500  0.1114842E+15  0.3033770E+00
       4.500  0.1114798E+15  0.3033652E+00
       5.500  0.1114782E+15  0.3033606E+00
       6.500  0.1114304E+15  0.3032307E+00
       7.500  0.1113856E+15  0.3031088E+00
       8.500  0.1113552E+15  0.3030260E+00
       9.500  0.1112937E+15  0.3028585E+00
      10.500  0.1113022E+15  0.3028819E+00
      20.479  0.1104086E+15  0.3004500E+00
      30.479  0.1091749E+15  0.2970928E+00
      40.479  0.1076318E+15  0.2928938E+00
      50.479  0.1057662E+15  0.2878170E+00
      60.479  0.1034076E+15  0.2813985E+00
      70.479  0.1005315E+15  0.2735718E+00
      80.479  0.9724248E+14  0.2646217E+00
      90.479  0.9387194E+14  0.2554496E+00
     100.479  0.9027791E+14  0.2456693E+00
     200.479  0.4824743E+14  0.1312936E+00
