 % time (yr) / surface conc_CO3 (mol kg-1)
       0.500  0.2274635E-03
       1.500  0.2276431E-03
       2.500  0.2276481E-03
       3.500  0.2276232E-03
       4.500  0.2276040E-03
       5.500  0.2275807E-03
       6.500  0.2275411E-03
       7.500  0.2275168E-03
       8.500  0.2274568E-03
       9.500  0.2274141E-03
      10.500  0.2273506E-03
      20.479  0.2263006E-03
      30.479  0.2242824E-03
      40.479  0.2217260E-03
      50.479  0.2182666E-03
      60.479  0.2142486E-03
      70.479  0.2097274E-03
      80.479  0.2047633E-03
      90.479  0.1992064E-03
     100.479  0.1933118E-03
     200.479  0.1304882E-03
