 % time (yr) / global rate (mol yr-1) / mean rate (mol kg-1 yr-1)
           0.500   0.688026E+20   0.225373E+01
           1.500   0.688020E+20   0.225371E+01
           2.500   0.688009E+20   0.225367E+01
           3.500   0.688009E+20   0.225367E+01
           4.500   0.688030E+20   0.225374E+01
           5.500   0.688043E+20   0.225378E+01
           6.500   0.688064E+20   0.225385E+01
           7.500   0.688090E+20   0.225394E+01
           8.500   0.688137E+20   0.225409E+01
           9.500   0.688198E+20   0.225429E+01
          10.500   0.688322E+20   0.225469E+01
          20.479   0.689515E+20   0.225860E+01
          30.479   0.691537E+20   0.226523E+01
          40.479   0.694777E+20   0.227584E+01
          50.479   0.698943E+20   0.228948E+01
          60.479   0.703940E+20   0.230585E+01
          70.479   0.709472E+20   0.232397E+01
          80.479   0.715429E+20   0.234348E+01
          90.479   0.721740E+20   0.236415E+01
         100.479   0.728758E+20   0.238714E+01
         200.479   0.826313E+20   0.270667E+01
