 % time (yr) / mean ocean surface pH
       0.500 8.145773
       1.500 8.146310
       2.500 8.146297
       3.500 8.146270
       4.500 8.146235
       5.500 8.146162
       6.500 8.146069
       7.500 8.145988
       8.500 8.145821
       9.500 8.145660
      10.500 8.145501
      20.479 8.142330
      30.479 8.136685
      40.479 8.128950
      50.479 8.118952
      60.479 8.106907
      70.479 8.093030
      80.479 8.077489
      90.479 8.060217
     100.479 8.041524
     200.479 7.804098
