 % time (yr) / global DOM_P (mol) / global DOM_P (mol kg-1) / surface DOM_P (mol kg-1) / benthic DOM_P (mol kg-1)
       0.500  0.1393497E+14  0.1041096E-07  0.2798154E-06  0.5045607E-11
       1.500  0.1398650E+14  0.1044946E-07  0.2809399E-06  0.5017710E-11
       2.500  0.1399113E+14  0.1045291E-07  0.2809496E-06  0.5053552E-11
       3.500  0.1399228E+14  0.1045378E-07  0.2809015E-06  0.4934030E-11
       4.500  0.1399301E+14  0.1045432E-07  0.2808883E-06  0.4933645E-11
       5.500  0.1399406E+14  0.1045510E-07  0.2808851E-06  0.5107711E-11
       6.500  0.1399314E+14  0.1045442E-07  0.2808784E-06  0.5130307E-11
       7.500  0.1399257E+14  0.1045399E-07  0.2809123E-06  0.5070195E-11
       8.500  0.1399232E+14  0.1045380E-07  0.2808851E-06  0.4901419E-11
       9.500  0.1399165E+14  0.1045330E-07  0.2809166E-06  0.5025968E-11
      10.500  0.1399277E+14  0.1045414E-07  0.2809131E-06  0.5004233E-11
      20.479  0.1399662E+14  0.1045702E-07  0.2811756E-06  0.5277827E-11
      30.479  0.1400947E+14  0.1046661E-07  0.2812854E-06  0.4773559E-11
      40.479  0.1403804E+14  0.1048795E-07  0.2819723E-06  0.5177390E-11
      50.479  0.1407140E+14  0.1051287E-07  0.2822622E-06  0.5591078E-11
      60.479  0.1411471E+14  0.1054522E-07  0.2827588E-06  0.4721911E-11
      70.479  0.1417415E+14  0.1058961E-07  0.2835943E-06  0.4286177E-11
      80.479  0.1423902E+14  0.1063808E-07  0.2847556E-06  0.3986043E-11
      90.479  0.1430687E+14  0.1068876E-07  0.2855445E-06  0.3914227E-11
     100.479  0.1438972E+14  0.1075065E-07  0.2865178E-06  0.3723542E-11
     200.479  0.1561654E+14  0.1166713E-07  0.3040947E-06  0.4185888E-11
