 % time (yr) / surface air temperature (degrees C)
       0.500   13.882
       1.500   13.887
       2.500   13.882
       3.500   13.883
       4.500   13.885
       5.500   13.884
       6.500   13.885
       7.500   13.880
       8.500   13.888
       9.500   13.882
      10.500   13.890
      20.479   13.929
      30.479   14.015
      40.479   14.120
      50.479   14.269
      60.479   14.433
      70.479   14.624
      80.479   14.860
      90.479   15.069
     100.479   15.291
     200.479   18.074
