 % time (yr) / global ALK (mol) / global ALK (mol kg-1) / surface ALK (mol kg-1) / benthic ALK (mol kg-1)
       0.500  0.3163222E+19  0.2363275E-02  0.2284043E-02  0.2407603E-02
       1.500  0.3163223E+19  0.2363276E-02  0.2284044E-02  0.2407606E-02
       2.500  0.3163223E+19  0.2363276E-02  0.2284040E-02  0.2407608E-02
       3.500  0.3163223E+19  0.2363276E-02  0.2284045E-02  0.2407611E-02
       4.500  0.3163223E+19  0.2363276E-02  0.2284043E-02  0.2407613E-02
       5.500  0.3163223E+19  0.2363276E-02  0.2284044E-02  0.2407614E-02
       6.500  0.3163223E+19  0.2363276E-02  0.2284048E-02  0.2407615E-02
       7.500  0.3163223E+19  0.2363276E-02  0.2284041E-02  0.2407615E-02
       8.500  0.3163223E+19  0.2363276E-02  0.2284050E-02  0.2407617E-02
       9.500  0.3163223E+19  0.2363276E-02  0.2284050E-02  0.2407617E-02
      10.500  0.3163223E+19  0.2363276E-02  0.2284051E-02  0.2407618E-02
      20.479  0.3163223E+19  0.2363276E-02  0.2284112E-02  0.2407605E-02
      30.479  0.3163224E+19  0.2363275E-02  0.2284355E-02  0.2407581E-02
      40.479  0.3163224E+19  0.2363274E-02  0.2284588E-02  0.2407537E-02
      50.479  0.3163225E+19  0.2363273E-02  0.2285069E-02  0.2407473E-02
      60.479  0.3163226E+19  0.2363272E-02  0.2285714E-02  0.2407382E-02
      70.479  0.3163228E+19  0.2363272E-02  0.2286503E-02  0.2407251E-02
      80.479  0.3163229E+19  0.2363271E-02  0.2287430E-02  0.2407078E-02
      90.479  0.3163231E+19  0.2363271E-02  0.2288632E-02  0.2406857E-02
     100.479  0.3163233E+19  0.2363270E-02  0.2290035E-02  0.2406624E-02
     200.479  0.3163259E+19  0.2363272E-02  0.2310967E-02  0.2402044E-02
