 % time (yr) / global pCO2 (mol) / global pCO2 (atm)
       0.500  0.4914344E+17  0.2777721E-03
       1.500  0.4915436E+17  0.2778338E-03
       2.500  0.4917251E+17  0.2779364E-03
       3.500  0.4919614E+17  0.2780700E-03
       4.500  0.4922674E+17  0.2782429E-03
       5.500  0.4926293E+17  0.2784475E-03
       6.500  0.4930474E+17  0.2786838E-03
       7.500  0.4935335E+17  0.2789586E-03
       8.500  0.4940671E+17  0.2792602E-03
       9.500  0.4946655E+17  0.2795984E-03
      10.500  0.4953279E+17  0.2799728E-03
      20.479  0.5046443E+17  0.2852387E-03
      30.479  0.5185539E+17  0.2931008E-03
      40.479  0.5365806E+17  0.3032899E-03
      50.479  0.5585240E+17  0.3156930E-03
      60.479  0.5842518E+17  0.3302350E-03
      70.479  0.6137089E+17  0.3468850E-03
      80.479  0.6470875E+17  0.3657515E-03
      90.479  0.6840490E+17  0.3866431E-03
     100.479  0.7249428E+17  0.4097574E-03
     200.479  0.1394383E+18  0.7881435E-03
