 % time (yr) / global CaCO3 flux (mol yr-1) / global CaCO3 density (mol m-2 yr-1)
       0.500  0.7217146E+14  0.1963970E+00
       1.500  0.7292770E+14  0.1984549E+00
       2.500  0.7288723E+14  0.1983448E+00
       3.500  0.7290992E+14  0.1984065E+00
       4.500  0.7291472E+14  0.1984196E+00
       5.500  0.7291176E+14  0.1984116E+00
       6.500  0.7287571E+14  0.1983135E+00
       7.500  0.7284967E+14  0.1982426E+00
       8.500  0.7282923E+14  0.1981870E+00
       9.500  0.7279067E+14  0.1980821E+00
      10.500  0.7279410E+14  0.1980914E+00
      20.479  0.7221069E+14  0.1965038E+00
      30.479  0.7138772E+14  0.1942643E+00
      40.479  0.7041961E+14  0.1916298E+00
      50.479  0.6919231E+14  0.1882900E+00
      60.479  0.6766552E+14  0.1841352E+00
      70.479  0.6578705E+14  0.1790234E+00
      80.479  0.6365918E+14  0.1732329E+00
      90.479  0.6144498E+14  0.1672075E+00
     100.479  0.5909393E+14  0.1608097E+00
     200.479  0.3165216E+14  0.8613363E-01
