 % time (yr) / global DOM_C (mol) / global DOM_C (mol kg-1) / surface DOM_C (mol kg-1) / benthic DOM_C (mol kg-1)
       0.500  0.1630391E+16  0.1218082E-05  0.3273840E-04  0.5903361E-09
       1.500  0.1636421E+16  0.1222587E-05  0.3286997E-04  0.5870720E-09
       2.500  0.1636962E+16  0.1222991E-05  0.3287110E-04  0.5912656E-09
       3.500  0.1637097E+16  0.1223092E-05  0.3286548E-04  0.5772815E-09
       4.500  0.1637182E+16  0.1223155E-05  0.3286393E-04  0.5772365E-09
       5.500  0.1637305E+16  0.1223247E-05  0.3286356E-04  0.5976022E-09
       6.500  0.1637198E+16  0.1223167E-05  0.3286277E-04  0.6002459E-09
       7.500  0.1637131E+16  0.1223117E-05  0.3286674E-04  0.5932128E-09
       8.500  0.1637102E+16  0.1223095E-05  0.3286356E-04  0.5734660E-09
       9.500  0.1637023E+16  0.1223036E-05  0.3286724E-04  0.5880383E-09
      10.500  0.1637154E+16  0.1223134E-05  0.3286683E-04  0.5854953E-09
      20.479  0.1637605E+16  0.1223471E-05  0.3289754E-04  0.6175057E-09
      30.479  0.1639109E+16  0.1224594E-05  0.3291039E-04  0.5585064E-09
      40.479  0.1642451E+16  0.1227090E-05  0.3299076E-04  0.6057547E-09
      50.479  0.1646354E+16  0.1230006E-05  0.3302467E-04  0.6541562E-09
      60.479  0.1651421E+16  0.1233790E-05  0.3308278E-04  0.5524636E-09
      70.479  0.1658375E+16  0.1238985E-05  0.3318053E-04  0.5014828E-09
      80.479  0.1665966E+16  0.1244655E-05  0.3331641E-04  0.4663670E-09
      90.479  0.1673903E+16  0.1250584E-05  0.3340870E-04  0.4579645E-09
     100.479  0.1683597E+16  0.1257826E-05  0.3352259E-04  0.4356544E-09
     200.479  0.1827136E+16  0.1365054E-05  0.3557908E-04  0.4897489E-09
