 % time (yr) / global det flux (mol yr-1) / global det density (mol m-2 yr-1)
       0.500  0.1659773E+14  0.4516666E-01
       1.500  0.1659771E+14  0.4516662E-01
       2.500  0.1659771E+14  0.4516662E-01
       3.500  0.1659771E+14  0.4516662E-01
       4.500  0.1659771E+14  0.4516662E-01
       5.500  0.1659771E+14  0.4516662E-01
       6.500  0.1659771E+14  0.4516662E-01
       7.500  0.1659771E+14  0.4516662E-01
       8.500  0.1659771E+14  0.4516662E-01
       9.500  0.1659771E+14  0.4516662E-01
      10.500  0.1659771E+14  0.4516662E-01
      20.479  0.1659771E+14  0.4516662E-01
      30.479  0.1659771E+14  0.4516662E-01
      40.479  0.1659771E+14  0.4516662E-01
      50.479  0.1659771E+14  0.4516662E-01
      60.479  0.1659771E+14  0.4516662E-01
      70.479  0.1659771E+14  0.4516662E-01
      80.479  0.1659771E+14  0.4516662E-01
      90.479  0.1659771E+14  0.4516662E-01
     100.479  0.1659771E+14  0.4516662E-01
     200.479  0.1659771E+14  0.4516662E-01
