 % time (yr) / global POP flux (mol yr-1) / global POP density (mol m-2 yr-1)
       0.500  0.7851647E+13  0.2136634E-01
       1.500  0.7934719E+13  0.2159240E-01
       2.500  0.7932133E+13  0.2158537E-01
       3.500  0.7937067E+13  0.2159879E-01
       4.500  0.7937279E+13  0.2159937E-01
       5.500  0.7938448E+13  0.2160255E-01
       6.500  0.7937189E+13  0.2159912E-01
       7.500  0.7933997E+13  0.2159044E-01
       8.500  0.7935171E+13  0.2159363E-01
       9.500  0.7931966E+13  0.2158491E-01
      10.500  0.7935556E+13  0.2159468E-01
      20.479  0.7914893E+13  0.2153845E-01
      30.479  0.7912682E+13  0.2153243E-01
      40.479  0.7917497E+13  0.2154554E-01
      50.479  0.7944876E+13  0.2162004E-01
      60.479  0.7953390E+13  0.2164321E-01
      70.479  0.7942263E+13  0.2161293E-01
      80.479  0.7912764E+13  0.2153266E-01
      90.479  0.7919814E+13  0.2155184E-01
     100.479  0.7926587E+13  0.2157027E-01
     200.479  0.7667093E+13  0.2086412E-01
