 % time (yr) / surface fug_CO2 (atm)
       0.500  0.2877992E-03
       1.500  0.2873674E-03
       2.500  0.2873766E-03
       3.500  0.2873986E-03
       4.500  0.2874276E-03
       5.500  0.2874866E-03
       6.500  0.2875633E-03
       7.500  0.2876303E-03
       8.500  0.2877663E-03
       9.500  0.2878980E-03
      10.500  0.2880301E-03
      20.479  0.2906502E-03
      30.479  0.2953885E-03
      40.479  0.3019940E-03
      50.479  0.3107455E-03
      60.479  0.3215988E-03
      70.479  0.3345422E-03
      80.479  0.3496120E-03
      90.479  0.3670898E-03
     100.479  0.3869041E-03
     200.479  0.7400728E-03
