 % time (yr) / mean (land) surface air temperature (degrees C)
       0.500    9.138604
       1.500    9.150157
       2.500    9.137729
       3.500    9.144546
       4.500    9.145071
       5.500    9.144262
       6.500    9.147574
       7.500    9.131986
       8.500    9.152046
       9.500    9.127378
      10.500    9.138331
      20.479    9.190495
      30.479    9.335327
      40.479    9.458926
      50.479    9.674492
      60.479    9.893383
      70.479   10.148430
      80.479   10.515854
      90.479   10.798660
     100.479   11.090758
     200.479   14.471210
