 % time (yr) / global PO4 (mol) / global PO4 (mol kg-1) / surface PO4 (mol kg-1) / benthic PO4 (mol kg-1)
       0.500  0.2875776E+16  0.2148521E-05  0.3095019E-06  0.2484819E-05
       1.500  0.2875722E+16  0.2148481E-05  0.3071494E-06  0.2484822E-05
       2.500  0.2875718E+16  0.2148478E-05  0.3070631E-06  0.2484816E-05
       3.500  0.2875716E+16  0.2148477E-05  0.3072320E-06  0.2484817E-05
       4.500  0.2875716E+16  0.2148476E-05  0.3072039E-06  0.2484817E-05
       5.500  0.2875715E+16  0.2148475E-05  0.3072167E-06  0.2484814E-05
       6.500  0.2875716E+16  0.2148476E-05  0.3073127E-06  0.2484811E-05
       7.500  0.2875716E+16  0.2148477E-05  0.3070732E-06  0.2484806E-05
       8.500  0.2875716E+16  0.2148477E-05  0.3072528E-06  0.2484809E-05
       9.500  0.2875717E+16  0.2148477E-05  0.3071286E-06  0.2484804E-05
      10.500  0.2875716E+16  0.2148476E-05  0.3070323E-06  0.2484803E-05
      20.479  0.2875713E+16  0.2148474E-05  0.3062781E-06  0.2484862E-05
      30.479  0.2875700E+16  0.2148463E-05  0.3077236E-06  0.2484948E-05
      40.479  0.2875671E+16  0.2148441E-05  0.3053859E-06  0.2485202E-05
      50.479  0.2875637E+16  0.2148414E-05  0.3060605E-06  0.2485820E-05
      60.479  0.2875594E+16  0.2148379E-05  0.3061292E-06  0.2486694E-05
      70.479  0.2875534E+16  0.2148334E-05  0.3052535E-06  0.2487666E-05
      80.479  0.2875470E+16  0.2148284E-05  0.3033794E-06  0.2488784E-05
      90.479  0.2875402E+16  0.2148232E-05  0.3045907E-06  0.2489908E-05
     100.479  0.2875319E+16  0.2148169E-05  0.3064391E-06  0.2491370E-05
     200.479  0.2874100E+16  0.2147242E-05  0.3080889E-06  0.2510416E-05
