 % time (yr) / global L (mol) / global L (mol kg-1) / surface L (mol kg-1) / benthic L (mol kg-1)
       0.500  0.4859012E+12  0.3630217E-09  0.4140838E-09  0.4321031E-09
       1.500  0.4859741E+12  0.3630761E-09  0.4153864E-09  0.4320954E-09
       2.500  0.4859766E+12  0.3630780E-09  0.4154016E-09  0.4320979E-09
       3.500  0.4859847E+12  0.3630841E-09  0.4154039E-09  0.4321074E-09
       4.500  0.4859901E+12  0.3630881E-09  0.4153959E-09  0.4321206E-09
       5.500  0.4859987E+12  0.3630945E-09  0.4153965E-09  0.4321343E-09
       6.500  0.4860084E+12  0.3631018E-09  0.4154363E-09  0.4321495E-09
       7.500  0.4860172E+12  0.3631083E-09  0.4154902E-09  0.4321630E-09
       8.500  0.4860227E+12  0.3631124E-09  0.4154314E-09  0.4321741E-09
       9.500  0.4860358E+12  0.3631222E-09  0.4154882E-09  0.4321876E-09
      10.500  0.4860458E+12  0.3631297E-09  0.4154754E-09  0.4321978E-09
      20.479  0.4864775E+12  0.3634522E-09  0.4154422E-09  0.4324239E-09
      30.479  0.4869181E+12  0.3637812E-09  0.4155166E-09  0.4329283E-09
      40.479  0.4852970E+12  0.3625699E-09  0.4145144E-09  0.4325266E-09
      50.479  0.4828831E+12  0.3607662E-09  0.4134339E-09  0.4308115E-09
      60.479  0.4804249E+12  0.3589294E-09  0.4120717E-09  0.4285682E-09
      70.479  0.4778675E+12  0.3570184E-09  0.4106796E-09  0.4261607E-09
      80.479  0.4755431E+12  0.3552816E-09  0.4092510E-09  0.4237936E-09
      90.479  0.4733843E+12  0.3536686E-09  0.4078843E-09  0.4216227E-09
     100.479  0.4714615E+12  0.3522317E-09  0.4066689E-09  0.4197361E-09
     200.479  0.4644356E+12  0.3469802E-09  0.3945370E-09  0.4134069E-09
