 % time (yr) / global sea-ice area (m2) / mean sea-ice cover (%) / global sea-ice volume (m3) / mean sea-ice thickness (m)
       0.500  0.3093E+14    8.416  0.4354E+14    1.481
       1.500  0.3092E+14    8.415  0.4350E+14    1.481
       2.500  0.3096E+14    8.425  0.4352E+14    1.479
       3.500  0.3092E+14    8.413  0.4349E+14    1.482
       4.500  0.3089E+14    8.406  0.4351E+14    1.484
       5.500  0.3090E+14    8.410  0.4348E+14    1.482
       6.500  0.3088E+14    8.403  0.4349E+14    1.484
       7.500  0.3092E+14    8.413  0.4358E+14    1.483
       8.500  0.3089E+14    8.406  0.4350E+14    1.483
       9.500  0.3094E+14    8.420  0.4355E+14    1.481
      10.500  0.3090E+14    8.408  0.4347E+14    1.482
      20.479  0.3100E+14    8.436  0.4327E+14    1.472
      30.479  0.3065E+14    8.342  0.4264E+14    1.456
      40.479  0.3075E+14    8.368  0.4203E+14    1.441
      50.479  0.3009E+14    8.188  0.4097E+14    1.439
      60.479  0.2970E+14    8.081  0.3996E+14    1.419
      70.479  0.2943E+14    8.009  0.3888E+14    1.394
      80.479  0.2927E+14    7.965  0.3771E+14    1.363
      90.479  0.2868E+14    7.804  0.3695E+14    1.360
     100.479  0.2791E+14    7.596  0.3574E+14    1.349
     200.479  0.2198E+14    5.980  0.2454E+14    1.198
