 % time (yr) / surface H (mol kg-1)
       0.500  0.7148700E-08
       1.500  0.7139866E-08
       2.500  0.7140086E-08
       3.500  0.7140528E-08
       4.500  0.7141103E-08
       5.500  0.7142295E-08
       6.500  0.7143827E-08
       7.500  0.7145163E-08
       8.500  0.7147902E-08
       9.500  0.7150562E-08
      10.500  0.7153185E-08
      20.479  0.7205591E-08
      30.479  0.7299867E-08
      40.479  0.7431051E-08
      50.479  0.7604098E-08
      60.479  0.7817959E-08
      70.479  0.8071797E-08
      80.479  0.8365873E-08
      90.479  0.8705288E-08
     100.479  0.9088151E-08
     200.479  0.1570009E-07
