 % time (yr) / mean CaCO3_Fe composition (wt%)
       0.500    0.000000
       1.500    0.000000
       2.500    0.000000
       3.500    0.000000
       4.500    0.000000
       5.500    0.000000
       6.500    0.000000
       7.500    0.000000
       8.500    0.000000
       9.500    0.000000
      10.500    0.000000
      20.479    0.000000
      30.479    0.000000
      40.479    0.000000
      50.479    0.000000
      60.479    0.000000
      70.479    0.000000
      80.479    0.000000
      90.479    0.000000
     100.479    0.000000
     200.479    0.000000
