 % time (yr) / global POC flux (mol yr-1) / global POC density (mol m-2 yr-1)
       0.500  0.9186427E+15  0.2499862E+01
       1.500  0.9283621E+15  0.2526311E+01
       2.500  0.9280596E+15  0.2525488E+01
       3.500  0.9286368E+15  0.2527058E+01
       4.500  0.9286617E+15  0.2527126E+01
       5.500  0.9287984E+15  0.2527498E+01
       6.500  0.9286511E+15  0.2527097E+01
       7.500  0.9282776E+15  0.2526081E+01
       8.500  0.9284150E+15  0.2526455E+01
       9.500  0.9280400E+15  0.2525434E+01
      10.500  0.9284600E+15  0.2526577E+01
      20.479  0.9260425E+15  0.2519999E+01
      30.479  0.9257838E+15  0.2519295E+01
      40.479  0.9263471E+15  0.2520828E+01
      50.479  0.9295505E+15  0.2529545E+01
      60.479  0.9305466E+15  0.2532256E+01
      70.479  0.9292448E+15  0.2528713E+01
      80.479  0.9257934E+15  0.2519321E+01
      90.479  0.9266183E+15  0.2521565E+01
     100.479  0.9274107E+15  0.2523722E+01
     200.479  0.8970498E+15  0.2441102E+01
