 % time (yr) / global POFe flux (mol yr-1) / global POFe density (mol m-2 yr-1)
       0.500  0.6424568E+10  0.1748290E-04
       1.500  0.6470477E+10  0.1760782E-04
       2.500  0.6467764E+10  0.1760044E-04
       3.500  0.6472343E+10  0.1761290E-04
       4.500  0.6472841E+10  0.1761426E-04
       5.500  0.6473762E+10  0.1761676E-04
       6.500  0.6471857E+10  0.1761158E-04
       7.500  0.6468189E+10  0.1760160E-04
       8.500  0.6470375E+10  0.1760755E-04
       9.500  0.6466605E+10  0.1759729E-04
      10.500  0.6470152E+10  0.1760694E-04
      20.479  0.6450003E+10  0.1755211E-04
      30.479  0.6443618E+10  0.1753473E-04
      40.479  0.6455156E+10  0.1756613E-04
      50.479  0.6486109E+10  0.1765036E-04
      60.479  0.6502254E+10  0.1769430E-04
      70.479  0.6499489E+10  0.1768677E-04
      80.479  0.6479386E+10  0.1763207E-04
      90.479  0.6490392E+10  0.1766202E-04
     100.479  0.6499184E+10  0.1768594E-04
     200.479  0.6259477E+10  0.1703364E-04
