 % time (yr) / global POFe flux (mol yr-1) / global POFe density (mol m-2 yr-1)
       0.500  0.6485639E+09  0.1764908E-05
       1.500  0.6537128E+09  0.1778920E-05
       2.500  0.6526099E+09  0.1775919E-05
       3.500  0.6529485E+09  0.1776840E-05
       4.500  0.6537941E+09  0.1779141E-05
       5.500  0.6533316E+09  0.1777882E-05
       6.500  0.6529262E+09  0.1776779E-05
       7.500  0.6532363E+09  0.1777623E-05
       8.500  0.6529308E+09  0.1776792E-05
       9.500  0.6529159E+09  0.1776751E-05
      10.500  0.6514979E+09  0.1772892E-05
      20.479  0.6490220E+09  0.1766155E-05
      30.479  0.6465122E+09  0.1759325E-05
      40.479  0.6515934E+09  0.1773152E-05
      50.479  0.6516914E+09  0.1773419E-05
      60.479  0.6538745E+09  0.1779360E-05
      70.479  0.6553240E+09  0.1783304E-05
      80.479  0.6548860E+09  0.1782112E-05
      90.479  0.6531920E+09  0.1777503E-05
     100.479  0.6536389E+09  0.1778719E-05
     200.479  0.6443549E+09  0.1753455E-05
