 % time (yr) / mean saturation state
       0.500  0.5416258E+01
       1.500  0.5420512E+01
       2.500  0.5420640E+01
       3.500  0.5420040E+01
       4.500  0.5419580E+01
       5.500  0.5419034E+01
       6.500  0.5418096E+01
       7.500  0.5417524E+01
       8.500  0.5416101E+01
       9.500  0.5415106E+01
      10.500  0.5413609E+01
      20.479  0.5388851E+01
      30.479  0.5341174E+01
      40.479  0.5280899E+01
      50.479  0.5199202E+01
      60.479  0.5104379E+01
      70.479  0.4997597E+01
      80.479  0.4880296E+01
      90.479  0.4748903E+01
     100.479  0.4609480E+01
     200.479  0.3121379E+01
