 % time (yr) / global Fe (mol) / global Fe (mol kg-1) / surface Fe (mol kg-1) / benthic Fe (mol kg-1)
       0.500  0.3196499E+11  0.2388136E-10  0.4803918E-10  0.1412891E-10
       1.500  0.3198587E+11  0.2389697E-10  0.4767660E-10  0.1412933E-10
       2.500  0.3198435E+11  0.2389583E-10  0.4766481E-10  0.1412844E-10
       3.500  0.3198394E+11  0.2389552E-10  0.4765932E-10  0.1412711E-10
       4.500  0.3198196E+11  0.2389404E-10  0.4764695E-10  0.1412483E-10
       5.500  0.3198031E+11  0.2389281E-10  0.4763961E-10  0.1412219E-10
       6.500  0.3197573E+11  0.2388939E-10  0.4763097E-10  0.1411991E-10
       7.500  0.3197878E+11  0.2389167E-10  0.4763991E-10  0.1411785E-10
       8.500  0.3197626E+11  0.2388978E-10  0.4763195E-10  0.1411624E-10
       9.500  0.3197533E+11  0.2388909E-10  0.4766449E-10  0.1411450E-10
      10.500  0.3197723E+11  0.2389051E-10  0.4767624E-10  0.1411332E-10
      20.479  0.3183781E+11  0.2378634E-10  0.4788265E-10  0.1411386E-10
      30.479  0.3182808E+11  0.2377906E-10  0.4800072E-10  0.1408128E-10
      40.479  0.3203638E+11  0.2393468E-10  0.4836756E-10  0.1409121E-10
      50.479  0.3217925E+11  0.2404140E-10  0.4858747E-10  0.1417945E-10
      60.479  0.3234493E+11  0.2416516E-10  0.4887030E-10  0.1430060E-10
      70.479  0.3253023E+11  0.2430358E-10  0.4923963E-10  0.1442507E-10
      80.479  0.3270976E+11  0.2443769E-10  0.4960402E-10  0.1454999E-10
      90.479  0.3289710E+11  0.2457764E-10  0.4993850E-10  0.1467430E-10
     100.479  0.3307309E+11  0.2470911E-10  0.5025683E-10  0.1478112E-10
     200.479  0.3406794E+11  0.2545218E-10  0.5295941E-10  0.1503864E-10
