 % time (yr) / CaCO3 age (yr)
       0.500  0.3608930E+18
       1.500  0.3646021E+18
       2.500  0.3643268E+18
       3.500  0.3643673E+18
       4.500  0.3643184E+18
       5.500  0.3642307E+18
       6.500  0.3639777E+18
       7.500  0.3637749E+18
       8.500  0.3636000E+18
       9.500  0.3633347E+18
      10.500  0.3632790E+18
      20.479  0.3596469E+18
      30.479  0.3548341E+18
      40.479  0.3493180E+18
      50.479  0.3425381E+18
      60.479  0.3343030E+18
      70.479  0.3243645E+18
      80.479  0.3132365E+18
      90.479  0.3017270E+18
     100.479  0.2895912E+18
     200.479  0.1519470E+18
