 % time (yr) / global POP flux (mol yr-1) / global POP density (mol m-2 yr-1)
       0.500  0.7576974E+12  0.2061889E-02
       1.500  0.7656212E+12  0.2083451E-02
       2.500  0.7645694E+12  0.2080589E-02
       3.500  0.7649164E+12  0.2081533E-02
       4.500  0.7657022E+12  0.2083672E-02
       5.500  0.7653201E+12  0.2082632E-02
       6.500  0.7649776E+12  0.2081700E-02
       7.500  0.7653357E+12  0.2082674E-02
       8.500  0.7649646E+12  0.2081665E-02
       9.500  0.7649931E+12  0.2081742E-02
      10.500  0.7632703E+12  0.2077054E-02
      20.479  0.7608230E+12  0.2070394E-02
      30.479  0.7585349E+12  0.2064168E-02
      40.479  0.7631884E+12  0.2076831E-02
      50.479  0.7631905E+12  0.2076837E-02
      60.479  0.7647937E+12  0.2081199E-02
      70.479  0.7657575E+12  0.2083822E-02
      80.479  0.7645955E+12  0.2080660E-02
      90.479  0.7622452E+12  0.2074264E-02
     100.479  0.7625444E+12  0.2075078E-02
     200.479  0.7522034E+12  0.2046938E-02
