 % time (yr) / surface dCO3_arg (mol kg-1)
       0.500  0.1630374E-03
       1.500  0.1632168E-03
       2.500  0.1632222E-03
       3.500  0.1631968E-03
       4.500  0.1631774E-03
       5.500  0.1631543E-03
       6.500  0.1631147E-03
       7.500  0.1630908E-03
       8.500  0.1630308E-03
       9.500  0.1629889E-03
      10.500  0.1629257E-03
      20.479  0.1618833E-03
      30.479  0.1598736E-03
      40.479  0.1573360E-03
      50.479  0.1538939E-03
      60.479  0.1499001E-03
      70.479  0.1454068E-03
      80.479  0.1404737E-03
      90.479  0.1349463E-03
     100.479  0.1290828E-03
     200.479  0.6668554E-04
