 % time (yr) / global DOM_C (mol) / global DOM_C (mol kg-1) / surface DOM_C (mol kg-1) / benthic DOM_C (mol kg-1)
       0.500  0.1638857E+16  0.1224406E-05  0.3278880E-04  0.6546248E-09
       1.500  0.1644728E+16  0.1228792E-05  0.3293673E-04  0.6428127E-09
       2.500  0.1645419E+16  0.1229309E-05  0.3297350E-04  0.6031740E-09
       3.500  0.1645651E+16  0.1229482E-05  0.3298032E-04  0.5868482E-09
       4.500  0.1645928E+16  0.1229688E-05  0.3298108E-04  0.5730779E-09
       5.500  0.1646246E+16  0.1229926E-05  0.3297506E-04  0.5690535E-09
       6.500  0.1646460E+16  0.1230086E-05  0.3297713E-04  0.5637664E-09
       7.500  0.1646682E+16  0.1230252E-05  0.3298007E-04  0.5577613E-09
       8.500  0.1646977E+16  0.1230472E-05  0.3298043E-04  0.5589997E-09
       9.500  0.1647251E+16  0.1230677E-05  0.3296706E-04  0.5585674E-09
      10.500  0.1647488E+16  0.1230854E-05  0.3298974E-04  0.5577289E-09
      20.479  0.1649771E+16  0.1232559E-05  0.3301235E-04  0.5679390E-09
      30.479  0.1653102E+16  0.1235047E-05  0.3310199E-04  0.5810316E-09
      40.479  0.1657681E+16  0.1238467E-05  0.3318633E-04  0.5439223E-09
      50.479  0.1663852E+16  0.1243077E-05  0.3326193E-04  0.5492389E-09
      60.479  0.1671056E+16  0.1248458E-05  0.3336604E-04  0.4963604E-09
      70.479  0.1679600E+16  0.1254841E-05  0.3346435E-04  0.4573245E-09
      80.479  0.1688204E+16  0.1261268E-05  0.3363843E-04  0.4296361E-09
      90.479  0.1697597E+16  0.1268284E-05  0.3374145E-04  0.3908963E-09
