 % time (yr) / total aeolian Fe input (mol yr-1)
       0.500  0.2988E+14
       1.500  0.2988E+14
       2.500  0.2988E+14
       3.500  0.2988E+14
       4.500  0.2988E+14
       5.500  0.2988E+14
       6.500  0.2988E+14
       7.500  0.2988E+14
       8.500  0.2988E+14
       9.500  0.2988E+14
      10.500  0.2988E+14
      20.479  0.2988E+14
      30.479  0.2988E+14
      40.479  0.2988E+14
      50.479  0.2988E+14
      60.479  0.2988E+14
      70.479  0.2988E+14
      80.479  0.2988E+14
      90.479  0.2988E+14
