 % time (yr) / surface dCO3_arg (mol kg-1)
       0.500  0.1640433E-03
       1.500  0.1641103E-03
       2.500  0.1641270E-03
       3.500  0.1640266E-03
       4.500  0.1639057E-03
       5.500  0.1637605E-03
       6.500  0.1636483E-03
       7.500  0.1635427E-03
       8.500  0.1634196E-03
       9.500  0.1632387E-03
      10.500  0.1631938E-03
      20.479  0.1615885E-03
      30.479  0.1595596E-03
      40.479  0.1567649E-03
      50.479  0.1531849E-03
      60.479  0.1490159E-03
      70.479  0.1440842E-03
      80.479  0.1389649E-03
      90.479  0.1331950E-03
