 % time (yr) / surface conc_HCO3 (mol kg-1)
       0.500  0.1725638E-02
       1.500  0.1725158E-02
       2.500  0.1724837E-02
       3.500  0.1724872E-02
       4.500  0.1725000E-02
       5.500  0.1725204E-02
       6.500  0.1725338E-02
       7.500  0.1725466E-02
       8.500  0.1725651E-02
       9.500  0.1725994E-02
      10.500  0.1725993E-02
      20.479  0.1729244E-02
      30.479  0.1733864E-02
      40.479  0.1740708E-02
      50.479  0.1749830E-02
      60.479  0.1760644E-02
      70.479  0.1773670E-02
      80.479  0.1787344E-02
      90.479  0.1802879E-02
