 % time (yr) / global CaCO3 flux (mol yr-1) / global CaCO3 density (mol m-2 yr-1)
       0.500  0.1119979E+15  0.3047749E+00
       1.500  0.1130039E+15  0.3075126E+00
       2.500  0.1127057E+15  0.3067011E+00
       3.500  0.1125954E+15  0.3064010E+00
       4.500  0.1125471E+15  0.3062693E+00
       5.500  0.1125371E+15  0.3062424E+00
       6.500  0.1124472E+15  0.3059975E+00
       7.500  0.1123917E+15  0.3058466E+00
       8.500  0.1123201E+15  0.3056517E+00
       9.500  0.1123452E+15  0.3057201E+00
      10.500  0.1121288E+15  0.3051310E+00
      20.479  0.1110772E+15  0.3022696E+00
      30.479  0.1094518E+15  0.2978463E+00
      40.479  0.1075679E+15  0.2927197E+00
      50.479  0.1054044E+15  0.2868323E+00
      60.479  0.1027931E+15  0.2797263E+00
      70.479  0.9977431E+14  0.2715114E+00
      80.479  0.9589075E+14  0.2609433E+00
      90.479  0.9215058E+14  0.2507653E+00
