 % time (yr) / global DOM_P (mol) / global DOM_P (mol kg-1) / surface DOM_P (mol kg-1) / benthic DOM_P (mol kg-1)
       0.500  0.1400732E+14  0.1046501E-07  0.2802461E-06  0.5595084E-11
       1.500  0.1405751E+14  0.1050250E-07  0.2815105E-06  0.5494126E-11
       2.500  0.1406341E+14  0.1050691E-07  0.2818248E-06  0.5155333E-11
       3.500  0.1406540E+14  0.1050839E-07  0.2818830E-06  0.5015797E-11
       4.500  0.1406776E+14  0.1051016E-07  0.2818896E-06  0.4898102E-11
       5.500  0.1407047E+14  0.1051219E-07  0.2818381E-06  0.4863705E-11
       6.500  0.1407231E+14  0.1051356E-07  0.2818558E-06  0.4818516E-11
       7.500  0.1407420E+14  0.1051497E-07  0.2818809E-06  0.4767190E-11
       8.500  0.1407672E+14  0.1051685E-07  0.2818840E-06  0.4777776E-11
       9.500  0.1407907E+14  0.1051860E-07  0.2817697E-06  0.4774081E-11
      10.500  0.1408109E+14  0.1052012E-07  0.2819636E-06  0.4766914E-11
      20.479  0.1410061E+14  0.1053469E-07  0.2821568E-06  0.4854179E-11
      30.479  0.1412907E+14  0.1055596E-07  0.2829230E-06  0.4966082E-11
      40.479  0.1416821E+14  0.1058519E-07  0.2836438E-06  0.4648908E-11
      50.479  0.1422095E+14  0.1062459E-07  0.2842900E-06  0.4694349E-11
      60.479  0.1428253E+14  0.1067058E-07  0.2851799E-06  0.4242397E-11
      70.479  0.1435555E+14  0.1072513E-07  0.2860201E-06  0.3908757E-11
      80.479  0.1442909E+14  0.1078007E-07  0.2875080E-06  0.3672103E-11
      90.479  0.1450937E+14  0.1084003E-07  0.2883885E-06  0.3340994E-11
