 % time (yr) / global POFe flux (mol yr-1) / global POFe density (mol m-2 yr-1)
       0.500  0.6589657E+09  0.1793214E-05
       1.500  0.6604667E+09  0.1797299E-05
       2.500  0.6594389E+09  0.1794502E-05
       3.500  0.6591320E+09  0.1793667E-05
       4.500  0.6601286E+09  0.1796379E-05
       5.500  0.6607064E+09  0.1797951E-05
       6.500  0.6597212E+09  0.1795270E-05
       7.500  0.6603743E+09  0.1797047E-05
       8.500  0.6604802E+09  0.1797336E-05
       9.500  0.6611496E+09  0.1799157E-05
      10.500  0.6599387E+09  0.1795862E-05
      20.479  0.6590393E+09  0.1793415E-05
      30.479  0.6572483E+09  0.1788541E-05
      40.479  0.6564047E+09  0.1786245E-05
      50.479  0.6572555E+09  0.1788560E-05
      60.479  0.6582678E+09  0.1791315E-05
      70.479  0.6588903E+09  0.1793009E-05
      80.479  0.6519396E+09  0.1774094E-05
      90.479  0.6493720E+09  0.1767107E-05
