 % time (yr) / surface RF0 (mol kg-1)
       0.500  0.9407782E+01
       1.500  0.9402850E+01
       2.500  0.9399047E+01
       3.500  0.9400367E+01
       4.500  0.9402765E+01
       5.500  0.9406178E+01
       6.500  0.9408441E+01
       7.500  0.9410300E+01
       8.500  0.9413087E+01
       9.500  0.9418074E+01
      10.500  0.9417530E+01
      20.479  0.9455089E+01
      30.479  0.9501098E+01
      40.479  0.9570233E+01
      50.479  0.9665140E+01
      60.479  0.9779220E+01
      70.479  0.9923030E+01
      80.479  0.1007496E+02
      90.479  0.1025950E+02
