 % time (yr) / global POP flux (mol yr-1) / global POP density (mol m-2 yr-1)
       0.500  0.7656171E+12  0.2083440E-02
       1.500  0.7704612E+12  0.2096622E-02
       2.500  0.7695662E+12  0.2094187E-02
       3.500  0.7694832E+12  0.2093961E-02
       4.500  0.7705023E+12  0.2096734E-02
       5.500  0.7712322E+12  0.2098720E-02
       6.500  0.7703686E+12  0.2096370E-02
       7.500  0.7710351E+12  0.2098184E-02
       8.500  0.7711724E+12  0.2098558E-02
       9.500  0.7720294E+12  0.2100890E-02
      10.500  0.7707036E+12  0.2097282E-02
      20.479  0.7699555E+12  0.2095246E-02
      30.479  0.7679848E+12  0.2089883E-02
      40.479  0.7669672E+12  0.2087114E-02
      50.479  0.7681383E+12  0.2090301E-02
      60.479  0.7689524E+12  0.2092516E-02
      70.479  0.7698051E+12  0.2094837E-02
      80.479  0.7621396E+12  0.2073977E-02
      90.479  0.7597820E+12  0.2067561E-02
