 % time (yr) / mean core-top age (yr)
       0.500       0.000
       1.500       0.000
       2.500       0.000
       3.500       0.000
       4.500       0.000
       5.500       0.000
       6.500       0.000
       7.500       0.000
       8.500       0.000
       9.500       0.000
      10.500       0.000
      20.479       0.000
      30.479       0.000
      40.479       0.000
      50.479       0.000
      60.479       0.000
      70.479       0.000
      80.479       0.000
      90.479       0.000
