 % time (yr) / global Fe (mol) / global Fe (mol kg-1) / surface Fe (mol kg-1) / benthic Fe (mol kg-1)
       0.500  0.3619446E+11  0.2704123E-10  0.4931379E-10  0.1609373E-10
       1.500  0.3599495E+11  0.2689218E-10  0.4849574E-10  0.1609368E-10
       2.500  0.3583491E+11  0.2677261E-10  0.4837874E-10  0.1609321E-10
       3.500  0.3569478E+11  0.2666791E-10  0.4832925E-10  0.1609218E-10
       4.500  0.3556899E+11  0.2657393E-10  0.4829432E-10  0.1609075E-10
       5.500  0.3545553E+11  0.2648917E-10  0.4826165E-10  0.1608893E-10
       6.500  0.3535274E+11  0.2641237E-10  0.4824691E-10  0.1608691E-10
       7.500  0.3525931E+11  0.2634257E-10  0.4823098E-10  0.1608498E-10
       8.500  0.3517398E+11  0.2627882E-10  0.4821978E-10  0.1608313E-10
       9.500  0.3509620E+11  0.2622071E-10  0.4819389E-10  0.1608141E-10
      10.500  0.3502526E+11  0.2616770E-10  0.4821245E-10  0.1607993E-10
      20.479  0.3457169E+11  0.2582883E-10  0.4824276E-10  0.1606725E-10
      30.479  0.3435860E+11  0.2566962E-10  0.4842438E-10  0.1605868E-10
      40.479  0.3426269E+11  0.2559794E-10  0.4864937E-10  0.1604954E-10
      50.479  0.3422578E+11  0.2557035E-10  0.4891542E-10  0.1603211E-10
      60.479  0.3420847E+11  0.2555740E-10  0.4917861E-10  0.1601745E-10
      70.479  0.3421141E+11  0.2555958E-10  0.4945877E-10  0.1600278E-10
      80.479  0.3420287E+11  0.2555318E-10  0.4984144E-10  0.1598644E-10
      90.479  0.3416955E+11  0.2552825E-10  0.5014022E-10  0.1594308E-10
