 % time (yr) / surface fug_CO2 (atm)
       0.500  0.2876151E-03
       1.500  0.2874959E-03
       2.500  0.2876484E-03
       3.500  0.2878757E-03
       4.500  0.2881180E-03
       5.500  0.2883577E-03
       6.500  0.2885980E-03
       7.500  0.2888157E-03
       8.500  0.2890702E-03
       9.500  0.2893471E-03
      10.500  0.2895934E-03
      20.479  0.2932437E-03
      30.479  0.2984670E-03
      40.479  0.3056910E-03
      50.479  0.3150657E-03
      60.479  0.3265177E-03
      70.479  0.3406972E-03
      80.479  0.3570692E-03
      90.479  0.3759305E-03
