 % time (yr) / surface conc_CO3 (mol kg-1)
       0.500  0.2284575E-03
       1.500  0.2285219E-03
       2.500  0.2285347E-03
       3.500  0.2284330E-03
       4.500  0.2283113E-03
       5.500  0.2281661E-03
       6.500  0.2280532E-03
       7.500  0.2279467E-03
       8.500  0.2278230E-03
       9.500  0.2276428E-03
      10.500  0.2275955E-03
      20.479  0.2259812E-03
      30.479  0.2239351E-03
      40.479  0.2211205E-03
      50.479  0.2175195E-03
      60.479  0.2133257E-03
      70.479  0.2083672E-03
      80.479  0.2032104E-03
      90.479  0.1974064E-03
