 % time (yr) / mean saturation state
       0.500  0.5441343E+01
       1.500  0.5442886E+01
       2.500  0.5443207E+01
       3.500  0.5440790E+01
       4.500  0.5437898E+01
       5.500  0.5434442E+01
       6.500  0.5431757E+01
       7.500  0.5429234E+01
       8.500  0.5426293E+01
       9.500  0.5422001E+01
      10.500  0.5420888E+01
      20.479  0.5382643E+01
      30.479  0.5334307E+01
      40.479  0.5267850E+01
      50.479  0.5182768E+01
      60.479  0.5083672E+01
      70.479  0.4966437E+01
      80.479  0.4844602E+01
      90.479  0.4707392E+01
