 % time (yr) / surface dCO3_cal (mol kg-1)
       0.500  0.1864433E-03
       1.500  0.1865077E-03
       2.500  0.1865206E-03
       3.500  0.1864189E-03
       4.500  0.1862973E-03
       5.500  0.1861520E-03
       6.500  0.1860390E-03
       7.500  0.1859326E-03
       8.500  0.1858089E-03
       9.500  0.1856286E-03
      10.500  0.1855814E-03
      20.479  0.1839680E-03
      30.479  0.1819245E-03
      40.479  0.1791136E-03
      50.479  0.1755172E-03
      60.479  0.1713289E-03
      70.479  0.1663766E-03
      80.479  0.1612276E-03
      90.479  0.1554318E-03
