 % time (yr) / mean saturation state
       0.500  0.3562343E+01
       1.500  0.3563473E+01
       2.500  0.3563840E+01
       3.500  0.3562342E+01
       4.500  0.3560511E+01
       5.500  0.3558286E+01
       6.500  0.3556586E+01
       7.500  0.3554982E+01
       8.500  0.3553105E+01
       9.500  0.3550307E+01
      10.500  0.3549676E+01
      20.479  0.3525180E+01
      30.479  0.3494313E+01
      40.479  0.3451681E+01
      50.479  0.3396907E+01
      60.479  0.3333053E+01
      70.479  0.3257400E+01
      80.479  0.3178991E+01
      90.479  0.3090402E+01
