 % time (yr) / global O2 (mol) / global O2 (mol kg-1) / surface O2 (mol kg-1) / benthic O2 (mol kg-1)
       0.500  0.2231941E+18  0.1667505E-03  0.2368084E-03  0.1638214E-03
       1.500  0.2231902E+18  0.1667476E-03  0.2368059E-03  0.1638216E-03
       2.500  0.2231781E+18  0.1667385E-03  0.2367093E-03  0.1638216E-03
       3.500  0.2231599E+18  0.1667249E-03  0.2366754E-03  0.1638223E-03
       4.500  0.2231451E+18  0.1667139E-03  0.2366518E-03  0.1638228E-03
       5.500  0.2231351E+18  0.1667064E-03  0.2366622E-03  0.1638228E-03
       6.500  0.2231276E+18  0.1667007E-03  0.2366449E-03  0.1638217E-03
       7.500  0.2231197E+18  0.1666949E-03  0.2366358E-03  0.1638199E-03
       8.500  0.2231126E+18  0.1666895E-03  0.2366229E-03  0.1638181E-03
       9.500  0.2231087E+18  0.1666866E-03  0.2366517E-03  0.1638156E-03
      10.500  0.2231045E+18  0.1666835E-03  0.2365908E-03  0.1638127E-03
      20.479  0.2230666E+18  0.1666551E-03  0.2364742E-03  0.1637826E-03
      30.479  0.2229275E+18  0.1665511E-03  0.2361870E-03  0.1637337E-03
      40.479  0.2227116E+18  0.1663897E-03  0.2359105E-03  0.1636269E-03
      50.479  0.2225180E+18  0.1662450E-03  0.2356773E-03  0.1634483E-03
      60.479  0.2224014E+18  0.1661577E-03  0.2353893E-03  0.1632450E-03
      70.479  0.2222371E+18  0.1660349E-03  0.2350589E-03  0.1630781E-03
      80.479  0.2220579E+18  0.1659009E-03  0.2345135E-03  0.1629232E-03
      90.479  0.2219076E+18  0.1657884E-03  0.2341506E-03  0.1627536E-03
