 % time (yr) / global min overturning (Sv) / global max overturning (Sv) / Atlantic min overturning (Sv) / Atlantic max overturning (Sv)
       0.500  -70.252   97.349   -4.584   14.858
       1.500  -70.226   97.348   -4.584   14.860
       2.500  -70.198   97.348   -4.583   14.857
       3.500  -70.180   97.351   -4.582   14.856
       4.500  -70.171   97.351   -4.580   14.855
       5.500  -70.164   97.350   -4.578   14.852
       6.500  -70.152   97.347   -4.577   14.848
       7.500  -70.140   97.346   -4.576   14.843
       8.500  -70.130   97.347   -4.575   14.836
       9.500  -70.121   97.347   -4.574   14.829
      10.500  -70.116   97.344   -4.573   14.822
      20.479  -70.063   97.334   -4.588   14.749
      30.479  -69.992   97.324   -4.589   14.760
      40.479  -69.899   97.305   -4.569   14.749
      50.479  -69.811   97.290   -4.543   14.718
      60.479  -69.715   97.271   -4.498   14.710
      70.479  -69.588   97.239   -4.487   14.564
      80.479  -69.475   97.218   -4.440   14.518
      90.479  -69.319   97.180   -4.397   14.424
