 % time (yr) / global POC flux (mol yr-1) / global POC density (mol m-2 yr-1)
       0.500  0.8957720E+14  0.2437625E+00
       1.500  0.9014395E+14  0.2453048E+00
       2.500  0.9003925E+14  0.2450198E+00
       3.500  0.9002953E+14  0.2449934E+00
       4.500  0.9014877E+14  0.2453179E+00
       5.500  0.9023416E+14  0.2455503E+00
       6.500  0.9013313E+14  0.2452753E+00
       7.500  0.9021111E+14  0.2454875E+00
       8.500  0.9022717E+14  0.2455312E+00
       9.500  0.9032744E+14  0.2458041E+00
      10.500  0.9017233E+14  0.2453820E+00
      20.479  0.9008480E+14  0.2451438E+00
      30.479  0.8985422E+14  0.2445163E+00
      40.479  0.8973516E+14  0.2441923E+00
      50.479  0.8987218E+14  0.2445652E+00
      60.479  0.8996743E+14  0.2448244E+00
      70.479  0.9006720E+14  0.2450959E+00
      80.479  0.8917033E+14  0.2426553E+00
      90.479  0.8889450E+14  0.2419047E+00
