 % time (yr) / mean aeolian Fe solubility (%)
       0.500    0.860
       1.500    0.860
       2.500    0.860
       3.500    0.860
       4.500    0.860
       5.500    0.860
       6.500    0.860
       7.500    0.860
       8.500    0.860
       9.500    0.860
      10.500    0.860
      20.479    0.860
      30.479    0.860
      40.479    0.860
      50.479    0.860
      60.479    0.860
      70.479    0.860
      80.479    0.860
      90.479    0.860
