 % time (yr) / global rate (mol yr-1) / mean rate (mol kg-1 yr-1)
           0.500   0.123739E+20   0.405326E+00
           1.500   0.123098E+20   0.403224E+00
           2.500   0.123066E+20   0.403120E+00
           3.500   0.123046E+20   0.403054E+00
           4.500   0.123036E+20   0.403023E+00
           5.500   0.123018E+20   0.402962E+00
           6.500   0.123002E+20   0.402909E+00
           7.500   0.122989E+20   0.402866E+00
           8.500   0.122972E+20   0.402811E+00
           9.500   0.122950E+20   0.402740E+00
          10.500   0.122933E+20   0.402685E+00
          20.479   0.122752E+20   0.402091E+00
          30.479   0.122568E+20   0.401489E+00
          40.479   0.122339E+20   0.400739E+00
          50.479   0.122086E+20   0.399910E+00
          60.479   0.121760E+20   0.398842E+00
          70.479   0.121416E+20   0.397712E+00
          80.479   0.120920E+20   0.396088E+00
          90.479   0.120423E+20   0.394460E+00
