 % time (yr) / global CaCO3 flux (mol yr-1) / global CaCO3 density (mol m-2 yr-1)
       0.500  0.7326440E+14  0.1993712E+00
       1.500  0.7390892E+14  0.2011251E+00
       2.500  0.7372669E+14  0.2006292E+00
       3.500  0.7365024E+14  0.2004212E+00
       4.500  0.7362108E+14  0.2003418E+00
       5.500  0.7361606E+14  0.2003282E+00
       6.500  0.7354102E+14  0.2001239E+00
       7.500  0.7351392E+14  0.2000502E+00
       8.500  0.7346746E+14  0.1999238E+00
       9.500  0.7348263E+14  0.1999650E+00
      10.500  0.7334027E+14  0.1995777E+00
      20.479  0.7265051E+14  0.1977006E+00
      30.479  0.7160454E+14  0.1948543E+00
      40.479  0.7039290E+14  0.1915571E+00
      50.479  0.6897106E+14  0.1876879E+00
      60.479  0.6729081E+14  0.1831155E+00
      70.479  0.6532867E+14  0.1777760E+00
      80.479  0.6279772E+14  0.1708887E+00
      90.479  0.6034899E+14  0.1642250E+00
