 % time (yr) / global pO2 (mol) / global pO2 (atm)
       0.500  0.3707076E+20  0.2095340E+00
       1.500  0.3707077E+20  0.2095341E+00
       2.500  0.3707079E+20  0.2095342E+00
       3.500  0.3707080E+20  0.2095343E+00
       4.500  0.3707082E+20  0.2095344E+00
       5.500  0.3707083E+20  0.2095344E+00
       6.500  0.3707084E+20  0.2095345E+00
       7.500  0.3707085E+20  0.2095345E+00
       8.500  0.3707085E+20  0.2095346E+00
       9.500  0.3707086E+20  0.2095346E+00
      10.500  0.3707086E+20  0.2095346E+00
      20.479  0.3707090E+20  0.2095348E+00
      30.479  0.3707105E+20  0.2095357E+00
      40.479  0.3707127E+20  0.2095369E+00
      50.479  0.3707147E+20  0.2095381E+00
      60.479  0.3707160E+20  0.2095388E+00
      70.479  0.3707178E+20  0.2095398E+00
      80.479  0.3707197E+20  0.2095409E+00
      90.479  0.3707213E+20  0.2095418E+00
