 % time (yr) / global Ca (mol) / global Ca (mol kg-1) / surface Ca (mol kg-1) / benthic Ca (mol kg-1)
       0.500  0.1372021E+20  0.1025051E-01  0.1017658E-01  0.1029117E-01
       1.500  0.1372021E+20  0.1025050E-01  0.1017641E-01  0.1029120E-01
       2.500  0.1372021E+20  0.1025050E-01  0.1017628E-01  0.1029123E-01
       3.500  0.1372021E+20  0.1025050E-01  0.1017618E-01  0.1029125E-01
       4.500  0.1372021E+20  0.1025050E-01  0.1017612E-01  0.1029127E-01
       5.500  0.1372021E+20  0.1025050E-01  0.1017603E-01  0.1029128E-01
       6.500  0.1372021E+20  0.1025050E-01  0.1017596E-01  0.1029130E-01
       7.500  0.1372021E+20  0.1025050E-01  0.1017591E-01  0.1029132E-01
       8.500  0.1372021E+20  0.1025050E-01  0.1017585E-01  0.1029133E-01
       9.500  0.1372021E+20  0.1025050E-01  0.1017578E-01  0.1029135E-01
      10.500  0.1372021E+20  0.1025050E-01  0.1017576E-01  0.1029136E-01
      20.479  0.1372021E+20  0.1025050E-01  0.1017544E-01  0.1029148E-01
      30.479  0.1372021E+20  0.1025049E-01  0.1017527E-01  0.1029156E-01
      40.479  0.1372021E+20  0.1025049E-01  0.1017528E-01  0.1029160E-01
      50.479  0.1372021E+20  0.1025048E-01  0.1017549E-01  0.1029164E-01
      60.479  0.1372021E+20  0.1025047E-01  0.1017579E-01  0.1029166E-01
      70.479  0.1372021E+20  0.1025047E-01  0.1017634E-01  0.1029164E-01
      80.479  0.1372021E+20  0.1025046E-01  0.1017704E-01  0.1029159E-01
      90.479  0.1372021E+20  0.1025045E-01  0.1017779E-01  0.1029152E-01
