 % time (yr) / global POM_Fe flux (mol yr-1) / global POM_Fe density (mol m-2 yr-1)
       0.500  0.1924989E+10  0.5238388E-05
       1.500  0.1910327E+10  0.5198488E-05
       2.500  0.1900603E+10  0.5172027E-05
       3.500  0.1897253E+10  0.5162910E-05
       4.500  0.1895691E+10  0.5158660E-05
       5.500  0.1894453E+10  0.5155293E-05
       6.500  0.1893279E+10  0.5152097E-05
       7.500  0.1891955E+10  0.5148495E-05
       8.500  0.1894075E+10  0.5154263E-05
       9.500  0.1893240E+10  0.5151990E-05
      10.500  0.1892000E+10  0.5148615E-05
      20.479  0.1889288E+10  0.5141235E-05
      30.479  0.1889428E+10  0.5141618E-05
      40.479  0.1891881E+10  0.5148291E-05
      50.479  0.1875035E+10  0.5102449E-05
      60.479  0.1880116E+10  0.5116278E-05
      70.479  0.1889538E+10  0.5141915E-05
      80.479  0.1917677E+10  0.5218491E-05
      90.479  0.1927653E+10  0.5245637E-05
