 % time (yr) / global DIC (mol) / global DIC (mol kg-1) / surface DIC (mol kg-1) / benthic DIC (mol kg-1)
       0.500  0.3001940E+19  0.2242779E-02  0.1963644E-02  0.2304762E-02
       1.500  0.3001931E+19  0.2242772E-02  0.1963218E-02  0.2304793E-02
       2.500  0.3001933E+19  0.2242773E-02  0.1962903E-02  0.2304818E-02
       3.500  0.3001938E+19  0.2242777E-02  0.1962843E-02  0.2304838E-02
       4.500  0.3001945E+19  0.2242782E-02  0.1962858E-02  0.2304856E-02
       5.500  0.3001953E+19  0.2242788E-02  0.1962927E-02  0.2304872E-02
       6.500  0.3001962E+19  0.2242795E-02  0.1962956E-02  0.2304889E-02
       7.500  0.3001974E+19  0.2242803E-02  0.1962984E-02  0.2304905E-02
       8.500  0.3001987E+19  0.2242813E-02  0.1963056E-02  0.2304920E-02
       9.500  0.3002001E+19  0.2242823E-02  0.1963231E-02  0.2304935E-02
      10.500  0.3002018E+19  0.2242836E-02  0.1963185E-02  0.2304950E-02
      20.479  0.3002304E+19  0.2243049E-02  0.1964938E-02  0.2305082E-02
      30.479  0.3002862E+19  0.2243465E-02  0.1967661E-02  0.2305224E-02
      40.479  0.3003732E+19  0.2244113E-02  0.1971907E-02  0.2305384E-02
      50.479  0.3004932E+19  0.2245009E-02  0.1977723E-02  0.2305607E-02
      60.479  0.3006486E+19  0.2246168E-02  0.1984700E-02  0.2305906E-02
      70.479  0.3008437E+19  0.2247624E-02  0.1993220E-02  0.2306252E-02
      80.479  0.3010775E+19  0.2249369E-02  0.2002225E-02  0.2306665E-02
      90.479  0.3013481E+19  0.2251388E-02  0.2012553E-02  0.2307172E-02
