 % time (yr) / temperature (C) / _surT (C) / _benT (C)
       0.500    1.597   20.093   -1.286
       1.500    1.598   20.108   -1.286
       2.500    1.598   20.136   -1.286
       3.500    1.599   20.144   -1.286
       4.500    1.599   20.147   -1.286
       5.500    1.600   20.145   -1.286
       6.500    1.601   20.149   -1.286
       7.500    1.601   20.153   -1.286
       8.500    1.602   20.155   -1.286
       9.500    1.602   20.148   -1.286
      10.500    1.603   20.166   -1.286
      20.479    1.610   20.203   -1.285
      30.479    1.619   20.287   -1.285
      40.479    1.630   20.370   -1.284
      50.479    1.644   20.442   -1.282
      60.479    1.661   20.532   -1.281
      70.479    1.682   20.621   -1.279
      80.479    1.706   20.777   -1.277
      90.479    1.733   20.886   -1.275
