 % time (yr) / global pO2 flux (mol yr-1) / global pO2 density (mol m-2 yr-1)  NOTE: includes the net flux associated with any flux or restoring forcing of atmospheric composition  and is thus not necessarily the same as the air-sea flux.
       0.500 -0.9196257E+13      -0.025
       1.500  0.6702911E+13       0.018
       2.500  0.2037477E+14       0.055
       3.500  0.1745922E+14       0.048
       4.500  0.1338703E+14       0.036
       5.500  0.8559519E+13       0.023
       6.500  0.7251996E+13       0.020
       7.500  0.8208091E+13       0.022
       8.500  0.7047995E+13       0.019
       9.500  0.3518294E+12       0.001
      10.500  0.8933194E+13       0.024
      20.479  0.5616514E+13       0.015
      30.479  0.2041848E+14       0.056
      40.479  0.2349414E+14       0.064
      50.479  0.1886799E+14       0.051
      60.479  0.2084601E+14       0.057
      70.479  0.8707281E+13       0.024
      80.479  0.2182394E+14       0.059
      90.479  0.1552673E+14       0.042
