 % time (yr) / surface humidity (???)
       0.500    0.017
       1.500    0.017
       2.500    0.017
       3.500    0.017
       4.500    0.017
       5.500    0.017
       6.500    0.017
       7.500    0.017
       8.500    0.017
       9.500    0.017
      10.500    0.017
      20.479    0.017
      30.479    0.017
      40.479    0.017
      50.479    0.017
      60.479    0.017
      70.479    0.017
      80.479    0.017
      90.479    0.018
