 % time (yr) / CaCO3 age (yr)
       0.500  0.3663583E+18
       1.500  0.3695077E+18
       2.500  0.3685229E+18
       3.500  0.3680672E+18
       4.500  0.3678478E+18
       5.500  0.3677491E+18
       6.500  0.3673007E+18
       7.500  0.3670918E+18
       8.500  0.3667864E+18
       9.500  0.3667886E+18
      10.500  0.3660047E+18
      20.479  0.3618374E+18
      30.479  0.3559119E+18
      40.479  0.3491855E+18
      50.479  0.3414427E+18
      60.479  0.3324517E+18
      70.479  0.3221044E+18
      80.479  0.3089976E+18
      90.479  0.2963450E+18
