 % time (yr) / global POP flux (mol yr-1) / global POP density (mol m-2 yr-1)
       0.500  0.7979479E+13  0.2171421E-01
       1.500  0.8061248E+13  0.2193672E-01
       2.500  0.8032630E+13  0.2185884E-01
       3.500  0.8030182E+13  0.2185218E-01
       4.500  0.8033395E+13  0.2186092E-01
       5.500  0.8040729E+13  0.2188088E-01
       6.500  0.8039821E+13  0.2187841E-01
       7.500  0.8039748E+13  0.2187821E-01
       8.500  0.8040101E+13  0.2187917E-01
       9.500  0.8052812E+13  0.2191376E-01
      10.500  0.8035598E+13  0.2186692E-01
      20.479  0.8027972E+13  0.2184617E-01
      30.479  0.7990841E+13  0.2174512E-01
      40.479  0.7974394E+13  0.2170037E-01
      50.479  0.7979643E+13  0.2171465E-01
      60.479  0.7968908E+13  0.2168544E-01
      70.479  0.7971374E+13  0.2169215E-01
      80.479  0.7891435E+13  0.2147461E-01
      90.479  0.7872928E+13  0.2142425E-01
