 % time (yr) / mean ocean surface pH
       0.500 8.146938
       1.500 8.147033
       2.500 8.146798
       3.500 8.146483
       4.500 8.146157
       5.500 8.145838
       6.500 8.145520
       7.500 8.145234
       8.500 8.144904
       9.500 8.144550
      10.500 8.144230
      20.479 8.139698
      30.479 8.133408
      40.479 8.124949
      50.479 8.114296
      60.479 8.101704
      70.479 8.086681
      80.479 8.070047
      90.479 8.051742
