 % time (yr) / global POC flux (mol yr-1) / global POC density (mol m-2 yr-1)
       0.500  0.9335991E+15  0.2540562E+01
       1.500  0.9431660E+15  0.2566596E+01
       2.500  0.9398178E+15  0.2557485E+01
       3.500  0.9395313E+15  0.2556705E+01
       4.500  0.9399072E+15  0.2557728E+01
       5.500  0.9407653E+15  0.2560063E+01
       6.500  0.9406591E+15  0.2559774E+01
       7.500  0.9406505E+15  0.2559751E+01
       8.500  0.9406918E+15  0.2559863E+01
       9.500  0.9421790E+15  0.2563910E+01
      10.500  0.9401650E+15  0.2558430E+01
      20.479  0.9392727E+15  0.2556001E+01
      30.479  0.9349284E+15  0.2544180E+01
      40.479  0.9330041E+15  0.2538943E+01
      50.479  0.9336183E+15  0.2540614E+01
      60.479  0.9323622E+15  0.2537196E+01
      70.479  0.9326508E+15  0.2537982E+01
      80.479  0.9232979E+15  0.2512530E+01
      90.479  0.9211326E+15  0.2506638E+01
