 % time (yr) / global L (mol) / global L (mol kg-1) / surface L (mol kg-1) / benthic L (mol kg-1)
       0.500  0.4528735E+12  0.3383462E-09  0.4125114E-09  0.3960808E-09
       1.500  0.4529384E+12  0.3383947E-09  0.4140606E-09  0.3960710E-09
       2.500  0.4529674E+12  0.3384164E-09  0.4140342E-09  0.3960708E-09
       3.500  0.4529868E+12  0.3384308E-09  0.4140250E-09  0.3960711E-09
       4.500  0.4530072E+12  0.3384460E-09  0.4140133E-09  0.3960722E-09
       5.500  0.4530301E+12  0.3384631E-09  0.4140414E-09  0.3960753E-09
       6.500  0.4530544E+12  0.3384813E-09  0.4140637E-09  0.3960809E-09
       7.500  0.4530792E+12  0.3384998E-09  0.4140658E-09  0.3960871E-09
       8.500  0.4531053E+12  0.3385193E-09  0.4140843E-09  0.3960932E-09
       9.500  0.4531336E+12  0.3385404E-09  0.4141229E-09  0.3960990E-09
      10.500  0.4531602E+12  0.3385603E-09  0.4140948E-09  0.3961049E-09
      20.479  0.4534503E+12  0.3387769E-09  0.4140907E-09  0.3961668E-09
      30.479  0.4536140E+12  0.3388991E-09  0.4136260E-09  0.3962436E-09
      40.479  0.4536101E+12  0.3388959E-09  0.4130020E-09  0.3962787E-09
      50.479  0.4534522E+12  0.3387777E-09  0.4121502E-09  0.3963179E-09
      60.479  0.4534052E+12  0.3387423E-09  0.4114158E-09  0.3963700E-09
      70.479  0.4534027E+12  0.3387403E-09  0.4106599E-09  0.3964635E-09
      80.479  0.4538659E+12  0.3390861E-09  0.4098544E-09  0.3966991E-09
      90.479  0.4546703E+12  0.3396866E-09  0.4090231E-09  0.3972136E-09
