 % time (yr) / global pCO2 flux (mol yr-1) / global pCO2 density (mol m-2 yr-1)  NOTE: includes the net flux associated with any flux or restoring forcing of atmospheric composition  and is thus not necessarily the same as the air-sea flux.
       0.500  0.7763206E+13       0.021
       1.500  0.5719520E+12       0.002
       2.500 -0.4168403E+13      -0.011
       3.500 -0.6319573E+13      -0.017
       4.500 -0.7883014E+13      -0.021
       5.500 -0.8853937E+13      -0.024
       6.500 -0.1056121E+14      -0.029
       7.500 -0.1245368E+14      -0.034
       8.500 -0.1422697E+14      -0.039
       9.500 -0.1534288E+14      -0.042
      10.500 -0.1814130E+14      -0.049
      20.479 -0.4126704E+14      -0.112
      30.479 -0.7104100E+14      -0.193
      40.479 -0.1040834E+15      -0.283
      50.479 -0.1382992E+15      -0.376
      60.479 -0.1753222E+15      -0.477
      70.479 -0.2151726E+15      -0.586
      80.479 -0.2527545E+15      -0.688
      90.479 -0.2908672E+15      -0.792
