 % time (yr) / surface conc_CO2 (mol kg-1)
       0.500  0.9609348E-05
       1.500  0.9598141E-05
       2.500  0.9592694E-05
       3.500  0.9598479E-05
       4.500  0.9606536E-05
       5.500  0.9616219E-05
       6.500  0.9623664E-05
       7.500  0.9629685E-05
       8.500  0.9637999E-05
       9.500  0.9650895E-05
      10.500  0.9652668E-05
      20.479  0.9766219E-05
      30.479  0.9912599E-05
      40.479  0.1012716E-04
      50.479  0.1041813E-04
      60.479  0.1077030E-04
      70.479  0.1121616E-04
      80.479  0.1170422E-04
      90.479  0.1229226E-04
