 % time (yr) / surface H (mol kg-1)
       0.500  0.7129554E-08
       1.500  0.7127994E-08
       2.500  0.7131844E-08
       3.500  0.7137020E-08
       4.500  0.7142388E-08
       5.500  0.7147628E-08
       6.500  0.7152863E-08
       7.500  0.7157578E-08
       8.500  0.7163022E-08
       9.500  0.7168856E-08
      10.500  0.7174137E-08
      20.479  0.7249400E-08
      30.479  0.7355156E-08
      40.479  0.7499825E-08
      50.479  0.7686061E-08
      60.479  0.7912170E-08
      70.479  0.8190656E-08
      80.479  0.8510457E-08
      90.479  0.8876842E-08
