 % time (yr) / global FeL (mol) / global FeL (mol kg-1) / surface FeL (mol kg-1) / benthic FeL (mol kg-1)
       0.500  0.8856841E+12  0.6617033E-09  0.5854270E-09  0.6055714E-09
       1.500  0.8856192E+12  0.6616547E-09  0.5838770E-09  0.6055809E-09
       2.500  0.8855902E+12  0.6616330E-09  0.5839075E-09  0.6055812E-09
       3.500  0.8855708E+12  0.6616185E-09  0.5839166E-09  0.6055809E-09
       4.500  0.8855504E+12  0.6616033E-09  0.5839307E-09  0.6055798E-09
       5.500  0.8855275E+12  0.6615861E-09  0.5839008E-09  0.6055767E-09
       6.500  0.8855032E+12  0.6615680E-09  0.5838781E-09  0.6055712E-09
       7.500  0.8854784E+12  0.6615494E-09  0.5838771E-09  0.6055651E-09
       8.500  0.8854523E+12  0.6615298E-09  0.5838585E-09  0.6055591E-09
       9.500  0.8854240E+12  0.6615086E-09  0.5838163E-09  0.6055534E-09
      10.500  0.8853974E+12  0.6614888E-09  0.5838500E-09  0.6055477E-09
      20.479  0.8851073E+12  0.6612719E-09  0.5838570E-09  0.6054874E-09
      30.479  0.8849436E+12  0.6611492E-09  0.5843313E-09  0.6054110E-09
      40.479  0.8849475E+12  0.6611517E-09  0.5849668E-09  0.6053752E-09
      50.479  0.8851053E+12  0.6612692E-09  0.5858323E-09  0.6053373E-09
      60.479  0.8851524E+12  0.6613038E-09  0.5865793E-09  0.6052848E-09
      70.479  0.8851549E+12  0.6613054E-09  0.5873573E-09  0.6051915E-09
      80.479  0.8846917E+12  0.6609587E-09  0.5881981E-09  0.6049558E-09
      90.479  0.8838873E+12  0.6603570E-09  0.5890511E-09  0.6044408E-09
