 % time (yr) / global POM_Fe flux (mol yr-1) / global POM_Fe density (mol m-2 yr-1)
       0.500  0.5546513E+10  0.1509348E-04
       1.500  0.5562983E+10  0.1513830E-04
       2.500  0.5528441E+10  0.1504430E-04
       3.500  0.5505683E+10  0.1498237E-04
       4.500  0.5494560E+10  0.1495211E-04
       5.500  0.5486239E+10  0.1492946E-04
       6.500  0.5475838E+10  0.1490116E-04
       7.500  0.5466920E+10  0.1487689E-04
       8.500  0.5461013E+10  0.1486081E-04
       9.500  0.5456735E+10  0.1484917E-04
      10.500  0.5444684E+10  0.1481638E-04
      20.479  0.5398047E+10  0.1468947E-04
      30.479  0.5369291E+10  0.1461122E-04
      40.479  0.5354285E+10  0.1457038E-04
      50.479  0.5333509E+10  0.1451384E-04
      60.479  0.5342495E+10  0.1453830E-04
      70.479  0.5373856E+10  0.1462364E-04
      80.479  0.5429199E+10  0.1477424E-04
      90.479  0.5433749E+10  0.1478662E-04
