 % time (yr) / global rate (mol yr-1) / mean rate (mol kg-1 yr-1)
           0.500   0.220306E+14   0.721641E-06
           1.500   0.221819E+14   0.726600E-06
           2.500   0.221519E+14   0.725617E-06
           3.500   0.221502E+14   0.725562E-06
           4.500   0.221570E+14   0.725783E-06
           5.500   0.221667E+14   0.726100E-06
           6.500   0.221668E+14   0.726106E-06
           7.500   0.221695E+14   0.726191E-06
           8.500   0.221722E+14   0.726281E-06
           9.500   0.221880E+14   0.726797E-06
          10.500   0.221709E+14   0.726238E-06
          20.479   0.221859E+14   0.726730E-06
          30.479   0.221780E+14   0.726469E-06
          40.479   0.222020E+14   0.727256E-06
          50.479   0.222571E+14   0.729061E-06
          60.479   0.223110E+14   0.730825E-06
          70.479   0.223863E+14   0.733293E-06
          80.479   0.223817E+14   0.733139E-06
          90.479   0.224445E+14   0.735195E-06
