 % time (yr) / global POFe flux (mol yr-1) / global POFe density (mol m-2 yr-1)
       0.500  0.6565564E+10  0.1786658E-04
       1.500  0.6606193E+10  0.1797714E-04
       2.500  0.6580390E+10  0.1790693E-04
       3.500  0.6578152E+10  0.1790084E-04
       4.500  0.6581223E+10  0.1790919E-04
       5.500  0.6587005E+10  0.1792493E-04
       6.500  0.6585619E+10  0.1792116E-04
       7.500  0.6585384E+10  0.1792052E-04
       8.500  0.6585264E+10  0.1792019E-04
       9.500  0.6595901E+10  0.1794913E-04
      10.500  0.6580826E+10  0.1790811E-04
      20.479  0.6571142E+10  0.1788176E-04
      30.479  0.6539176E+10  0.1779477E-04
      40.479  0.6525438E+10  0.1775739E-04
      50.479  0.6531647E+10  0.1777428E-04
      60.479  0.6522276E+10  0.1774878E-04
      70.479  0.6523443E+10  0.1775196E-04
      80.479  0.6449578E+10  0.1755095E-04
      90.479  0.6427710E+10  0.1749144E-04
