 % time (yr) / global pCO2 (mol) / global pCO2 (atm)
       0.500  0.4912682E+17  0.2776782E-03
       1.500  0.4921791E+17  0.2781930E-03
       2.500  0.4930949E+17  0.2787106E-03
       3.500  0.4939257E+17  0.2791802E-03
       4.500  0.4946915E+17  0.2796131E-03
       5.500  0.4954387E+17  0.2800355E-03
       6.500  0.4961809E+17  0.2804550E-03
       7.500  0.4969308E+17  0.2808788E-03
       8.500  0.4977271E+17  0.2813289E-03
       9.500  0.4985392E+17  0.2817879E-03
      10.500  0.4994034E+17  0.2822764E-03
      20.479  0.5104259E+17  0.2885066E-03
      30.479  0.5250119E+17  0.2967510E-03
      40.479  0.5438800E+17  0.3074158E-03
      50.479  0.5668646E+17  0.3204073E-03
      60.479  0.5936439E+17  0.3355437E-03
      70.479  0.6258705E+17  0.3537590E-03
      80.479  0.6610004E+17  0.3736154E-03
      90.479  0.7009528E+17  0.3961976E-03
