 % time (yr) / global PO4 (mol) / global PO4 (mol kg-1) / surface PO4 (mol kg-1) / benthic PO4 (mol kg-1)
       0.500  0.2877024E+16  0.2149453E-05  0.3103786E-06  0.2490590E-05
       1.500  0.2876971E+16  0.2149413E-05  0.3081412E-06  0.2490588E-05
       2.500  0.2876966E+16  0.2149410E-05  0.3064073E-06  0.2490589E-05
       3.500  0.2876964E+16  0.2149408E-05  0.3062811E-06  0.2490583E-05
       4.500  0.2876962E+16  0.2149406E-05  0.3064918E-06  0.2490578E-05
       5.500  0.2876959E+16  0.2149404E-05  0.3070174E-06  0.2490573E-05
       6.500  0.2876957E+16  0.2149402E-05  0.3071254E-06  0.2490575E-05
       7.500  0.2876955E+16  0.2149401E-05  0.3070622E-06  0.2490581E-05
       8.500  0.2876953E+16  0.2149399E-05  0.3072391E-06  0.2490587E-05
       9.500  0.2876950E+16  0.2149397E-05  0.3080944E-06  0.2490594E-05
      10.500  0.2876949E+16  0.2149395E-05  0.3071450E-06  0.2490603E-05
      20.479  0.2876929E+16  0.2149380E-05  0.3080413E-06  0.2490710E-05
      30.479  0.2876902E+16  0.2149359E-05  0.3057933E-06  0.2490965E-05
      40.479  0.2876863E+16  0.2149329E-05  0.3047621E-06  0.2491226E-05
      50.479  0.2876810E+16  0.2149288E-05  0.3056157E-06  0.2491580E-05
      60.479  0.2876749E+16  0.2149240E-05  0.3059305E-06  0.2492180E-05
      70.479  0.2876676E+16  0.2149185E-05  0.3079125E-06  0.2492766E-05
      80.479  0.2876605E+16  0.2149130E-05  0.3063623E-06  0.2493425E-05
      90.479  0.2876525E+16  0.2149068E-05  0.3084782E-06  0.2494225E-05
