 % time (yr) / global rate (mol yr-1) / mean rate (mol kg-1 yr-1)
           0.500   0.201911E+20   0.661388E+00
           1.500   0.201968E+20   0.661573E+00
           2.500   0.202019E+20   0.661742E+00
           3.500   0.202045E+20   0.661827E+00
           4.500   0.202083E+20   0.661949E+00
           5.500   0.202111E+20   0.662044E+00
           6.500   0.202131E+20   0.662108E+00
           7.500   0.202163E+20   0.662214E+00
           8.500   0.202189E+20   0.662298E+00
           9.500   0.202212E+20   0.662375E+00
          10.500   0.202238E+20   0.662458E+00
          20.479   0.202512E+20   0.663355E+00
          30.479   0.202838E+20   0.664423E+00
          40.479   0.203252E+20   0.665778E+00
          50.479   0.203743E+20   0.667386E+00
          60.479   0.204294E+20   0.669191E+00
          70.479   0.204928E+20   0.671269E+00
          80.479   0.205639E+20   0.673596E+00
          90.479   0.206403E+20   0.676098E+00
