 % time (yr) / global DOM_Fe (mol) / global DOM_Fe (mol kg-1) / surface DOM_Fe (mol kg-1) / benthic DOM_Fe (mol kg-1)
       0.500  0.1238046E+11  0.9249565E-11  0.2538911E-09  0.5050894E-14
       1.500  0.1241313E+11  0.9273973E-11  0.2546815E-09  0.4958729E-14
       2.500  0.1241218E+11  0.9273257E-11  0.2548616E-09  0.4648084E-14
       3.500  0.1241128E+11  0.9272585E-11  0.2548714E-09  0.4517058E-14
       4.500  0.1241223E+11  0.9273295E-11  0.2548578E-09  0.4402620E-14
       5.500  0.1241402E+11  0.9274631E-11  0.2547982E-09  0.4368901E-14
       6.500  0.1241511E+11  0.9275448E-11  0.2548050E-09  0.4330007E-14
       7.500  0.1241636E+11  0.9276385E-11  0.2548213E-09  0.4279332E-14
       8.500  0.1241836E+11  0.9277877E-11  0.2548188E-09  0.4289532E-14
       9.500  0.1242018E+11  0.9279235E-11  0.2547084E-09  0.4287247E-14
      10.500  0.1242164E+11  0.9280323E-11  0.2548826E-09  0.4280391E-14
      20.479  0.1243727E+11  0.9291999E-11  0.2550593E-09  0.4362940E-14
      30.479  0.1246474E+11  0.9312515E-11  0.2558391E-09  0.4449156E-14
      40.479  0.1250321E+11  0.9341251E-11  0.2566187E-09  0.4135305E-14
      50.479  0.1255556E+11  0.9380356E-11  0.2573831E-09  0.4189355E-14
      60.479  0.1261718E+11  0.9426390E-11  0.2583831E-09  0.3752428E-14
      70.479  0.1268889E+11  0.9479961E-11  0.2593633E-09  0.3450277E-14
      80.479  0.1276171E+11  0.9534351E-11  0.2609746E-09  0.3194822E-14
      90.479  0.1284221E+11  0.9594488E-11  0.2620786E-09  0.2865519E-14
