 % time (yr) / salinity (o/oo) / _surS (o/oo) / _benS (o/oo)
       0.500   34.902   34.792   34.976
       1.500   34.902   34.792   34.976
       2.500   34.902   34.792   34.976
       3.500   34.902   34.792   34.976
       4.500   34.902   34.792   34.976
       5.500   34.902   34.792   34.976
       6.500   34.902   34.792   34.976
       7.500   34.902   34.792   34.976
       8.500   34.902   34.792   34.976
       9.500   34.902   34.792   34.976
      10.500   34.902   34.792   34.976
      20.479   34.902   34.793   34.976
      30.479   34.902   34.793   34.976
      40.479   34.902   34.794   34.975
      50.479   34.902   34.795   34.975
      60.479   34.902   34.797   34.975
      70.479   34.902   34.799   34.975
      80.479   34.902   34.801   34.974
      90.479   34.902   34.803   34.974
