 % time (yr) / global sea-ice area (m2) / mean sea-ice cover (%) / global sea-ice volume (m3) / mean sea-ice thickness (m)
       0.500  0.3009E+14    8.189  0.4284E+14    1.496
       1.500  0.3011E+14    8.195  0.4270E+14    1.486
       2.500  0.3040E+14    8.271  0.4272E+14    1.477
       3.500  0.3040E+14    8.271  0.4267E+14    1.476
       4.500  0.3034E+14    8.256  0.4259E+14    1.477
       5.500  0.3021E+14    8.220  0.4251E+14    1.478
       6.500  0.3018E+14    8.213  0.4248E+14    1.479
       7.500  0.3015E+14    8.204  0.4244E+14    1.479
       8.500  0.3010E+14    8.191  0.4232E+14    1.477
       9.500  0.2990E+14    8.137  0.4218E+14    1.479
      10.500  0.3010E+14    8.192  0.4217E+14    1.471
      20.479  0.2978E+14    8.105  0.4177E+14    1.466
      30.479  0.2995E+14    8.149  0.4110E+14    1.444
      40.479  0.2982E+14    8.116  0.4024E+14    1.426
      50.479  0.2930E+14    7.973  0.3919E+14    1.409
      60.479  0.2881E+14    7.840  0.3802E+14    1.392
      70.479  0.2811E+14    7.649  0.3724E+14    1.399
      80.479  0.2811E+14    7.649  0.3602E+14    1.356
      90.479  0.2718E+14    7.397  0.3429E+14    1.333
