 % time (yr) / global ALK (mol) / global ALK (mol kg-1) / surface ALK (mol kg-1) / benthic ALK (mol kg-1)
       0.500  0.3163212E+19  0.2363267E-02  0.2290170E-02  0.2404408E-02
       1.500  0.3163213E+19  0.2363267E-02  0.2289863E-02  0.2404472E-02
       2.500  0.3163213E+19  0.2363267E-02  0.2289578E-02  0.2404521E-02
       3.500  0.3163213E+19  0.2363267E-02  0.2289369E-02  0.2404562E-02
       4.500  0.3163213E+19  0.2363267E-02  0.2289204E-02  0.2404599E-02
       5.500  0.3163213E+19  0.2363267E-02  0.2289057E-02  0.2404632E-02
       6.500  0.3163213E+19  0.2363267E-02  0.2288918E-02  0.2404665E-02
       7.500  0.3163213E+19  0.2363267E-02  0.2288788E-02  0.2404695E-02
       8.500  0.3163213E+19  0.2363267E-02  0.2288672E-02  0.2404724E-02
       9.500  0.3163213E+19  0.2363266E-02  0.2288577E-02  0.2404751E-02
      10.500  0.3163213E+19  0.2363266E-02  0.2288457E-02  0.2404778E-02
      20.479  0.3163214E+19  0.2363266E-02  0.2287729E-02  0.2404991E-02
      30.479  0.3163214E+19  0.2363265E-02  0.2287261E-02  0.2405140E-02
      40.479  0.3163215E+19  0.2363265E-02  0.2287096E-02  0.2405231E-02
      50.479  0.3163216E+19  0.2363264E-02  0.2287250E-02  0.2405294E-02
      60.479  0.3163218E+19  0.2363263E-02  0.2287609E-02  0.2405316E-02
      70.479  0.3163219E+19  0.2363263E-02  0.2288274E-02  0.2405275E-02
      80.479  0.3163221E+19  0.2363262E-02  0.2289066E-02  0.2405171E-02
      90.479  0.3163223E+19  0.2363261E-02  0.2290132E-02  0.2405021E-02
