 % time (yr) / global PO4 flux (mol yr-1) / global PO4 density (mol m-2 yr-1)
       0.500  0.1622439E+13  0.4415073E-02
       1.500  0.2523812E+13  0.6867938E-02
       2.500  0.1978792E+13  0.5384799E-02
       3.500  0.1779804E+13  0.4843301E-02
       4.500  0.1648263E+13  0.4485345E-02
       5.500  0.1562231E+13  0.4251232E-02
       6.500  0.1486596E+13  0.4045409E-02
       7.500  0.1419147E+13  0.3861862E-02
       8.500  0.1350196E+13  0.3674230E-02
       9.500  0.1285394E+13  0.3497887E-02
      10.500  0.1243157E+13  0.3382947E-02
      20.479  0.9719027E+12  0.2644796E-02
      30.479  0.8468825E+12  0.2304584E-02
      40.479  0.7845687E+12  0.2135012E-02
      50.479  0.7530403E+12  0.2049216E-02
      60.479  0.7313704E+12  0.1990246E-02
      70.479  0.7279342E+12  0.1980895E-02
      80.479  0.7205982E+12  0.1960932E-02
      90.479  0.7140602E+12  0.1943140E-02
     100.479  0.7027753E+12  0.1912431E-02
     200.479  0.7193417E+12  0.1957513E-02
     300.479  0.7438150E+12  0.2024111E-02
     400.479  0.7634235E+12  0.2077471E-02
     500.479  0.7627310E+12  0.2075586E-02
     600.479  0.7670414E+12  0.2087316E-02
     700.479  0.7672809E+12  0.2087968E-02
     800.479  0.7689594E+12  0.2092535E-02
     900.479  0.7689372E+12  0.2092475E-02
    1000.479  0.7714359E+12  0.2099275E-02
    2000.479  0.7713362E+12  0.2099003E-02
    3000.479  0.7738136E+12  0.2105745E-02
    4000.479  0.7736241E+12  0.2105229E-02
    5000.479  0.7736820E+12  0.2105387E-02
    6000.479  0.7733746E+12  0.2104550E-02
    7000.479  0.7734906E+12  0.2104866E-02
    8000.479  0.7735021E+12  0.2104897E-02
    9000.479  0.7733084E+12  0.2104370E-02
   10000.479  0.7724971E+12  0.2102162E-02
   20000.479  0.7691843E+12  0.2093147E-02
   25000.479  0.7697694E+12  0.2094740E-02
