 % time (yr) / global FeL (mol) / global FeL (mol kg-1) / surface FeL (mol kg-1)
  / benthic FeL (mol kg-1)
       0.500  0.8422114E+12  0.6292248E-09  0.3580686E-09  0.6351522E-09
       1.500  0.8396734E+12  0.6273352E-09  0.2503916E-09  0.6384642E-09
       2.500  0.8388235E+12  0.6267079E-09  0.2370732E-09  0.6406195E-09
       3.500  0.8385246E+12  0.6264940E-09  0.2325439E-09  0.6423545E-09
       4.500  0.8386242E+12  0.6265776E-09  0.2294613E-09  0.6438217E-09
       5.500  0.8389473E+12  0.6268277E-09  0.2292897E-09  0.6450608E-09
       6.500  0.8394324E+12  0.6271979E-09  0.2288034E-09  0.6461272E-09
       7.500  0.8400374E+12  0.6276563E-09  0.2301170E-09  0.6470553E-09
       8.500  0.8407515E+12  0.6281952E-09  0.2317258E-09  0.6478663E-09
       9.500  0.8415520E+12  0.6287977E-09  0.2356532E-09  0.6485307E-09
      10.500  0.8424014E+12  0.6294359E-09  0.2403079E-09  0.6491186E-09
      20.479  0.8528785E+12  0.6372766E-09  0.3025804E-09  0.6513723E-09
      30.479  0.8630687E+12  0.6448846E-09  0.3617704E-09  0.6528570E-09
      40.479  0.8720782E+12  0.6516084E-09  0.4114130E-09  0.6544466E-09
      50.479  0.8794877E+12  0.6571405E-09  0.4504625E-09  0.6547451E-09
      60.479  0.8857482E+12  0.6618156E-09  0.4817526E-09  0.6543784E-09
      70.479  0.8910603E+12  0.6657806E-09  0.5060784E-09  0.6538516E-09
      80.479  0.8955449E+12  0.6691270E-09  0.5253040E-09  0.6535453E-09
      90.479  0.8992308E+12  0.6718781E-09  0.5408623E-09  0.6531655E-09
     100.479  0.9022183E+12  0.6741077E-09  0.5541922E-09  0.6525167E-09
     200.479  0.9111900E+12  0.6807960E-09  0.6048958E-09  0.6416528E-09
     300.479  0.9082720E+12  0.6786122E-09  0.6030426E-09  0.6329871E-09
     400.479  0.9055204E+12  0.6765550E-09  0.5987328E-09  0.6276719E-09
     500.479  0.9036618E+12  0.6751662E-09  0.5948307E-09  0.6241199E-09
     600.479  0.9019309E+12  0.6738729E-09  0.5929441E-09  0.6214177E-09
     700.479  0.9009225E+12  0.6731194E-09  0.5915519E-09  0.6199654E-09
     800.479  0.9000955E+12  0.6725013E-09  0.5906469E-09  0.6190576E-09
     900.479  0.8994736E+12  0.6720367E-09  0.5900172E-09  0.6184355E-09
    1000.479  0.8990354E+12  0.6717092E-09  0.5895048E-09  0.6180554E-09
    2000.479  0.8983620E+12  0.6712061E-09  0.5879118E-09  0.6175030E-09
    3000.479  0.8982700E+12  0.6711372E-09  0.5878230E-09  0.6175335E-09
    4000.479  0.8982673E+12  0.6711351E-09  0.5877789E-09  0.6175528E-09
    5000.479  0.8982479E+12  0.6711207E-09  0.5877635E-09  0.6175284E-09
    6000.479  0.8981067E+12  0.6710152E-09  0.5876853E-09  0.6173980E-09
    7000.479  0.8978732E+12  0.6708407E-09  0.5876393E-09  0.6171834E-09
    8000.479  0.8975659E+12  0.6706111E-09  0.5875777E-09  0.6168919E-09
    9000.479  0.8972850E+12  0.6704013E-09  0.5875065E-09  0.6166254E-09
   10000.479  0.8970133E+12  0.6701982E-09  0.5873465E-09  0.6163612E-09
   20000.479  0.8901414E+12  0.6650639E-09  0.5852710E-09  0.6098746E-09
   25000.479  0.8855766E+12  0.6616534E-09  0.5840308E-09  0.6055717E-09
