 % time (yr) / global DIC_14C (o/oo)
       0.500   -1000.000
       1.500   -1000.000
       2.500   -1000.000
       3.500   -1000.000
       4.500   -1000.000
       5.500   -1000.000
       6.500   -1000.000
       7.500   -1000.000
       8.500   -1000.000
       9.500   -1000.000
      10.500   -1000.000
      20.479   -1000.000
      30.479   -1000.000
      40.479   -1000.000
      50.479   -1000.000
      60.479   -1000.000
      70.479   -1000.000
      80.479   -1000.000
      90.479   -1000.000
     100.479   -1000.000
     200.479   -1000.000
     300.479   -1000.000
     400.479   -1000.000
     500.479   -1000.000
     600.479   -1000.000
     700.479   -1000.000
     800.479   -1000.000
     900.479   -1000.000
    1000.479   -1000.000
    2000.479   -1000.000
    3000.479   -1000.000
    4000.479   -1000.000
    5000.479   -1000.000
    6000.479   -1000.000
    7000.479   -1000.000
    8000.479   -1000.000
    9000.479   -1000.000
   10000.479   -1000.000
   20000.479   -1000.000
   25000.479   -1000.000
