 % time (yr) / global pO2 sea->air transfer flux (mol yr-1) / global pO2 density
  (mol m-2 yr-1)
       0.500 -0.7240778E+16     -19.704
       1.500 -0.2014475E+16      -5.482
       2.500 -0.1201374E+16      -3.269
       3.500 -0.6772830E+15      -1.843
       4.500 -0.2499974E+15      -0.680
       5.500  0.2276232E+14       0.062
       6.500  0.3118882E+15       0.849
       7.500  0.4739815E+15       1.290
       8.500  0.6226675E+15       1.694
       9.500  0.6328905E+15       1.722
      10.500  0.6900313E+15       1.878
      20.479  0.5512618E+15       1.500
      30.479  0.3660248E+15       0.996
      40.479  0.2263761E+15       0.616
      50.479  0.1580175E+15       0.430
      60.479  0.1148255E+15       0.312
      70.479  0.7890512E+14       0.215
      80.479  0.8101530E+14       0.220
      90.479  0.4848602E+14       0.132
     100.479  0.3794093E+14       0.103
     200.479  0.4720944E+13       0.013
     300.479 -0.8514104E+13      -0.023
     400.479 -0.6239479E+13      -0.017
     500.479 -0.1510522E+14      -0.041
     600.479 -0.7080740E+13      -0.019
     700.479 -0.6419364E+13      -0.017
     800.479 -0.1464047E+13      -0.004
     900.479 -0.5769549E+13      -0.016
    1000.479 -0.4657741E+13      -0.013
    2000.479  0.1181397E+13       0.003
    3000.479  0.1121378E+13       0.003
    4000.479  0.1658961E+13       0.005
    5000.479  0.4421935E+12       0.001
    6000.479  0.4452968E+13       0.012
    7000.479 -0.2268562E+13      -0.006
    8000.479 -0.2299515E+13      -0.006
    9000.479  0.4965288E+12       0.001
   10000.479  0.5535579E+13       0.015
   20000.479 -0.5343201E+11       0.000
   25000.479 -0.2699406E+13      -0.007
