 % time (yr) / global O2 (mol) / global O2 (mol kg-1) / surface O2 (mol kg-1) / 
 benthic O2 (mol kg-1)
       0.500  0.2323819E+18  0.1736149E-03  0.2918792E-03  0.1706793E-03
       1.500  0.2364671E+18  0.1766688E-03  0.3140058E-03  0.1723998E-03
       2.500  0.2383669E+18  0.1780904E-03  0.3078942E-03  0.1734026E-03
       3.500  0.2395110E+18  0.1789479E-03  0.3026819E-03  0.1740584E-03
       4.500  0.2400722E+18  0.1793698E-03  0.2987050E-03  0.1743955E-03
       5.500  0.2402658E+18  0.1795170E-03  0.2950356E-03  0.1745094E-03
       6.500  0.2401624E+18  0.1794419E-03  0.2920960E-03  0.1744525E-03
       7.500  0.2398350E+18  0.1791991E-03  0.2890679E-03  0.1742838E-03
       8.500  0.2393384E+18  0.1788296E-03  0.2862711E-03  0.1740386E-03
       9.500  0.2387442E+18  0.1783868E-03  0.2833579E-03  0.1737750E-03
      10.500  0.2381178E+18  0.1779198E-03  0.2807917E-03  0.1734943E-03
      20.479  0.2318230E+18  0.1732197E-03  0.2642018E-03  0.1721114E-03
      30.479  0.2271588E+18  0.1697330E-03  0.2557998E-03  0.1717896E-03
      40.479  0.2241014E+18  0.1674464E-03  0.2517264E-03  0.1712359E-03
      50.479  0.2221341E+18  0.1659754E-03  0.2486144E-03  0.1701819E-03
      60.479  0.2207906E+18  0.1649709E-03  0.2462583E-03  0.1691647E-03
      70.479  0.2197452E+18  0.1641888E-03  0.2443970E-03  0.1682538E-03
      80.479  0.2189076E+18  0.1635619E-03  0.2430128E-03  0.1674747E-03
      90.479  0.2182683E+18  0.1630834E-03  0.2420200E-03  0.1667405E-03
     100.479  0.2177821E+18  0.1627196E-03  0.2410955E-03  0.1661850E-03
     200.479  0.2161800E+18  0.1615190E-03  0.2373134E-03  0.1635832E-03
     300.479  0.2171619E+18  0.1622518E-03  0.2367746E-03  0.1617444E-03
     400.479  0.2181972E+18  0.1630249E-03  0.2366468E-03  0.1612422E-03
     500.479  0.2185316E+18  0.1632748E-03  0.2367537E-03  0.1603776E-03
     600.479  0.2191066E+18  0.1637043E-03  0.2367990E-03  0.1600187E-03
     700.479  0.2194720E+18  0.1639773E-03  0.2368224E-03  0.1598238E-03
     800.479  0.2198948E+18  0.1642931E-03  0.2368117E-03  0.1599894E-03
     900.479  0.2202101E+18  0.1645288E-03  0.2368062E-03  0.1602011E-03
    1000.479  0.2204579E+18  0.1647139E-03  0.2368197E-03  0.1604326E-03
    2000.479  0.2211083E+18  0.1651998E-03  0.2368222E-03  0.1610940E-03
    3000.479  0.2214513E+18  0.1654560E-03  0.2368451E-03  0.1615944E-03
    4000.479  0.2215482E+18  0.1655284E-03  0.2368385E-03  0.1618840E-03
    5000.479  0.2215502E+18  0.1655300E-03  0.2368453E-03  0.1618877E-03
    6000.479  0.2215580E+18  0.1655358E-03  0.2368489E-03  0.1619006E-03
    7000.479  0.2215851E+18  0.1655560E-03  0.2368397E-03  0.1619278E-03
    8000.479  0.2216348E+18  0.1655932E-03  0.2368443E-03  0.1619839E-03
    9000.479  0.2216728E+18  0.1656215E-03  0.2368391E-03  0.1620280E-03
   10000.479  0.2216945E+18  0.1656377E-03  0.2368335E-03  0.1620628E-03
   20000.479  0.2225721E+18  0.1662934E-03  0.2368355E-03  0.1631142E-03
   25000.479  0.2231773E+18  0.1667456E-03  0.2368338E-03  0.1638262E-03
