 % time (yr) / mean saturation state
       0.500  0.3044215E+01
       1.500  0.3714291E+01
       2.500  0.3981881E+01
       3.500  0.4152035E+01
       4.500  0.4276844E+01
       5.500  0.4373262E+01
       6.500  0.4464340E+01
       7.500  0.4545348E+01
       8.500  0.4624884E+01
       9.500  0.4691600E+01
      10.500  0.4752564E+01
      20.479  0.5103831E+01
      30.479  0.5204897E+01
      40.479  0.5221960E+01
      50.479  0.5255695E+01
      60.479  0.5297588E+01
      70.479  0.5337634E+01
      80.479  0.5372435E+01
      90.479  0.5395522E+01
     100.479  0.5419206E+01
     200.479  0.5513292E+01
     300.479  0.5510652E+01
     400.479  0.5495903E+01
     500.479  0.5475465E+01
     600.479  0.5464153E+01
     700.479  0.5456283E+01
     800.479  0.5452199E+01
     900.479  0.5448740E+01
    1000.479  0.5446582E+01
    2000.479  0.5444237E+01
    3000.479  0.5444554E+01
    4000.479  0.5444954E+01
    5000.479  0.5444795E+01
    6000.479  0.5445132E+01
    7000.479  0.5444621E+01
    8000.479  0.5444403E+01
    9000.479  0.5444860E+01
   10000.479  0.5445920E+01
   20000.479  0.5446290E+01
   25000.479  0.5447013E+01
