 % time (yr) / global DIC_14C (mol) / global DIC_14C (o/oo) / surface DIC_14C (o
 /oo) / benthic DIC_14C (o/oo)
       0.500  0.3353845E+07      -0.030       1.715      -0.069
       1.500  0.3352735E+07      -0.116       3.043      -0.202
       2.500  0.3352074E+07      -0.192       3.801      -0.328
       3.500  0.3351562E+07      -0.275       4.226      -0.453
       4.500  0.3351157E+07      -0.360       4.573      -0.578
       5.500  0.3350813E+07      -0.447       4.854      -0.703
       6.500  0.3350511E+07      -0.536       5.139      -0.828
       7.500  0.3350238E+07      -0.625       5.399      -0.952
       8.500  0.3349990E+07      -0.716       5.658      -1.077
       9.500  0.3349761E+07      -0.808       5.882      -1.201
      10.500  0.3349540E+07      -0.900       6.090      -1.325
      20.479  0.3347639E+07      -1.846       7.658      -2.526
      30.479  0.3345722E+07      -2.794       8.578      -3.698
      40.479  0.3343498E+07      -3.718       9.059      -4.847
      50.479  0.3340977E+07      -4.620       9.379      -5.974
      60.479  0.3338254E+07      -5.508       9.567      -7.077
      70.479  0.3335434E+07      -6.390       9.607      -8.157
      80.479  0.3332586E+07      -7.266       9.538      -9.215
      90.479  0.3329733E+07      -8.136       9.370     -10.257
     100.479  0.3326890E+07      -8.998       9.193     -11.282
     200.479  0.3299160E+07     -17.326       5.647     -20.948
     300.479  0.3272853E+07     -25.135       0.774     -29.885
     400.479  0.3248044E+07     -32.445      -4.045     -38.117
     500.479  0.3224900E+07     -39.284      -8.606     -45.814
     600.479  0.3203202E+07     -45.655     -12.813     -52.963
     700.479  0.3182958E+07     -51.608     -16.768     -59.583
     800.479  0.3164002E+07     -57.166     -20.460     -65.709
     900.479  0.3146313E+07     -62.363     -23.929     -71.404
    1000.479  0.3129809E+07     -67.218     -27.179     -76.701
    2000.479  0.3014995E+07    -101.183     -50.021    -113.676
    3000.479  0.2957536E+07    -118.269     -61.514    -132.222
    4000.479  0.2928686E+07    -126.860     -67.291    -141.544
    5000.479  0.2914190E+07    -131.180     -70.196    -146.243
    6000.479  0.2906890E+07    -133.354     -71.647    -148.610
    7000.479  0.2903202E+07    -134.449     -72.401    -149.800
    8000.479  0.2901331E+07    -134.999     -72.770    -150.399
    9000.479  0.2900381E+07    -135.276     -72.946    -150.700
   10000.479  0.2899889E+07    -135.417     -73.036    -150.852
   20000.479  0.2898842E+07    -135.564     -73.161    -151.010
   25000.479  0.2898436E+07    -135.572     -73.187    -151.016
