 % time (yr) / surface conc_HCO3 (mol kg-1) / surface conc_HCO3 d13C (o/oo) / su
 rface conc_HCO3 d14C (o/oo)
       0.500  0.2041058E-02       1.058       2.287
       1.500  0.1971972E-02       1.627       3.649
       2.500  0.1942610E-02       1.840       4.421
       3.500  0.1923893E-02       1.970       4.853
       4.500  0.1909961E-02       2.068       5.203
       5.500  0.1899087E-02       2.148       5.487
       6.500  0.1888827E-02       2.231       5.773
       7.500  0.1879652E-02       2.313       6.035
       8.500  0.1870642E-02       2.395       6.296
       9.500  0.1862992E-02       2.460       6.520
      10.500  0.1855986E-02       2.513       6.729
      20.479  0.1813620E-02       2.814       8.294
      30.479  0.1798220E-02       2.888       9.205
      40.479  0.1792122E-02       2.874       9.678
      50.479  0.1785641E-02       2.859       9.994
      60.479  0.1779012E-02       2.847      10.179
      70.479  0.1772947E-02       2.836      10.218
      80.479  0.1767652E-02       2.826      10.148
      90.479  0.1763779E-02       2.811       9.980
     100.479  0.1759949E-02       2.800       9.801
     200.479  0.1740937E-02       2.693       6.252
     300.479  0.1735103E-02       2.632       1.375
     400.479  0.1731671E-02       2.614      -3.447
     500.479  0.1730010E-02       2.607      -8.011
     600.479  0.1728560E-02       2.608     -12.221
     700.479  0.1727603E-02       2.610     -16.178
     800.479  0.1726822E-02       2.613     -19.872
     900.479  0.1726383E-02       2.616     -23.343
    1000.479  0.1726073E-02       2.619     -26.596
    2000.479  0.1725384E-02       2.641     -49.450
    3000.479  0.1725428E-02       2.653     -60.950
    4000.479  0.1725450E-02       2.660     -66.731
    5000.479  0.1725461E-02       2.664     -69.636
    6000.479  0.1725406E-02       2.666     -71.089
    7000.479  0.1725498E-02       2.667     -71.843
    8000.479  0.1725505E-02       2.668     -72.212
    9000.479  0.1725441E-02       2.668     -72.388
   10000.479  0.1725352E-02       2.669     -72.478
   20000.479  0.1725348E-02       2.670     -72.603
   25000.479  0.1725308E-02       2.670     -72.631
