 % time (yr) / global CaCO3_14C flux (mol yr-1) / global CaCO3_14C delta (o/oo)
       0.500  0.1908248E+03       1.538
       1.500  0.1761088E+03       2.831
       2.500  0.1666621E+03       3.827
       3.500  0.1603503E+03       4.285
       4.500  0.1543182E+03       4.649
       5.500  0.1494661E+03       4.938
       6.500  0.1451485E+03       5.220
       7.500  0.1411471E+03       5.487
       8.500  0.1372885E+03       5.746
       9.500  0.1336590E+03       5.976
      10.500  0.1306050E+03       6.162
      20.479  0.1079262E+03       7.560
      30.479  0.9556789E+02       8.304
      40.479  0.8920388E+02       8.417
      50.479  0.8537091E+02       8.374
      60.479  0.8297896E+02       8.268
      70.479  0.8176965E+02       8.117
      80.479  0.8076757E+02       7.909
      90.479  0.8031662E+02       7.615
     100.479  0.7970431E+02       7.322
     200.479  0.8001394E+02       2.983
     300.479  0.8123830E+02      -2.277
     400.479  0.8165587E+02      -7.428
     500.479  0.8138408E+02     -12.300
     600.479  0.8112209E+02     -16.820
     700.479  0.8080017E+02     -21.075
     800.479  0.8055961E+02     -25.049
     900.479  0.8024093E+02     -28.781
    1000.479  0.8003334E+02     -32.276
    2000.479  0.7804813E+02     -56.872
    3000.479  0.7721662E+02     -69.258
    4000.479  0.7670472E+02     -75.485
    5000.479  0.7644998E+02     -78.614
    6000.479  0.7629546E+02     -80.174
    7000.479  0.7624368E+02     -80.981
    8000.479  0.7622171E+02     -81.374
    9000.479  0.7618458E+02     -81.561
   10000.479  0.7608202E+02     -81.650
   20000.479  0.7592186E+02     -81.644
   25000.479  0.7593778E+02     -81.572
