 % time (yr) / global CaCO3 flux (mol yr-1) / global CaCO3 density (mol m-2 yr-1
 )
       0.500  0.1705745E+15  0.4641769E+00
       1.500  0.1572171E+15  0.4278281E+00
       2.500  0.1486363E+15  0.4044774E+00
       3.500  0.1429420E+15  0.3889818E+00
       4.500  0.1375149E+15  0.3742131E+00
       5.500  0.1331527E+15  0.3623426E+00
       6.500  0.1292701E+15  0.3517770E+00
       7.500  0.1256731E+15  0.3419888E+00
       8.500  0.1222061E+15  0.3325541E+00
       9.500  0.1189480E+15  0.3236880E+00
      10.500  0.1162087E+15  0.3162336E+00
      20.479  0.9589656E+14  0.2609591E+00
      30.479  0.8485299E+14  0.2309067E+00
      40.479  0.7919369E+14  0.2155063E+00
      50.479  0.7579402E+14  0.2062549E+00
      60.479  0.7367815E+14  0.2004971E+00
      70.479  0.7261526E+14  0.1976047E+00
      80.479  0.7174021E+14  0.1952235E+00
      90.479  0.7136049E+14  0.1941902E+00
     100.479  0.7083702E+14  0.1927657E+00
     200.479  0.7141986E+14  0.1943517E+00
     300.479  0.7289496E+14  0.1983658E+00
     400.479  0.7364989E+14  0.2004202E+00
     500.479  0.7376684E+14  0.2007385E+00
     600.479  0.7386745E+14  0.2010122E+00
     700.479  0.7389412E+14  0.2010848E+00
     800.479  0.7397443E+14  0.2013034E+00
     900.479  0.7396485E+14  0.2012773E+00
    1000.479  0.7403999E+14  0.2014818E+00
    2000.479  0.7408641E+14  0.2016081E+00
    3000.479  0.7427257E+14  0.2021147E+00
    4000.479  0.7427711E+14  0.2021270E+00
    5000.479  0.7428186E+14  0.2021399E+00
    6000.479  0.7425740E+14  0.2020734E+00
    7000.479  0.7427216E+14  0.2021136E+00
    8000.479  0.7428256E+14  0.2021419E+00
    9000.479  0.7426144E+14  0.2020844E+00
   10000.479  0.7416867E+14  0.2018319E+00
   20000.479  0.7401205E+14  0.2014057E+00
   25000.479  0.7402176E+14  0.2014322E+00
