 % time (yr) / mean saturation state
       0.500  0.1919037E+01
       1.500  0.2348057E+01
       2.500  0.2522599E+01
       3.500  0.2634757E+01
       4.500  0.2717681E+01
       5.500  0.2782275E+01
       6.500  0.2843440E+01
       7.500  0.2898268E+01
       8.500  0.2952256E+01
       9.500  0.2997976E+01
      10.500  0.3039933E+01
      20.479  0.3286672E+01
      30.479  0.3364271E+01
      40.479  0.3383023E+01
      50.479  0.3411363E+01
      60.479  0.3443681E+01
      70.479  0.3473791E+01
      80.479  0.3499725E+01
      90.479  0.3517346E+01
     100.479  0.3535187E+01
     200.479  0.3607673E+01
     300.479  0.3607605E+01
     400.479  0.3598209E+01
     500.479  0.3584591E+01
     600.479  0.3577135E+01
     700.479  0.3571992E+01
     800.479  0.3569343E+01
     900.479  0.3567087E+01
    1000.479  0.3565657E+01
    2000.479  0.3564149E+01
    3000.479  0.3564339E+01
    4000.479  0.3564614E+01
    5000.479  0.3564497E+01
    6000.479  0.3564721E+01
    7000.479  0.3564389E+01
    8000.479  0.3564237E+01
    9000.479  0.3564546E+01
   10000.479  0.3565270E+01
   20000.479  0.3565509E+01
   25000.479  0.3565949E+01
