 % time (yr) / surface fug_CO2 (atm)
       0.500  0.3265669E-03
       1.500  0.2779991E-03
       2.500  0.2690161E-03
       3.500  0.2646475E-03
       4.500  0.2617966E-03
       5.500  0.2603661E-03
       6.500  0.2588567E-03
       7.500  0.2581029E-03
       8.500  0.2573314E-03
       9.500  0.2573195E-03
      10.500  0.2573639E-03
      20.479  0.2612483E-03
      30.479  0.2698215E-03
      40.479  0.2774238E-03
      50.479  0.2820818E-03
      60.479  0.2844405E-03
      70.479  0.2856729E-03
      80.479  0.2862337E-03
      90.479  0.2867003E-03
     100.479  0.2870237E-03
     200.479  0.2877925E-03
     300.479  0.2877861E-03
     400.479  0.2876450E-03
     500.479  0.2876914E-03
     600.479  0.2875896E-03
     700.479  0.2875980E-03
     800.479  0.2875266E-03
     900.479  0.2875195E-03
    1000.479  0.2874607E-03
    2000.479  0.2873278E-03
    3000.479  0.2872435E-03
    4000.479  0.2872503E-03
    5000.479  0.2872430E-03
    6000.479  0.2872189E-03
    7000.479  0.2872659E-03
    8000.479  0.2872618E-03
    9000.479  0.2872422E-03
   10000.479  0.2872320E-03
   20000.479  0.2871944E-03
   25000.479  0.2870187E-03
