 % time (yr) / global DOM_C_13C (mol) / global DOM_C_13C (o/oo) / surface DOM_C_
 13C (o/oo) / benthic DOM_C_13C (o/oo)
       0.500  0.5118498E+13     -30.292     -29.964     -31.700
       1.500  0.1064929E+14     -28.442     -27.743     -31.503
       2.500  0.1328616E+14     -27.182     -26.445     -31.797
       3.500  0.1476329E+14     -26.364     -25.705     -32.726
       4.500  0.1559798E+14     -25.822     -25.270     -34.837
       5.500  0.1612048E+14     -25.440     -24.979     -41.328
       6.500  0.1650616E+14     -25.134     -24.743    -243.190
       7.500  0.1682654E+14     -24.858     -24.516************
       8.500  0.1709897E+14     -24.597     -24.293************
       9.500  0.1732242E+14     -24.358     -24.086************
      10.500  0.1750055E+14     -24.152     -23.905************
      20.479  0.1739888E+14     -22.978     -22.832************
      30.479  0.1652478E+14     -22.684     -22.503************
      40.479  0.1565687E+14     -22.702     -22.471************
      50.479  0.1522691E+14     -22.709     -22.417************
      60.479  0.1504341E+14     -22.674     -22.338************
      70.479  0.1505904E+14     -22.626     -22.260************
      80.479  0.1510523E+14     -22.578     -22.190************
      90.479  0.1517068E+14     -22.540     -22.133************
     100.479  0.1521225E+14     -22.502     -22.082************
     200.479  0.1616052E+14     -22.397     -21.892************
     300.479  0.1690873E+14     -22.395     -21.881************
     400.479  0.1727398E+14     -22.398     -21.882************
     500.479  0.1744343E+14     -22.403     -21.888************
     600.479  0.1752580E+14     -22.399     -21.884************
     700.479  0.1759112E+14     -22.394     -21.880************
     800.479  0.1764156E+14     -22.389     -21.874     -53.962
     900.479  0.1766918E+14     -22.383     -21.869     -41.628
    1000.479  0.1769186E+14     -22.379     -21.865     -36.641
    2000.479  0.1775213E+14     -22.350     -21.838     -31.949
    3000.479  0.1776711E+14     -22.336     -21.824     -31.909
    4000.479  0.1777159E+14     -22.330     -21.817     -31.253
    5000.479  0.1777061E+14     -22.325     -21.813     -31.741
    6000.479  0.1777043E+14     -22.323     -21.811     -31.853
    7000.479  0.1777329E+14     -22.322     -21.810     -31.462
    8000.479  0.1777415E+14     -22.321     -21.809     -31.854
    9000.479  0.1777525E+14     -22.320     -21.808     -31.249
   10000.479  0.1777471E+14     -22.319     -21.807     -31.675
   20000.479  0.1779922E+14     -22.306     -21.798     -31.988
   25000.479  0.1782136E+14     -22.299     -21.791     -31.604
