 % time (yr) / global CaCO3 flux (mol yr-1) / global CaCO3 density (mol m-2 yr-1
 )
       0.500  0.2730808E+15  0.7431229E+00
       1.500  0.2392366E+15  0.6510239E+00
       2.500  0.2273210E+15  0.6185988E+00
       3.500  0.2187673E+15  0.5953217E+00
       4.500  0.2106195E+15  0.5731496E+00
       5.500  0.2040478E+15  0.5552663E+00
       6.500  0.1980308E+15  0.5388925E+00
       7.500  0.1926581E+15  0.5242719E+00
       8.500  0.1874182E+15  0.5100129E+00
       9.500  0.1826533E+15  0.4970463E+00
      10.500  0.1784822E+15  0.4856957E+00
      20.479  0.1472730E+15  0.4007675E+00
      30.479  0.1305294E+15  0.3552040E+00
      40.479  0.1219654E+15  0.3318991E+00
      50.479  0.1167571E+15  0.3177260E+00
      60.479  0.1134958E+15  0.3088512E+00
      70.479  0.1118157E+15  0.3042791E+00
      80.479  0.1104445E+15  0.3005479E+00
      90.479  0.1098573E+15  0.2989499E+00
     100.479  0.1090447E+15  0.2967385E+00
     200.479  0.1095326E+15  0.2980663E+00
     300.479  0.1115780E+15  0.3036324E+00
     400.479  0.1125512E+15  0.3062806E+00
     500.479  0.1128156E+15  0.3070001E+00
     600.479  0.1129506E+15  0.3073675E+00
     700.479  0.1130142E+15  0.3075407E+00
     800.479  0.1131300E+15  0.3078557E+00
     900.479  0.1131285E+15  0.3078516E+00
    1000.479  0.1132197E+15  0.3080999E+00
    2000.479  0.1133206E+15  0.3083744E+00
    3000.479  0.1135628E+15  0.3090333E+00
    4000.479  0.1135786E+15  0.3090764E+00
    5000.479  0.1135830E+15  0.3090885E+00
    6000.479  0.1135495E+15  0.3089973E+00
    7000.479  0.1135789E+15  0.3090771E+00
    8000.479  0.1135907E+15  0.3091095E+00
    9000.479  0.1135469E+15  0.3089902E+00
   10000.479  0.1134144E+15  0.3086297E+00
   20000.479  0.1131855E+15  0.3080068E+00
   25000.479  0.1131642E+15  0.3079487E+00
