 % time (yr) / global DOM_C (mol) / global DOM_C (mol kg-1) / surface DOM_C (mol
  kg-1) / benthic DOM_C (mol kg-1)
       0.500  0.4763191E+15  0.3558629E-06  0.1124212E-04  0.5320921E-07
       1.500  0.9891393E+15  0.7390039E-06  0.2218083E-04  0.8995419E-07
       2.500  0.1232479E+16  0.9208184E-06  0.2780427E-04  0.7703949E-07
       3.500  0.1368366E+16  0.1022359E-05  0.3130678E-04  0.5513587E-07
       4.500  0.1444934E+16  0.1079582E-05  0.3363057E-04  0.3365925E-07
       5.500  0.1492757E+16  0.1115328E-05  0.3524502E-04  0.1550310E-07
       6.500  0.1527997E+16  0.1141672E-05  0.3670020E-04  0.8770123E-09
       7.500  0.1557219E+16  0.1163517E-05  0.3798340E-04 -0.1101682E-07
       8.500  0.1582013E+16  0.1182053E-05  0.3921936E-04 -0.2087980E-07
       9.500  0.1602298E+16  0.1197218E-05  0.4020148E-04 -0.2845377E-07
      10.500  0.1618437E+16  0.1209284E-05  0.4103443E-04 -0.3457236E-07
      20.479  0.1607122E+16  0.1200852E-05  0.4224995E-04 -0.4961673E-07
      30.479  0.1525927E+16  0.1140172E-05  0.3917615E-04 -0.4393749E-07
      40.479  0.1445810E+16  0.1080295E-05  0.3580611E-04 -0.3763060E-07
      50.479  0.1406115E+16  0.1050629E-05  0.3371038E-04 -0.3174209E-07
      60.479  0.1389121E+16  0.1037927E-05  0.3242241E-04 -0.2691184E-07
      70.479  0.1390497E+16  0.1038949E-05  0.3169925E-04 -0.2315295E-07
      80.479  0.1394694E+16  0.1042078E-05  0.3125057E-04 -0.2034203E-07
      90.479  0.1400683E+16  0.1046548E-05  0.3087755E-04 -0.1816820E-07
     100.479  0.1404468E+16  0.1049372E-05  0.3059257E-04 -0.1643333E-07
     200.479  0.1491857E+16  0.1114642E-05  0.3039427E-04 -0.8071493E-08
     300.479  0.1560926E+16  0.1166240E-05  0.3140684E-04 -0.4272585E-08
     400.479  0.1594649E+16  0.1191434E-05  0.3197323E-04 -0.2232169E-08
     500.479  0.1610300E+16  0.1203127E-05  0.3224870E-04 -0.1134596E-08
     600.479  0.1617897E+16  0.1208803E-05  0.3237464E-04 -0.4864898E-09
     700.479  0.1623920E+16  0.1213303E-05  0.3248213E-04 -0.8919235E-10
     800.479  0.1628566E+16  0.1216774E-05  0.3256445E-04  0.1925071E-09
     900.479  0.1631107E+16  0.1218672E-05  0.3260701E-04  0.3079794E-09
    1000.479  0.1633193E+16  0.1220231E-05  0.3264572E-04  0.4153669E-09
    2000.479  0.1638708E+16  0.1224351E-05  0.3276311E-04  0.6118209E-09
    3000.479  0.1640069E+16  0.1225368E-05  0.3277051E-04  0.6137615E-09
    4000.479  0.1640471E+16  0.1225669E-05  0.3277854E-04  0.6756500E-09
    5000.479  0.1640375E+16  0.1225596E-05  0.3277645E-04  0.6281040E-09
    6000.479  0.1640354E+16  0.1225581E-05  0.3278231E-04  0.6172310E-09
    7000.479  0.1640615E+16  0.1225776E-05  0.3277884E-04  0.6536803E-09
    8000.479  0.1640693E+16  0.1225834E-05  0.3277954E-04  0.6164873E-09
    9000.479  0.1640793E+16  0.1225909E-05  0.3278695E-04  0.6733551E-09
   10000.479  0.1640741E+16  0.1225870E-05  0.3280192E-04  0.6313161E-09
   20000.479  0.1642982E+16  0.1227545E-05  0.3286981E-04  0.6174708E-09
   25000.479  0.1645014E+16  0.1229063E-05  0.3290538E-04  0.6456835E-09
