 % time (yr) / global PO4 (mol) / global PO4 (mol kg-1) / surface PO4 (mol kg-1)
  / benthic PO4 (mol kg-1)
       0.500  0.2884836E+16  0.2155290E-05  0.1719882E-05  0.2164909E-05
       1.500  0.2881222E+16  0.2152613E-05  0.1361905E-05  0.2175736E-05
       2.500  0.2879422E+16  0.2151295E-05  0.1199465E-05  0.2184865E-05
       3.500  0.2878389E+16  0.2150555E-05  0.1092713E-05  0.2193052E-05
       4.500  0.2877831E+16  0.2150170E-05  0.1012392E-05  0.2200473E-05
       5.500  0.2877493E+16  0.2149947E-05  0.9492727E-06  0.2207242E-05
       6.500  0.2877256E+16  0.2149796E-05  0.8900071E-06  0.2213434E-05
       7.500  0.2877061E+16  0.2149673E-05  0.8375889E-06  0.2219138E-05
       8.500  0.2876903E+16  0.2149573E-05  0.7860849E-06  0.2224384E-05
       9.500  0.2876776E+16  0.2149493E-05  0.7420246E-06  0.2229147E-05
      10.500  0.2876670E+16  0.2149426E-05  0.7013896E-06  0.2233635E-05
      20.479  0.2876992E+16  0.2149707E-05  0.4453767E-06  0.2263476E-05
      30.479  0.2877778E+16  0.2150275E-05  0.3459052E-06  0.2282611E-05
      40.479  0.2878496E+16  0.2150784E-05  0.3273568E-06  0.2299413E-05
      50.479  0.2878857E+16  0.2151040E-05  0.3197010E-06  0.2314608E-05
      60.479  0.2879028E+16  0.2151159E-05  0.3129761E-06  0.2328362E-05
      70.479  0.2879028E+16  0.2151146E-05  0.3073571E-06  0.2340887E-05
      80.479  0.2878995E+16  0.2151108E-05  0.3022878E-06  0.2352070E-05
      90.479  0.2878939E+16  0.2151056E-05  0.3017624E-06  0.2362450E-05
     100.479  0.2878912E+16  0.2151028E-05  0.2988835E-06  0.2372425E-05
     200.479  0.2878157E+16  0.2150416E-05  0.2947681E-06  0.2442216E-05
     300.479  0.2877550E+16  0.2149952E-05  0.3000131E-06  0.2474187E-05
     400.479  0.2877249E+16  0.2149722E-05  0.3012526E-06  0.2488277E-05
     500.479  0.2877115E+16  0.2149621E-05  0.3038611E-06  0.2495990E-05
     600.479  0.2877047E+16  0.2149570E-05  0.3041979E-06  0.2499223E-05
     700.479  0.2876995E+16  0.2149532E-05  0.3049237E-06  0.2499872E-05
     800.479  0.2876954E+16  0.2149500E-05  0.3048536E-06  0.2499820E-05
     900.479  0.2876933E+16  0.2149484E-05  0.3052097E-06  0.2499562E-05
    1000.479  0.2876913E+16  0.2149469E-05  0.3052740E-06  0.2498954E-05
    2000.479  0.2876866E+16  0.2149434E-05  0.3054053E-06  0.2497390E-05
    3000.479  0.2876853E+16  0.2149424E-05  0.3055416E-06  0.2495171E-05
    4000.479  0.2876849E+16  0.2149421E-05  0.3055750E-06  0.2494000E-05
    5000.479  0.2876850E+16  0.2149422E-05  0.3056459E-06  0.2493956E-05
    6000.479  0.2876851E+16  0.2149422E-05  0.3054266E-06  0.2493943E-05
    7000.479  0.2876848E+16  0.2149420E-05  0.3059140E-06  0.2493885E-05
    8000.479  0.2876847E+16  0.2149420E-05  0.3060306E-06  0.2493828E-05
    9000.479  0.2876847E+16  0.2149419E-05  0.3057950E-06  0.2493744E-05
   10000.479  0.2876848E+16  0.2149420E-05  0.3054604E-06  0.2493660E-05
   20000.479  0.2876832E+16  0.2149408E-05  0.3070011E-06  0.2491820E-05
   25000.479  0.2876815E+16  0.2149395E-05  0.3081474E-06  0.2490563E-05
