 % time (yr) / global O2 flux (mol yr-1) / global O2 density (mol m-2 yr-1)
       0.500 -0.2758147E+15 -0.7505623E+00
       1.500 -0.4290480E+15 -0.1167549E+01
       2.500 -0.3363946E+15 -0.9154159E+00
       3.500 -0.3025666E+15 -0.8233612E+00
       4.500 -0.2802046E+15 -0.7625086E+00
       5.500 -0.2655793E+15 -0.7227094E+00
       6.500 -0.2527213E+15 -0.6877195E+00
       7.500 -0.2412550E+15 -0.6565166E+00
       8.500 -0.2295334E+15 -0.6246192E+00
       9.500 -0.2185170E+15 -0.5946407E+00
      10.500 -0.2113366E+15 -0.5751011E+00
      20.479 -0.1652235E+15 -0.4496153E+00
      30.479 -0.1439700E+15 -0.3917793E+00
      40.479 -0.1333767E+15 -0.3629521E+00
      50.479 -0.1280169E+15 -0.3483666E+00
      60.479 -0.1243330E+15 -0.3383418E+00
      70.479 -0.1237488E+15 -0.3367522E+00
      80.479 -0.1225017E+15 -0.3333585E+00
      90.479 -0.1213902E+15 -0.3303339E+00
     100.479 -0.1194718E+15 -0.3251134E+00
     200.479 -0.1222881E+15 -0.3327772E+00
     300.479 -0.1264485E+15 -0.3440989E+00
     400.479 -0.1297820E+15 -0.3531700E+00
     500.479 -0.1296643E+15 -0.3528497E+00
     600.479 -0.1303970E+15 -0.3548437E+00
     700.479 -0.1304377E+15 -0.3549545E+00
     800.479 -0.1307231E+15 -0.3557310E+00
     900.479 -0.1307193E+15 -0.3557208E+00
    1000.479 -0.1311441E+15 -0.3568767E+00
    2000.479 -0.1311271E+15 -0.3568305E+00
    3000.479 -0.1315483E+15 -0.3579766E+00
    4000.479 -0.1315161E+15 -0.3578890E+00
    5000.479 -0.1315259E+15 -0.3579157E+00
    6000.479 -0.1314737E+15 -0.3577736E+00
    7000.479 -0.1314934E+15 -0.3578272E+00
    8000.479 -0.1314954E+15 -0.3578325E+00
    9000.479 -0.1314624E+15 -0.3577429E+00
   10000.479 -0.1313245E+15 -0.3573676E+00
   20000.479 -0.1307613E+15 -0.3558350E+00
   25000.479 -0.1308608E+15 -0.3561057E+00
