 % time (yr) / global ALK (mol yr-1)
       0.500  0.1732925E+15
       1.500  0.4028891E+14
       2.500  0.5400507E+14
       3.500  0.5676521E+14
       4.500  0.5719865E+14
       5.500  0.5700252E+14
       6.500  0.5617101E+14
       7.500  0.5628602E+14
       8.500  0.5680094E+14
       9.500  0.5471189E+14
      10.500  0.5349689E+14
      20.479  0.4237239E+14
      30.479  0.3330875E+14
      40.479  0.2830789E+14
      50.479  0.2647241E+14
      60.479  0.2481942E+14
      70.479  0.2198982E+14
      80.479  0.2099688E+14
      90.479  0.2193325E+14
     100.479  0.2275807E+14
     200.479  0.2098465E+14
     300.479  0.2197348E+14
     400.479  0.2312118E+14
     500.479  0.2246786E+14
     600.479  0.2371957E+14
     700.479  0.2337205E+14
     800.479  0.2300202E+14
     900.479  0.2404204E+14
    1000.479  0.2359476E+14
    2000.479  0.2472780E+14
    3000.479  0.2421703E+14
    4000.479  0.2448983E+14
    5000.479  0.2404709E+14
    6000.479  0.2432044E+14
    7000.479  0.2432155E+14
    8000.479  0.2496566E+14
    9000.479  0.2477554E+14
   10000.479  0.2484991E+14
   20000.479  0.2510859E+14
   25000.479  0.2466999E+14
