 % time (yr) / global POC_14C flux (mol yr-1) / global POC_14C delta (o/oo)
       0.500  0.3842947E+03     -60.604
       1.500  0.2622824E+03     -56.711
       2.500  0.2270593E+03     -54.820
       3.500  0.2091828E+03     -53.893
       4.500  0.1969684E+03     -53.254
       5.500  0.1872291E+03     -52.796
       6.500  0.1788531E+03     -52.326
       7.500  0.1709992E+03     -51.888
       8.500  0.1630070E+03     -51.408
       9.500  0.1558686E+03     -51.007
      10.500  0.1515866E+03     -50.825
      20.479  0.1194261E+03     -48.775
      30.479  0.1040919E+03     -47.942
      40.479  0.9725311E+02     -48.119
      50.479  0.9392288E+02     -48.454
      60.479  0.9125201E+02     -48.573
      70.479  0.9027608E+02     -48.691
      80.479  0.8901427E+02     -48.838
      90.479  0.8851642E+02     -49.112
     100.479  0.8766018E+02     -49.341
     200.479  0.8938570E+02     -53.370
     300.479  0.9202037E+02     -58.363
     400.479  0.9407472E+02     -63.310
     500.479  0.9345912E+02     -68.010
     600.479  0.9356802E+02     -72.349
     700.479  0.9316269E+02     -76.456
     800.479  0.9300049E+02     -80.273
     900.479  0.9256678E+02     -83.874
    1000.479  0.9258307E+02     -87.234
    2000.479  0.9011830E+02    -110.936
    3000.479  0.8923317E+02    -122.864
    4000.479  0.8860270E+02    -128.863
    5000.479  0.8830468E+02    -131.881
    6000.479  0.8808982E+02    -133.376
    7000.479  0.8800289E+02    -134.162
    8000.479  0.8803310E+02    -134.540
    9000.479  0.8797966E+02    -134.712
   10000.479  0.8777071E+02    -134.793
   20000.479  0.8743020E+02    -134.770
   25000.479  0.8750292E+02    -134.658
