 % time (yr) / mean core-top CaCO3_13C delta (o/oo)
       0.500       0.000
       1.500       1.131
       2.500       1.496
       3.500       1.701
       4.500       1.826
       5.500       1.913
       6.500       1.972
       7.500       2.024
       8.500       2.077
       9.500       2.130
      10.500       2.179
      20.479       2.513
      30.479       2.698
      40.479       2.794
      50.479       2.852
      60.479       2.894
      70.479       2.929
      80.479       2.958
      90.479       2.982
     100.479       3.004
     200.479       3.107
     300.479       3.129
     400.479       3.136
     500.479       3.142
     600.479       3.144
     700.479       3.148
     800.479       3.154
     900.479       3.158
    1000.479       3.163
    2000.479       3.192
    3000.479       3.207
    4000.479       3.212
    5000.479       3.218
    6000.479       3.222
    7000.479       3.222
    8000.479       3.222
    9000.479       3.225
   10000.479       3.223
   20000.479       3.231
   25000.479       3.235
