 % time (yr) / mean aeolian Fe solubility (%)
       0.500    0.860
       1.500    0.860
       2.500    0.860
       3.500    0.860
       4.500    0.860
       5.500    0.860
       6.500    0.860
       7.500    0.860
       8.500    0.860
       9.500    0.860
      10.500    0.860
      20.479    0.860
      30.479    0.860
      40.479    0.860
      50.479    0.860
      60.479    0.860
      70.479    0.860
      80.479    0.860
      90.479    0.860
     100.479    0.860
     200.479    0.860
     300.479    0.860
     400.479    0.860
     500.479    0.860
     600.479    0.860
     700.479    0.860
     800.479    0.860
     900.479    0.860
    1000.479    0.860
    2000.479    0.860
    3000.479    0.860
    4000.479    0.860
    5000.479    0.860
    6000.479    0.860
    7000.479    0.860
    8000.479    0.860
    9000.479    0.860
   10000.479    0.860
   20000.479    0.860
   25000.479    0.860
