 % time (yr) / total aeolian Fe input (mol yr-1)
       0.500  0.2926E+14
       1.500  0.2988E+14
       2.500  0.2988E+14
       3.500  0.2988E+14
       4.500  0.2988E+14
       5.500  0.2988E+14
       6.500  0.2988E+14
       7.500  0.2988E+14
       8.500  0.2988E+14
       9.500  0.2988E+14
      10.500  0.2988E+14
      20.479  0.2988E+14
      30.479  0.2988E+14
      40.479  0.2988E+14
      50.479  0.2988E+14
      60.479  0.2988E+14
      70.479  0.2988E+14
      80.479  0.2988E+14
      90.479  0.2988E+14
     100.479  0.2988E+14
     200.479  0.2988E+14
     300.479  0.2988E+14
     400.479  0.2988E+14
     500.479  0.2988E+14
     600.479  0.2988E+14
     700.479  0.2988E+14
     800.479  0.2988E+14
     900.479  0.2988E+14
    1000.479  0.2988E+14
    2000.479  0.2988E+14
    3000.479  0.2988E+14
    4000.479  0.2988E+14
    5000.479  0.2988E+14
    6000.479  0.2988E+14
    7000.479  0.2988E+14
    8000.479  0.2988E+14
    9000.479  0.2988E+14
   10000.479  0.2988E+14
   20000.479  0.2988E+14
   25000.479  0.2988E+14
