 % time (yr) / mean isotopic composition (o/oo)
       0.500      -0.353
       1.500      -0.365
       2.500      -0.345
       3.500      -0.349
       4.500      -0.410
       5.500      -0.635
       6.500      -1.145
       7.500      -1.727
       8.500      -1.988
       9.500      -1.820
      10.500      -1.578
      20.479      -0.982
      30.479      -0.661
      40.479      -0.560
      50.479      -0.540
      60.479      -0.528
      70.479      -0.527
      80.479      -0.526
      90.479      -0.521
     100.479      -0.520
     200.479      -0.390
     300.479      -0.388
     400.479      -0.409
     500.479      -0.436
     600.479      -0.461
     700.479      -0.489
     800.479      -0.515
     900.479      -0.542
    1000.479      -0.565
    2000.479      -0.733
    3000.479      -0.828
    4000.479      -0.863
    5000.479      -0.894
    6000.479      -0.905
    7000.479      -0.903
    8000.479      -0.915
    9000.479      -0.915
   10000.479      -0.912
   20000.479      -0.912
   25000.479      -0.908
