 % time (yr) / global pCO2 flux (mol yr-1) / global pCO2 density (mol m-2 yr-1) 
  NOTE: includes the net flux associated with any flux or restoring forcing of a
 tmospheric composition  and is thus not necessarily the same as the air-sea flu
 x.
       0.500  0.5230915E+14       0.142
       1.500 -0.2199837E+14      -0.060
       2.500 -0.6617496E+13      -0.018
       3.500  0.3065056E+13       0.008
       4.500  0.2982249E+14       0.081
       5.500  0.1066845E+15       0.290
       6.500  0.2718382E+15       0.740
       7.500  0.4586003E+15       1.248
       8.500  0.5448449E+15       1.483
       9.500  0.4966220E+15       1.351
      10.500  0.4224459E+15       1.150
      20.479  0.2452506E+15       0.667
      30.479  0.1418804E+15       0.386
      40.479  0.1042989E+15       0.284
      50.479  0.9373172E+14       0.255
      60.479  0.8802482E+14       0.240
      70.479  0.8634193E+14       0.235
      80.479  0.8469746E+14       0.230
      90.479  0.8107159E+14       0.221
     100.479  0.7933373E+14       0.216
     200.479  0.2626951E+14       0.071
     300.479  0.1332145E+14       0.036
     400.479  0.8491616E+13       0.023
     500.479  0.5159429E+13       0.014
     600.479  0.3110234E+13       0.008
     700.479  0.2099920E+13       0.006
     800.479  0.1635448E+13       0.004
     900.479  0.2005256E+13       0.005
    1000.479  0.1242864E+13       0.003
    2000.479 -0.3030194E+12      -0.001
    3000.479  0.2135262E+13       0.006
    4000.479 -0.4508935E+12      -0.001
    5000.479  0.2116419E+13       0.006
    6000.479  0.2144319E+13       0.006
    7000.479 -0.3782383E+12      -0.001
    8000.479  0.2575211E+13       0.007
    9000.479  0.2057913E+13       0.006
   10000.479  0.9448615E+12       0.003
   20000.479  0.7063013E+12       0.002
   25000.479 -0.8680825E+12      -0.002
