 % time (yr) / global DIC_13C (mol) / global DIC_13C (o/oo) / surface DIC_13C (o
 /oo) / benthic DIC_13C (o/oo)
       0.500  0.3326321E+17       0.009       0.765      -0.008
       1.500  0.3325530E+17       0.016       1.316      -0.021
       2.500  0.3325142E+17       0.020       1.523      -0.032
       3.500  0.3324919E+17       0.023       1.649      -0.041
       4.500  0.3324808E+17       0.025       1.745      -0.050
       5.500  0.3324763E+17       0.027       1.824      -0.057
       6.500  0.3324764E+17       0.029       1.906      -0.064
       7.500  0.3324798E+17       0.031       1.987      -0.070
       8.500  0.3324860E+17       0.033       2.069      -0.076
       9.500  0.3324943E+17       0.035       2.133      -0.081
      10.500  0.3325037E+17       0.037       2.186      -0.085
      20.479  0.3326325E+17       0.044       2.489      -0.115
      30.479  0.3327585E+17       0.046       2.568      -0.131
      40.479  0.3328463E+17       0.047       2.558      -0.145
      50.479  0.3328971E+17       0.049       2.546      -0.158
      60.479  0.3329237E+17       0.051       2.535      -0.170
      70.479  0.3329385E+17       0.053       2.524      -0.180
      80.479  0.3329484E+17       0.055       2.514      -0.188
      90.479  0.3329556E+17       0.057       2.500      -0.196
     100.479  0.3329615E+17       0.059       2.490      -0.203
     200.479  0.3329886E+17       0.072       2.383      -0.243
     300.479  0.3329818E+17       0.079       2.323      -0.255
     400.479  0.3329571E+17       0.087       2.305      -0.254
     500.479  0.3329400E+17       0.094       2.298      -0.252
     600.479  0.3329100E+17       0.101       2.299      -0.247
     700.479  0.3328845E+17       0.107       2.301      -0.240
     800.479  0.3328549E+17       0.114       2.305      -0.233
     900.479  0.3328302E+17       0.119       2.307      -0.226
    1000.479  0.3328096E+17       0.125       2.310      -0.220
    2000.479  0.3327274E+17       0.160       2.332      -0.179
    3000.479  0.3327174E+17       0.179       2.344      -0.156
    4000.479  0.3327169E+17       0.190       2.351      -0.143
    5000.479  0.3327182E+17       0.196       2.355      -0.137
    6000.479  0.3327185E+17       0.199       2.358      -0.133
    7000.479  0.3327173E+17       0.201       2.358      -0.131
    8000.479  0.3327149E+17       0.202       2.359      -0.130
    9000.479  0.3327124E+17       0.203       2.360      -0.129
   10000.479  0.3327104E+17       0.204       2.360      -0.128
   20000.479  0.3326490E+17       0.210       2.361      -0.119
   25000.479  0.3326069E+17       0.214       2.362      -0.113
