 % time (yr) / global CaCO3_13C flux (mol yr-1) / global CaCO3_13C delta (o/oo)
       0.500  0.3027430E+13       0.757
       1.500  0.2654016E+13       1.441
       2.500  0.2522469E+13       1.698
       3.500  0.2427914E+13       1.849
       4.500  0.2337745E+13       1.960
       5.500  0.2265005E+13       2.050
       6.500  0.2198417E+13       2.144
       7.500  0.2138969E+13       2.237
       8.500  0.2080981E+13       2.328
       9.500  0.2028222E+13       2.402
      10.500  0.1982016E+13       2.459
      20.479  0.1635993E+13       2.800
      30.479  0.1450105E+13       2.876
      40.479  0.1354899E+13       2.828
      50.479  0.1296990E+13       2.788
      60.479  0.1260738E+13       2.768
      70.479  0.1242066E+13       2.761
      80.479  0.1226832E+13       2.759
      90.479  0.1220297E+13       2.748
     100.479  0.1211264E+13       2.744
     200.479  0.1216614E+13       2.685
     300.479  0.1239296E+13       2.655
     400.479  0.1250096E+13       2.647
     500.479  0.1253029E+13       2.645
     600.479  0.1254532E+13       2.648
     700.479  0.1255243E+13       2.651
     800.479  0.1256534E+13       2.655
     900.479  0.1256522E+13       2.659
    1000.479  0.1257539E+13       2.662
    2000.479  0.1258691E+13       2.687
    3000.479  0.1261395E+13       2.699
    4000.479  0.1261580E+13       2.706
    5000.479  0.1261635E+13       2.710
    6000.479  0.1261266E+13       2.714
    7000.479  0.1261593E+13       2.714
    8000.479  0.1261726E+13       2.715
    9000.479  0.1261241E+13       2.716
   10000.479  0.1259772E+13       2.719
   20000.479  0.1257238E+13       2.725
   25000.479  0.1257005E+13       2.729
