 % time (yr) / global DOM_P (mol) / global DOM_P (mol kg-1) / surface DOM_P (mol
  kg-1) / benthic DOM_P (mol kg-1)
       0.500  0.4071103E+13  0.3041563E-08  0.9608650E-07  0.4547795E-09
       1.500  0.8454182E+13  0.6316272E-08  0.1895798E-06  0.7688392E-09
       2.500  0.1053401E+14  0.7870243E-08  0.2376434E-06  0.6584572E-09
       3.500  0.1169544E+14  0.8738111E-08  0.2675793E-06  0.4712468E-09
       4.500  0.1234986E+14  0.9227194E-08  0.2874408E-06  0.2876859E-09
       5.500  0.1275860E+14  0.9532716E-08  0.3012395E-06  0.1325051E-09
       6.500  0.1305981E+14  0.9757882E-08  0.3136769E-06  0.7495832E-11
       7.500  0.1330956E+14  0.9944594E-08  0.3246444E-06 -0.9416089E-10
       8.500  0.1352147E+14  0.1010302E-07  0.3352082E-06 -0.1784598E-09
       9.500  0.1369485E+14  0.1023263E-07  0.3436024E-06 -0.2431946E-09
      10.500  0.1383280E+14  0.1033576E-07  0.3507216E-06 -0.2954903E-09
      20.479  0.1373609E+14  0.1026370E-07  0.3611107E-06 -0.4240746E-09
      30.479  0.1304211E+14  0.9745062E-08  0.3348389E-06 -0.3755341E-09
      40.479  0.1235735E+14  0.9233291E-08  0.3060351E-06 -0.3216291E-09
      50.479  0.1201808E+14  0.8979736E-08  0.2881229E-06 -0.2712999E-09
      60.479  0.1187283E+14  0.8871168E-08  0.2771146E-06 -0.2300158E-09
      70.479  0.1188459E+14  0.8879902E-08  0.2709337E-06 -0.1978884E-09
      80.479  0.1192046E+14  0.8906650E-08  0.2670989E-06 -0.1738635E-09
      90.479  0.1197165E+14  0.8944853E-08  0.2639107E-06 -0.1552837E-09
     100.479  0.1200400E+14  0.8968994E-08  0.2614749E-06 -0.1404558E-09
     200.479  0.1275092E+14  0.9526853E-08  0.2597801E-06 -0.6898712E-10
     300.479  0.1334125E+14  0.9967865E-08  0.2684346E-06 -0.3651782E-10
     400.479  0.1362948E+14  0.1018320E-07  0.2732755E-06 -0.1907837E-10
     500.479  0.1376324E+14  0.1028314E-07  0.2756299E-06 -0.9697399E-11
     600.479  0.1382818E+14  0.1033165E-07  0.2767063E-06 -0.4158033E-11
     700.479  0.1387965E+14  0.1037011E-07  0.2776250E-06 -0.7623278E-12
     800.479  0.1391937E+14  0.1039978E-07  0.2783286E-06  0.1645360E-11
     900.479  0.1394108E+14  0.1041600E-07  0.2786924E-06  0.2632303E-11
    1000.479  0.1395891E+14  0.1042932E-07  0.2790233E-06  0.3550145E-11
    2000.479  0.1400605E+14  0.1046454E-07  0.2800266E-06  0.5229238E-11
    3000.479  0.1401769E+14  0.1047323E-07  0.2800899E-06  0.5245825E-11
    4000.479  0.1402112E+14  0.1047580E-07  0.2801585E-06  0.5774787E-11
    5000.479  0.1402030E+14  0.1047518E-07  0.2801406E-06  0.5368410E-11
    6000.479  0.1402012E+14  0.1047505E-07  0.2801907E-06  0.5275478E-11
    7000.479  0.1402235E+14  0.1047672E-07  0.2801610E-06  0.5587011E-11
    8000.479  0.1402302E+14  0.1047722E-07  0.2801670E-06  0.5269122E-11
    9000.479  0.1402387E+14  0.1047785E-07  0.2802304E-06  0.5755172E-11
   10000.479  0.1402343E+14  0.1047752E-07  0.2803583E-06  0.5395864E-11
   20000.479  0.1404258E+14  0.1049183E-07  0.2809385E-06  0.5277528E-11
   25000.479  0.1405995E+14  0.1050481E-07  0.2812425E-06  0.5518663E-11
