 % time (yr) / mean core-top age (yr)
       0.500       0.000
       1.500   23958.666
       2.500   24999.949
       3.500   24999.533
       4.500   24999.100
       5.500   24998.670
       6.500   24998.240
       7.500   24997.800
       8.500   24997.352
       9.500   24996.903
      10.500   24996.448
      20.479   24991.952
      30.479   24987.625
      40.479   24983.394
      50.479   24979.233
      60.479   24975.096
      70.479   24970.787
      80.479   24966.103
      90.479   24961.377
     100.479   24956.473
     200.479   24898.769
     300.479   24826.770
     400.479   24744.232
     500.479   24655.616
     600.479   24562.496
     700.479   24466.381
     800.479   24368.390
     900.479   24269.046
    1000.479   24169.573
    2000.479   23172.627
    3000.479   22173.428
    4000.479   21173.652
    5000.479   20173.775
    6000.479   19173.823
    7000.479   18173.749
    8000.479   17173.702
    9000.479   16173.772
   10000.479   15173.801
   20000.479    5174.238
   25000.479     174.578
