 % time (yr) / global min overturning (Sv) / global max overturning (Sv) / Atlan
 tic min overturning (Sv) / Atlantic max overturning (Sv)
       0.500 -107.466  100.195  -16.884   18.439
       1.500 -108.678  108.662  -12.504   19.090
       2.500 -100.591  104.584   -9.144   17.533
       3.500  -94.725  102.888   -8.159   17.000
       4.500  -89.433  102.653   -7.037   16.062
       5.500  -84.725  102.463   -6.108   15.438
       6.500  -80.643  102.260   -5.451   15.148
       7.500  -77.070  102.058   -5.118   14.868
       8.500  -74.018  101.879   -5.040   14.791
       9.500  -71.434  101.812   -4.783   14.762
      10.500  -69.446  101.745   -4.978   14.806
      20.479  -66.070  101.063  -15.217   18.217
      30.479  -67.498  100.403  -29.385   24.928
      40.479  -69.716   99.778  -36.281   22.826
      50.479  -69.391   99.240  -31.673   14.563
      60.479  -69.863   98.864  -25.267    9.571
      70.479  -70.151   98.617  -19.075    8.593
      80.479  -70.301   98.426  -13.560    8.383
      90.479  -70.286   98.209  -10.786    8.105
     100.479  -70.236   98.033   -9.329    8.246
     200.479  -70.425   97.417   -5.703   11.042
     300.479  -70.233   97.394   -4.157   13.868
     400.479  -70.219   97.368   -4.192   14.296
     500.479  -70.277   97.372   -4.438   14.482
     600.479  -70.275   97.372   -4.443   14.633
     700.479  -70.265   97.368   -4.408   14.744
     800.479  -70.263   97.361   -4.481   14.771
     900.479  -70.259   97.356   -4.523   14.773
    1000.479  -70.259   97.353   -4.535   14.815
    2000.479  -70.253   97.349   -4.581   14.841
    3000.479  -70.253   97.349   -4.586   14.843
    4000.479  -70.257   97.348   -4.584   14.865
    5000.479  -70.254   97.348   -4.586   14.842
    6000.479  -70.254   97.348   -4.585   14.842
    7000.479  -70.255   97.349   -4.586   14.855
    8000.479  -70.254   97.348   -4.581   14.861
    9000.479  -70.254   97.348   -4.584   14.863
   10000.479  -70.254   97.348   -4.583   14.855
   20000.479  -70.254   97.350   -4.580   14.860
   25000.479  -70.257   97.349   -4.584   14.858
