 % time (yr) / global Fe (mol) / global Fe (mol kg-1) / surface Fe (mol kg-1) / 
 benthic Fe (mol kg-1)
       0.500  0.2306284E+11  0.1723049E-10  0.6901674E-11  0.1741421E-10
       1.500  0.2316589E+11  0.1730766E-10  0.4457901E-11  0.1767122E-10
       2.500  0.2327424E+11  0.1738882E-10  0.4735454E-11  0.1784348E-10
       3.500  0.2340182E+11  0.1748440E-10  0.5037578E-11  0.1798449E-10
       4.500  0.2355692E+11  0.1760054E-10  0.5279108E-11  0.1810538E-10
       5.500  0.2372988E+11  0.1773001E-10  0.5587607E-11  0.1820864E-10
       6.500  0.2391352E+11  0.1786744E-10  0.5867863E-11  0.1829819E-10
       7.500  0.2410180E+11  0.1800831E-10  0.6278036E-11  0.1837667E-10
       8.500  0.2429045E+11  0.1814941E-10  0.6759749E-11  0.1844513E-10
       9.500  0.2447072E+11  0.1828423E-10  0.7326981E-11  0.1850114E-10
      10.500  0.2463184E+11  0.1840472E-10  0.7943671E-11  0.1855108E-10
      20.479  0.2645465E+11  0.1976709E-10  0.1625719E-10  0.1876512E-10
      30.479  0.2825765E+11  0.2111411E-10  0.2500515E-10  0.1896402E-10
      40.479  0.2976916E+11  0.2224323E-10  0.3050453E-10  0.1919817E-10
      50.479  0.3112634E+11  0.2325715E-10  0.3603078E-10  0.1930336E-10
      60.479  0.3230289E+11  0.2413615E-10  0.4051650E-10  0.1933879E-10
      70.479  0.3337657E+11  0.2493824E-10  0.4359990E-10  0.1936544E-10
      80.479  0.3434045E+11  0.2565826E-10  0.4577594E-10  0.1943802E-10
      90.479  0.3518174E+11  0.2628674E-10  0.4754738E-10  0.1951284E-10
     100.479  0.3592568E+11  0.2684248E-10  0.4917952E-10  0.1950889E-10
     200.479  0.3867845E+11  0.2889862E-10  0.5337574E-10  0.1847172E-10
     300.479  0.3835735E+11  0.2865856E-10  0.5123871E-10  0.1785834E-10
     400.479  0.3797456E+11  0.2837250E-10  0.5060209E-10  0.1753329E-10
     500.479  0.3780369E+11  0.2824483E-10  0.5027027E-10  0.1731660E-10
     600.479  0.3765806E+11  0.2813602E-10  0.5017142E-10  0.1715734E-10
     700.479  0.3757113E+11  0.2807106E-10  0.5007067E-10  0.1707530E-10
     800.479  0.3749804E+11  0.2801645E-10  0.5003129E-10  0.1702790E-10
     900.479  0.3744613E+11  0.2797767E-10  0.5001087E-10  0.1698965E-10
    1000.479  0.3740986E+11  0.2795057E-10  0.4997712E-10  0.1696831E-10
    2000.479  0.3743664E+11  0.2797057E-10  0.5019030E-10  0.1693454E-10
    3000.479  0.3738598E+11  0.2793272E-10  0.5018571E-10  0.1693229E-10
    4000.479  0.3738381E+11  0.2793109E-10  0.5018433E-10  0.1693738E-10
    5000.479  0.3738498E+11  0.2793197E-10  0.5017770E-10  0.1693262E-10
    6000.479  0.3737222E+11  0.2792243E-10  0.5017175E-10  0.1692256E-10
    7000.479  0.3734906E+11  0.2790513E-10  0.5016387E-10  0.1690817E-10
    8000.479  0.3732136E+11  0.2788443E-10  0.5014823E-10  0.1688690E-10
    9000.479  0.3729526E+11  0.2786493E-10  0.5014438E-10  0.1686879E-10
   10000.479  0.3727422E+11  0.2784921E-10  0.5014241E-10  0.1684826E-10
   20000.479  0.3666734E+11  0.2739579E-10  0.4985399E-10  0.1638605E-10
   25000.479  0.3627588E+11  0.2710331E-10  0.4970052E-10  0.1609165E-10
