 % time (yr) / global POM_Fe flux (mol yr-1) / global POM_Fe density (mol m-2 yr
 -1)
       0.500  0.6735012E+10  0.1832769E-04
       1.500  0.5623815E+10  0.1530384E-04
       2.500  0.5260651E+10  0.1431558E-04
       3.500  0.5068581E+10  0.1379291E-04
       4.500  0.4884221E+10  0.1329122E-04
       5.500  0.4791471E+10  0.1303882E-04
       6.500  0.4685922E+10  0.1275159E-04
       7.500  0.4629900E+10  0.1259914E-04
       8.500  0.4548252E+10  0.1237696E-04
       9.500  0.4520563E+10  0.1230161E-04
      10.500  0.4480262E+10  0.1219194E-04
      20.479  0.4329952E+10  0.1178291E-04
      30.479  0.4446479E+10  0.1210001E-04
      40.479  0.4636159E+10  0.1261617E-04
      50.479  0.4784757E+10  0.1302055E-04
      60.479  0.4901585E+10  0.1333847E-04
      70.479  0.5008343E+10  0.1362898E-04
      80.479  0.5091753E+10  0.1385596E-04
      90.479  0.5192855E+10  0.1413109E-04
     100.479  0.5263251E+10  0.1432265E-04
     200.479  0.5621565E+10  0.1529772E-04
     300.479  0.5662928E+10  0.1541028E-04
     400.479  0.5653872E+10  0.1538563E-04
     500.479  0.5662508E+10  0.1540913E-04
     600.479  0.5652321E+10  0.1538141E-04
     700.479  0.5647106E+10  0.1536722E-04
     800.479  0.5639842E+10  0.1534745E-04
     900.479  0.5642865E+10  0.1535568E-04
    1000.479  0.5641190E+10  0.1535112E-04
    2000.479  0.5632041E+10  0.1532623E-04
    3000.479  0.5635482E+10  0.1533559E-04
    4000.479  0.5632505E+10  0.1532749E-04
    5000.479  0.5635846E+10  0.1533658E-04
    6000.479  0.5634158E+10  0.1533199E-04
    7000.479  0.5636074E+10  0.1533720E-04
    8000.479  0.5637319E+10  0.1534059E-04
    9000.479  0.5634417E+10  0.1533269E-04
   10000.479  0.5627473E+10  0.1531380E-04
   20000.479  0.5637928E+10  0.1534225E-04
   25000.479  0.5637402E+10  0.1534081E-04
