 % time (yr) / global pCO2_13C (mol) / global pCO2_13C (o/oo)
       0.500  0.5422434E+15      -6.531
       1.500  0.5417023E+15      -6.523
       2.500  0.5415495E+15      -6.513
       3.500  0.5414586E+15      -6.488
       4.500  0.5413838E+15      -6.408
       5.500  0.5413300E+15      -6.170
       6.500  0.5412777E+15      -5.652
       7.500  0.5412417E+15      -5.066
       8.500  0.5412076E+15      -4.796
       9.500  0.5411893E+15      -4.952
      10.500  0.5411762E+15      -5.182
      20.479  0.5411529E+15      -5.736
      30.479  0.5411975E+15      -6.060
      40.479  0.5412573E+15      -6.177
      50.479  0.5412998E+15      -6.209
      60.479  0.5413222E+15      -6.227
      70.479  0.5413334E+15      -6.232
      80.479  0.5413343E+15      -6.236
      90.479  0.5413409E+15      -6.247
     100.479  0.5413431E+15      -6.253
     200.479  0.5413448E+15      -6.418
     300.479  0.5413533E+15      -6.459
     400.479  0.5413523E+15      -6.474
     500.479  0.5413564E+15      -6.485
     600.479  0.5413542E+15      -6.491
     700.479  0.5413558E+15      -6.494
     800.479  0.5413544E+15      -6.495
     900.479  0.5413544E+15      -6.495
    1000.479  0.5413536E+15      -6.497
    2000.479  0.5413510E+15      -6.501
    3000.479  0.5413502E+15      -6.493
    4000.479  0.5413500E+15      -6.502
    5000.479  0.5413503E+15      -6.493
    6000.479  0.5413496E+15      -6.493
    7000.479  0.5413506E+15      -6.501
    8000.479  0.5413508E+15      -6.492
    9000.479  0.5413504E+15      -6.493
   10000.479  0.5413497E+15      -6.497
   20000.479  0.5413506E+15      -6.498
   25000.479  0.5413510E+15      -6.503
