 % time (yr) / global pO2 (mol) / global pO2 (atm)
       0.500  0.3706036E+20  0.2094753E+00
       1.500  0.3705678E+20  0.2094550E+00
       2.500  0.3705517E+20  0.2094459E+00
       3.500  0.3705419E+20  0.2094404E+00
       4.500  0.3705372E+20  0.2094377E+00
       5.500  0.3705358E+20  0.2094369E+00
       6.500  0.3705371E+20  0.2094377E+00
       7.500  0.3705407E+20  0.2094397E+00
       8.500  0.3705459E+20  0.2094426E+00
       9.500  0.3705521E+20  0.2094461E+00
      10.500  0.3705585E+20  0.2094498E+00
      20.479  0.3706209E+20  0.2094850E+00
      30.479  0.3706663E+20  0.2095107E+00
      40.479  0.3706957E+20  0.2095273E+00
      50.479  0.3707147E+20  0.2095381E+00
      60.479  0.3707279E+20  0.2095455E+00
      70.479  0.3707384E+20  0.2095514E+00
      80.479  0.3707468E+20  0.2095562E+00
      90.479  0.3707533E+20  0.2095598E+00
     100.479  0.3707582E+20  0.2095626E+00
     200.479  0.3707755E+20  0.2095724E+00
     300.479  0.3707667E+20  0.2095674E+00
     400.479  0.3707569E+20  0.2095619E+00
     500.479  0.3707538E+20  0.2095601E+00
     600.479  0.3707481E+20  0.2095569E+00
     700.479  0.3707446E+20  0.2095549E+00
     800.479  0.3707404E+20  0.2095526E+00
     900.479  0.3707373E+20  0.2095508E+00
    1000.479  0.3707348E+20  0.2095494E+00
    2000.479  0.3707284E+20  0.2095458E+00
    3000.479  0.3707250E+20  0.2095439E+00
    4000.479  0.3707240E+20  0.2095433E+00
    5000.479  0.3707240E+20  0.2095433E+00
    6000.479  0.3707239E+20  0.2095433E+00
    7000.479  0.3707237E+20  0.2095431E+00
    8000.479  0.3707232E+20  0.2095428E+00
    9000.479  0.3707228E+20  0.2095426E+00
   10000.479  0.3707226E+20  0.2095425E+00
   20000.479  0.3707138E+20  0.2095375E+00
   25000.479  0.3707078E+20  0.2095341E+00
