 % time (yr) / global POFe flux (mol yr-1) / global POFe density (mol m-2 yr-1)
       0.500  0.2435527E+10  0.6627693E-05
       1.500  0.1476341E+10  0.4017502E-05
       2.500  0.1260188E+10  0.3429295E-05
       3.500  0.1156019E+10  0.3145823E-05
       4.500  0.1088709E+10  0.2962657E-05
       5.500  0.1037240E+10  0.2822597E-05
       6.500  0.9905805E+09  0.2695623E-05
       7.500  0.9467581E+09  0.2576371E-05
       8.500  0.8998215E+09  0.2448645E-05
       9.500  0.8604879E+09  0.2341608E-05
      10.500  0.8419659E+09  0.2291205E-05
      20.479  0.6831910E+09  0.1859138E-05
      30.479  0.6208812E+09  0.1689577E-05
      40.479  0.6062757E+09  0.1649831E-05
      50.479  0.6019956E+09  0.1638184E-05
      60.479  0.5946880E+09  0.1618298E-05
      70.479  0.5966872E+09  0.1623739E-05
      80.479  0.5954077E+09  0.1620257E-05
      90.479  0.5981646E+09  0.1627759E-05
     100.479  0.5970154E+09  0.1624632E-05
     200.479  0.6274726E+09  0.1707513E-05
     300.479  0.6498241E+09  0.1768338E-05
     400.479  0.6675989E+09  0.1816708E-05
     500.479  0.6652711E+09  0.1810373E-05
     600.479  0.6688019E+09  0.1819981E-05
     700.479  0.6681715E+09  0.1818266E-05
     800.479  0.6693226E+09  0.1821398E-05
     900.479  0.6683827E+09  0.1818840E-05
    1000.479  0.6711452E+09  0.1826358E-05
    2000.479  0.6697363E+09  0.1822524E-05
    3000.479  0.6724130E+09  0.1829808E-05
    4000.479  0.6722408E+09  0.1829339E-05
    5000.479  0.6722558E+09  0.1829380E-05
    6000.479  0.6716552E+09  0.1827746E-05
    7000.479  0.6715285E+09  0.1827401E-05
    8000.479  0.6721618E+09  0.1829124E-05
    9000.479  0.6717939E+09  0.1828123E-05
   10000.479  0.6699046E+09  0.1822982E-05
   20000.479  0.6652024E+09  0.1810186E-05
   25000.479  0.6651562E+09  0.1810060E-05
