 % time (yr) / global DOM_C_14C (o/oo)
       0.500************
       1.500************
       2.500************
       3.500************
       4.500************
       5.500************
       6.500************
       7.500************
       8.500************
       9.500************
      10.500************
      20.479************
      30.479************
      40.479************
      50.479************
      60.479************
      70.479************
      80.479************
      90.479************
     100.479************
     200.479************
     300.479************
     400.479************
     500.479************
     600.479************
     700.479************
     800.479************
     900.479************
    1000.479************
    2000.479************
    3000.479************
    4000.479************
    5000.479************
    6000.479************
    7000.479************
    8000.479************
    9000.479************
   10000.479************
   20000.479************
   25000.479************
