 % time (yr) / surface RF0 (mol kg-1)
       0.500  0.1350027E+02
       1.500  0.1205647E+02
       2.500  0.1159625E+02
       3.500  0.1131556E+02
       4.500  0.1110359E+02
       5.500  0.1094468E+02
       6.500  0.1079589E+02
       7.500  0.1067160E+02
       8.500  0.1055112E+02
       9.500  0.1045739E+02
      10.500  0.1037243E+02
      20.479  0.9919599E+01
      30.479  0.9797984E+01
      40.479  0.9778055E+01
      50.479  0.9740047E+01
      60.479  0.9691953E+01
      70.479  0.9643777E+01
      80.479  0.9599567E+01
      90.479  0.9572763E+01
     100.479  0.9543982E+01
     200.479  0.9420403E+01
     300.479  0.9404514E+01
     400.479  0.9399427E+01
     500.479  0.9405586E+01
     600.479  0.9405057E+01
     700.479  0.9405823E+01
     800.479  0.9404091E+01
     900.479  0.9404588E+01
    1000.479  0.9404270E+01
    2000.479  0.9402114E+01
    3000.479  0.9401932E+01
    4000.479  0.9401841E+01
    5000.479  0.9402029E+01
    6000.479  0.9401228E+01
    7000.479  0.9402684E+01
    8000.479  0.9402878E+01
    9000.479  0.9401981E+01
   10000.479  0.9400552E+01
   20000.479  0.9401652E+01
   25000.479  0.9400432E+01
