 % time (yr) / mean ocean surface pH
       0.500 8.113780
       1.500 8.176091
       2.500 8.188330
       3.500 8.194259
       4.500 8.198087
       5.500 8.199905
       6.500 8.201840
       7.500 8.202662
       8.500 8.203499
       9.500 8.203231
      10.500 8.202885
      20.479 8.195003
      30.479 8.181652
      40.479 8.170403
      50.479 8.163374
      60.479 8.159537
      70.479 8.157282
      80.479 8.155980
      90.479 8.154877
     100.479 8.153998
     200.479 8.150299
     300.479 8.149132
     400.479 8.148545
     500.479 8.147972
     600.479 8.147736
     700.479 8.147472
     800.479 8.147388
     900.479 8.147282
    1000.479 8.147282
    2000.479 8.147316
    3000.479 8.147434
    4000.479 8.147433
    5000.479 8.147443
    6000.479 8.147470
    7000.479 8.147415
    8000.479 8.147418
    9000.479 8.147440
   10000.479 8.147453
   20000.479 8.147496
   25000.479 8.147722
