 % time (yr) / global POP flux (mol yr-1) / global POP density (mol m-2 yr-1)
       0.500  0.3130233E+13  0.8518166E-02
       1.500  0.2127576E+13  0.5789679E-02
       2.500  0.1838170E+13  0.5002130E-02
       3.500  0.1691791E+13  0.4603798E-02
       4.500  0.1591931E+13  0.4332051E-02
       5.500  0.1512485E+13  0.4115859E-02
       6.500  0.1444105E+13  0.3929779E-02
       7.500  0.1380052E+13  0.3755474E-02
       8.500  0.1314885E+13  0.3578139E-02
       9.500  0.1256773E+13  0.3420002E-02
      10.500  0.1222012E+13  0.3325406E-02
      20.479  0.9606765E+12  0.2614247E-02
      30.479  0.8365936E+12  0.2276585E-02
      40.479  0.7817752E+12  0.2127410E-02
      50.479  0.7552706E+12  0.2055285E-02
      60.479  0.7338852E+12  0.1997089E-02
      70.479  0.7261263E+12  0.1975975E-02
      80.479  0.7160873E+12  0.1948657E-02
      90.479  0.7122876E+12  0.1938317E-02
     100.479  0.7055673E+12  0.1920029E-02
     200.479  0.7225178E+12  0.1966156E-02
     300.479  0.7477588E+12  0.2034843E-02
     400.479  0.7684900E+12  0.2091258E-02
     500.479  0.7673114E+12  0.2088051E-02
     600.479  0.7717986E+12  0.2100262E-02
     700.479  0.7718719E+12  0.2100461E-02
     800.479  0.7737262E+12  0.2105507E-02
     900.479  0.7731449E+12  0.2103925E-02
    1000.479  0.7761279E+12  0.2112043E-02
    2000.479  0.7756058E+12  0.2110622E-02
    3000.479  0.7784316E+12  0.2118312E-02
    4000.479  0.7782538E+12  0.2117828E-02
    5000.479  0.7783327E+12  0.2118043E-02
    6000.479  0.7777787E+12  0.2116535E-02
    7000.479  0.7777163E+12  0.2116365E-02
    8000.479  0.7783233E+12  0.2118017E-02
    9000.479  0.7780056E+12  0.2117152E-02
   10000.479  0.7762298E+12  0.2112320E-02
   20000.479  0.7731980E+12  0.2104070E-02
   25000.479  0.7737416E+12  0.2105549E-02
