 % time (yr) / global Fe flux (mol yr-1) / global Fe density (mol m-2 yr-1)
       0.500  0.1368792E+10  0.3724833E-05
       1.500  0.1844624E+10  0.5019694E-05
       2.500  0.1428206E+10  0.3886515E-05
       3.500  0.1315378E+10  0.3579480E-05
       4.500  0.1251809E+10  0.3406492E-05
       5.500  0.1225720E+10  0.3335497E-05
       6.500  0.1203357E+10  0.3274641E-05
       7.500  0.1181842E+10  0.3216094E-05
       8.500  0.1152518E+10  0.3136297E-05
       9.500  0.1126145E+10  0.3064530E-05
      10.500  0.1113940E+10  0.3031317E-05
      20.479  0.9620300E+09  0.2617930E-05
      30.479  0.8852745E+09  0.2409059E-05
      40.479  0.8657341E+09  0.2355884E-05
      50.479  0.8617602E+09  0.2345070E-05
      60.479  0.8553400E+09  0.2327599E-05
      70.479  0.8595863E+09  0.2339154E-05
      80.479  0.8566107E+09  0.2331057E-05
      90.479  0.8601362E+09  0.2340651E-05
     100.479  0.8544916E+09  0.2325290E-05
     200.479  0.8959906E+09  0.2438220E-05
     300.479  0.9228873E+09  0.2511413E-05
     400.479  0.9417728E+09  0.2562805E-05
     500.479  0.9409502E+09  0.2560566E-05
     600.479  0.9448998E+09  0.2571314E-05
     700.479  0.9447335E+09  0.2570862E-05
     800.479  0.9449427E+09  0.2571431E-05
     900.479  0.9444256E+09  0.2570024E-05
    1000.479  0.9466859E+09  0.2576175E-05
    2000.479  0.9446388E+09  0.2570604E-05
    3000.479  0.9464444E+09  0.2575517E-05
    4000.479  0.9461781E+09  0.2574793E-05
    5000.479  0.9463107E+09  0.2575154E-05
    6000.479  0.9466832E+09  0.2576167E-05
    7000.479  0.9458271E+09  0.2573838E-05
    8000.479  0.9459622E+09  0.2574205E-05
    9000.479  0.9456923E+09  0.2573471E-05
   10000.479  0.9447866E+09  0.2571006E-05
   20000.479  0.9452827E+09  0.2572356E-05
   25000.479  0.9394879E+09  0.2556587E-05
