 % time (yr) / mean det composition (wt%)
       0.500    0.081178
       1.500    0.428960
       2.500    0.747707
       3.500    1.042699
       4.500    1.319535
       5.500    1.573861
       6.500    1.811799
       7.500    2.036621
       8.500    2.251634
       9.500    2.459442
      10.500    2.662316
      20.479    4.471558
      30.479    6.012176
      40.479    7.382734
      50.479    8.617603
      60.479    9.722844
      70.479   10.714794
      80.479   11.612524
      90.479   12.441472
     100.479   13.212973
     200.479   18.652993
     300.479   21.665150
     400.479   23.436737
     500.479   24.571925
     600.479   25.324535
     700.479   25.825066
     800.479   26.149201
     900.479   26.363682
    1000.479   26.510408
    2000.479   26.948443
    3000.479   26.989453
    4000.479   26.996006
    5000.479   27.002918
    6000.479   27.010280
    7000.479   27.001427
    8000.479   26.995305
    9000.479   26.995334
   10000.479   26.982172
   20000.479   26.850010
   25000.479   26.754937
