 % time (yr) / global pCO2 sea->air transfer flux (mol yr-1) / global pCO2 densi
 ty (mol m-2 yr-1)
       0.500  0.5899131E+15       1.605
       1.500  0.1932039E+15       0.526
       2.500  0.1150475E+15       0.313
       3.500  0.6307932E+14       0.172
       4.500  0.2032100E+14       0.055
       5.500 -0.1058616E+14      -0.029
       6.500 -0.4104843E+14      -0.112
       7.500 -0.6166312E+14      -0.168
       8.500 -0.8132294E+14      -0.221
       9.500 -0.9077129E+14      -0.247
      10.500 -0.9962675E+14      -0.271
      20.479 -0.1145407E+15      -0.312
      30.479 -0.8871324E+14      -0.241
      40.479 -0.5359576E+14      -0.146
      50.479 -0.2884775E+14      -0.079
      60.479 -0.1566294E+14      -0.043
      70.479 -0.9009068E+13      -0.025
      80.479 -0.8842954E+13      -0.024
      90.479 -0.5023179E+13      -0.014
     100.479 -0.3779534E+13      -0.010
     200.479 -0.3165963E+13      -0.009
     300.479  0.1888846E+13       0.005
     400.479  0.1363182E+13       0.004
     500.479  0.3816491E+13       0.010
     600.479  0.2393343E+13       0.007
     700.479  0.3468575E+13       0.009
     800.479  0.2452588E+13       0.007
     900.479  0.2620521E+13       0.007
    1000.479  0.2031107E+13       0.006
    2000.479  0.4489931E+12       0.001
    3000.479 -0.1862736E+12      -0.001
    4000.479 -0.1940452E+12      -0.001
    5000.479 -0.1045490E+12       0.000
    6000.479 -0.5719220E+12      -0.002
    7000.479  0.1588588E+12       0.000
    8000.479  0.2534281E+12       0.001
    9000.479 -0.4595097E+11       0.000
   10000.479 -0.5535755E+12      -0.002
   20000.479  0.2110854E+12       0.001
   25000.479  0.3832580E+12       0.001
