 % time (yr) / CaCO3 age (yr)
       0.500  0.4264441E+19
       1.500  0.3930349E+19
       2.500  0.3715683E+19
       3.500  0.3573192E+19
       4.500  0.3437389E+19
       5.500  0.3328218E+19
       6.500  0.3231041E+19
       7.500  0.3141011E+19
       8.500  0.3054235E+19
       9.500  0.2972689E+19
      10.500  0.2904113E+19
      20.479  0.2395546E+19
      30.479  0.2118823E+19
      40.479  0.1976716E+19
      50.479  0.1891100E+19
      60.479  0.1837571E+19
      70.479  0.1810336E+19
      80.479  0.1787803E+19
      90.479  0.1777627E+19
     100.479  0.1763879E+19
     200.479  0.1771250E+19
     300.479  0.1800543E+19
     400.479  0.1811826E+19
     500.479  0.1807326E+19
     600.479  0.1802404E+19
     700.479  0.1795666E+19
     800.479  0.1790220E+19
     900.479  0.1782591E+19
    1000.479  0.1776998E+19
    2000.479  0.1704026E+19
    3000.479  0.1634035E+19
    4000.479  0.1559858E+19
    5000.479  0.1485676E+19
    6000.479  0.1410929E+19
    7000.479  0.1336938E+19
    8000.479  0.1262842E+19
    9000.479  0.1188222E+19
   10000.479  0.1112569E+19
   20000.479  0.3700988E+18
   25000.479  0.3858184E+14
