 % time (yr) / global DIC_14C flux (mol yr-1) / global DIC_14C delta (o/oo)
       0.500  0.2017450E+03     -60.977
       1.500  0.4642791E+03     -39.144
       2.500  0.3806246E+03     -35.431
       3.500  0.3485321E+03     -33.762
       4.500  0.3261558E+03     -32.751
       5.500  0.3109099E+03     -32.102
       6.500  0.2977372E+03     -31.490
       7.500  0.2853962E+03     -30.962
       8.500  0.2728002E+03     -30.386
       9.500  0.2623472E+03     -29.681
      10.500  0.2547651E+03     -29.345
      20.479  0.2049128E+03     -26.582
      30.479  0.1821700E+03     -25.212
      40.479  0.1708466E+03     -24.800
      50.479  0.1641009E+03     -24.942
      60.479  0.1599316E+03     -24.946
      70.479  0.1598571E+03     -25.033
      80.479  0.1584886E+03     -25.202
      90.479  0.1566847E+03     -25.488
     100.479  0.1542048E+03     -25.633
     200.479  0.1572392E+03     -29.784
     300.479  0.1605189E+03     -35.103
     400.479  0.1622884E+03     -40.421
     500.479  0.1618798E+03     -45.129
     600.479  0.1610783E+03     -49.706
     700.479  0.1606160E+03     -53.873
     800.479  0.1604399E+03     -57.769
     900.479  0.1592485E+03     -61.486
    1000.479  0.1592790E+03     -64.955
    2000.479  0.1546136E+03     -89.157
    3000.479  0.1532812E+03    -101.341
    4000.479  0.1520845E+03    -107.456
    5000.479  0.1517954E+03    -110.512
    6000.479  0.1513355E+03    -112.066
    7000.479  0.1512325E+03    -112.823
    8000.479  0.1508560E+03    -113.231
    9000.479  0.1508761E+03    -113.416
   10000.479  0.1506354E+03    -113.522
   20000.479  0.1499725E+03    -113.483
   25000.479  0.1502766E+03    -113.438
