 % time (yr) / surface dCO3_cal (mol kg-1)
       0.500  0.8626661E-04
       1.500  0.1146999E-03
       2.500  0.1260943E-03
       3.500  0.1333313E-03
       4.500  0.1386258E-03
       5.500  0.1427032E-03
       6.500  0.1465410E-03
       7.500  0.1499409E-03
       8.500  0.1532704E-03
       9.500  0.1560499E-03
      10.500  0.1585831E-03
      20.479  0.1728508E-03
      30.479  0.1766340E-03
      40.479  0.1770954E-03
      50.479  0.1783828E-03
      60.479  0.1800520E-03
      70.479  0.1816935E-03
      80.479  0.1831457E-03
      90.479  0.1841183E-03
     100.479  0.1851124E-03
     200.479  0.1890492E-03
     300.479  0.1889456E-03
     400.479  0.1883966E-03
     500.479  0.1876376E-03
     600.479  0.1872340E-03
     700.479  0.1869555E-03
     800.479  0.1868194E-03
     900.479  0.1866992E-03
    1000.479  0.1866261E-03
    2000.479  0.1865656E-03
    3000.479  0.1865801E-03
    4000.479  0.1865958E-03
    5000.479  0.1865893E-03
    6000.479  0.1866034E-03
    7000.479  0.1865819E-03
    8000.479  0.1865731E-03
    9000.479  0.1865923E-03
   10000.479  0.1866362E-03
   20000.479  0.1866516E-03
   25000.479  0.1866808E-03
