 % time (yr) / mean ash composition (wt%)
       0.500   44.993785
       1.500   92.799138
       2.500   91.101848
       3.500   89.402964
       4.500   87.828072
       5.500   86.335745
       6.500   84.936862
       7.500   83.597146
       8.500   82.298259
       9.500   81.069752
      10.500   79.910657
      20.479   70.699317
      30.479   64.139385
      40.479   59.089654
      50.479   54.967870
      60.479   51.431758
      70.479   48.295343
      80.479   45.454170
      90.479   42.892391
     100.479   40.550796
     200.479   24.453776
     300.479   15.466363
     400.479   10.167237
     500.479    6.922551
     600.479    4.853518
     700.479    3.492569
     800.479    2.489004
     900.479    1.801134
    1000.479    1.343075
    2000.479    0.160964
    3000.479    0.038437
    4000.479    0.013202
    5000.479    0.003615
    6000.479    0.001434
    7000.479    0.000746
    8000.479    0.000432
    9000.479    0.000126
   10000.479    0.000058
   20000.479    0.000000
   25000.479    0.000000
