 % time (yr) / global CaCO3_14C flux (mol yr-1) / global CaCO3_14C delta (o/oo)
       0.500  0.3055347E+03       1.650
       1.500  0.2680303E+03       3.005
       2.500  0.2549137E+03       3.923
       3.500  0.2454308E+03       4.369
       4.500  0.2363754E+03       4.733
       5.500  0.2290671E+03       5.027
       6.500  0.2223767E+03       5.318
       7.500  0.2164020E+03       5.590
       8.500  0.2105717E+03       5.854
       9.500  0.2052648E+03       6.083
      10.500  0.2006153E+03       6.273
      20.479  0.1657688E+03       7.689
      30.479  0.1470274E+03       8.409
      40.479  0.1373934E+03       8.500
      50.479  0.1315194E+03       8.447
      60.479  0.1278311E+03       8.332
      70.479  0.1259188E+03       8.172
      80.479  0.1243482E+03       7.957
      90.479  0.1236503E+03       7.658
     100.479  0.1226994E+03       7.360
     200.479  0.1227175E+03       3.021
     300.479  0.1243532E+03      -2.242
     400.479  0.1247894E+03      -7.399
     500.479  0.1244667E+03     -12.286
     600.479  0.1240441E+03     -16.817
     700.479  0.1235757E+03     -21.081
     800.479  0.1231992E+03     -25.063
     900.479  0.1227252E+03     -28.800
    1000.479  0.1223813E+03     -32.302
    2000.479  0.1193708E+03     -56.947
    3000.479  0.1180521E+03     -69.354
    4000.479  0.1172766E+03     -75.596
    5000.479  0.1168836E+03     -78.730
    6000.479  0.1166508E+03     -80.293
    7000.479  0.1165781E+03     -81.104
    8000.479  0.1165402E+03     -81.499
    9000.479  0.1164720E+03     -81.682
   10000.479  0.1163251E+03     -81.769
   20000.479  0.1160909E+03     -81.764
   25000.479  0.1160785E+03     -81.689
