 % time (yr) / mean core-top CaCO3_14C delta (o/oo)
       0.500       0.000
       1.500       1.062
       2.500       1.579
       3.500       2.488
       4.500       3.032
       5.500       3.388
       6.500       3.659
       7.500       3.867
       8.500       4.039
       9.500       4.185
      10.500       4.307
      20.479       4.951
      30.479       5.073
      40.479       4.893
      50.479       4.558
      60.479       4.148
      70.479       3.694
      80.479       3.235
      90.479       2.731
     100.479       2.224
     200.479      -3.337
     300.479      -9.004
     400.479     -14.429
     500.479     -19.497
     600.479     -24.273
     700.479     -28.651
     800.479     -32.669
     900.479     -36.453
    1000.479     -39.998
    2000.479     -65.373
    3000.479     -78.188
    4000.479     -84.662
    5000.479     -87.885
    6000.479     -89.495
    7000.479     -90.319
    8000.479     -90.751
    9000.479     -90.925
   10000.479     -91.062
   20000.479     -91.157
   25000.479     -91.174
