 % time (yr) / global DIC_13C (o/oo)
       0.500       0.000
       1.500       0.000
       2.500       0.000
       3.500       0.000
       4.500       0.000
       5.500       0.000
       6.500       0.000
       7.500       0.000
       8.500       0.000
       9.500       0.000
      10.500       0.000
      20.479       0.000
      30.479       0.000
      40.479       0.000
      50.479       0.000
      60.479       0.000
      70.479       0.000
      80.479       0.000
      90.479       0.000
     100.479       0.000
     200.479       0.000
     300.479       0.000
     400.479       0.000
     500.479       0.000
     600.479       0.000
     700.479       0.000
     800.479       0.000
     900.479       0.000
    1000.479       0.000
    2000.479       0.000
    3000.479       0.000
    4000.479       0.000
    5000.479       0.000
    6000.479       0.000
    7000.479       0.000
    8000.479       0.000
    9000.479       0.000
   10000.479       0.000
   20000.479       0.000
   25000.479       0.000
