 % time (yr) / global POP flux (mol yr-1) / global POP density (mol m-2 yr-1)
       0.500  0.3136235E+14  0.8534498E-01
       1.500  0.2207189E+14  0.6006326E-01
       2.500  0.1969486E+14  0.5359474E-01
       3.500  0.1824750E+14  0.4965613E-01
       4.500  0.1705312E+14  0.4640591E-01
       5.500  0.1616703E+14  0.4399464E-01
       6.500  0.1535146E+14  0.4177526E-01
       7.500  0.1466151E+14  0.3989772E-01
       8.500  0.1400896E+14  0.3812196E-01
       9.500  0.1347798E+14  0.3667703E-01
      10.500  0.1303559E+14  0.3547319E-01
      20.479  0.1012713E+14  0.2755852E-01
      30.479  0.8944466E+13  0.2434018E-01
      40.479  0.8524588E+13  0.2319759E-01
      50.479  0.8264932E+13  0.2249100E-01
      60.479  0.8073152E+13  0.2196911E-01
      70.479  0.7955960E+13  0.2165020E-01
      80.479  0.7848306E+13  0.2135725E-01
      90.479  0.7819523E+13  0.2127892E-01
     100.479  0.7763406E+13  0.2112621E-01
     200.479  0.7788224E+13  0.2119375E-01
     300.479  0.7931387E+13  0.2158334E-01
     400.479  0.8011055E+13  0.2180013E-01
     500.479  0.8055008E+13  0.2191974E-01
     600.479  0.8073896E+13  0.2197114E-01
     700.479  0.8088610E+13  0.2201118E-01
     800.479  0.8098340E+13  0.2203766E-01
     900.479  0.8102856E+13  0.2204994E-01
    1000.479  0.8110450E+13  0.2207061E-01
    2000.479  0.8116709E+13  0.2208764E-01
    3000.479  0.8132794E+13  0.2213142E-01
    4000.479  0.8134014E+13  0.2213473E-01
    5000.479  0.8134485E+13  0.2213602E-01
    6000.479  0.8129322E+13  0.2212197E-01
    7000.479  0.8134610E+13  0.2213636E-01
    8000.479  0.8135611E+13  0.2213908E-01
    9000.479  0.8129219E+13  0.2212169E-01
   10000.479  0.8114235E+13  0.2208091E-01
   20000.479  0.8082326E+13  0.2199408E-01
   25000.479  0.8068256E+13  0.2195579E-01
