 % time (yr) / global Ca flux (mol yr-1) / global Ca density (mol m-2 yr-1)
       0.500  0.2516233E+13  0.6847315E-02
       1.500  0.1372954E+15  0.3736158E+00
       2.500  0.1217543E+15  0.3313246E+00
       3.500  0.1146907E+15  0.3121027E+00
       4.500  0.1090329E+15  0.2967064E+00
       5.500  0.1047942E+15  0.2851718E+00
       6.500  0.1012856E+15  0.2756240E+00
       7.500  0.9762572E+14  0.2656646E+00
       8.500  0.9390637E+14  0.2555433E+00
       9.500  0.9166079E+14  0.2494325E+00
      10.500  0.8952568E+14  0.2436223E+00
      20.479  0.7474623E+14  0.2034036E+00
      30.479  0.6822156E+14  0.1856483E+00
      40.479  0.6504643E+14  0.1770080E+00
      50.479  0.6256448E+14  0.1702540E+00
      60.479  0.6127235E+14  0.1667377E+00
      70.479  0.6161914E+14  0.1676814E+00
      80.479  0.6124610E+14  0.1666663E+00
      90.479  0.6039647E+14  0.1643543E+00
     100.479  0.5945967E+14  0.1618050E+00
     200.479  0.6092758E+14  0.1657995E+00
     300.479  0.6190702E+14  0.1684648E+00
     400.479  0.6208918E+14  0.1689605E+00
     500.479  0.6253348E+14  0.1701696E+00
     600.479  0.6200513E+14  0.1687318E+00
     700.479  0.6220814E+14  0.1692843E+00
     800.479  0.6247270E+14  0.1700042E+00
     900.479  0.6194268E+14  0.1685619E+00
    1000.479  0.6224309E+14  0.1693794E+00
    2000.479  0.6172138E+14  0.1679597E+00
    3000.479  0.6216446E+14  0.1691654E+00
    4000.479  0.6203245E+14  0.1688062E+00
    5000.479  0.6225883E+14  0.1694222E+00
    6000.479  0.6209843E+14  0.1689857E+00
    7000.479  0.6211116E+14  0.1690204E+00
    8000.479  0.6179998E+14  0.1681736E+00
    9000.479  0.6187461E+14  0.1683767E+00
   10000.479  0.6174468E+14  0.1680231E+00
   20000.479  0.6145618E+14  0.1672380E+00
   25000.479  0.6168705E+14  0.1678663E+00
