 % time (yr) / global POC flux (mol yr-1) / global POC density (mol m-2 yr-1)
       0.500  0.3669395E+16  0.9985362E+01
       1.500  0.2582411E+16  0.7027401E+01
       2.500  0.2304298E+16  0.6270585E+01
       3.500  0.2134958E+16  0.5809767E+01
       4.500  0.1995215E+16  0.5429491E+01
       5.500  0.1891543E+16  0.5147372E+01
       6.500  0.1796121E+16  0.4887705E+01
       7.500  0.1715397E+16  0.4668034E+01
       8.500  0.1639048E+16  0.4460269E+01
       9.500  0.1576924E+16  0.4291213E+01
      10.500  0.1525165E+16  0.4150363E+01
      20.479  0.1184875E+16  0.3224347E+01
      30.479  0.1046503E+16  0.2847801E+01
      40.479  0.9973768E+15  0.2714118E+01
      50.479  0.9669971E+15  0.2631447E+01
      60.479  0.9445588E+15  0.2570386E+01
      70.479  0.9308474E+15  0.2533074E+01
      80.479  0.9182518E+15  0.2498798E+01
      90.479  0.9148842E+15  0.2489634E+01
     100.479  0.9083185E+15  0.2471767E+01
     200.479  0.9112222E+15  0.2479669E+01
     300.479  0.9279723E+15  0.2525250E+01
     400.479  0.9372935E+15  0.2550616E+01
     500.479  0.9424360E+15  0.2564610E+01
     600.479  0.9446458E+15  0.2570623E+01
     700.479  0.9463673E+15  0.2575308E+01
     800.479  0.9475058E+15  0.2578406E+01
     900.479  0.9480341E+15  0.2579844E+01
    1000.479  0.9489227E+15  0.2582261E+01
    2000.479  0.9496550E+15  0.2584254E+01
    3000.479  0.9515369E+15  0.2589376E+01
    4000.479  0.9516796E+15  0.2589764E+01
    5000.479  0.9517347E+15  0.2589914E+01
    6000.479  0.9511307E+15  0.2588270E+01
    7000.479  0.9517494E+15  0.2589954E+01
    8000.479  0.9518665E+15  0.2590272E+01
    9000.479  0.9511186E+15  0.2588237E+01
   10000.479  0.9493655E+15  0.2583467E+01
   20000.479  0.9456321E+15  0.2573307E+01
   25000.479  0.9439860E+15  0.2568827E+01
