 % time (yr) / global DIC (mol) / global DIC (mol kg-1) / surface DIC (mol kg-1)
  / benthic DIC (mol kg-1)
       0.500  0.3002637E+19  0.2243301E-02  0.2186235E-02  0.2244610E-02
       1.500  0.3001901E+19  0.2242774E-02  0.2143110E-02  0.2245746E-02
       2.500  0.3001539E+19  0.2242531E-02  0.2124332E-02  0.2246762E-02
       3.500  0.3001328E+19  0.2242408E-02  0.2112323E-02  0.2247694E-02
       4.500  0.3001221E+19  0.2242361E-02  0.2103253E-02  0.2248564E-02
       5.500  0.3001175E+19  0.2242357E-02  0.2096133E-02  0.2249384E-02
       6.500  0.3001170E+19  0.2242382E-02  0.2089367E-02  0.2250152E-02
       7.500  0.3001195E+19  0.2242423E-02  0.2083326E-02  0.2250874E-02
       8.500  0.3001245E+19  0.2242479E-02  0.2077376E-02  0.2251552E-02
       9.500  0.3001314E+19  0.2242546E-02  0.2072325E-02  0.2252181E-02
      10.500  0.3001395E+19  0.2242619E-02  0.2067671E-02  0.2252781E-02
      20.479  0.3002534E+19  0.2243514E-02  0.2038652E-02  0.2257106E-02
      30.479  0.3003666E+19  0.2244338E-02  0.2026807E-02  0.2260186E-02
      40.479  0.3004456E+19  0.2244900E-02  0.2021181E-02  0.2263137E-02
      50.479  0.3004909E+19  0.2245224E-02  0.2015956E-02  0.2266114E-02
      60.479  0.3005142E+19  0.2245390E-02  0.2010928E-02  0.2268918E-02
      70.479  0.3005269E+19  0.2245471E-02  0.2006439E-02  0.2271480E-02
      80.479  0.3005353E+19  0.2245519E-02  0.2002530E-02  0.2273799E-02
      90.479  0.3005412E+19  0.2245553E-02  0.1999605E-02  0.2275929E-02
     100.479  0.3005460E+19  0.2245580E-02  0.1996727E-02  0.2277882E-02
     200.479  0.3005665E+19  0.2245684E-02  0.1981474E-02  0.2291404E-02
     300.479  0.3005583E+19  0.2245611E-02  0.1975516E-02  0.2298866E-02
     400.479  0.3005337E+19  0.2245422E-02  0.1971537E-02  0.2302704E-02
     500.479  0.3005163E+19  0.2245292E-02  0.1969153E-02  0.2305154E-02
     600.479  0.3004871E+19  0.2245073E-02  0.1967312E-02  0.2306588E-02
     700.479  0.3004622E+19  0.2244887E-02  0.1966090E-02  0.2307349E-02
     800.479  0.3004336E+19  0.2244673E-02  0.1965175E-02  0.2307655E-02
     900.479  0.3004096E+19  0.2244494E-02  0.1964624E-02  0.2307763E-02
    1000.479  0.3003894E+19  0.2244343E-02  0.1964243E-02  0.2307715E-02
    2000.479  0.3003046E+19  0.2243709E-02  0.1963497E-02  0.2307083E-02
    3000.479  0.3002900E+19  0.2243599E-02  0.1963556E-02  0.2306433E-02
    4000.479  0.3002864E+19  0.2243573E-02  0.1963593E-02  0.2306131E-02
    5000.479  0.3002859E+19  0.2243569E-02  0.1963599E-02  0.2306122E-02
    6000.479  0.3002851E+19  0.2243563E-02  0.1963555E-02  0.2306114E-02
    7000.479  0.3002835E+19  0.2243550E-02  0.1963630E-02  0.2306091E-02
    8000.479  0.3002809E+19  0.2243531E-02  0.1963628E-02  0.2306062E-02
    9000.479  0.3002785E+19  0.2243513E-02  0.1963581E-02  0.2306030E-02
   10000.479  0.3002765E+19  0.2243498E-02  0.1963532E-02  0.2305999E-02
   20000.479  0.3002192E+19  0.2243070E-02  0.1963547E-02  0.2305252E-02
   25000.479  0.3001801E+19  0.2242778E-02  0.1963588E-02  0.2304738E-02
