 % time (yr) / global rate (mol yr-1) / mean rate (mol kg-1 yr-1)
           0.500   0.426809E+14   0.139807E-05
           1.500   0.333428E+14   0.109220E-05
           2.500   0.318893E+14   0.104460E-05
           3.500   0.310395E+14   0.101678E-05
           4.500   0.302315E+14   0.990329E-06
           5.500   0.296585E+14   0.971570E-06
           6.500   0.291256E+14   0.954124E-06
           7.500   0.286695E+14   0.939193E-06
           8.500   0.282220E+14   0.924543E-06
           9.500   0.278556E+14   0.912544E-06
          10.500   0.275415E+14   0.902259E-06
          20.479   0.244670E+14   0.801554E-06
          30.479   0.225659E+14   0.739266E-06
          40.479   0.214715E+14   0.703406E-06
          50.479   0.208395E+14   0.682697E-06
          60.479   0.204609E+14   0.670290E-06
          70.479   0.203174E+14   0.665585E-06
          80.479   0.202043E+14   0.661877E-06
          90.479   0.201919E+14   0.661467E-06
         100.479   0.201375E+14   0.659682E-06
         200.479   0.207346E+14   0.679229E-06
         300.479   0.213918E+14   0.700754E-06
         400.479   0.217293E+14   0.711806E-06
         500.479   0.218890E+14   0.717040E-06
         600.479   0.219665E+14   0.719576E-06
         700.479   0.220274E+14   0.721572E-06
         800.479   0.220761E+14   0.723166E-06
         900.479   0.220991E+14   0.723920E-06
        1000.479   0.221253E+14   0.724780E-06
        2000.479   0.221744E+14   0.726386E-06
        3000.479   0.222044E+14   0.727369E-06
        4000.479   0.222087E+14   0.727511E-06
        5000.479   0.222081E+14   0.727492E-06
        6000.479   0.222025E+14   0.727306E-06
        7000.479   0.222098E+14   0.727547E-06
        8000.479   0.222122E+14   0.727625E-06
        9000.479   0.222063E+14   0.727431E-06
       10000.479   0.221891E+14   0.726869E-06
       20000.479   0.221774E+14   0.726486E-06
       25000.479   0.221817E+14   0.726624E-06
