 % time (yr) / temperature (C) / _surT (C) / _benT (C)
       0.500    0.038    2.314   -0.023
       1.500    0.077    4.644   -0.071
       2.500    0.112    5.994   -0.115
       3.500    0.145    6.971   -0.156
       4.500    0.176    7.770   -0.193
       5.500    0.205    8.440   -0.226
       6.500    0.233    9.077   -0.256
       7.500    0.261    9.661   -0.284
       8.500    0.288   10.238   -0.311
       9.500    0.314   10.748   -0.337
      10.500    0.339   11.230   -0.361
      20.479    0.539   14.265   -0.547
      30.479    0.687   15.814   -0.693
      40.479    0.804   16.623   -0.807
      50.479    0.905   17.295   -0.879
      60.479    0.992   17.820   -0.930
      70.479    1.067   18.238   -0.971
      80.479    1.131   18.565   -1.004
      90.479    1.187   18.786   -1.031
     100.479    1.234   19.007   -1.056
     200.479    1.492   19.948   -1.217
     300.479    1.548   20.086   -1.265
     400.479    1.566   20.122   -1.284
     500.479    1.575   20.095   -1.294
     600.479    1.583   20.090   -1.293
     700.479    1.589   20.090   -1.289
     800.479    1.593   20.095   -1.287
     900.479    1.595   20.094   -1.285
    1000.479    1.596   20.092   -1.285
    2000.479    1.597   20.096   -1.285
    3000.479    1.597   20.089   -1.286
    4000.479    1.597   20.091   -1.286
    5000.479    1.597   20.088   -1.286
    6000.479    1.597   20.090   -1.286
    7000.479    1.597   20.088   -1.286
    8000.479    1.597   20.086   -1.286
    9000.479    1.597   20.089   -1.286
   10000.479    1.597   20.097   -1.286
   20000.479    1.597   20.093   -1.286
   25000.479    1.597   20.087   -1.286
