 % time (yr) / global rate (mol yr-1) / mean rate (mol kg-1 yr-1)
           0.500   0.208494E+20   0.682953E+00
           1.500   0.240481E+20   0.787739E+00
           2.500   0.261266E+20   0.855832E+00
           3.500   0.276974E+20   0.907302E+00
           4.500   0.289666E+20   0.948891E+00
           5.500   0.300710E+20   0.985082E+00
           6.500   0.311180E+20   0.101939E+01
           7.500   0.321590E+20   0.105351E+01
           8.500   0.332074E+20   0.108786E+01
           9.500   0.342228E+20   0.112113E+01
          10.500   0.351894E+20   0.115281E+01
          20.479   0.424877E+20   0.139193E+01
          30.479   0.475871E+20   0.155897E+01
          40.479   0.511515E+20   0.167572E+01
          50.479   0.540847E+20   0.177180E+01
          60.479   0.563555E+20   0.184618E+01
          70.479   0.582293E+20   0.190756E+01
          80.479   0.597279E+20   0.195663E+01
          90.479   0.609654E+20   0.199717E+01
         100.479   0.620568E+20   0.203291E+01
         200.479   0.674937E+20   0.221097E+01
         300.479   0.684515E+20   0.224234E+01
         400.479   0.686900E+20   0.225014E+01
         500.479   0.686432E+20   0.224861E+01
         600.479   0.686668E+20   0.224938E+01
         700.479   0.686909E+20   0.225017E+01
         800.479   0.687165E+20   0.225101E+01
         900.479   0.687260E+20   0.225132E+01
        1000.479   0.687345E+20   0.225160E+01
        2000.479   0.687529E+20   0.225220E+01
        3000.479   0.687726E+20   0.225285E+01
        4000.479   0.687761E+20   0.225296E+01
        5000.479   0.687721E+20   0.225283E+01
        6000.479   0.687720E+20   0.225283E+01
        7000.479   0.687743E+20   0.225290E+01
        8000.479   0.687730E+20   0.225286E+01
        9000.479   0.687728E+20   0.225285E+01
       10000.479   0.687718E+20   0.225282E+01
       20000.479   0.687726E+20   0.225285E+01
       25000.479   0.687747E+20   0.225292E+01
