 % time (yr) / global rate (mol yr-1) / mean rate (mol kg-1 yr-1)
           0.500   0.782110E+19   0.256191E+00
           1.500   0.102780E+20   0.336675E+00
           2.500   0.114037E+20   0.373554E+00
           3.500   0.121027E+20   0.396456E+00
           4.500   0.125843E+20   0.412240E+00
           5.500   0.129543E+20   0.424365E+00
           6.500   0.132794E+20   0.435020E+00
           7.500   0.135667E+20   0.444434E+00
           8.500   0.138428E+20   0.453485E+00
           9.500   0.140908E+20   0.461612E+00
          10.500   0.143194E+20   0.469102E+00
          20.479   0.157984E+20   0.517564E+00
          30.479   0.168327E+20   0.551446E+00
          40.479   0.174970E+20   0.573202E+00
          50.479   0.180004E+20   0.589686E+00
          60.479   0.183545E+20   0.601286E+00
          70.479   0.186516E+20   0.611016E+00
          80.479   0.188741E+20   0.618299E+00
          90.479   0.190545E+20   0.624207E+00
         100.479   0.192015E+20   0.629020E+00
         200.479   0.199576E+20   0.653774E+00
         300.479   0.201026E+20   0.658521E+00
         400.479   0.201554E+20   0.660249E+00
         500.479   0.201605E+20   0.660417E+00
         600.479   0.201680E+20   0.660660E+00
         700.479   0.201742E+20   0.660866E+00
         800.479   0.201796E+20   0.661042E+00
         900.479   0.201801E+20   0.661059E+00
        1000.479   0.201826E+20   0.661138E+00
        2000.479   0.201838E+20   0.661180E+00
        3000.479   0.201874E+20   0.661295E+00
        4000.479   0.201878E+20   0.661311E+00
        5000.479   0.201871E+20   0.661286E+00
        6000.479   0.201870E+20   0.661284E+00
        7000.479   0.201872E+20   0.661292E+00
        8000.479   0.201876E+20   0.661303E+00
        9000.479   0.201874E+20   0.661297E+00
       10000.479   0.201865E+20   0.661268E+00
       20000.479   0.201873E+20   0.661294E+00
       25000.479   0.201871E+20   0.661288E+00
