 % time (yr) / surface air temperature (degrees C)
       0.500   -2.049
       1.500   -2.140
       2.500   -1.929
       3.500   -1.770
       4.500   -1.662
       5.500   -1.488
       6.500   -1.217
       7.500   -0.895
       8.500   -0.524
       9.500   -0.183
      10.500    0.155
      20.479    2.713
      30.479    4.905
      40.479    6.483
      50.479    7.684
      60.479    8.570
      70.479    9.340
      80.479    9.950
      90.479   10.463
     100.479   10.888
     200.479   13.179
     300.479   13.630
     400.479   13.822
     500.479   13.831
     600.479   13.857
     700.479   13.869
     800.479   13.884
     900.479   13.889
    1000.479   13.896
    2000.479   13.899
    3000.479   13.908
    4000.479   13.908
    5000.479   13.907
    6000.479   13.908
    7000.479   13.907
    8000.479   13.908
    9000.479   13.908
   10000.479   13.912
   20000.479   13.913
   25000.479   13.907
