 % time (yr) / global DOM_C_14C (mol) / global DOM_C_14C (o/oo) / surface DOM_C_
 14C (o/oo) / benthic DOM_C_14C (o/oo)
       0.500  0.5002046E+03     -59.851     -59.232     -62.519
       1.500  0.1042616E+04     -56.344     -55.079     -62.132
       2.500  0.1302811E+04     -53.657     -52.288     -62.580
       3.500  0.1449220E+04     -51.846     -50.627     -64.287
       4.500  0.1532307E+04     -50.610     -49.606     -68.254
       5.500  0.1584526E+04     -49.708     -48.892     -80.504
       6.500  0.1623188E+04     -48.973     -48.305    -461.900
       7.500  0.1655382E+04     -48.310     -47.751************
       8.500  0.1682840E+04     -47.687     -47.213************
       9.500  0.1705451E+04     -47.110     -46.703************
      10.500  0.1723563E+04     -46.593     -46.238************
      20.479  0.1717670E+04     -43.164     -43.042************
      30.479  0.1633382E+04     -41.702     -41.535************
      40.479  0.1548505E+04     -41.155     -40.881************
      50.479  0.1506554E+04     -40.797     -40.353************
      60.479  0.1488771E+04     -40.523     -39.930************
      70.479  0.1490472E+04     -40.377     -39.665************
      80.479  0.1495026E+04     -40.342     -39.537************
      90.479  0.1501361E+04     -40.395     -39.505************
     100.479  0.1505284E+04     -40.481     -39.517************
     200.479  0.1593813E+04     -43.562     -42.059************
     300.479  0.1659633E+04     -48.132     -46.406************
     400.479  0.1687269E+04     -52.747     -50.880************
     500.479  0.1695999E+04     -57.100     -55.126************
     600.479  0.1696726E+04     -61.125     -59.058************
     700.479  0.1696193E+04     -64.901     -62.750************
     800.479  0.1694628E+04     -68.430     -66.204     -49.338
     900.479  0.1691247E+04     -71.736     -69.443     -85.323
    1000.479  0.1687750E+04     -74.839     -72.485    -100.588
    2000.479  0.1653507E+04     -96.660     -93.890    -146.056
    3000.479  0.1634755E+04    -107.646    -104.664    -161.322
    4000.479  0.1625034E+04    -113.170    -110.083    -164.667
    5000.479  0.1619855E+04    -115.944    -112.804    -171.279
    6000.479  0.1617284E+04    -117.336    -114.172    -173.838
    7000.479  0.1616245E+04    -118.043    -114.866    -172.297
    8000.479  0.1615681E+04    -118.393    -115.208    -175.293
    9000.479  0.1615459E+04    -118.567    -115.380    -171.670
   10000.479  0.1615244E+04    -118.657    -115.471    -174.439
   20000.479  0.1617364E+04    -118.704    -115.543    -176.681
   25000.479  0.1619396E+04    -118.687    -115.538    -174.092
