 % time (yr) / global DIC_13C flux (mol yr-1) / global DIC_13C delta (o/oo)
       0.500  0.2065694E+13     -30.860
       1.500  0.4699271E+13     -19.583
       2.500  0.3844256E+13     -17.894
       3.500  0.3516600E+13     -17.172
       4.500  0.3288881E+13     -16.722
       5.500  0.3133944E+13     -16.435
       6.500  0.3000102E+13     -16.159
       7.500  0.2874863E+13     -15.923
       8.500  0.2747069E+13     -15.663
       9.500  0.2640761E+13     -15.333
      10.500  0.2563939E+13     -15.184
      20.479  0.2058654E+13     -14.080
      30.479  0.1828367E+13     -13.661
      40.479  0.1714181E+13     -13.551
      50.479  0.1646625E+13     -13.620
      60.479  0.1604867E+13     -13.576
      70.479  0.1604359E+13     -13.516
      80.479  0.1590957E+13     -13.481
      90.479  0.1573289E+13     -13.494
     100.479  0.1548687E+13     -13.450
     200.479  0.1585991E+13     -13.404
     300.479  0.1627824E+13     -13.510
     400.479  0.1654631E+13     -13.666
     500.479  0.1658678E+13     -13.620
     600.479  0.1658269E+13     -13.708
     700.479  0.1660823E+13     -13.690
     800.479  0.1665891E+13     -13.672
     900.479  0.1659994E+13     -13.718
    1000.479  0.1666481E+13     -13.712
    2000.479  0.1660616E+13     -13.734
    3000.479  0.1668677E+13     -13.703
    4000.479  0.1666987E+13     -13.706
    5000.479  0.1669579E+13     -13.680
    6000.479  0.1667414E+13     -13.691
    7000.479  0.1667709E+13     -13.686
    8000.479  0.1664271E+13     -13.718
    9000.479  0.1664856E+13     -13.708
   10000.479  0.1662393E+13     -13.711
   20000.479  0.1655035E+13     -13.693
   25000.479  0.1658349E+13     -13.667
