 % time (yr) / global POC_13C flux (mol yr-1) / global POC_13C delta (o/oo)
       0.500  0.3934609E+13     -30.530
       1.500  0.2680176E+13     -28.376
       2.500  0.2317249E+13     -27.677
       3.500  0.2133628E+13     -27.259
       4.500  0.2008258E+13     -26.979
       5.500  0.1908437E+13     -26.772
       6.500  0.1822553E+13     -26.558
       7.500  0.1742077E+13     -26.353
       8.500  0.1660193E+13     -26.129
       9.500  0.1587110E+13     -25.949
      10.500  0.1543336E+13     -25.870
      20.479  0.1214261E+13     -25.076
      30.479  0.1057566E+13     -24.945
      40.479  0.9881089E+12     -25.103
      50.479  0.9544700E+12     -25.247
      60.479  0.9274367E+12     -25.255
      70.479  0.9176561E+12     -25.228
      80.479  0.9050030E+12     -25.191
      90.479  0.9002073E+12     -25.184
     100.479  0.8917420E+12     -25.154
     200.479  0.9132646E+12     -25.046
     300.479  0.9452009E+12     -25.013
     400.479  0.9714005E+12     -25.019
     500.479  0.9699074E+12     -25.022
     600.479  0.9755812E+12     -25.020
     700.479  0.9756760E+12     -25.018
     800.479  0.9780295E+12     -25.009
     900.479  0.9772993E+12     -25.004
    1000.479  0.9810716E+12     -25.002
    2000.479  0.9804422E+12     -24.971
    3000.479  0.9840232E+12     -24.963
    4000.479  0.9838058E+12     -24.955
    5000.479  0.9839094E+12     -24.951
    6000.479  0.9832144E+12     -24.946
    7000.479  0.9831361E+12     -24.945
    8000.479  0.9839029E+12     -24.946
    9000.479  0.9835043E+12     -24.943
   10000.479  0.9812676E+12     -24.935
   20000.479  0.9774579E+12     -24.912
   25000.479  0.9781615E+12     -24.895
