 % time (yr) / mean opal composition (wt%)
       0.500    0.064096
       1.500    0.369781
       2.500    0.687743
       3.500    0.997345
       4.500    1.299668
       5.500    1.594804
       6.500    1.883525
       7.500    2.165201
       8.500    2.439401
       9.500    2.708418
      10.500    2.973399
      20.479    5.411488
      30.479    7.566338
      40.479    9.537178
      50.479   11.372702
      60.479   13.097208
      70.479   14.730392
      80.479   16.255918
      90.479   17.712016
     100.479   19.090105
     200.479   29.477659
     300.479   35.381144
     400.479   38.849906
     500.479   40.987113
     600.479   42.286914
     700.479   43.078368
     800.479   43.629327
     900.479   43.923053
    1000.479   44.080475
    2000.479   44.200035
    3000.479   44.180110
    4000.479   44.178158
    5000.479   44.184363
    6000.479   44.207140
    7000.479   44.179938
    8000.479   44.169658
    9000.479   44.184618
   10000.479   44.131789
   20000.479   43.912734
   25000.479   43.729738
