 % time (yr) / mean (land) surface air temperature (degrees C)
       0.500   -6.229301
       1.500   -8.085421
       2.500   -8.519875
       3.500   -8.864525
       4.500   -9.225165
       5.500   -9.296407
       6.500   -9.118390
       7.500   -8.714887
       8.500   -8.272466
       9.500   -7.856862
      10.500   -7.448247
      20.479   -4.449291
      30.479   -2.034284
      40.479   -0.365977
      50.479    0.953558
      60.479    1.999532
      70.479    2.972735
      80.479    3.755465
      90.479    4.410577
     100.479    4.978388
     200.479    8.090217
     300.479    8.718376
     400.479    9.033756
     500.479    9.051048
     600.479    9.088012
     700.479    9.105297
     800.479    9.123315
     900.479    9.131875
    1000.479    9.142369
    2000.479    9.143810
    3000.479    9.151281
    4000.479    9.148392
    5000.479    9.150910
    6000.479    9.150842
    7000.479    9.148069
    8000.479    9.151733
    9000.479    9.151584
   10000.479    9.163655
   20000.479    9.165232
   25000.479    9.147974
