 % time (yr) / global DOM_Fe (mol) / global DOM_Fe (mol kg-1) / surface DOM_Fe (
 mol kg-1) / benthic DOM_Fe (mol kg-1)
       0.500  0.3031011E+10  0.2264500E-11  0.6929769E-10  0.3890025E-12
       1.500  0.5490066E+10  0.4101728E-11  0.1170706E-09  0.6423088E-12
       2.500  0.6448849E+10  0.4818111E-11  0.1402816E-09  0.5569435E-12
       3.500  0.6979483E+10  0.5214641E-11  0.1560614E-09  0.4180092E-12
       4.500  0.7286554E+10  0.5444144E-11  0.1672802E-09  0.2821445E-12
       5.500  0.7489617E+10  0.5595940E-11  0.1754519E-09  0.1683218E-12
       6.500  0.7644442E+10  0.5711691E-11  0.1828511E-09  0.7691839E-13
       7.500  0.7774593E+10  0.5808994E-11  0.1892938E-09  0.3654829E-14
       8.500  0.7888655E+10  0.5894269E-11  0.1955253E-09 -0.5667434E-13
       9.500  0.7990664E+10  0.5970529E-11  0.2006618E-09 -0.1022760E-12
      10.500  0.8088035E+10  0.6043318E-11  0.2053959E-09 -0.1381559E-12
      20.479  0.8528089E+10  0.6372245E-11  0.2238371E-09 -0.2272155E-12
      30.479  0.8801411E+10  0.6576411E-11  0.2244623E-09 -0.1978520E-12
      40.479  0.9030863E+10  0.6747774E-11  0.2224300E-09 -0.1674515E-12
      50.479  0.9277477E+10  0.6931996E-11  0.2220432E-09 -0.1403496E-12
      60.479  0.9518003E+10  0.7111686E-11  0.2226960E-09 -0.1190810E-12
      70.479  0.9788890E+10  0.7314043E-11  0.2245058E-09 -0.1026235E-12
      80.479  0.1001717E+11  0.7484560E-11  0.2264344E-09 -0.9063539E-13
      90.479  0.1021242E+11  0.7630413E-11  0.2276366E-09 -0.8117833E-13
     100.479  0.1036656E+11  0.7745553E-11  0.2287687E-09 -0.7350986E-13
     200.479  0.1149263E+11  0.8586721E-11  0.2395201E-09 -0.3591584E-13
     300.479  0.1199711E+11  0.8963598E-11  0.2473281E-09 -0.1788786E-13
     400.479  0.1219828E+11  0.9113884E-11  0.2506872E-09 -0.8024527E-14
     500.479  0.1227032E+11  0.9167703E-11  0.2518417E-09 -0.2951940E-14
     600.479  0.1230432E+11  0.9193109E-11  0.2523456E-09  0.3635785E-16
     700.479  0.1233354E+11  0.9214934E-11  0.2528414E-09  0.1808223E-14
     800.479  0.1235774E+11  0.9233018E-11  0.2532429E-09  0.3141238E-14
     900.479  0.1236945E+11  0.9241769E-11  0.2534075E-09  0.3481188E-14
    1000.479  0.1237890E+11  0.9248822E-11  0.2535718E-09  0.3945022E-14
    2000.479  0.1240062E+11  0.9265052E-11  0.2540407E-09  0.4773896E-14
    3000.479  0.1240914E+11  0.9271418E-11  0.2540562E-09  0.4776360E-14
    4000.479  0.1241160E+11  0.9273255E-11  0.2541050E-09  0.5255290E-14
    5000.479  0.1241074E+11  0.9272611E-11  0.2540880E-09  0.4888021E-14
    6000.479  0.1241015E+11  0.9272174E-11  0.2541262E-09  0.4801859E-14
    7000.479  0.1241165E+11  0.9273293E-11  0.2540864E-09  0.5083255E-14
    8000.479  0.1241155E+11  0.9273219E-11  0.2540816E-09  0.4790872E-14
    9000.479  0.1241162E+11  0.9273269E-11  0.2541279E-09  0.5231495E-14
   10000.479  0.1241037E+11  0.9272334E-11  0.2542306E-09  0.4905831E-14
   20000.479  0.1240943E+11  0.9271636E-11  0.2544409E-09  0.4779242E-14
   25000.479  0.1241403E+11  0.9275071E-11  0.2545148E-09  0.4977690E-14
