 % time (yr) / global ALK flux (mol yr-1) / global ALK density (mol m-2 yr-1)
       0.500 -0.2092656E+14 -0.5694653E-01
       1.500  0.2342097E+15  0.6373446E+00
       2.500  0.2118479E+15  0.5764924E+00
       3.500  0.2009045E+15  0.5467126E+00
       4.500  0.1916936E+15  0.5216473E+00
       5.500  0.1845927E+15  0.5023239E+00
       6.500  0.1787856E+15  0.4865215E+00
       7.500  0.1725451E+15  0.4695393E+00
       8.500  0.1662096E+15  0.4522989E+00
       9.500  0.1627553E+15  0.4428988E+00
      10.500  0.1591608E+15  0.4331174E+00
      20.479  0.1339420E+15  0.3644905E+00
      30.479  0.1228930E+15  0.3344233E+00
      40.479  0.1175398E+15  0.3198558E+00
      50.479  0.1130803E+15  0.3077205E+00
      60.479  0.1108428E+15  0.3016315E+00
      70.479  0.1115913E+15  0.3036686E+00
      80.479  0.1109626E+15  0.3019577E+00
      90.479  0.1093680E+15  0.2976183E+00
     100.479  0.1076749E+15  0.2930111E+00
     200.479  0.1103457E+15  0.3002789E+00
     300.479  0.1119130E+15  0.3045439E+00
     400.479  0.1119636E+15  0.3046816E+00
     500.479  0.1128633E+15  0.3071298E+00
     600.479  0.1117376E+15  0.3040666E+00
     700.479  0.1121398E+15  0.3051610E+00
     800.479  0.1126420E+15  0.3065278E+00
     900.479  0.1115824E+15  0.3036442E+00
    1000.479  0.1121432E+15  0.3051704E+00
    2000.479  0.1111014E+15  0.3023353E+00
    3000.479  0.1119479E+15  0.3046389E+00
    4000.479  0.1116869E+15  0.3039287E+00
    5000.479  0.1121388E+15  0.3051583E+00
    6000.479  0.1118229E+15  0.3042986E+00
    7000.479  0.1118465E+15  0.3043629E+00
    8000.479  0.1112239E+15  0.3026688E+00
    9000.479  0.1113763E+15  0.3030834E+00
   10000.479  0.1111294E+15  0.3024115E+00
   20000.479  0.1106054E+15  0.3009857E+00
   25000.479  0.1110578E+15  0.3022167E+00
