 % time (yr) / global pCO2 (mol) / global pCO2 (atm)
       0.500  0.4926640E+17  0.2784671E-03
       1.500  0.4921684E+17  0.2781870E-03
       2.500  0.4920246E+17  0.2781057E-03
       3.500  0.4919299E+17  0.2780521E-03
       4.500  0.4918230E+17  0.2779917E-03
       5.500  0.4916573E+17  0.2778981E-03
       6.500  0.4913567E+17  0.2777282E-03
       7.500  0.4910379E+17  0.2775480E-03
       8.500  0.4908751E+17  0.2774560E-03
       9.500  0.4909347E+17  0.2774897E-03
      10.500  0.4910351E+17  0.2775464E-03
      20.479  0.4912846E+17  0.2776874E-03
      30.479  0.4914831E+17  0.2777997E-03
      40.479  0.4915949E+17  0.2778628E-03
      50.479  0.4916492E+17  0.2778935E-03
      60.479  0.4916782E+17  0.2779099E-03
      70.479  0.4916910E+17  0.2779172E-03
      80.479  0.4916938E+17  0.2779187E-03
      90.479  0.4917053E+17  0.2779252E-03
     100.479  0.4917098E+17  0.2779278E-03
     200.479  0.4917924E+17  0.2779744E-03
     300.479  0.4918200E+17  0.2779901E-03
     400.479  0.4918266E+17  0.2779938E-03
     500.479  0.4918355E+17  0.2779988E-03
     600.479  0.4918365E+17  0.2779994E-03
     700.479  0.4918397E+17  0.2780012E-03
     800.479  0.4918389E+17  0.2780007E-03
     900.479  0.4918385E+17  0.2780005E-03
    1000.479  0.4918388E+17  0.2780007E-03
    2000.479  0.4918388E+17  0.2780007E-03
    3000.479  0.4918340E+17  0.2779980E-03
    4000.479  0.4918380E+17  0.2780002E-03
    5000.479  0.4918342E+17  0.2779981E-03
    6000.479  0.4918334E+17  0.2779976E-03
    7000.479  0.4918384E+17  0.2780005E-03
    8000.479  0.4918340E+17  0.2779980E-03
    9000.479  0.4918344E+17  0.2779982E-03
   10000.479  0.4918353E+17  0.2779987E-03
   20000.479  0.4918368E+17  0.2779996E-03
   25000.479  0.4918395E+17  0.2780011E-03
