 % time (yr) / global POC flux (mol yr-1) / global POC density (mol m-2 yr-1)
       0.500  0.3662373E+15  0.9966254E+00
       1.500  0.2489264E+15  0.6773924E+00
       2.500  0.2150658E+15  0.5852492E+00
       3.500  0.1979396E+15  0.5386443E+00
       4.500  0.1862559E+15  0.5068500E+00
       5.500  0.1769607E+15  0.4815555E+00
       6.500  0.1689603E+15  0.4597841E+00
       7.500  0.1614661E+15  0.4393905E+00
       8.500  0.1538416E+15  0.4186423E+00
       9.500  0.1470425E+15  0.4001402E+00
      10.500  0.1429754E+15  0.3890725E+00
      20.479  0.1123992E+15  0.3058669E+00
      30.479  0.9788145E+14  0.2663605E+00
      40.479  0.9146770E+14  0.2489070E+00
      50.479  0.8836665E+14  0.2404683E+00
      60.479  0.8586456E+14  0.2336595E+00
      70.479  0.8495677E+14  0.2311891E+00
      80.479  0.8378222E+14  0.2279929E+00
      90.479  0.8333765E+14  0.2267831E+00
     100.479  0.8255138E+14  0.2246434E+00
     200.479  0.8453458E+14  0.2300402E+00
     300.479  0.8748777E+14  0.2380766E+00
     400.479  0.8991332E+14  0.2446772E+00
     500.479  0.8977543E+14  0.2443019E+00
     600.479  0.9030044E+14  0.2457306E+00
     700.479  0.9030901E+14  0.2457539E+00
     800.479  0.9052597E+14  0.2463443E+00
     900.479  0.9045795E+14  0.2461592E+00
    1000.479  0.9080696E+14  0.2471090E+00
    2000.479  0.9074587E+14  0.2469427E+00
    3000.479  0.9107650E+14  0.2478425E+00
    4000.479  0.9105570E+14  0.2477859E+00
    5000.479  0.9106493E+14  0.2478110E+00
    6000.479  0.9100011E+14  0.2476346E+00
    7000.479  0.9099280E+14  0.2476147E+00
    8000.479  0.9106383E+14  0.2478080E+00
    9000.479  0.9102665E+14  0.2477068E+00
   10000.479  0.9081888E+14  0.2471414E+00
   20000.479  0.9046416E+14  0.2461761E+00
   25000.479  0.9052777E+14  0.2463492E+00
