 % time (yr) / mean POM_Fe composition (wt%)
       0.500    0.000000
       1.500    0.000000
       2.500    0.000000
       3.500    0.000000
       4.500    0.000000
       5.500    0.000000
       6.500    0.000000
       7.500    0.000000
       8.500    0.000000
       9.500    0.000000
      10.500    0.000000
      20.479    0.000000
      30.479    0.000000
      40.479    0.000000
      50.479    0.000001
      60.479    0.000001
      70.479    0.000001
      80.479    0.000001
      90.479    0.000001
     100.479    0.000001
     200.479    0.000002
     300.479    0.000002
     400.479    0.000002
     500.479    0.000002
     600.479    0.000002
     700.479    0.000002
     800.479    0.000002
     900.479    0.000002
    1000.479    0.000003
    2000.479    0.000003
    3000.479    0.000003
    4000.479    0.000003
    5000.479    0.000003
    6000.479    0.000003
    7000.479    0.000003
    8000.479    0.000003
    9000.479    0.000003
   10000.479    0.000003
   20000.479    0.000003
   25000.479    0.000003
