 % time (yr) / global sea-ice area (m2) / mean sea-ice cover (%) / global sea-ic
 e volume (m3) / mean sea-ice thickness (m)
       0.500  0.5161E+13    1.404  0.1672E+13    0.215
       1.500  0.2413E+14    6.568  0.1553E+14    0.637
       2.500  0.3154E+14    8.583  0.3251E+14    1.031
       3.500  0.3714E+14   10.106  0.5348E+14    1.444
       4.500  0.4295E+14   11.688  0.7384E+14    1.734
       5.500  0.4743E+14   12.906  0.9304E+14    1.989
       6.500  0.5183E+14   14.104  0.1105E+15    2.172
       7.500  0.5503E+14   14.975  0.1249E+15    2.317
       8.500  0.5807E+14   15.803  0.1372E+15    2.414
       9.500  0.5991E+14   16.304  0.1468E+15    2.509
      10.500  0.6171E+14   16.792  0.1546E+15    2.572
      20.479  0.6642E+14   18.074  0.1781E+15    2.715
      30.479  0.6077E+14   16.537  0.1621E+15    2.704
      40.479  0.5416E+14   14.739  0.1429E+15    2.681
      50.479  0.4993E+14   13.587  0.1324E+15    2.708
      60.479  0.4750E+14   12.926  0.1258E+15    2.711
      70.479  0.4535E+14   12.340  0.1161E+15    2.627
      80.479  0.4382E+14   11.925  0.1059E+15    2.488
      90.479  0.4193E+14   11.411  0.9862E+14    2.419
     100.479  0.4085E+14   11.116  0.9245E+14    2.334
     200.479  0.3355E+14    9.129  0.5656E+14    1.749
     300.479  0.3184E+14    8.665  0.4829E+14    1.573
     400.479  0.3123E+14    8.498  0.4494E+14    1.507
     500.479  0.3085E+14    8.396  0.4458E+14    1.508
     600.479  0.3064E+14    8.337  0.4433E+14    1.514
     700.479  0.3053E+14    8.309  0.4405E+14    1.505
     800.479  0.3049E+14    8.298  0.4371E+14    1.497
     900.479  0.3044E+14    8.284  0.4363E+14    1.497
    1000.479  0.3035E+14    8.259  0.4351E+14    1.500
    2000.479  0.3035E+14    8.260  0.4340E+14    1.495
    3000.479  0.3015E+14    8.204  0.4303E+14    1.501
    4000.479  0.3016E+14    8.208  0.4298E+14    1.499
    5000.479  0.3015E+14    8.203  0.4303E+14    1.501
    6000.479  0.3018E+14    8.212  0.4305E+14    1.500
    7000.479  0.3013E+14    8.199  0.4299E+14    1.500
    8000.479  0.3010E+14    8.192  0.4295E+14    1.500
    9000.479  0.3015E+14    8.206  0.4300E+14    1.499
   10000.479  0.3029E+14    8.242  0.4304E+14    1.490
   20000.479  0.3022E+14    8.223  0.4298E+14    1.492
   25000.479  0.3011E+14    8.194  0.4298E+14    1.500
