 % time (yr) / mean CaCO3 composition (wt%)
       0.500    1.751555
       1.500    4.260793
       2.500    5.321374
       3.500    6.415665
       4.500    7.411398
       5.500    8.354263
       6.500    9.226486
       7.500   10.059705
       8.500   10.869379
       9.500   11.621060
      10.500   12.312300
      20.479   17.276310
      30.479   20.140773
      40.479   21.849107
      50.479   22.900497
      60.479   23.606862
      70.479   24.118144
      80.479   24.536060
      90.479   24.812794
     100.479   25.004798
     200.479   25.274245
     300.479   25.346015
     400.479   25.404792
     500.479   25.377083
     600.479   25.393705
     700.479   25.462670
     800.479   25.591140
     900.479   25.770803
    1000.479   25.924714
    2000.479   26.549230
    3000.479   26.650672
    4000.479   26.671306
    5000.479   26.667776
    6000.479   26.639819
    7000.479   26.676562
    8000.479   26.693278
    9000.479   26.678595
   10000.479   26.744654
   20000.479   27.095928
   25000.479   27.373997
