 % time (yr) / global POC_14C flux (mol yr-1) / global POC_14C delta (o/oo)
       0.500  0.3851698E+04     -60.267
       1.500  0.2721558E+04     -56.506
       2.500  0.2432541E+04     -54.921
       3.500  0.2255948E+04     -54.010
       4.500  0.2109951E+04     -53.263
       5.500  0.2001513E+04     -52.697
       6.500  0.1901735E+04     -52.103
       7.500  0.1817272E+04     -51.577
       8.500  0.1737356E+04     -51.048
       9.500  0.1672208E+04     -50.650
      10.500  0.1617871E+04     -50.327
      20.479  0.1259875E+04     -48.077
      30.479  0.1113441E+04     -47.481
      40.479  0.1060693E+04     -47.912
      50.479  0.1027931E+04     -48.331
      60.479  0.1003762E+04     -48.632
      70.479  0.9889551E+03     -48.859
      80.479  0.9753395E+03     -49.087
      90.479  0.9713829E+03     -49.458
     100.479  0.9640778E+03     -49.787
     200.479  0.9627737E+03     -54.097
     300.479  0.9751165E+03     -59.263
     400.479  0.9796521E+03     -64.286
     500.479  0.9799461E+03     -69.113
     600.479  0.9775750E+03     -73.537
     700.479  0.9749251E+03     -77.729
     800.479  0.9719848E+03     -81.616
     900.479  0.9686380E+03     -85.288
    1000.479  0.9659156E+03     -88.713
    2000.479  0.9410195E+03    -112.886
    3000.479  0.9299600E+03    -125.046
    4000.479  0.9235796E+03    -131.179
    5000.479  0.9203609E+03    -134.257
    6000.479  0.9181617E+03    -135.777
    7000.479  0.9178895E+03    -136.595
    8000.479  0.9175896E+03    -136.983
    9000.479  0.9166958E+03    -137.146
   10000.479  0.9149340E+03    -137.214
   20000.479  0.9113862E+03    -137.166
   25000.479  0.9099345E+03    -137.039
