 % time (yr) / global CaCO3_13C flux (mol yr-1) / global CaCO3_13C delta (o/oo)
       0.500  0.1890988E+13       0.738
       1.500  0.1744105E+13       1.433
       2.500  0.1649350E+13       1.702
       3.500  0.1586407E+13       1.857
       4.500  0.1526342E+13       1.968
       5.500  0.1478053E+13       2.056
       6.500  0.1435082E+13       2.146
       7.500  0.1395276E+13       2.238
       8.500  0.1356904E+13       2.328
       9.500  0.1320826E+13       2.403
      10.500  0.1290479E+13       2.459
      20.479  0.1065272E+13       2.797
      30.479  0.9426648E+12       2.874
      40.479  0.8797536E+12       2.828
      50.479  0.8419543E+12       2.789
      60.479  0.8184341E+12       2.769
      70.479  0.8066219E+12       2.762
      80.479  0.7968998E+12       2.759
      90.479  0.7926739E+12       2.749
     100.479  0.7868557E+12       2.745
     200.479  0.7932828E+12       2.685
     300.479  0.8096424E+12       2.653
     400.479  0.8180205E+12       2.645
     500.479  0.8193179E+12       2.643
     600.479  0.8204374E+12       2.645
     700.479  0.8207364E+12       2.649
     800.479  0.8216316E+12       2.653
     900.479  0.8215283E+12       2.657
    1000.479  0.8223654E+12       2.660
    2000.479  0.8229011E+12       2.685
    3000.479  0.8249782E+12       2.696
    4000.479  0.8250345E+12       2.703
    5000.479  0.8250907E+12       2.708
    6000.479  0.8248216E+12       2.711
    7000.479  0.8249862E+12       2.712
    8000.479  0.8251023E+12       2.712
    9000.479  0.8248686E+12       2.713
   10000.479  0.8238400E+12       2.716
   20000.479  0.8221061E+12       2.723
   25000.479  0.8222169E+12       2.726
