 % time (yr) / surface conc_CO2 (mol kg-1) / surface conc_CO2 d13C (o/oo) / surf
 ace conc_CO2 d14C (o/oo)
       0.500  0.1850924E-04     -10.660     -20.962
       1.500  0.1472299E-04      -9.825     -19.097
       2.500  0.1367932E-04      -9.456     -18.032
       3.500  0.1305798E-04      -9.214     -17.385
       4.500  0.1258918E-04      -9.023     -16.858
       5.500  0.1225000E-04      -8.866     -16.425
       6.500  0.1192545E-04      -8.709     -15.999
       7.500  0.1166500E-04      -8.560     -15.608
       8.500  0.1141139E-04      -8.411     -15.220
       9.500  0.1122615E-04      -8.287     -14.882
      10.500  0.1105737E-04      -8.178     -14.567
      20.479  0.1019346E-04      -7.524     -12.332
      30.479  0.1004261E-04      -7.270     -11.080
      40.479  0.1009793E-04      -7.188     -10.428
      50.479  0.1009079E-04      -7.124      -9.963
      60.479  0.1003769E-04      -7.074      -9.659
      70.479  0.9970847E-05      -7.036      -9.524
      80.479  0.9903258E-05      -7.008      -9.516
      90.479  0.9867556E-05      -6.997      -9.630
     100.479  0.9823092E-05      -6.982      -9.753
     200.479  0.9627471E-05      -6.977     -13.016
     300.479  0.9604736E-05      -7.021     -17.768
     400.479  0.9593262E-05      -7.035     -22.489
     500.479  0.9606013E-05      -7.045     -26.972
     600.479  0.9603200E-05      -7.045     -31.103
     700.479  0.9604684E-05      -7.043     -34.984
     800.479  0.9600209E-05      -7.039     -38.606
     900.479  0.9601079E-05      -7.037     -42.011
    1000.479  0.9599570E-05      -7.034     -45.202
    2000.479  0.9593378E-05      -7.012     -67.619
    3000.479  0.9591644E-05      -7.000     -78.900
    4000.479  0.9591464E-05      -6.994     -84.570
    5000.479  0.9591886E-05      -6.990     -87.421
    6000.479  0.9589870E-05      -6.987     -88.845
    7000.479  0.9593516E-05      -6.987     -89.585
    8000.479  0.9593983E-05      -6.986     -89.948
    9000.479  0.9591827E-05      -6.985     -90.120
   10000.479  0.9588759E-05      -6.984     -90.206
   20000.479  0.9590927E-05      -6.983     -90.330
   25000.479  0.9584707E-05      -6.984     -90.359
