 % time (yr) / surface dCO3_arg (mol kg-1)
       0.500  0.6151418E-04
       1.500  0.9008697E-04
       2.500  0.1015930E-03
       3.500  0.1089221E-03
       4.500  0.1142980E-03
       5.500  0.1184491E-03
       6.500  0.1223598E-03
       7.500  0.1258323E-03
       8.500  0.1292352E-03
       9.500  0.1320844E-03
      10.500  0.1346842E-03
      20.479  0.1494362E-03
      30.479  0.1535018E-03
      40.479  0.1541219E-03
      50.479  0.1555322E-03
      60.479  0.1572969E-03
      70.479  0.1590107E-03
      80.479  0.1605184E-03
      90.479  0.1615307E-03
     100.479  0.1625631E-03
     200.479  0.1666690E-03
     300.479  0.1665903E-03
     400.479  0.1660385E-03
     500.479  0.1652641E-03
     600.479  0.1648518E-03
     700.479  0.1645675E-03
     800.479  0.1644281E-03
     900.479  0.1643050E-03
    1000.479  0.1642295E-03
    2000.479  0.1641653E-03
    3000.479  0.1641791E-03
    4000.479  0.1641951E-03
    5000.479  0.1641884E-03
    6000.479  0.1642027E-03
    7000.479  0.1641809E-03
    8000.479  0.1641718E-03
    9000.479  0.1641914E-03
   10000.479  0.1642363E-03
   20000.479  0.1642512E-03
   25000.479  0.1642799E-03
