 % time (yr) / surface H (mol kg-1)
       0.500  0.7695199E-08
       1.500  0.6666668E-08
       2.500  0.6481416E-08
       3.500  0.6393541E-08
       4.500  0.6337431E-08
       5.500  0.6310949E-08
       6.500  0.6282899E-08
       7.500  0.6271017E-08
       8.500  0.6258948E-08
       9.500  0.6262812E-08
      10.500  0.6267792E-08
      20.479  0.6382594E-08
      30.479  0.6581850E-08
      40.479  0.6754555E-08
      50.479  0.6864766E-08
      60.479  0.6925687E-08
      70.479  0.6961744E-08
      80.479  0.6982638E-08
      90.479  0.7000398E-08
     100.479  0.7014585E-08
     200.479  0.7074589E-08
     300.479  0.7093626E-08
     400.479  0.7103218E-08
     500.479  0.7112593E-08
     600.479  0.7116456E-08
     700.479  0.7120791E-08
     800.479  0.7122164E-08
     900.479  0.7123908E-08
    1000.479  0.7123902E-08
    2000.479  0.7123351E-08
    3000.479  0.7121408E-08
    4000.479  0.7121427E-08
    5000.479  0.7121271E-08
    6000.479  0.7120819E-08
    7000.479  0.7121729E-08
    8000.479  0.7121669E-08
    9000.479  0.7121315E-08
   10000.479  0.7121098E-08
   20000.479  0.7120389E-08
   25000.479  0.7116695E-08
