 % time (yr) / global Ca (mol) / global Ca (mol kg-1) / surface Ca (mol kg-1) / 
 benthic Ca (mol kg-1)
       0.500  0.1371957E+20  0.1025003E-01  0.1024764E-01  0.1025011E-01
       1.500  0.1371957E+20  0.1025014E-01  0.1024479E-01  0.1025034E-01
       2.500  0.1371957E+20  0.1025027E-01  0.1024250E-01  0.1025058E-01
       3.500  0.1371958E+20  0.1025042E-01  0.1024090E-01  0.1025084E-01
       4.500  0.1371958E+20  0.1025057E-01  0.1023951E-01  0.1025109E-01
       5.500  0.1371958E+20  0.1025072E-01  0.1023822E-01  0.1025133E-01
       6.500  0.1371958E+20  0.1025084E-01  0.1023690E-01  0.1025156E-01
       7.500  0.1371958E+20  0.1025095E-01  0.1023536E-01  0.1025177E-01
       8.500  0.1371958E+20  0.1025104E-01  0.1023368E-01  0.1025196E-01
       9.500  0.1371958E+20  0.1025111E-01  0.1023205E-01  0.1025213E-01
      10.500  0.1371958E+20  0.1025116E-01  0.1023062E-01  0.1025229E-01
      20.479  0.1371958E+20  0.1025136E-01  0.1021912E-01  0.1025374E-01
      30.479  0.1371958E+20  0.1025127E-01  0.1021116E-01  0.1025497E-01
      40.479  0.1371958E+20  0.1025114E-01  0.1020342E-01  0.1025677E-01
      50.479  0.1371958E+20  0.1025107E-01  0.1019941E-01  0.1025931E-01
      60.479  0.1371958E+20  0.1025103E-01  0.1019713E-01  0.1026191E-01
      70.479  0.1371958E+20  0.1025097E-01  0.1019601E-01  0.1026420E-01
      80.479  0.1371958E+20  0.1025090E-01  0.1019545E-01  0.1026621E-01
      90.479  0.1371958E+20  0.1025086E-01  0.1019537E-01  0.1026791E-01
     100.479  0.1371958E+20  0.1025082E-01  0.1019564E-01  0.1026937E-01
     200.479  0.1371958E+20  0.1025059E-01  0.1020186E-01  0.1027805E-01
     300.479  0.1371958E+20  0.1025054E-01  0.1020181E-01  0.1028275E-01
     400.479  0.1371958E+20  0.1025052E-01  0.1019625E-01  0.1028517E-01
     500.479  0.1371958E+20  0.1025052E-01  0.1019040E-01  0.1028670E-01
     600.479  0.1371958E+20  0.1025051E-01  0.1018620E-01  0.1028803E-01
     700.479  0.1371958E+20  0.1025051E-01  0.1018327E-01  0.1028910E-01
     800.479  0.1371958E+20  0.1025051E-01  0.1018129E-01  0.1028988E-01
     900.479  0.1371958E+20  0.1025051E-01  0.1017987E-01  0.1029045E-01
    1000.479  0.1371958E+20  0.1025051E-01  0.1017884E-01  0.1029083E-01
    2000.479  0.1371958E+20  0.1025051E-01  0.1017658E-01  0.1029164E-01
    3000.479  0.1371958E+20  0.1025051E-01  0.1017655E-01  0.1029142E-01
    4000.479  0.1371958E+20  0.1025051E-01  0.1017664E-01  0.1029127E-01
    5000.479  0.1371958E+20  0.1025051E-01  0.1017663E-01  0.1029128E-01
    6000.479  0.1371958E+20  0.1025051E-01  0.1017661E-01  0.1029128E-01
    7000.479  0.1371958E+20  0.1025051E-01  0.1017666E-01  0.1029127E-01
    8000.479  0.1371958E+20  0.1025051E-01  0.1017664E-01  0.1029127E-01
    9000.479  0.1371958E+20  0.1025051E-01  0.1017664E-01  0.1029127E-01
   10000.479  0.1371958E+20  0.1025051E-01  0.1017662E-01  0.1029127E-01
   20000.479  0.1371958E+20  0.1025051E-01  0.1017667E-01  0.1029120E-01
   25000.479  0.1371958E+20  0.1025051E-01  0.1017671E-01  0.1029116E-01
