 % time (yr) / global POM_Fe flux (mol yr-1) / global POM_Fe density (mol m-2 yr
 -1)
       0.500  0.1199693E+10  0.3264671E-05
       1.500  0.6656080E+09  0.1811290E-05
       2.500  0.6395042E+09  0.1740255E-05
       3.500  0.6405437E+09  0.1743083E-05
       4.500  0.6293266E+09  0.1712559E-05
       5.500  0.6367559E+09  0.1732776E-05
       6.500  0.6309129E+09  0.1716875E-05
       7.500  0.6398907E+09  0.1741306E-05
       8.500  0.6413727E+09  0.1745339E-05
       9.500  0.6618994E+09  0.1801198E-05
      10.500  0.6808274E+09  0.1852706E-05
      20.479  0.9265842E+09  0.2521473E-05
      30.479  0.1197067E+10  0.3257525E-05
      40.479  0.1365748E+10  0.3716551E-05
      50.479  0.1508204E+10  0.4104209E-05
      60.479  0.1609700E+10  0.4380406E-05
      70.479  0.1683432E+10  0.4581049E-05
      80.479  0.1735781E+10  0.4723504E-05
      90.479  0.1784084E+10  0.4854948E-05
     100.479  0.1822541E+10  0.4959601E-05
     200.479  0.1963611E+10  0.5343487E-05
     300.479  0.1946466E+10  0.5296832E-05
     400.479  0.1936935E+10  0.5270897E-05
     500.479  0.1933732E+10  0.5262181E-05
     600.479  0.1932458E+10  0.5258714E-05
     700.479  0.1929802E+10  0.5251485E-05
     800.479  0.1927233E+10  0.5244493E-05
     900.479  0.1929447E+10  0.5250518E-05
    1000.479  0.1929756E+10  0.5251361E-05
    2000.479  0.1926245E+10  0.5241806E-05
    3000.479  0.1928057E+10  0.5246735E-05
    4000.479  0.1927453E+10  0.5245093E-05
    5000.479  0.1927972E+10  0.5246505E-05
    6000.479  0.1928433E+10  0.5247761E-05
    7000.479  0.1928688E+10  0.5248455E-05
    8000.479  0.1929804E+10  0.5251491E-05
    9000.479  0.1929612E+10  0.5250968E-05
   10000.479  0.1928304E+10  0.5247410E-05
   20000.479  0.1953144E+10  0.5315004E-05
   25000.479  0.1960576E+10  0.5335230E-05
