 % time (yr) / global POFe flux (mol yr-1) / global POFe density (mol m-2 yr-1)
       0.500  0.2389938E+11  0.6503632E-04
       1.500  0.1481897E+11  0.4032620E-04
       2.500  0.1300517E+11  0.3539039E-04
       3.500  0.1195334E+11  0.3252810E-04
       4.500  0.1109079E+11  0.3018088E-04
       5.500  0.1047570E+11  0.2850706E-04
       6.500  0.9888792E+10  0.2690993E-04
       7.500  0.9407217E+10  0.2559945E-04
       8.500  0.8949105E+10  0.2435281E-04
       9.500  0.8610639E+10  0.2343175E-04
      10.500  0.8347422E+10  0.2271547E-04
      20.479  0.6711246E+10  0.1826302E-04
      30.479  0.6249372E+10  0.1700614E-04
      40.479  0.6248829E+10  0.1700466E-04
      50.479  0.6246842E+10  0.1699925E-04
      60.479  0.6232605E+10  0.1696051E-04
      70.479  0.6240707E+10  0.1698256E-04
      80.479  0.6227630E+10  0.1694697E-04
      90.479  0.6264926E+10  0.1704847E-04
     100.479  0.6269247E+10  0.1706022E-04
     200.479  0.6469458E+10  0.1760505E-04
     300.479  0.6592764E+10  0.1794060E-04
     400.479  0.6648730E+10  0.1809290E-04
     500.479  0.6673948E+10  0.1816152E-04
     600.479  0.6682605E+10  0.1818508E-04
     700.479  0.6689766E+10  0.1820457E-04
     800.479  0.6694692E+10  0.1821797E-04
     900.479  0.6696102E+10  0.1822181E-04
    1000.479  0.6701138E+10  0.1823551E-04
    2000.479  0.6698585E+10  0.1822857E-04
    3000.479  0.6713588E+10  0.1826939E-04
    4000.479  0.6714640E+10  0.1827225E-04
    5000.479  0.6714987E+10  0.1827320E-04
    6000.479  0.6709392E+10  0.1825797E-04
    7000.479  0.6713557E+10  0.1826931E-04
    8000.479  0.6713960E+10  0.1827040E-04
    9000.479  0.6707327E+10  0.1825235E-04
   10000.479  0.6691455E+10  0.1820916E-04
   20000.479  0.6640831E+10  0.1807140E-04
   25000.479  0.6616797E+10  0.1800600E-04
