 % time (yr) / salinity (o/oo) / _surS (o/oo) / _benS (o/oo)
       0.500   34.900   34.901   34.900
       1.500   34.901   34.899   34.900
       2.500   34.901   34.898   34.900
       3.500   34.901   34.898   34.900
       4.500   34.902   34.896   34.900
       5.500   34.902   34.893   34.900
       6.500   34.903   34.889   34.901
       7.500   34.903   34.883   34.901
       8.500   34.904   34.876   34.901
       9.500   34.904   34.869   34.902
      10.500   34.904   34.862   34.903
      20.479   34.905   34.788   34.912
      30.479   34.904   34.733   34.924
      40.479   34.904   34.703   34.936
      50.479   34.904   34.698   34.946
      60.479   34.904   34.698   34.953
      70.479   34.903   34.705   34.958
      80.479   34.903   34.715   34.962
      90.479   34.903   34.726   34.965
     100.479   34.903   34.735   34.968
     200.479   34.902   34.795   34.976
     300.479   34.902   34.802   34.975
     400.479   34.902   34.797   34.975
     500.479   34.902   34.795   34.975
     600.479   34.902   34.793   34.976
     700.479   34.902   34.793   34.976
     800.479   34.902   34.793   34.976
     900.479   34.902   34.792   34.976
    1000.479   34.902   34.792   34.976
    2000.479   34.902   34.792   34.976
    3000.479   34.902   34.792   34.976
    4000.479   34.902   34.792   34.976
    5000.479   34.902   34.792   34.976
    6000.479   34.902   34.792   34.976
    7000.479   34.902   34.792   34.976
    8000.479   34.902   34.792   34.976
    9000.479   34.902   34.792   34.976
   10000.479   34.902   34.792   34.976
   20000.479   34.902   34.792   34.976
   25000.479   34.902   34.792   34.976
