 % time (yr) / global pCO2_14C (mol) / global pCO2_14C (o/oo)
       0.500  0.5711501E+05      37.878
       1.500  0.5705778E+05      37.882
       2.500  0.5704342E+05      37.924
       3.500  0.5703506E+05      37.972
       4.500  0.5702833E+05      38.075
       5.500  0.5702365E+05      38.339
       6.500  0.5701906E+05      38.891
       7.500  0.5701602E+05      39.510
       8.500  0.5701315E+05      39.802
       9.500  0.5701176E+05      39.651
      10.500  0.5701086E+05      39.422
      20.479  0.5701036E+05      38.885
      30.479  0.5701459E+05      38.542
      40.479  0.5701983E+05      38.402
      50.479  0.5702363E+05      38.356
      60.479  0.5702562E+05      38.331
      70.479  0.5702653E+05      38.321
      80.479  0.5702644E+05      38.313
      90.479  0.5702679E+05      38.295
     100.479  0.5702681E+05      38.286
     200.479  0.5702479E+05      38.075
     300.479  0.5702340E+05      37.991
     400.479  0.5702122E+05      37.938
     500.479  0.5701954E+05      37.888
     600.479  0.5701750E+05      37.849
     700.479  0.5701590E+05      37.813
     800.479  0.5701418E+05      37.784
     900.479  0.5701266E+05      37.757
    1000.479  0.5701117E+05      37.729
    2000.479  0.5700105E+05      37.545
    3000.479  0.5699599E+05      37.463
    4000.479  0.5699348E+05      37.409
    5000.479  0.5699224E+05      37.394
    6000.479  0.5699156E+05      37.384
    7000.479  0.5699130E+05      37.368
    8000.479  0.5699116E+05      37.375
    9000.479  0.5699106E+05      37.372
   10000.479  0.5699098E+05      37.369
   20000.479  0.5699098E+05      37.366
   25000.479  0.5699099E+05      37.360
