 % time (yr) / global POC_13C flux (mol yr-1) / global POC_13C delta (o/oo)
       0.500  0.3942217E+14     -30.514
       1.500  0.2779726E+14     -28.638
       2.500  0.2482025E+14     -27.980
       3.500  0.2300576E+14     -27.573
       4.500  0.2150703E+14     -27.248
       5.500  0.2039462E+14     -27.002
       6.500  0.1937091E+14     -26.742
       7.500  0.1850471E+14     -26.508
       8.500  0.1768532E+14     -26.273
       9.500  0.1701798E+14     -26.100
      10.500  0.1646168E+14     -25.964
      20.479  0.1279994E+14     -25.106
      30.479  0.1130628E+14     -25.007
      40.479  0.1077305E+14     -25.234
      50.479  0.1044330E+14     -25.386
      60.479  0.1020042E+14     -25.439
      70.479  0.1005240E+14     -25.434
      80.479  0.9916624E+13     -25.410
      90.479  0.9880107E+13     -25.424
     100.479  0.9809248E+13     -25.420
     200.479  0.9840969E+13     -25.383
     300.479  0.1002193E+14     -25.377
     400.479  0.1012275E+14     -25.362
     500.479  0.1017820E+14     -25.371
     600.479  0.1020219E+14     -25.359
     700.479  0.1022082E+14     -25.355
     800.479  0.1023324E+14     -25.343
     900.479  0.1023899E+14     -25.339
    1000.479  0.1024866E+14     -25.332
    2000.479  0.1025693E+14     -25.297
    3000.479  0.1027741E+14     -25.282
    4000.479  0.1027902E+14     -25.276
    5000.479  0.1027966E+14     -25.272
    6000.479  0.1027321E+14     -25.265
    7000.479  0.1027985E+14     -25.269
    8000.479  0.1028112E+14     -25.268
    9000.479  0.1027310E+14     -25.263
   10000.479  0.1025425E+14     -25.254
   20000.479  0.1021417E+14     -25.231
   25000.479  0.1019658E+14     -25.212
