 % time (yr) / surface conc_CO3 (mol kg-1) / surface conc_CO3 d13C (o/oo) / surf
 ace conc_CO3 d14C (o/oo)
       0.500  0.1284576E-03      -2.253      -4.127
       1.500  0.1569424E-03      -1.546      -2.505
       2.500  0.1683618E-03      -1.252      -1.582
       3.500  0.1756112E-03      -1.064      -1.039
       4.500  0.1809109E-03      -0.918      -0.598
       5.500  0.1849891E-03      -0.799      -0.238
       6.500  0.1888241E-03      -0.677       0.121
       7.500  0.1922178E-03      -0.561       0.449
       8.500  0.1955394E-03      -0.444       0.775
       9.500  0.1983088E-03      -0.349       1.058
      10.500  0.2008316E-03      -0.267       1.321
      20.479  0.2149688E-03       0.216       3.233
      30.479  0.2186497E-03       0.383       4.321
      40.479  0.2190589E-03       0.418       4.887
      50.479  0.2203215E-03       0.443       5.280
      60.479  0.2219737E-03       0.463       5.526
      70.479  0.2236098E-03       0.477       5.614
      80.479  0.2250621E-03       0.486       5.583
      90.479  0.2260372E-03       0.485       5.441
     100.479  0.2270328E-03       0.488       5.290
     200.479  0.2309748E-03       0.437       1.866
     300.479  0.2308727E-03       0.385      -2.973
     400.479  0.2303383E-03       0.369      -7.770
     500.479  0.2296003E-03       0.361     -12.318
     600.479  0.2292120E-03       0.361     -16.509
     700.479  0.2289446E-03       0.363     -20.449
     800.479  0.2288162E-03       0.367     -24.127
     900.479  0.2287014E-03       0.369     -27.583
    1000.479  0.2286321E-03       0.372     -30.821
    2000.479  0.2285800E-03       0.394     -53.576
    3000.479  0.2285948E-03       0.406     -65.027
    4000.479  0.2286103E-03       0.413     -70.782
    5000.479  0.2286038E-03       0.417     -73.676
    6000.479  0.2286179E-03       0.419     -75.122
    7000.479  0.2285964E-03       0.420     -75.873
    8000.479  0.2285876E-03       0.420     -76.241
    9000.479  0.2286069E-03       0.421     -76.415
   10000.479  0.2286506E-03       0.422     -76.504
   20000.479  0.2286659E-03       0.423     -76.629
   25000.479  0.2286948E-03       0.423     -76.658
