 % time (yr) / global L (mol) / global L (mol kg-1) / surface L (mol kg-1) / ben
 thic L (mol kg-1)
       0.500  0.4962848E+12  0.3707795E-09  0.6419462E-09  0.3648522E-09
       1.500  0.4988228E+12  0.3726796E-09  0.7496143E-09  0.3615513E-09
       2.500  0.4996728E+12  0.3733191E-09  0.7629257E-09  0.3594069E-09
       3.500  0.4999717E+12  0.3735481E-09  0.7674447E-09  0.3576851E-09
       4.500  0.4998721E+12  0.3734791E-09  0.7705126E-09  0.3562305E-09
       5.500  0.4995489E+12  0.3732428E-09  0.7706592E-09  0.3550035E-09
       6.500  0.4990638E+12  0.3728850E-09  0.7711108E-09  0.3539481E-09
       7.500  0.4984589E+12  0.3724368E-09  0.7697312E-09  0.3530297E-09
       8.500  0.4977448E+12  0.3719064E-09  0.7680392E-09  0.3522270E-09
       9.500  0.4969442E+12  0.3713108E-09  0.7640262E-09  0.3515694E-09
      10.500  0.4960949E+12  0.3706783E-09  0.7593028E-09  0.3509872E-09
      20.479  0.4856177E+12  0.3628568E-09  0.6964483E-09  0.3487771E-09
      30.479  0.4754275E+12  0.3552393E-09  0.6368206E-09  0.3473245E-09
      40.479  0.4664181E+12  0.3485031E-09  0.5866141E-09  0.3458298E-09
      50.479  0.4590085E+12  0.3429645E-09  0.5473168E-09  0.3456967E-09
      60.479  0.4527481E+12  0.3382855E-09  0.5159321E-09  0.3462382E-09
      70.479  0.4474360E+12  0.3343143E-09  0.4916121E-09  0.3469121E-09
      80.479  0.4429514E+12  0.3309613E-09  0.4724375E-09  0.3473446E-09
      90.479  0.4392654E+12  0.3282059E-09  0.4569669E-09  0.3478241E-09
     100.479  0.4362780E+12  0.3259725E-09  0.4437612E-09  0.3485534E-09
     200.479  0.4273062E+12  0.3192620E-09  0.3944293E-09  0.3597657E-09
     300.479  0.4302243E+12  0.3214406E-09  0.3967073E-09  0.3685106E-09
     400.479  0.4329758E+12  0.3234957E-09  0.4007199E-09  0.3738189E-09
     500.479  0.4348345E+12  0.3248843E-09  0.4041921E-09  0.3773515E-09
     600.479  0.4365654E+12  0.3261775E-09  0.4057639E-09  0.3800608E-09
     700.479  0.4375737E+12  0.3269308E-09  0.4069306E-09  0.3815406E-09
     800.479  0.4384008E+12  0.3275487E-09  0.4076828E-09  0.3824798E-09
     900.479  0.4390226E+12  0.3280133E-09  0.4081987E-09  0.3831332E-09
    1000.479  0.4394608E+12  0.3283407E-09  0.4086245E-09  0.3835395E-09
    2000.479  0.4401342E+12  0.3288438E-09  0.4100065E-09  0.3841669E-09
    3000.479  0.4402262E+12  0.3289125E-09  0.4100889E-09  0.3841397E-09
    4000.479  0.4402289E+12  0.3289145E-09  0.4101392E-09  0.3841192E-09
    5000.479  0.4402484E+12  0.3289290E-09  0.4101534E-09  0.3841443E-09
    6000.479  0.4403895E+12  0.3290345E-09  0.4102315E-09  0.3842743E-09
    7000.479  0.4406231E+12  0.3292090E-09  0.4102799E-09  0.3844883E-09
    8000.479  0.4409303E+12  0.3294385E-09  0.4103413E-09  0.3847792E-09
    9000.479  0.4412112E+12  0.3296484E-09  0.4104132E-09  0.3850454E-09
   10000.479  0.4414830E+12  0.3298514E-09  0.4105717E-09  0.3853095E-09
   20000.479  0.4483548E+12  0.3349857E-09  0.4126599E-09  0.3917855E-09
   25000.479  0.4529197E+12  0.3383963E-09  0.4139088E-09  0.3960812E-09
