 % time (yr) / global DIC flux (mol yr-1) / global DIC density (mol m-2 yr-1)
       0.500  0.1923416E+15  0.5234108E+00
       1.500  0.4325813E+15  0.1177165E+01
       2.500  0.3532729E+15  0.9613461E+00
       3.500  0.3229277E+15  0.8787689E+00
       4.500  0.3018796E+15  0.8214917E+00
       5.500  0.2875753E+15  0.7825659E+00
       6.500  0.2752173E+15  0.7489368E+00
       7.500  0.2636659E+15  0.7175025E+00
       8.500  0.2518794E+15  0.6854282E+00
       9.500  0.2420519E+15  0.6586852E+00
      10.500  0.2349750E+15  0.6394271E+00
      20.479  0.1884588E+15  0.5128448E+00
      30.479  0.1673068E+15  0.4552847E+00
      40.479  0.1568410E+15  0.4268044E+00
      50.479  0.1506702E+15  0.4100122E+00
      60.479  0.1468427E+15  0.3995965E+00
      70.479  0.1467874E+15  0.3994462E+00
      80.479  0.1455561E+15  0.3960954E+00
      90.479  0.1439415E+15  0.3917017E+00
     100.479  0.1416844E+15  0.3855595E+00
     200.479  0.1450906E+15  0.3948286E+00
     300.479  0.1489334E+15  0.4052858E+00
     400.479  0.1514097E+15  0.4120246E+00
     500.479  0.1517730E+15  0.4130132E+00
     600.479  0.1517490E+15  0.4129478E+00
     700.479  0.1519800E+15  0.4135765E+00
     800.479  0.1524409E+15  0.4148308E+00
     900.479  0.1519083E+15  0.4133815E+00
    1000.479  0.1525011E+15  0.4149945E+00
    2000.479  0.1519677E+15  0.4135430E+00
    3000.479  0.1527007E+15  0.4155376E+00
    4000.479  0.1525465E+15  0.4151180E+00
    5000.479  0.1527796E+15  0.4157525E+00
    6000.479  0.1525833E+15  0.4152181E+00
    7000.479  0.1526096E+15  0.4152897E+00
    8000.479  0.1522997E+15  0.4144465E+00
    9000.479  0.1523517E+15  0.4145880E+00
   10000.479  0.1521268E+15  0.4139761E+00
   20000.479  0.1514507E+15  0.4121362E+00
   25000.479  0.1517501E+15  0.4129508E+00
