 % time (yr) / surface humidity (???)
       0.500    0.005
       1.500    0.006
       2.500    0.007
       3.500    0.007
       4.500    0.007
       5.500    0.007
       6.500    0.008
       7.500    0.008
       8.500    0.008
       9.500    0.008
      10.500    0.008
      20.479    0.010
      30.479    0.011
      40.479    0.012
      50.479    0.013
      60.479    0.013
      70.479    0.014
      80.479    0.014
      90.479    0.015
     100.479    0.015
     200.479    0.016
     300.479    0.017
     400.479    0.017
     500.479    0.017
     600.479    0.017
     700.479    0.017
     800.479    0.017
     900.479    0.017
    1000.479    0.017
    2000.479    0.017
    3000.479    0.017
    4000.479    0.017
    5000.479    0.017
    6000.479    0.017
    7000.479    0.017
    8000.479    0.017
    9000.479    0.017
   10000.479    0.017
   20000.479    0.017
   25000.479    0.017
