 % time (yr) / global ALK (mol) / global ALK (mol kg-1) / surface ALK (mol kg-1)
  / benthic ALK (mol kg-1)
       0.500  0.3162914E+19  0.2363046E-02  0.2365047E-02  0.2363050E-02
       1.500  0.3162979E+19  0.2363119E-02  0.2365192E-02  0.2363132E-02
       2.500  0.3163009E+19  0.2363170E-02  0.2363291E-02  0.2363278E-02
       3.500  0.3163027E+19  0.2363219E-02  0.2361914E-02  0.2363425E-02
       4.500  0.3163037E+19  0.2363261E-02  0.2360619E-02  0.2363580E-02
       5.500  0.3163043E+19  0.2363299E-02  0.2359434E-02  0.2363747E-02
       6.500  0.3163048E+19  0.2363332E-02  0.2358288E-02  0.2363911E-02
       7.500  0.3163052E+19  0.2363359E-02  0.2357154E-02  0.2364071E-02
       8.500  0.3163055E+19  0.2363381E-02  0.2356020E-02  0.2364229E-02
       9.500  0.3163058E+19  0.2363399E-02  0.2354914E-02  0.2364390E-02
      10.500  0.3163060E+19  0.2363415E-02  0.2353867E-02  0.2364550E-02
      20.479  0.3163060E+19  0.2363460E-02  0.2344782E-02  0.2366251E-02
      30.479  0.3163050E+19  0.2363430E-02  0.2337796E-02  0.2367882E-02
      40.479  0.3163040E+19  0.2363393E-02  0.2332497E-02  0.2369535E-02
      50.479  0.3163035E+19  0.2363374E-02  0.2328991E-02  0.2371365E-02
      60.479  0.3163032E+19  0.2363363E-02  0.2326341E-02  0.2373149E-02
      70.479  0.3163033E+19  0.2363348E-02  0.2324257E-02  0.2374775E-02
      80.479  0.3163033E+19  0.2363333E-02  0.2322521E-02  0.2376249E-02
      90.479  0.3163034E+19  0.2363324E-02  0.2321066E-02  0.2377570E-02
     100.479  0.3163035E+19  0.2363315E-02  0.2319700E-02  0.2378732E-02
     200.479  0.3163047E+19  0.2363272E-02  0.2310691E-02  0.2387096E-02
     300.479  0.3163057E+19  0.2363267E-02  0.2304882E-02  0.2393243E-02
     400.479  0.3163061E+19  0.2363265E-02  0.2300342E-02  0.2397106E-02
     500.479  0.3163063E+19  0.2363266E-02  0.2297028E-02  0.2399817E-02
     600.479  0.3163064E+19  0.2363267E-02  0.2294735E-02  0.2401839E-02
     700.479  0.3163065E+19  0.2363267E-02  0.2293193E-02  0.2403196E-02
     800.479  0.3163066E+19  0.2363267E-02  0.2292145E-02  0.2404021E-02
     900.479  0.3163066E+19  0.2363267E-02  0.2291458E-02  0.2404532E-02
    1000.479  0.3163067E+19  0.2363267E-02  0.2291000E-02  0.2404814E-02
    2000.479  0.3163067E+19  0.2363268E-02  0.2290219E-02  0.2405249E-02
    3000.479  0.3163067E+19  0.2363267E-02  0.2290300E-02  0.2404781E-02
    4000.479  0.3163067E+19  0.2363267E-02  0.2290357E-02  0.2404545E-02
    5000.479  0.3163067E+19  0.2363267E-02  0.2290353E-02  0.2404543E-02
    6000.479  0.3163067E+19  0.2363267E-02  0.2290332E-02  0.2404545E-02
    7000.479  0.3163067E+19  0.2363267E-02  0.2290371E-02  0.2404538E-02
    8000.479  0.3163068E+19  0.2363267E-02  0.2290358E-02  0.2404538E-02
    9000.479  0.3163068E+19  0.2363267E-02  0.2290341E-02  0.2404535E-02
   10000.479  0.3163068E+19  0.2363267E-02  0.2290356E-02  0.2404527E-02
   20000.479  0.3163068E+19  0.2363268E-02  0.2290391E-02  0.2404434E-02
   25000.479  0.3163068E+19  0.2363268E-02  0.2290430E-02  0.2404366E-02
