 % time (yr) / global Ca (mol yr-1)
       0.500  0.8664625E+14
       1.500  0.2014445E+14
       2.500  0.2700254E+14
       3.500  0.2838261E+14
       4.500  0.2859932E+14
       5.500  0.2850126E+14
       6.500  0.2808550E+14
       7.500  0.2814301E+14
       8.500  0.2840047E+14
       9.500  0.2735595E+14
      10.500  0.2674844E+14
      20.479  0.2118619E+14
      30.479  0.1665438E+14
      40.479  0.1415395E+14
      50.479  0.1323621E+14
      60.479  0.1240971E+14
      70.479  0.1099491E+14
      80.479  0.1049844E+14
      90.479  0.1096663E+14
     100.479  0.1137903E+14
     200.479  0.1049232E+14
     300.479  0.1098674E+14
     400.479  0.1156059E+14
     500.479  0.1123393E+14
     600.479  0.1185978E+14
     700.479  0.1168602E+14
     800.479  0.1150101E+14
     900.479  0.1202102E+14
    1000.479  0.1179738E+14
    2000.479  0.1236390E+14
    3000.479  0.1210851E+14
    4000.479  0.1224492E+14
    5000.479  0.1202354E+14
    6000.479  0.1216022E+14
    7000.479  0.1216077E+14
    8000.479  0.1248283E+14
    9000.479  0.1238777E+14
   10000.479  0.1242495E+14
   20000.479  0.1255430E+14
   25000.479  0.1233499E+14
