 % time (yr) / global rate (mol yr-1) / mean rate (mol kg-1 yr-1)
           0.500   0.231699E+20   0.758962E+00
           1.500   0.206728E+20   0.677175E+00
           2.500   0.200199E+20   0.655794E+00
           3.500   0.195890E+20   0.641690E+00
           4.500   0.192909E+20   0.631934E+00
           5.500   0.190794E+20   0.625013E+00
           6.500   0.188953E+20   0.618992E+00
           7.500   0.187120E+20   0.612994E+00
           8.500   0.185145E+20   0.606526E+00
           9.500   0.183156E+20   0.600015E+00
          10.500   0.181307E+20   0.593961E+00
          20.479   0.164991E+20   0.540522E+00
          30.479   0.151932E+20   0.497735E+00
          40.479   0.144019E+20   0.471805E+00
          50.479   0.139124E+20   0.455766E+00
          60.479   0.135785E+20   0.444827E+00
          70.479   0.133216E+20   0.436409E+00
          80.479   0.131202E+20   0.429807E+00
          90.479   0.129567E+20   0.424450E+00
         100.479   0.128186E+20   0.419922E+00
         200.479   0.122698E+20   0.401936E+00
         300.479   0.122749E+20   0.402103E+00
         400.479   0.122913E+20   0.402638E+00
         500.479   0.123048E+20   0.403080E+00
         600.479   0.123082E+20   0.403192E+00
         700.479   0.123115E+20   0.403298E+00
         800.479   0.123136E+20   0.403366E+00
         900.479   0.123151E+20   0.403415E+00
        1000.479   0.123168E+20   0.403474E+00
        2000.479   0.123213E+20   0.403621E+00
        3000.479   0.123214E+20   0.403623E+00
        4000.479   0.123221E+20   0.403647E+00
        5000.479   0.123222E+20   0.403649E+00
        6000.479   0.123215E+20   0.403627E+00
        7000.479   0.123218E+20   0.403638E+00
        8000.479   0.123221E+20   0.403645E+00
        9000.479   0.123219E+20   0.403640E+00
       10000.479   0.123215E+20   0.403628E+00
       20000.479   0.123210E+20   0.403611E+00
       25000.479   0.123162E+20   0.403451E+00
