          time           GAT          NHAT          SHAT         NAMLT         NAELT         SAMLT         SAALT           GVC         NAMVC         NAEVC         SAMVC         SAAVC           GSC         NAMSC         NAESC         SAMSC         SAASC          ATMC        ATMCO2          OCNC
   8.33333E-02   1.15974E+01   6.07609E+00   1.71187E+01  -1.46788E+01  -6.98286E+00   2.61076E+01   2.94448E+01   3.27504E+02   7.20582E+01   1.68477E+02   6.32637E+01   2.37055E+01   1.11420E+03   4.35000E+02   5.50231E+02   9.95076E+01   2.94656E+01   5.90144E+02   2.78370E+02   3.60434E+04
   1.66667E-01   1.15850E+01   6.84441E+00   1.63255E+01  -1.22380E+01  -4.90802E+00   2.58757E+01   2.90513E+01   3.26345E+02   7.16138E+01   1.68626E+02   6.25773E+01   2.35280E+01   1.11658E+03   4.35997E+02   5.51972E+02   9.92373E+01   2.93719E+01   5.88978E+02   2.77820E+02   3.60433E+04
   2.50000E-01   1.21204E+01   9.61515E+00   1.46257E+01  -6.81781E+00   1.16468E+00   2.43173E+01   2.75758E+01   3.25470E+02   7.13797E+01   1.68612E+02   6.20025E+01   2.34751E+01   1.11878E+03   4.36921E+02   5.53527E+02   9.90428E+01   2.92892E+01   5.87700E+02   2.77217E+02   3.60433E+04
   3.33333E-01   1.31640E+01   1.39533E+01   1.23746E+01   1.25280E+00   1.00401E+01   2.19491E+01   2.49985E+01   3.25328E+02   7.15102E+01   1.68568E+02   6.17913E+01   2.34581E+01   1.12067E+03   4.37630E+02   5.54764E+02   9.90214E+01   2.92536E+01   5.85982E+02   2.76407E+02   3.60433E+04
   4.16667E-01   1.48747E+01   1.92424E+01   1.05070E+01   1.06894E+01   2.02312E+01   2.00615E+01   2.20426E+01   3.26332E+02   7.19916E+01   1.68672E+02   6.21060E+01   2.35627E+01   1.12153E+03   4.37747E+02   5.55339E+02   9.91623E+01   2.92823E+01   5.84082E+02   2.75511E+02   3.60434E+04
   5.00000E-01   1.65200E+01   2.37401E+01   9.29996E+00   1.87739E+01   2.85875E+01   1.88712E+01   1.99233E+01   3.29197E+02   7.28035E+01   1.69686E+02   6.27939E+01   2.39138E+01   1.11982E+03   4.36732E+02   5.54307E+02   9.94121E+01   2.93723E+01   5.82722E+02   2.74869E+02   3.60434E+04
   5.83333E-01   1.69641E+01   2.51063E+01   8.82183E+00   2.13168E+01   3.14631E+01   1.89379E+01   2.00763E+01   3.31952E+02   7.36868E+01   1.70226E+02   6.36068E+01   2.44328E+01   1.11458E+03   4.34471E+02   5.50901E+02   9.97145E+01   2.94920E+01   5.84701E+02   2.75802E+02   3.60433E+04
   6.66667E-01   1.64825E+01   2.38459E+01   9.11904E+00   1.75788E+01   2.90196E+01   2.05610E+01   2.19780E+01   3.32983E+02   7.40053E+01   1.69674E+02   6.43913E+01   2.49123E+01   1.10899E+03   4.32355E+02   5.47058E+02   9.99784E+01   2.95982E+01   5.89244E+02   2.77945E+02   3.60433E+04
   7.50000E-01   1.52910E+01   2.02321E+01   1.03499E+01   8.75849E+00   2.16815E+01   2.28968E+01   2.49502E+01   3.33061E+02   7.39210E+01   1.69111E+02   6.49253E+01   2.51039E+01   1.10658E+03   4.31672E+02   5.45137E+02   1.00113E+02   2.96544E+01   5.91884E+02   2.79191E+02   3.60433E+04
   8.33333E-01   1.36498E+01   1.49207E+01   1.23788E+01  -1.54718E+00   1.14626E+01   2.47700E+01   2.75553E+01   3.32191E+02   7.36123E+01   1.68640E+02   6.50113E+01   2.49281E+01   1.10718E+03   4.32098E+02   5.45349E+02   1.00084E+02   2.96466E+01   5.92318E+02   2.79395E+02   3.60433E+04
   9.16667E-01   1.25501E+01   1.03070E+01   1.47932E+01  -9.28952E+00   1.54190E+00   2.56635E+01   2.87734E+01   3.30510E+02   7.31050E+01   1.68190E+02   6.46809E+01   2.45334E+01   1.10907E+03   4.32949E+02   5.46598E+02   9.99244E+01   2.95944E+01   5.92223E+02   2.79350E+02   3.60433E+04
   1.00000E+00   1.19637E+01   7.31775E+00   1.66097E+01  -1.38003E+01  -4.68794E+00   2.58766E+01   2.92548E+01   3.29147E+02   7.25822E+01   1.68343E+02   6.41087E+01   2.41125E+01   1.11142E+03   4.33934E+02   5.48262E+02   9.96986E+01   2.95241E+01   5.91330E+02   2.78929E+02   3.60433E+04
   1.08333E+00   1.15908E+01   6.06562E+00   1.71160E+01  -1.46873E+01  -6.99712E+00   2.60992E+01   2.94321E+01   3.27991E+02   7.20717E+01   1.68697E+02   6.34487E+01   2.37744E+01   1.11389E+03   4.34950E+02   5.50051E+02   9.94422E+01   2.94423E+01   5.90068E+02   2.78334E+02   3.60433E+04
   1.16667E+00   1.15803E+01   6.83809E+00   1.63226E+01  -1.22462E+01  -4.91964E+00   2.58692E+01   2.90414E+01   3.26834E+02   7.16267E+01   1.68847E+02   6.27613E+01   2.35994E+01   1.11627E+03   4.35948E+02   5.51798E+02   9.91764E+01   2.93504E+01   5.88865E+02   2.77767E+02   3.60433E+04
   1.25000E+00   1.21219E+01   9.62248E+00   1.46213E+01  -6.82121E+00   1.15797E+00   2.43119E+01   2.75680E+01   3.25955E+02   7.13919E+01   1.68831E+02   6.21838E+01   2.35485E+01   1.11848E+03   4.36871E+02   5.53358E+02   9.89860E+01   2.92695E+01   5.87568E+02   2.77154E+02   3.60433E+04
   1.33333E+00   1.31643E+01   1.39586E+01   1.23701E+01   1.25302E+00   1.00392E+01   2.19446E+01   2.49926E+01   3.25807E+02   7.15216E+01   1.68783E+02   6.19694E+01   2.35323E+01   1.12038E+03   4.37581E+02   5.54600E+02   9.89686E+01   2.92354E+01   5.85840E+02   2.76339E+02   3.60433E+04
   1.41667E+00   1.48761E+01   1.92463E+01   1.05059E+01   1.06900E+01   2.02318E+01   2.00578E+01   2.20381E+01   3.26800E+02   7.20023E+01   1.68880E+02   6.22803E+01   2.36372E+01   1.12126E+03   4.37699E+02   5.55180E+02   9.91131E+01   2.92657E+01   5.83937E+02   2.75442E+02   3.60433E+04
   1.50000E+00   1.65231E+01   2.37426E+01   9.30355E+00   1.87740E+01   2.85880E+01   1.88681E+01   1.99199E+01   3.29654E+02   7.28138E+01   1.69888E+02   6.29638E+01   2.39882E+01   1.11956E+03   4.36684E+02   5.54153E+02   9.93663E+01   2.93571E+01   5.82576E+02   2.74800E+02   3.60433E+04
   1.58333E+00   1.69659E+01   2.51080E+01   8.82388E+00   2.13165E+01   3.14635E+01   1.89354E+01   2.00735E+01   3.32400E+02   7.36975E+01   1.70424E+02   6.37717E+01   2.45069E+01   1.11433E+03   4.34424E+02   5.50753E+02   9.96719E+01   2.94781E+01   5.84551E+02   2.75732E+02   3.60433E+04
   1.66667E+00   1.64788E+01   2.38479E+01   9.10975E+00   1.75787E+01   2.90196E+01   2.05590E+01   2.19761E+01   3.33420E+02   7.40166E+01   1.69867E+02   6.45507E+01   2.49857E+01   1.10875E+03   4.32309E+02   5.46915E+02   9.99389E+01   2.95857E+01   5.89093E+02   2.77874E+02   3.60433E+04
   1.75000E+00   1.52935E+01   2.02366E+01   1.03504E+01   8.75915E+00   2.16801E+01   2.28952E+01   2.49483E+01   3.33484E+02   7.39326E+01   1.69298E+02   6.50784E+01   2.51756E+01   1.10635E+03   4.31627E+02   5.44999E+02   1.00077E+02   2.96432E+01   5.91735E+02   2.79120E+02   3.60433E+04
   1.83333E+00   1.36518E+01   1.49249E+01   1.23786E+01  -1.54516E+00   1.14634E+01   2.47688E+01   2.75545E+01   3.32599E+02   7.36237E+01   1.68820E+02   6.51572E+01   2.49977E+01   1.10696E+03   4.32053E+02   5.45216E+02   1.00050E+02   2.96367E+01   5.92174E+02   2.79328E+02   3.60433E+04
   1.91667E+00   1.25530E+01   1.03106E+01   1.47955E+01  -9.28830E+00   1.54545E+00   2.56626E+01   2.87724E+01   3.30901E+02   7.31160E+01   1.68365E+02   6.48191E+01   2.46005E+01   1.10885E+03   4.32904E+02   5.46469E+02   9.98935E+01   2.95856E+01   5.92087E+02   2.79286E+02   3.60433E+04
   2.00000E+00   1.19657E+01   7.31964E+00   1.66118E+01  -1.37985E+01  -4.68273E+00   2.58759E+01   2.92538E+01   3.29521E+02   7.25928E+01   1.68512E+02   6.42392E+01   2.41773E+01   1.11121E+03   4.33890E+02   5.48136E+02   9.96703E+01   2.95166E+01   5.91204E+02   2.78870E+02   3.60433E+04
   2.08333E+00   1.15971E+01   6.07526E+00   1.71189E+01  -1.46535E+01  -6.99023E+00   2.60986E+01   2.94317E+01   3.28351E+02   7.20819E+01   1.68860E+02   6.35719E+01   2.38367E+01   1.11369E+03   4.34906E+02   5.49928E+02   9.94162E+01   2.94358E+01   5.89953E+02   2.78280E+02   3.60433E+04
   2.16667E+00   1.15848E+01   6.84379E+00   1.63257E+01  -1.22393E+01  -4.91318E+00   2.58687E+01   2.90417E+01   3.27178E+02   7.16366E+01   1.69005E+02   6.28774E+01   2.36589E+01   1.11608E+03   4.35903E+02   5.51677E+02   9.91527E+01   2.93449E+01   5.88760E+02   2.77717E+02   3.60432E+04
   2.25000E+00   1.21204E+01   9.61463E+00   1.46261E+01  -6.81603E+00   1.16120E+00   2.43117E+01   2.75689E+01   3.26283E+02   7.14015E+01   1.68983E+02   6.22932E+01   2.36051E+01   1.11830E+03   4.36827E+02   5.53240E+02   9.89644E+01   2.92649E+01   5.87473E+02   2.77110E+02   3.60432E+04
   2.33333E+00   1.31650E+01   1.39550E+01   1.23751E+01   1.25442E+00   1.00379E+01   2.19447E+01   2.49941E+01   3.26116E+02   7.15305E+01   1.68927E+02   6.20723E+01   2.35859E+01   1.12020E+03   4.37537E+02   5.54485E+02   9.89488E+01   2.92317E+01   5.85759E+02   2.76301E+02   3.60432E+04
   2.41667E+00   1.48750E+01   1.92438E+01   1.05062E+01   1.06887E+01   2.02303E+01   2.00581E+01   2.20399E+01   3.27090E+02   7.20104E+01   1.69014E+02   6.23773E+01   2.36878E+01   1.12108E+03   4.37656E+02   5.55069E+02   9.90950E+01   2.92627E+01   5.83870E+02   2.75410E+02   3.60433E+04
   2.50000E+00   1.65209E+01   2.37413E+01   9.30047E+00   1.87719E+01   2.85870E+01   1.88684E+01   1.99217E+01   3.29927E+02   7.28207E+01   1.70015E+02   6.30553E+01   2.40361E+01   1.11939E+03   4.36642E+02   5.54046E+02   9.93498E+01   2.93549E+01   5.82519E+02   2.74773E+02   3.60433E+04
   2.58333E+00   1.69653E+01   2.51073E+01   8.82321E+00   2.13145E+01   3.14628E+01   1.89358E+01   2.00757E+01   3.32660E+02   7.37039E+01   1.70545E+02   6.38583E+01   2.45526E+01   1.11417E+03   4.34383E+02   5.50651E+02   9.96570E+01   2.94766E+01   5.84502E+02   2.75708E+02   3.60432E+04
   2.66667E+00   1.64816E+01   2.38476E+01   9.11555E+00   1.75767E+01   2.90177E+01   2.05595E+01   2.19783E+01   3.33666E+02   7.40228E+01   1.69982E+02   6.46323E+01   2.50291E+01   1.10860E+03   4.32268E+02   5.46818E+02   9.99253E+01   2.95848E+01   5.89050E+02   2.77854E+02   3.60432E+04
   2.75000E+00   1.52925E+01   2.02341E+01   1.03509E+01   8.75670E+00   2.16751E+01   2.28957E+01   2.49504E+01   3.33716E+02   7.39385E+01   1.69407E+02   6.51548E+01   2.52164E+01   1.10620E+03   4.31587E+02   5.44906E+02   1.00064E+02   2.96429E+01   5.91701E+02   2.79104E+02   3.60432E+04
   2.83333E+00   1.36516E+01   1.49227E+01   1.23805E+01  -1.54972E+00   1.14579E+01   2.47692E+01   2.75563E+01   3.32817E+02   7.36291E+01   1.68924E+02   6.52279E+01   2.50357E+01   1.10682E+03   4.32013E+02   5.45126E+02   1.00039E+02   2.96369E+01   5.92150E+02   2.79316E+02   3.60432E+04
   2.91667E+00   1.25511E+01   1.03069E+01   1.47953E+01  -9.29318E+00   1.54371E+00   2.56629E+01   2.87738E+01   3.31105E+02   7.31209E+01   1.68464E+02   6.48844E+01   2.46361E+01   1.10872E+03   4.32865E+02   5.46381E+02   9.98836E+01   2.95863E+01   5.92074E+02   2.79280E+02   3.60432E+04
   3.00000E+00   1.19516E+01   7.29170E+00   1.66115E+01  -1.38144E+01  -4.68574E+00   2.58763E+01   2.92550E+01   3.29713E+02   7.25974E+01   1.68606E+02   6.42994E+01   2.42106E+01   1.11108E+03   4.33850E+02   5.48050E+02   9.96614E+01   2.95177E+01   5.91201E+02   2.78868E+02   3.60432E+04
   3.08333E+00   1.15928E+01   6.06748E+00   1.71181E+01  -1.46977E+01  -6.99650E+00   2.60990E+01   2.94329E+01   3.28531E+02   7.20863E+01   1.68950E+02   6.36274E+01   2.38675E+01   1.11356E+03   4.34867E+02   5.49844E+02   9.94083E+01   2.94373E+01   5.89958E+02   2.78282E+02   3.60432E+04
   3.16667E+00   1.15820E+01   6.83885E+00   1.63251E+01  -1.22511E+01  -4.91893E+00   2.58691E+01   2.90432E+01   3.27348E+02   7.16408E+01   1.69091E+02   6.29287E+01   2.36874E+01   1.11595E+03   4.35864E+02   5.51595E+02   9.91456E+01   2.93467E+01   5.88773E+02   2.77723E+02   3.60432E+04
   3.25000E+00   1.21201E+01   9.61480E+00   1.46253E+01  -6.82783E+00   1.15872E+00   2.43121E+01   2.75705E+01   3.26442E+02   7.14054E+01   1.69064E+02   6.23407E+01   2.36311E+01   1.11817E+03   4.36789E+02   5.53159E+02   9.89581E+01   2.92670E+01   5.87494E+02   2.77120E+02   3.60432E+04
   3.33333E+00   1.31642E+01   1.39539E+01   1.23745E+01   1.23321E+00   1.00402E+01   2.19452E+01   2.49957E+01   3.26264E+02   7.15336E+01   1.69005E+02   6.21162E+01   2.36096E+01   1.12008E+03   4.37499E+02   5.54405E+02   9.89432E+01   2.92341E+01   5.85788E+02   2.76315E+02   3.60432E+04
   3.41667E+00   1.48757E+01   1.92453E+01   1.05061E+01   1.06842E+01   2.02331E+01   2.00586E+01   2.20416E+01   3.27227E+02   7.20117E+01   1.69088E+02   6.24180E+01   2.37094E+01   1.12096E+03   4.37618E+02   5.54990E+02   9.90901E+01   2.92654E+01   5.83908E+02   2.75428E+02   3.60432E+04
   3.50000E+00   1.65207E+01   2.37427E+01   9.29867E+00   1.87720E+01   2.85892E+01   1.88691E+01   1.99235E+01   3.30056E+02   7.28217E+01   1.70085E+02   6.30933E+01   2.40560E+01   1.11928E+03   4.36605E+02   5.53968E+02   9.93454E+01   2.93577E+01   5.82563E+02   2.74794E+02   3.60432E+04
   3.58333E+00   1.69660E+01   2.51086E+01   8.82346E+00   2.13153E+01   3.14646E+01   1.89365E+01   2.00775E+01   3.32781E+02   7.37047E+01   1.70611E+02   6.38939E+01   2.45711E+01   1.11405E+03   4.34347E+02   5.50575E+02   9.96531E+01   2.94797E+01   5.84551E+02   2.75731E+02   3.60432E+04
   3.66667E+00   1.64819E+01   2.38491E+01   9.11472E+00   1.75776E+01   2.90182E+01   2.05601E+01   2.19800E+01   3.33779E+02   7.40235E+01   1.70043E+02   6.46657E+01   2.50463E+01   1.10849E+03   4.32232E+02   5.46743E+02   9.99219E+01   2.95880E+01   5.89105E+02   2.77880E+02   3.60432E+04
   3.75000E+00   1.52933E+01   2.02373E+01   1.03493E+01   8.75782E+00   2.16735E+01   2.28963E+01   2.49521E+01   3.33820E+02   7.39392E+01   1.69463E+02   6.51858E+01   2.52322E+01   1.10609E+03   4.31551E+02   5.44833E+02   1.00061E+02   2.96463E+01   5.91762E+02   2.79133E+02   3.60432E+04
   3.83333E+00   1.36525E+01   1.49254E+01   1.23796E+01  -1.54829E+00   1.14582E+01   2.47698E+01   2.75578E+01   3.32914E+02   7.36297E+01   1.68978E+02   6.52564E+01   2.50501E+01   1.10671E+03   4.31977E+02   5.45054E+02   1.00037E+02   2.96404E+01   5.92215E+02   2.79347E+02   3.60432E+04
   3.91667E+00   1.25527E+01   1.03099E+01   1.47955E+01  -9.29058E+00   1.54652E+00   2.56636E+01   2.87749E+01   3.31196E+02   7.31215E+01   1.68515E+02   6.49104E+01   2.46490E+01   1.10861E+03   4.32829E+02   5.46311E+02   9.98814E+01   2.95899E+01   5.92144E+02   2.79313E+02   3.60432E+04
   4.00000E+00   1.19571E+01   7.30275E+00   1.66114E+01  -1.38034E+01  -4.68244E+00   2.58768E+01   2.92559E+01   3.29799E+02   7.25980E+01   1.68655E+02   6.43230E+01   2.42223E+01   1.11098E+03   4.33815E+02   5.47980E+02   9.96595E+01   2.95213E+01   5.91275E+02   2.78903E+02   3.60432E+04
