% age_kyrBP     D_m  k0_mix     T_C   S_mil    CO2_uM    ALK_uM    PO2_uM    NO3_uM     O2_uM     Ca_uM    SO4_mM    CO3_mM     ohm   dCO3_uM     POC_%     cal_%    opal_%   fsedPOC      d13C   fsedcal      d13C  fsedopal   fdisPOC      d13C   fdiscal      d13C  fdisopal
     24.099  4131.7   0.150  -1.590  35.033  2300.515  2395.794     2.468     0.000   169.461    10.299    28.267    75.293   0.793   -19.623     0.000    20.670    65.046     6.589   -21.987     9.560     3.639     4.011     6.589   -21.987    10.004     3.632     0.000
     23.201  4131.7   0.150  -1.580  35.034  2296.981  2393.957     2.451     0.000   171.501    10.300    28.268    76.079   0.802   -18.830     0.000    24.091    62.513    11.286   -22.221    15.953     3.497     4.011    11.286   -22.221    14.091     3.497     0.000
     22.312  4131.7   0.150  -1.580  35.034  2296.673  2393.883     2.449     0.000   171.661    10.300    28.268    76.192   0.803   -18.716     0.000    24.649    62.055     6.611   -21.943     9.591     3.677     4.011     6.611   -21.943     9.742     3.674     0.000
     21.423  4131.7   0.150  -1.581  35.034  2296.758  2393.974     2.450     0.000   171.673    10.300    28.268    76.197   0.803   -18.711     0.000    24.776    61.951    11.789   -22.197    16.682     3.525     4.011    11.789   -22.197    14.539     3.525     0.000
     20.535  4131.7   0.150  -1.581  35.034  2296.752  2393.980     2.450     0.000   171.682    10.300    28.268    76.202   0.803   -18.706     0.000    24.799    61.932    11.717   -22.188    16.589     3.533     4.011    11.717   -22.188    14.475     3.533     0.000
     19.647  4131.7   0.150  -1.581  35.034  2296.769  2393.997     2.450     0.000   171.689    10.300    28.268    76.203   0.803   -18.704     0.000    24.750    61.972     7.194   -22.007    10.362     3.644     4.011     7.194   -22.007    10.262     3.644     0.000
     18.759  4131.7   0.150  -1.581  35.034  2296.753  2393.997     2.450     0.000   171.706    10.300    28.268    76.210   0.803   -18.697     0.000    24.790    61.939     7.471   -22.034    10.733     3.631     4.011     7.471   -22.034    10.507     3.631     0.000
     17.871  4131.7   0.150  -1.581  35.034  2296.708  2393.974     2.450     0.000   171.749    10.300    28.268    76.221   0.803   -18.687     0.000    24.880    61.865    11.113   -22.151    15.781     3.556     4.011    11.113   -22.151    13.937     3.556     0.000
     16.983  4131.7   0.150  -1.581  35.034  2296.676  2393.973     2.450     0.000   171.809    10.300    28.268    76.236   0.803   -18.672     0.000    24.943    61.813    10.823   -22.134    15.390     3.566     4.011    10.823   -22.134    13.678     3.566     0.000
     16.095  4131.7   0.150  -1.581  35.034  2296.663  2393.989     2.450     0.000   171.852    10.300    28.268    76.250   0.803   -18.657     0.000    24.951    61.806     7.771   -22.058    11.138     3.619     4.011     7.771   -22.058    10.976     3.619     0.000
     15.208  4131.7   0.150  -1.581  35.034  2296.618  2393.969     2.450     0.000   171.895    10.300    28.268    76.262   0.804   -18.646     0.000    25.075    61.704    10.829   -22.133    15.398     3.566     4.011    10.829   -22.133    13.682     3.566     0.000
     14.322  4131.7   0.150  -1.581  35.034  2296.603  2393.982     2.449     0.000   171.941    10.300    28.268    76.276   0.804   -18.631     0.000    25.128    61.660     7.203   -22.001    10.375     3.649     4.011     7.203   -22.001    10.262     3.649     0.000
     13.435  4131.7   0.150  -1.581  35.034  2296.565  2393.979     2.449     0.000   172.008    10.300    28.268    76.293   0.804   -18.614     0.000    25.191    61.609     6.964   -21.972    10.056     3.664     4.011     6.964   -21.972    10.046     3.664     0.000
     12.549  4131.7   0.150  -1.581  35.034  2296.519  2393.977     2.449     0.000   172.080    10.300    28.268    76.315   0.804   -18.593     0.000    25.269    61.544     6.613   -21.924     9.593     3.692     4.011     6.613   -21.924     9.730     3.691     0.000
     11.663  4131.7   0.150  -1.581  35.034  2296.452  2393.971     2.449     0.000   172.187    10.300    28.268    76.344   0.804   -18.563     0.000    25.391    61.444     6.795   -21.925     9.860     3.696     4.011     6.795   -21.925     9.887     3.696     0.000
     10.777  4131.7   0.150  -1.581  35.034  2296.371  2393.948     2.449     0.000   172.276    10.300    28.268    76.371   0.805   -18.536     0.000    25.647    61.233    10.942   -22.179    15.481     3.532     4.011    10.942   -22.179    13.779     3.532     0.000
      9.893  4131.7   0.150  -1.581  35.034  2296.292  2393.944     2.449     0.000   172.397    10.300    28.268    76.408   0.805   -18.500     0.000    25.782    61.122     9.245   -22.042    13.256     3.617     4.011     9.245   -22.042    12.272     3.617     0.000
      9.009  4131.7   0.150  -1.581  35.034  2296.198  2393.925     2.448     0.000   172.531    10.300    28.268    76.444   0.805   -18.464     0.000    26.005    60.938    11.417   -22.156    16.199     3.552     4.011    11.417   -22.156    14.196     3.552     0.000
      8.126  4131.7   0.150  -1.581  35.034  2296.136  2393.942     2.448     0.000   172.653    10.300    28.268    76.483   0.806   -18.424     0.000    26.150    60.819     6.949   -21.926    10.082     3.695     4.011     6.949   -21.926    10.010     3.695     0.000
      7.243  4131.7   0.150  -1.581  35.034  2296.028  2393.921     2.448     0.000   172.813    10.300    28.268    76.525   0.806   -18.383     0.000    26.375    60.633     9.056   -22.125    12.890     3.573     4.011     9.056   -22.125    12.099     3.573     0.000
      6.362  4131.7   0.150  -1.581  35.034  2295.930  2393.917     2.447     0.000   172.964    10.300    28.268    76.571   0.807   -18.337     0.000    26.599    60.449     6.651   -21.911     9.657     3.698     4.011     6.651   -21.911     9.734     3.697     0.000
      5.481  4131.7   0.150  -1.581  35.034  2295.817  2393.902     2.447     0.000   173.134    10.300    28.268    76.618   0.807   -18.290     0.000    26.861    60.233     8.755   -22.107    12.484     3.584     4.011     8.755   -22.107    11.602     3.584     0.000
      4.602  4131.7   0.150  -1.581  35.034  2295.725  2393.900     2.447     0.000   173.279    10.300    28.268    76.662   0.808   -18.246     0.000    27.059    60.070     7.336   -21.937    10.629     3.686     4.011     7.336   -21.937    10.330     3.686     0.000
      3.723  4131.7   0.150  -1.581  35.034  2295.610  2393.865     2.447     0.000   173.409    10.300    28.268    76.701   0.808   -18.208     0.000    27.329    59.848    11.894   -22.169    16.846     3.539     4.011    11.894   -22.169    14.608     3.539     0.000
      2.845  4131.7   0.150  -1.581  35.034  2295.534  2393.872     2.446     0.000   173.551    10.300    28.268    76.741   0.809   -18.167     0.000    27.492    59.713     7.837   -22.040    11.243     3.622     4.011     7.837   -22.040    10.768     3.622     0.000
      1.968  4131.7   0.150  -1.581  35.034  2295.440  2393.861     2.446     0.000   173.696    10.300    28.268    76.781   0.809   -18.127     0.000    27.732    59.516     9.097   -22.117    12.954     3.575     4.011     9.097   -22.117    11.887     3.575     0.000
      1.092  4131.7   0.150  -1.581  35.034  2295.332  2393.845     2.446     0.000   173.843    10.300    28.268    76.826   0.809   -18.082     0.000    27.940    59.345     9.725   -22.139    13.814     3.558     4.011     9.725   -22.139    12.677     3.558     0.000
      0.217  4131.7   0.150  -1.581  35.034  2295.201  2393.833     2.445     0.000   174.045    10.300    28.268    76.884   0.810   -18.025     0.000    28.288    59.058     9.735   -22.136    13.831     3.558     4.011     9.735   -22.136    12.445     3.558     0.000
