% age_kyrBP     D_m  k0_mix     T_C   S_mil    CO2_uM    ALK_uM    PO2_uM    NO3_uM     O2_uM     Ca_uM    SO4_mM    CO3_mM     ohm   dCO3_uM     POC_%     cal_%    opal_%   fsedPOC      d13C   fsedcal      d13C  fsedopal   fdisPOC      d13C   fdiscal      d13C  fdisopal
     24.496  1631.7   0.150   0.474  34.845  2292.354  2359.478     2.556     0.000   129.122    10.239    28.115    65.140   1.117     6.822     0.000    35.741    57.753     7.464   -20.218     6.559     4.117     7.319     7.464   -20.218     4.021     4.117     0.000
     23.997  1631.7   0.150   0.505  34.847  2286.790  2355.488     2.535     0.000   132.417    10.235    28.117    65.770   1.127     7.421     0.000    35.126    58.822     8.359   -20.143     7.271     4.073     7.319     8.359   -20.143     4.580     4.073     0.000
     23.497  1631.7   0.150   0.510  34.849  2284.329  2354.077     2.523     0.000   133.859    10.235    28.118    66.221   1.135     7.870     0.000    35.652    58.348     7.396   -20.195     6.482     4.143     7.319     7.396   -20.195     3.844     4.143     0.000
     22.999  1631.7   0.150   0.510  34.849  2283.747  2353.744     2.521     0.000   134.136    10.235    28.118    66.330   1.137     7.979     0.000    35.791    58.222     7.441   -20.206     6.518     4.157     7.319     7.441   -20.206     3.864     4.157     0.000
     22.501  1631.7   0.150   0.508  34.849  2283.646  2353.728     2.521     0.000   134.186    10.235    28.118    66.369   1.137     8.017     0.000    35.854    58.165     7.604   -20.201     6.653     4.157     7.319     7.604   -20.201     3.974     4.157     0.000
     22.003  1631.7   0.150   0.510  34.849  2283.658  2353.774     2.521     0.000   134.210    10.235    28.118    66.385   1.138     8.034     0.000    35.881    58.140     7.833   -20.180     6.839     4.147     7.319     7.833   -20.180     4.134     4.147     0.000
     21.505  1631.7   0.150   0.511  34.849  2283.719  2353.841     2.522     0.000   134.193    10.235    28.118    66.388   1.138     8.038     0.000    35.889    58.133     8.081   -20.152     7.043     4.133     7.319     8.081   -20.152     4.309     4.133     0.000
     21.008  1631.7   0.150   0.510  34.849  2283.707  2353.836     2.522     0.000   134.218    10.235    28.118    66.391   1.138     8.040     0.000    35.893    58.129     7.453   -20.144     6.532     4.161     7.319     7.453   -20.144     3.865     4.161     0.000
     20.510  1631.7   0.150   0.509  34.849  2283.704  2353.834     2.522     0.000   134.222    10.235    28.118    66.393   1.138     8.042     0.000    35.894    58.129     7.396   -20.170     6.485     4.174     7.319     7.396   -20.170     3.825     4.174     0.000
     20.013  1631.7   0.150   0.512  34.849  2283.693  2353.832     2.522     0.000   134.211    10.235    28.118    66.398   1.138     8.048     0.000    35.897    58.126     8.214   -20.070     7.152     4.110     7.319     8.214   -20.070     4.403     4.110     0.000
     19.515  1631.7   0.150   0.512  34.849  2283.690  2353.829     2.522     0.000   134.212    10.235    28.118    66.397   1.138     8.047     0.000    35.896    58.127     8.009   -20.075     6.984     4.122     7.319     8.009   -20.075     4.257     4.122     0.000
     19.017  1631.7   0.150   0.510  34.849  2283.701  2353.840     2.522     0.000   134.230    10.235    28.118    66.395   1.138     8.045     0.000    35.900    58.123     8.020   -20.151     6.992     4.146     7.319     8.020   -20.151     4.265     4.146     0.000
     18.519  1631.7   0.150   0.511  34.849  2283.694  2353.838     2.522     0.000   134.228    10.235    28.118    66.399   1.138     8.049     0.000    35.903    58.121     8.232   -20.122     7.167     4.130     7.319     8.232   -20.122     4.416     4.130     0.000
     18.022  1631.7   0.150   0.509  34.849  2283.688  2353.835     2.522     0.000   134.250    10.235    28.118    66.400   1.138     8.049     0.000    35.905    58.119     7.399   -20.158     6.487     4.177     7.319     7.399   -20.158     3.826     4.177     0.000
     17.524  1631.7   0.150   0.509  34.849  2283.682  2353.835     2.522     0.000   134.268    10.235    28.118    66.403   1.138     8.052     0.000    35.909    58.116     7.445   -20.180     6.524     4.182     7.319     7.445   -20.180     3.858     4.182     0.000
     17.027  1631.7   0.150   0.512  34.849  2283.666  2353.836     2.522     0.000   134.273    10.235    28.118    66.412   1.138     8.061     0.000    35.916    58.109     8.062   -20.069     7.028     4.122     7.319     8.062   -20.069     4.293     4.122     0.000
     16.529  1631.7   0.150   0.512  34.849  2283.660  2353.835     2.522     0.000   134.281    10.235    28.118    66.414   1.138     8.064     0.000    35.919    58.107     7.838   -20.083     6.848     4.137     7.319     7.838   -20.083     4.134     4.137     0.000
     16.031  1631.7   0.150   0.511  34.849  2283.662  2353.844     2.522     0.000   134.299    10.235    28.118    66.416   1.138     8.066     0.000    35.926    58.100     8.187   -20.126     7.131     4.136     7.319     8.187   -20.126     4.381     4.136     0.000
     15.534  1631.7   0.150   0.512  34.849  2283.653  2353.844     2.522     0.000   134.311    10.235    28.118    66.422   1.138     8.071     0.000    35.930    58.096     8.331   -20.097     7.249     4.122     7.319     8.331   -20.097     4.483     4.122     0.000
     15.036  1631.7   0.150   0.509  34.849  2283.651  2353.843     2.522     0.000   134.338    10.235    28.118    66.421   1.138     8.070     0.000    35.934    58.093     7.425   -20.174     6.509     4.183     7.319     7.425   -20.174     3.842     4.183     0.000
     14.539  1631.7   0.150   0.512  34.849  2283.633  2353.839     2.522     0.000   134.334    10.235    28.118    66.428   1.138     8.078     0.000    35.940    58.088     8.120   -20.065     7.075     4.119     7.319     8.120   -20.065     4.332     4.119     0.000
     14.041  1631.7   0.150   0.512  34.849  2283.628  2353.841     2.522     0.000   134.350    10.235    28.118    66.432   1.138     8.081     0.000    35.944    58.084     7.901   -20.077     6.899     4.133     7.319     7.901   -20.077     4.176     4.133     0.000
     13.543  1631.7   0.150   0.511  34.849  2283.631  2353.849     2.522     0.000   134.369    10.235    28.118    66.432   1.139     8.082     0.000    35.949    58.079     8.138   -20.132     7.091     4.141     7.319     8.138   -20.132     4.345     4.141     0.000
     13.046  1631.7   0.150   0.510  34.849  2283.616  2353.845     2.522     0.000   134.401    10.235    28.118    66.436   1.139     8.085     0.000    35.955    58.073     7.429   -20.142     6.513     4.173     7.319     7.429   -20.142     3.843     4.173     0.000
     12.549  1631.7   0.150   0.513  34.849  2283.599  2353.845     2.522     0.000   134.405    10.235    28.118    66.445   1.139     8.095     0.000    35.963    58.066     8.328   -20.069     7.247     4.114     7.319     8.328   -20.069     4.478     4.114     0.000
     12.051  1631.7   0.150   0.513  34.849  2283.584  2353.845     2.522     0.000   134.431    10.235    28.118    66.451   1.139     8.101     0.000    35.974    58.056     8.175   -20.063     7.122     4.117     7.319     8.175   -20.063     4.369     4.117     0.000
     11.553  1631.7   0.150   0.510  34.849  2283.590  2353.858     2.522     0.000   134.475    10.235    28.118    66.454   1.139     8.103     0.000    35.984    58.047     7.846   -20.163     6.852     4.162     7.319     7.846   -20.163     4.135     4.162     0.000
     11.056  1631.7   0.150   0.511  34.849  2283.564  2353.853     2.522     0.000   134.495    10.235    28.118    66.465   1.139     8.115     0.000    35.992    58.040     7.631   -20.104     6.680     4.154     7.319     7.631   -20.104     3.982     4.154     0.000
     10.559  1631.7   0.150   0.512  34.849  2283.552  2353.861     2.522     0.000   134.520    10.235    28.118    66.475   1.139     8.125     0.000    36.006    58.028     8.341   -20.094     7.259     4.123     7.319     8.341   -20.094     4.484     4.123     0.000
     10.061  1631.7   0.150   0.509  34.849  2283.539  2353.860     2.523     0.000   134.574    10.235    28.118    66.481   1.139     8.130     0.000    36.017    58.017     7.436   -20.171     6.519     4.184     7.319     7.436   -20.171     3.843     4.184     0.000
      9.564  1631.7   0.150   0.512  34.849  2283.513  2353.865     2.522     0.000   134.592    10.235    28.118    66.495   1.140     8.145     0.000    36.030    58.006     8.134   -20.061     7.089     4.120     7.319     8.134   -20.061     4.334     4.120     0.000
      9.066  1631.7   0.150   0.510  34.849  2283.512  2353.879     2.523     0.000   134.635    10.235    28.118    66.499   1.140     8.149     0.000    36.045    57.992     7.916   -20.156     6.911     4.159     7.319     7.916   -20.156     4.179     4.159     0.000
      8.569  1631.7   0.150   0.511  34.849  2283.490  2353.882     2.523     0.000   134.667    10.235    28.118    66.513   1.140     8.163     0.000    36.057    57.981     8.250   -20.114     7.185     4.134     7.319     8.250   -20.114     4.415     4.134     0.000
      8.072  1631.7   0.150   0.509  34.849  2283.472  2353.882     2.523     0.000   134.711    10.235    28.118    66.519   1.140     8.169     0.000    36.069    57.970     7.416   -20.152     6.505     4.180     7.319     7.416   -20.152     3.824     4.180     0.000
      7.575  1631.7   0.150   0.512  34.849  2283.441  2353.884     2.523     0.000   134.749    10.235    28.118    66.535   1.140     8.185     0.000    36.086    57.955     8.279   -20.059     7.208     4.116     7.319     8.279   -20.059     4.433     4.116     0.000
      7.078  1631.7   0.150   0.512  34.849  2283.419  2353.884     2.523     0.000   134.790    10.235    28.118    66.545   1.140     8.195     0.000    36.102    57.941     7.971   -20.068     6.960     4.131     7.319     7.971   -20.068     4.213     4.131     0.000
      6.581  1631.7   0.150   0.511  34.849  2283.403  2353.891     2.523     0.000   134.839    10.235    28.118    66.557   1.141     8.206     0.000    36.116    57.927     7.646   -20.100     6.695     4.155     7.319     7.646   -20.100     3.982     4.155     0.000
      6.084  1631.7   0.150   0.512  34.849  2283.382  2353.900     2.523     0.000   134.882    10.235    28.118    66.571   1.141     8.221     0.000    36.135    57.910     8.360   -20.089     7.278     4.124     7.319     8.360   -20.089     4.486     4.124     0.000
      5.587  1631.7   0.150   0.513  34.849  2283.352  2353.900     2.523     0.000   134.930    10.235    28.118    66.585   1.141     8.235     0.000    36.152    57.895     8.324   -20.059     7.247     4.115     7.319     8.324   -20.059     4.459     4.115     0.000
      5.090  1631.7   0.150   0.512  34.849  2283.331  2353.903     2.523     0.000   134.973    10.235    28.118    66.596   1.141     8.246     0.000    36.169    57.880     8.040   -20.062     7.016     4.128     7.319     8.040   -20.062     4.256     4.128     0.000
      4.593  1631.7   0.150   0.511  34.849  2283.313  2353.907     2.524     0.000   135.023    10.235    28.118    66.606   1.141     8.255     0.000    36.183    57.867     7.703   -20.091     6.743     4.152     7.319     7.703   -20.091     4.016     4.152     0.000
      4.096  1631.7   0.150   0.510  34.849  2283.298  2353.914     2.524     0.000   135.069    10.235    28.118    66.614   1.142     8.263     0.000    36.198    57.853     7.463   -20.133     6.546     4.175     7.319     7.463   -20.133     3.846     4.175     0.000
      3.599  1631.7   0.150   0.509  34.849  2283.283  2353.916     2.524     0.000   135.103    10.235    28.118    66.622   1.142     8.271     0.000    36.211    57.841     7.481   -20.168     6.560     4.186     7.319     7.481   -20.168     3.858     4.186     0.000
      3.102  1631.7   0.150   0.510  34.849  2283.265  2353.922     2.524     0.000   135.145    10.235    28.118    66.633   1.142     8.283     0.000    36.228    57.826     7.757   -20.164     6.784     4.172     7.319     7.757   -20.164     4.051     4.172     0.000
      2.605  1631.7   0.150   0.511  34.849  2283.244  2353.927     2.524     0.000   135.179    10.235    28.118    66.646   1.142     8.296     0.000    36.242    57.814     8.121   -20.129     7.083     4.147     7.319     8.121   -20.129     4.308     4.147     0.000
      2.109  1631.7   0.150   0.510  34.849  2283.216  2353.924     2.524     0.000   135.228    10.235    28.118    66.656   1.142     8.305     0.000    36.255    57.801     7.446   -20.138     6.533     4.179     7.319     7.446   -20.138     3.830     4.179     0.000
      1.612  1631.7   0.150   0.509  34.849  2283.205  2353.931     2.524     0.000   135.265    10.235    28.118    66.666   1.143     8.316     0.000    36.269    57.788     7.521   -20.168     6.593     4.185     7.319     7.521   -20.168     3.881     4.185     0.000
      1.115  1631.7   0.150   0.510  34.849  2283.186  2353.939     2.524     0.000   135.306    10.235    28.118    66.679   1.143     8.328     0.000    36.286    57.773     7.821   -20.157     6.838     4.169     7.319     7.821   -20.157     4.091     4.169     0.000
      0.619  1631.7   0.150   0.511  34.849  2283.148  2353.936     2.524     0.000   135.362    10.235    28.118    66.694   1.143     8.344     0.000    36.301    57.760     7.625   -20.099     6.681     4.161     7.319     7.625   -20.099     3.951     4.161     0.000
      0.123  1631.7   0.150   0.512  34.849  2283.118  2353.944     2.524     0.000   135.411    10.235    28.118    66.711   1.143     8.361     0.000    36.328    57.735     8.403   -20.064     7.317     4.119     7.319     8.403   -20.064     4.501     4.119     0.000
