% age_kyrBP     D_m  k0_mix     T_C   S_mil    CO2_uM    ALK_uM    PO2_uM    NO3_uM     O2_uM     Ca_uM    SO4_mM    CO3_mM     ohm   dCO3_uM     POC_%     cal_%    opal_%   fsedPOC      d13C   fsedcal      d13C  fsedopal   fdisPOC      d13C   fdiscal      d13C  fdisopal
     24.981  4300.9   0.150  -0.116  34.899  2270.311  2366.669     2.359     0.000   142.248    10.255    28.159    74.974   0.765   -22.991     0.000    26.546     0.000    28.574   -22.160    42.473     3.703     0.000    28.574   -22.160    30.828     3.703     0.000
     24.944  4300.9   0.150  -0.501  34.908  2266.561  2370.164     2.331     0.000   164.896    10.250    28.166    78.596   0.802   -19.445     0.000    41.588     0.000    15.513   -22.128    23.150     3.921     0.000    15.513   -22.128    18.706     3.921     0.000
     22.702  4300.9   0.150  -1.484  35.002  2310.972  2402.648     2.544     0.000   161.462    10.297    28.241    73.426   0.750   -24.478     0.000    31.707     0.000    11.206   -21.677    17.253     4.018     0.000    11.206   -21.677    16.712     4.018     0.000
     20.449  4300.9   0.150  -1.485  35.002  2310.879  2402.720     2.543     0.000   161.670    10.297    28.241    73.507   0.751   -24.398     0.000    32.230     0.000    11.743   -21.652    18.002     4.000     0.000    11.743   -21.652    17.194     4.000     0.000
     18.200  4300.9   0.150  -1.485  35.002  2310.849  2402.718     2.543     0.000   161.718    10.297    28.241    73.520   0.751   -24.384     0.000    32.304     0.000    11.724   -21.646    17.973     4.003     0.000    11.724   -21.646    17.176     4.003     0.000
     15.953  4300.9   0.150  -1.485  35.002  2310.786  2402.721     2.543     0.000   161.834    10.297    28.241    73.552   0.751   -24.352     0.000    32.488     0.000    11.567   -21.641    17.746     4.008     0.000    11.567   -21.641    17.033     4.008     0.000
     13.709  4300.9   0.150  -1.485  35.002  2310.729  2402.728     2.543     0.000   161.938    10.297    28.241    73.583   0.752   -24.321     0.000    32.666     0.000    11.225   -21.643    17.271     4.030     0.000    11.225   -21.643    16.725     4.030     0.000
     11.467  4300.9   0.150  -1.485  35.002  2310.594  2402.706     2.543     0.000   162.117    10.297    28.241    73.636   0.752   -24.268     0.000    32.991     0.000    11.473   -21.637    17.618     4.015     0.000    11.473   -21.637    16.945     4.015     0.000
      9.231  4300.9   0.150  -1.485  35.002  2310.433  2402.707     2.542     0.000   162.361    10.297    28.241    73.713   0.753   -24.191     0.000    33.443     0.000    11.374   -21.635    17.484     4.022     0.000    11.374   -21.635    16.852     4.022     0.000
      7.003  4300.9   0.150  -1.485  35.002  2310.228  2402.695     2.542     0.000   162.671    10.297    28.241    73.805   0.754   -24.099     0.000    33.988     0.000    11.331   -21.642    17.453     4.043     0.000    11.331   -21.642    16.810     4.043     0.000
      4.782  4300.9   0.150  -1.485  35.002  2309.994  2402.681     2.541     0.000   163.021    10.297    28.241    73.910   0.755   -23.994     0.000    34.611     0.000    11.338   -21.629    17.446     4.028     0.000    11.338   -21.629    16.811     4.028     0.000
      2.572  4300.9   0.150  -1.485  35.002  2309.788  2402.666     2.541     0.000   163.335    10.297    28.241    74.002   0.756   -23.902     0.000    35.154     0.000    11.273   -21.628    17.363     4.036     0.000    11.273   -21.628    16.748     4.036     0.000
      0.368  4300.9   0.150  -1.485  35.002  2309.543  2402.642     2.540     0.000   163.675    10.297    28.241    74.107   0.757   -23.797     0.000    35.771     0.000    11.477   -21.620    17.651     4.023     0.000    11.477   -21.620    16.925     4.023     0.000
