% age_kyrBP     D_m  k0_mix     T_C   S_mil    CO2_uM    ALK_uM    PO2_uM    NO3_uM     O2_uM     Ca_uM    SO4_mM    CO3_mM     ohm   dCO3_uM     POC_%     cal_%    opal_%   fsedPOC      d13C   fsedcal      d13C  fsedopal   fdisPOC      d13C   fdiscal      d13C  fdisopal
     24.124  3774.7   0.150  -1.416  34.903  2309.181  2395.507     2.592     0.000   164.244    10.270    28.162    71.531   0.808   -17.040     0.000    62.037    33.180    11.651   -21.851    16.758     3.222     3.435    11.651   -21.851    15.603     3.222     0.000
     23.274  3774.7   0.150  -1.424  34.902  2308.863  2395.701     2.596     0.000   165.085    10.268    28.161    71.776   0.810   -16.803     0.000    62.148    34.218    11.727   -21.826    16.844     3.242     3.435    11.727   -21.826    15.564     3.242     0.000
     22.427  3774.7   0.150  -1.425  34.902  2308.803  2395.758     2.597     0.000   165.015    10.268    28.161    71.831   0.811   -16.748     0.000    62.418    34.009    12.499   -21.755    18.017     3.266     3.435    12.499   -21.755    16.181     3.266     0.000
     21.582  3774.7   0.150  -1.425  34.902  2308.851  2395.848     2.597     0.000   165.078    10.268    28.161    71.852   0.811   -16.727     0.000    62.533    33.906    18.608   -22.029    26.276     3.145     3.435    18.608   -22.029    21.467     3.145     0.000
     20.738  3774.7   0.150  -1.425  34.902  2308.853  2395.869     2.597     0.000   165.119    10.268    28.161    71.862   0.811   -16.716     0.000    62.553    33.887    11.634   -21.723    16.795     3.291     3.435    11.634   -21.723    15.455     3.291     0.000
     19.894  3774.7   0.150  -1.425  34.902  2308.832  2395.854     2.597     0.000   165.127    10.268    28.161    71.865   0.811   -16.715     0.000    62.578    33.865    17.973   -21.992    25.436     3.165     3.435    17.973   -21.992    20.902     3.165     0.000
     19.050  3774.7   0.150  -1.425  34.902  2308.807  2395.839     2.597     0.000   165.160    10.268    28.161    71.870   0.811   -16.710     0.000    62.601    33.845    21.983   -22.228    30.588     3.074     3.435    21.983   -22.228    24.444     3.074     0.000
     18.206  3774.7   0.150  -1.425  34.902  2308.802  2395.848     2.597     0.000   165.173    10.268    28.161    71.877   0.811   -16.702     0.000    62.603    33.843    15.870   -22.141    22.239     3.130     3.435    15.870   -22.141    19.045     3.130     0.000
     17.363  3774.7   0.150  -1.425  34.902  2308.758  2395.827     2.597     0.000   165.224    10.268    28.161    71.887   0.812   -16.692     0.000    62.651    33.799    21.771   -22.230    30.283     3.074     3.435    21.771   -22.230    24.250     3.074     0.000
     16.520  3774.7   0.150  -1.425  34.902  2308.735  2395.825     2.597     0.000   165.226    10.268    28.161    71.896   0.812   -16.683     0.000    62.672    33.780    19.217   -22.044    27.084     3.145     3.435    19.217   -22.044    21.989     3.145     0.000
     15.678  3774.7   0.150  -1.425  34.902  2308.716  2395.833     2.597     0.000   165.297    10.268    28.161    71.910   0.812   -16.670     0.000    62.693    33.761    13.478   -21.776    19.374     3.265     3.435    13.478   -21.776    16.964     3.265     0.000
     14.835  3774.7   0.150  -1.425  34.902  2308.664  2395.805     2.597     0.000   165.312    10.268    28.161    71.921   0.812   -16.659     0.000    62.742    33.717    21.509   -22.160    30.065     3.100     3.435    21.509   -22.160    24.006     3.100     0.000
     13.993  3774.7   0.150  -1.425  34.902  2308.640  2395.810     2.597     0.000   165.390    10.268    28.161    71.935   0.812   -16.644     0.000    62.765    33.696    16.531   -22.163    23.123     3.120     3.435    16.531   -22.163    19.605     3.120     0.000
     13.152  3774.7   0.150  -1.425  34.902  2308.605  2395.807     2.597     0.000   165.444    10.268    28.161    71.949   0.812   -16.630     0.000    62.799    33.665    12.512   -21.733    18.040     3.287     3.435    12.512   -21.733    16.146     3.287     0.000
     12.311  3774.7   0.150  -1.425  34.902  2308.546  2395.794     2.596     0.000   165.535    10.268    28.161    71.971   0.813   -16.608     0.000    62.844    33.624    11.986   -21.831    17.173     3.261     3.435    11.986   -21.831    15.703     3.261     0.000
     11.470  3774.7   0.150  -1.425  34.902  2308.467  2395.765     2.596     0.000   165.602    10.268    28.161    71.995   0.813   -16.585     0.000    62.918    33.558    14.072   -22.040    19.866     3.178     3.435    14.072   -22.040    17.429     3.178     0.000
     10.631  3774.7   0.150  -1.425  34.902  2308.393  2395.743     2.596     0.000   165.687    10.268    28.161    72.018   0.813   -16.562     0.000    63.001    33.483    17.334   -21.953    24.589     3.184     3.435    17.334   -21.953    20.281     3.184     0.000
      9.792  3774.7   0.150  -1.425  34.902  2308.314  2395.728     2.596     0.000   165.794    10.268    28.161    72.048   0.813   -16.532     0.000    63.077    33.414    15.319   -21.857    21.884     3.227     3.435    15.319   -21.857    18.496     3.227     0.000
      8.954  3774.7   0.150  -1.425  34.902  2308.221  2395.705     2.595     0.000   165.919    10.268    28.161    72.082   0.814   -16.498     0.000    63.173    33.326    18.502   -22.210    25.779     3.093     3.435    18.502   -22.210    21.288     3.093     0.000
      8.117  3774.7   0.150  -1.425  34.902  2308.130  2395.684     2.595     0.000   166.026    10.268    28.161    72.114   0.814   -16.466     0.000    63.258    33.249    17.870   -22.196    24.925     3.101     3.435    17.870   -22.196    20.718     3.101     0.000
      7.281  3774.7   0.150  -1.425  34.902  2308.028  2395.661     2.595     0.000   166.154    10.268    28.161    72.151   0.815   -16.429     0.000    63.350    33.166    15.903   -22.133    22.292     3.134     3.435    15.903   -22.133    18.972     3.134     0.000
      6.447  3774.7   0.150  -1.425  34.902  2307.908  2395.621     2.595     0.000   166.288    10.268    28.161    72.188   0.815   -16.393     0.000    63.466    33.061    21.196   -22.133    29.677     3.109     3.435    21.196   -22.133    23.628     3.109     0.000
      5.614  3774.7   0.150  -1.425  34.902  2307.810  2395.614     2.594     0.000   166.450    10.268    28.161    72.231   0.815   -16.349     0.000    63.557    32.980    12.154   -21.712    17.546     3.296     3.435    12.154   -21.712    15.741     3.296     0.000
      4.781  3774.7   0.150  -1.425  34.902  2307.697  2395.581     2.594     0.000   166.591    10.268    28.161    72.269   0.816   -16.312     0.000    63.667    32.879    15.916   -22.131    22.312     3.135     3.435    15.916   -22.131    18.939     3.135     0.000
      3.950  3774.7   0.150  -1.425  34.902  2307.577  2395.534     2.594     0.000   166.700    10.268    28.161    72.303   0.816   -16.279     0.000    63.783    32.775    22.053   -22.216    30.697     3.079     3.435    22.053   -22.216    24.345     3.079     0.000
      3.120  3774.7   0.150  -1.425  34.902  2307.497  2395.524     2.593     0.000   166.826    10.268    28.161    72.335   0.817   -16.246     0.000    63.862    32.703    19.275   -22.034    27.177     3.149     3.435    19.275   -22.034    21.875     3.149     0.000
      2.291  3774.7   0.150  -1.425  34.902  2307.398  2395.501     2.593     0.000   166.963    10.268    28.161    72.371   0.817   -16.210     0.000    63.969    32.606    19.155   -22.213    26.675     3.089     3.435    19.155   -22.213    21.756     3.089     0.000
      1.463  3774.7   0.150  -1.425  34.902  2307.287  2395.469     2.593     0.000   167.091    10.268    28.161    72.408   0.817   -16.174     0.000    64.070    32.515    21.852   -22.218    30.410     3.078     3.435    21.852   -22.218    24.128     3.078     0.000
      0.637  3774.7   0.150  -1.425  34.902  2307.187  2395.461     2.593     0.000   167.256    10.268    28.161    72.451   0.818   -16.130     0.000    64.147    32.445    11.645   -21.741    16.778     3.291     3.435    11.645   -21.741    15.237     3.291     0.000
