% age_kyrBP     D_m  k0_mix     T_C   S_mil    CO2_uM    ALK_uM    PO2_uM    NO3_uM     O2_uM     Ca_uM    SO4_mM    CO3_mM     ohm   dCO3_uM     POC_%     cal_%    opal_%   fsedPOC      d13C   fsedcal      d13C  fsedopal   fdisPOC      d13C   fdiscal      d13C  fdisopal
     24.430  3212.4   0.150  -1.808  35.048  2291.851  2382.867     2.460     0.000   183.314    10.296    28.278    74.399   0.933    -5.311     0.000     4.323    86.072    58.237   -29.969    40.177     1.007     7.102    58.237   -29.969    42.348     1.018     0.000
     23.852  3212.4   0.150  -1.791  35.048  2285.706  2379.812     2.426     0.000   186.654    10.296    28.279    75.839   0.951    -3.873     0.000     4.951    85.697    73.338   -29.102    55.437     1.305     7.102    73.338   -29.102    51.528     1.305     0.000
     23.274  3212.4   0.150  -1.790  35.048  2284.606  2379.219     2.422     0.000   187.269    10.296    28.279    76.077   0.954    -3.634     0.000     4.982    85.669    60.719   -29.104    45.747     1.328     7.102    60.719   -29.104    43.713     1.328     0.000
     22.696  3212.4   0.150  -1.790  35.048  2284.337  2379.145     2.420     0.000   187.328    10.296    28.279    76.168   0.956    -3.543     0.000     4.814    85.821    55.588   -29.493    40.077     1.216     7.102    55.588   -29.493    39.991     1.216     0.000
     22.117  3212.4   0.150  -1.790  35.048  2284.338  2379.180     2.421     0.000   187.413    10.296    28.279    76.186   0.956    -3.525     0.000     4.601    86.013    59.460   -29.979    40.548     1.039     7.102    59.460   -29.979    42.817     1.053     0.000
     21.539  3212.4   0.150  -1.790  35.048  2284.380  2379.229     2.421     0.000   187.409    10.296    28.279    76.191   0.956    -3.520     0.000     4.748    85.880    68.508   -30.129    45.962     0.973     7.102    68.508   -30.129    48.944     0.994     0.000
     20.961  3212.4   0.150  -1.790  35.048  2284.349  2379.214     2.421     0.000   187.446    10.296    28.279    76.198   0.956    -3.513     0.000     4.913    85.732    80.972   -29.933    55.591     1.044     7.102    80.972   -29.933    56.918     1.050     0.000
     20.384  3212.4   0.150  -1.790  35.048  2284.416  2379.275     2.421     0.000   187.405    10.296    28.279    76.198   0.956    -3.512     0.000     4.832    85.804    55.710   -29.382    40.577     1.268     7.102    55.710   -29.382    40.045     1.268     0.000
     19.805  3212.4   0.150  -1.790  35.048  2284.404  2379.266     2.421     0.000   187.417    10.296    28.279    76.197   0.956    -3.513     0.000     4.640    85.978    58.336   -29.896    40.085     1.082     7.102    58.336   -29.896    41.992     1.093     0.000
     19.227  3212.4   0.150  -1.790  35.048  2284.362  2379.232     2.421     0.000   187.446    10.296    28.279    76.203   0.956    -3.508     0.000     4.651    85.968    66.591   -30.125    44.624     0.984     7.102    66.591   -30.125    47.739     1.006     0.000
     18.649  3212.4   0.150  -1.790  35.048  2284.322  2379.212     2.421     0.000   187.479    10.296    28.279    76.210   0.956    -3.501     0.000     4.843    85.795    79.046   -29.967    54.001     1.037     7.102    79.046   -29.967    55.632     1.045     0.000
     18.072  3212.4   0.150  -1.790  35.048  2284.369  2379.265     2.421     0.000   187.471    10.296    28.279    76.214   0.956    -3.496     0.000     4.918    85.727    56.139   -29.297    41.248     1.299     7.102    56.139   -29.297    40.378     1.299     0.000
     17.493  3212.4   0.150  -1.790  35.048  2284.343  2379.260     2.421     0.000   187.514    10.296    28.279    76.226   0.956    -3.484     0.000     4.688    85.934    57.290   -29.817    39.702     1.116     7.102    57.290   -29.817    41.226     1.124     0.000
     16.915  3212.4   0.150  -1.790  35.048  2284.294  2379.230     2.421     0.000   187.554    10.296    28.279    76.235   0.956    -3.476     0.000     4.680    85.941    64.867   -30.115    43.493     0.992     7.102    64.867   -30.115    46.762     1.015     0.000
     16.337  3212.4   0.150  -1.790  35.048  2284.238  2379.206     2.421     0.000   187.612    10.296    28.279    76.247   0.957    -3.464     0.000     4.858    85.782    76.886   -30.005    52.282     1.025     7.102    76.886   -30.005    54.241     1.036     0.000
     15.760  3212.4   0.150  -1.790  35.048  2284.278  2379.247     2.421     0.000   187.602    10.296    28.279    76.252   0.957    -3.458     0.000     5.076    85.585    56.828   -29.223    42.093     1.323     7.102    56.828   -29.223    40.948     1.323     0.000
     15.181  3212.4   0.150  -1.790  35.048  2284.255  2379.251     2.421     0.000   187.644    10.296    28.279    76.262   0.957    -3.448     0.000     4.763    85.867    56.399   -29.734    39.452     1.149     7.102    56.399   -29.734    40.597     1.154     0.000
     14.603  3212.4   0.150  -1.790  35.048  2284.214  2379.227     2.421     0.000   187.686    10.296    28.279    76.271   0.957    -3.439     0.000     4.601    86.013    63.238   -30.094    42.489     1.002     7.102    63.238   -30.094    45.636     1.025     0.000
     14.026  3212.4   0.150  -1.790  35.048  2284.207  2379.238     2.421     0.000   187.714    10.296    28.279    76.279   0.957    -3.432     0.000     5.072    85.588    68.851   -29.023    52.137     1.373     7.102    68.851   -29.023    48.831     1.373     0.000
     13.448  3212.4   0.150  -1.790  35.048  2284.180  2379.236     2.420     0.000   187.763    10.296    28.279    76.295   0.957    -3.416     0.000     5.049    85.609    57.547   -29.157    42.932     1.343     7.102    57.547   -29.157    41.409     1.343     0.000
     12.869  3212.4   0.150  -1.790  35.048  2284.145  2379.236     2.420     0.000   187.811    10.296    28.279    76.308   0.957    -3.402     0.000     4.744    85.884    55.775   -29.648    39.395     1.181     7.102    55.775   -29.648    40.089     1.184     0.000
     12.291  3212.4   0.150  -1.790  35.048  2284.084  2379.212     2.420     0.000   187.887    10.296    28.279    76.327   0.958    -3.384     0.000     4.637    85.981    61.634   -30.062    41.556     1.017     7.102    61.634   -30.062    44.437     1.037     0.000
     11.714  3212.4   0.150  -1.790  35.048  2284.050  2379.218     2.420     0.000   187.954    10.296    28.279    76.348   0.958    -3.362     0.000     5.088    85.574    70.792   -29.036    53.548     1.367     7.102    70.792   -29.036    49.989     1.367     0.000
     11.136  3212.4   0.150  -1.790  35.048  2284.013  2379.223     2.420     0.000   188.012    10.296    28.279    76.369   0.958    -3.341     0.000     5.055    85.604    58.680   -29.110    43.999     1.356     7.102    58.680   -29.110    42.189     1.356     0.000
     10.558  3212.4   0.150  -1.790  35.048  2283.903  2379.172     2.419     0.000   188.120    10.296    28.279    76.395   0.958    -3.316     0.000     4.878    85.763    86.001   -29.623    61.131     1.162     7.102    86.001   -29.623    61.221     1.162     0.000
      9.980  3212.4   0.150  -1.790  35.048  2283.871  2379.186     2.419     0.000   188.189    10.296    28.279    76.420   0.959    -3.291     0.000     5.005    85.649    82.171   -29.278    60.672     1.281     7.102    82.171   -29.278    57.168     1.281     0.000
      9.402  3212.4   0.150  -1.790  35.048  2283.835  2379.194     2.419     0.000   188.260    10.296    28.279    76.439   0.959    -3.272     0.000     5.118    85.547    72.571   -29.056    54.793     1.359     7.102    72.571   -29.056    51.079     1.359     0.000
      8.824  3212.4   0.150  -1.790  35.048  2283.782  2379.199     2.419     0.000   188.362    10.296    28.279    76.470   0.959    -3.240     0.000     5.055    85.603    60.016   -29.077    45.166     1.364     7.102    60.016   -29.077    43.113     1.364     0.000
      8.246  3212.4   0.150  -1.790  35.048  2283.653  2379.134     2.419     0.000   188.480    10.296    28.279    76.498   0.960    -3.213     0.000     4.944    85.704    85.331   -29.681    60.257     1.141     7.102    85.331   -29.681    61.134     1.144     0.000
      7.668  3212.4   0.150  -1.790  35.048  2283.620  2379.163     2.419     0.000   188.577    10.296    28.279    76.531   0.960    -3.180     0.000     4.852    85.787    82.950   -29.339    60.857     1.260     7.102    82.950   -29.339    59.314     1.260     0.000
      7.090  3212.4   0.150  -1.790  35.048  2283.549  2379.150     2.418     0.000   188.671    10.296    28.279    76.559   0.960    -3.152     0.000     4.765    85.865    63.983   -30.119    42.879     0.990     7.102    63.983   -30.119    46.220     1.014     0.000
      6.512  3212.4   0.150  -1.790  35.048  2283.445  2379.123     2.418     0.000   188.804    10.296    28.279    76.594   0.961    -3.117     0.000     4.854    85.784    75.757   -30.012    51.479     1.022     7.102    75.757   -30.012    53.409     1.033     0.000
      5.934  3212.4   0.150  -1.790  35.048  2283.358  2379.103     2.418     0.000   188.926    10.296    28.279    76.627   0.961    -3.085     0.000     5.063    85.596    84.293   -29.740    59.122     1.120     7.102    84.293   -29.740    58.989     1.120     0.000
      5.356  3212.4   0.150  -1.790  35.048  2283.353  2379.157     2.418     0.000   188.997    10.296    28.279    76.657   0.962    -3.054     0.000     4.795    85.838    55.480   -29.745    38.763     1.144     7.102    55.480   -29.745    39.827     1.149     0.000
      4.778  3212.4   0.150  -1.790  35.048  2283.256  2379.120     2.417     0.000   189.118    10.296    28.279    76.687   0.962    -3.025     0.000     4.837    85.800    62.144   -30.101    41.729     0.999     7.102    62.144   -30.101    44.843     1.021     0.000
      4.201  3212.4   0.150  -1.790  35.048  2283.211  2379.139     2.417     0.000   189.209    10.296    28.279    76.716   0.962    -2.995     0.000     5.149    85.519    67.606   -29.046    51.070     1.365     7.102    67.606   -29.046    48.110     1.365     0.000
      3.623  3212.4   0.150  -1.790  35.048  2283.082  2379.079     2.417     0.000   189.332    10.296    28.279    76.750   0.963    -2.962     0.000     4.952    85.697    80.743   -29.891    55.644     1.065     7.102    80.743   -29.891    56.633     1.070     0.000
      3.046  3212.4   0.150  -1.790  35.048  2283.074  2379.115     2.417     0.000   189.405    10.296    28.279    76.774   0.963    -2.937     0.000     5.132    85.534    54.267   -29.486    39.044     1.237     7.102    54.267   -29.486    39.067     1.237     0.000
      2.468  3212.4   0.150  -1.790  35.048  2282.982  2379.086     2.417     0.000   189.511    10.296    28.279    76.805   0.964    -2.907     0.000     5.364    85.325    82.016   -29.350    60.101     1.256     7.102    82.016   -29.350    57.458     1.256     0.000
      1.890  3212.4   0.150  -1.790  35.048  2282.927  2379.092     2.416     0.000   189.598    10.296    28.279    76.834   0.964    -2.877     0.000     4.992    85.660    63.279   -30.123    42.394     0.988     7.102    63.279   -30.123    45.752     1.012     0.000
      1.313  3212.4   0.150  -1.790  35.048  2282.877  2379.105     2.416     0.000   189.700    10.296    28.279    76.866   0.964    -2.845     0.000     5.191    85.481    64.969   -29.050    49.049     1.366     7.102    64.969   -29.050    46.656     1.366     0.000
      0.735  3212.4   0.150  -1.790  35.048  2282.717  2379.036     2.416     0.000   189.877    10.296    28.279    76.907   0.965    -2.806     0.000     5.035    85.622    81.591   -29.849    56.511     1.080     7.102    81.591   -29.849    57.200     1.083     0.000
      0.158  3212.4   0.150  -1.790  35.048  2282.687  2379.075     2.416     0.000   189.976    10.296    28.279    76.944   0.965    -2.768     0.000     5.121    85.544    53.945   -29.579    38.409     1.204     7.102    53.945   -29.579    38.807     1.205     0.000
