% age_kyrBP     D_m  k0_mix     T_C   S_mil    CO2_uM    ALK_uM    PO2_uM    NO3_uM     O2_uM     Ca_uM    SO4_mM    CO3_mM     ohm   dCO3_uM     POC_%     cal_%    opal_%   fsedPOC      d13C   fsedcal      d13C  fsedopal   fdisPOC      d13C   fdiscal      d13C  fdisopal
     24.269  4502.6   0.150  -1.743  34.942  2318.298  2401.730     2.634     0.000   160.561    10.282    28.193    69.202   0.681   -32.411     0.000     0.493    92.507    55.665   -31.456    33.010     0.508     6.003    55.665   -31.456    49.278     0.492     0.000
     24.268  4502.6   0.150  -1.743  34.942  2318.470  2402.091     2.634     0.000   160.574    10.282    28.193    69.297   0.682   -32.314     0.000     4.270    89.003    59.298   -31.340    35.841     0.547     6.003    59.298   -31.340     0.000**********     0.000
     24.268  4502.6   0.150  -1.743  34.942  2318.367  2401.846     2.634     0.000   160.551    10.282    28.193    69.229   0.681   -32.383     0.000     3.254    89.975     8.762   -31.225     5.409     0.608     6.003     8.762   -31.225    14.112     0.570     0.000
     23.525  4502.6   0.150  -1.741  34.942  2315.585  2400.489     2.624     0.000   162.897    10.281    28.193    69.863   0.687   -31.762     0.000     0.000    99.032    51.767   -30.903    33.309     0.692     6.003    51.767   -30.903    40.630     0.588     0.000
     22.781  4502.6   0.150  -1.740  34.942  2315.349  2400.407     2.624     0.000   162.846    10.281    28.193    69.930   0.688   -31.695     0.000     0.025    99.246    10.366   -30.881     6.693     0.736     6.003    10.366   -30.881    12.232     0.644     0.000
     22.036  4502.6   0.150  -1.740  34.942  2315.359  2400.506     2.624     0.000   162.903    10.281    28.193    69.974   0.689   -31.652     0.000     0.000    99.279    27.986   -32.172    14.501     0.277     6.003    27.986   -32.172    15.355     0.272     0.000
     22.036  4502.6   0.150  -1.740  34.942  2315.444  2400.607     2.624     0.000   162.873    10.281    28.193    69.983   0.689   -31.641     0.000     3.221    96.081    38.995   -30.577    26.194     0.809     6.003    38.995   -30.577     0.000**********     0.000
     22.035  4502.6   0.150  -1.740  34.942  2315.294  2400.360     2.624     0.000   162.892    10.281    28.193    69.935   0.688   -31.691     0.000     1.297    97.991    35.567   -31.957    19.162     0.359     6.003    35.567   -31.957    34.983     0.562     0.000
     21.292  4502.6   0.150  -1.741  34.942  2315.425  2400.621     2.625     0.000   162.967    10.281    28.193    70.001   0.689   -31.623     0.000     0.218    99.063    61.728   -31.181    37.837     0.641     6.003    61.728   -31.181    37.723     0.641     0.000
     21.291  4502.6   0.150  -1.741  34.942  2315.417  2400.612     2.624     0.000   162.973    10.281    28.193    69.998   0.689   -31.626     0.000     4.652    94.661    62.362   -31.116    38.634     0.660     6.003    62.362   -31.116     0.000**********     0.000
     21.290  4502.6   0.150  -1.741  34.942  2315.258  2400.308     2.624     0.000   162.985    10.281    28.193    69.927   0.688   -31.699     0.000     1.676    97.616    61.768   -31.098    38.370     0.665     6.003    61.768   -31.098    54.663     0.664     0.000
     20.547  4502.6   0.150  -1.741  34.942  2315.393  2400.504     2.625     0.000   162.931    10.281    28.193    69.959   0.688   -31.666     0.000     0.086    99.194    28.018   -30.362    19.370     0.884     6.003    28.018   -30.362    26.605     0.873     0.000
     19.803  4502.6   0.150  -1.741  34.942  2315.415  2400.631     2.624     0.000   162.975    10.281    28.193    70.010   0.689   -31.614     0.000     0.000    99.279    62.277   -31.111    38.563     0.666     6.003    62.277   -31.111    41.204     0.634     0.000
     19.058  4502.6   0.150  -1.741  34.942  2315.323  2400.490     2.624     0.000   163.010    10.281    28.193    69.982   0.689   -31.643     0.000     0.258    99.023    48.083   -31.585    27.530     0.510     6.003    48.083   -31.585    42.685     0.647     0.000
     19.057  4502.6   0.150  -1.741  34.942  2315.375  2400.596     2.624     0.000   163.012    10.281    28.193    70.012   0.689   -31.612     0.000     3.794    95.512    53.038   -31.434    31.129     0.566     6.003    53.038   -31.434     0.000**********     0.000
     19.057  4502.6   0.150  -1.741  34.942  2315.311  2400.412     2.625     0.000   162.983    10.281    28.193    69.953   0.688   -31.673     0.000     2.742    96.557    14.236   -30.488     9.688     0.862     6.003    14.236   -30.488    18.465     0.721     0.000
     18.314  4502.6   0.150  -1.741  34.942  2315.299  2400.548     2.624     0.000   163.092    10.281    28.193    70.024   0.689   -31.601     0.000     0.000    99.279    60.137   -31.071    37.452     0.679     6.003    60.137   -31.071    43.073     0.678     0.000
     17.569  4502.6   0.150  -1.741  34.942  2315.121  2400.254     2.624     0.000   163.137    10.281    28.193    69.962   0.688   -31.665     0.000     0.498    98.785    54.639   -31.374    32.373     0.588     6.003    54.639   -31.374    48.363     0.571     0.000
     17.568  4502.6   0.150  -1.741  34.942  2315.301  2400.616     2.624     0.000   163.140    10.281    28.193    70.055   0.689   -31.570     0.000     4.258    95.052    58.323   -31.269    35.165     0.623     6.003    58.323   -31.269     0.000**********     0.000
     17.568  4502.6   0.150  -1.741  34.942  2315.205  2400.380     2.624     0.000   163.113    10.281    28.193    69.987   0.689   -31.639     0.000     3.262    96.040     8.680   -31.154     5.346     0.682     6.003     8.680   -31.154    13.730     0.646     0.000
     16.825  4502.6   0.150  -1.741  34.942  2315.182  2400.478     2.624     0.000   163.202    10.281    28.193    70.044   0.689   -31.580     0.000     0.000    99.279    50.787   -30.870    32.601     0.737     6.003    50.787   -30.870    39.774     0.634     0.000
     16.081  4502.6   0.150  -1.741  34.942  2315.021  2400.246     2.623     0.000   163.268    10.281    28.193    70.007   0.689   -31.620     0.000     0.651    98.632    55.879   -31.334    33.329     0.602     6.003    55.879   -31.334    49.624     0.589     0.000
     16.080  4502.6   0.150  -1.741  34.942  2315.181  2400.570     2.623     0.000   163.273    10.281    28.193    70.088   0.690   -31.537     0.000     4.323    94.987    58.839   -31.224    35.729     0.638     6.003    58.839   -31.224     0.000**********     0.000
     16.079  4502.6   0.150  -1.741  34.942  2315.079  2400.328     2.623     0.000   163.248    10.281    28.193    70.020   0.689   -31.606     0.000     3.335    95.968     7.267   -31.546     4.191     0.563     6.003     7.267   -31.546    12.520     0.613     0.000
     15.337  4502.6   0.150  -1.741  34.942  2315.077  2400.419     2.623     0.000   163.320    10.281    28.193    70.063   0.689   -31.562     0.000     0.070    99.210    45.704   -30.766    29.780     0.768     6.003    45.704   -30.766    38.642     0.640     0.000
     14.592  4502.6   0.150  -1.741  34.942  2314.844  2400.095     2.623     0.000   163.426    10.281    28.193    70.013   0.689   -31.614     0.000     1.143    98.144    59.264   -31.203    36.118     0.642     6.003    59.264   -31.203    52.621     0.635     0.000
     13.848  4502.6   0.150  -1.741  34.942  2314.885  2400.307     2.622     0.000   163.480    10.281    28.193    70.098   0.690   -31.529     0.000     0.000    99.279    30.348   -32.060    15.985     0.334     6.003    30.348   -32.060    18.276     0.323     0.000
     13.848  4502.6   0.150  -1.741  34.942  2314.979  2400.427     2.623     0.000   163.450    10.281    28.193    70.111   0.690   -31.514     0.000     2.795    96.505    33.506   -30.530    22.588     0.838     6.003    33.506   -30.530     0.000**********     0.000
     13.847  4502.6   0.150  -1.741  34.942  2314.843  2400.206     2.622     0.000   163.469    10.281    28.193    70.071   0.689   -31.557     0.000     0.898    98.387    37.198   -31.867    20.284     0.407     6.003    37.198   -31.867    35.730     0.593     0.000
     13.103  4502.6   0.150  -1.741  34.942  2314.803  2400.252     2.622     0.000   163.593    10.281    28.193    70.109   0.690   -31.517     0.000     0.407    98.875     5.428   -32.573     2.565     0.168     6.003     5.428   -32.573     8.858     0.495     0.000
     12.360  4502.6   0.150  -1.741  34.942  2314.674  2400.154     2.622     0.000   163.731    10.281    28.193    70.123   0.690   -31.503     0.000     0.000    99.279    29.451   -30.517    19.892     0.841     6.003    29.451   -30.517    27.810     0.830     0.000
     12.359  4502.6   0.150  -1.741  34.942  2314.703  2400.269     2.622     0.000   163.754    10.281    28.193    70.165   0.690   -31.462     0.000     2.692    96.607    39.324   -31.793    21.712     0.435     6.003    39.324   -31.793     0.000**********     0.000
     12.359  4502.6   0.150  -1.741  34.942  2314.693  2400.185     2.622     0.000   163.727    10.281    28.193    70.130   0.690   -31.496     0.000     1.564    97.727    23.273   -30.439    15.905     0.865     6.003    23.273   -30.439    25.104     0.708     0.000
     11.615  4502.6   0.150  -1.741  34.942  2314.531  2400.181     2.621     0.000   163.957    10.281    28.193    70.202   0.691   -31.425     0.000     0.000    99.279    56.436   -31.172    34.573     0.647     6.003    56.436   -31.172    37.127     0.609     0.000
     10.870  4502.6   0.150  -1.741  34.942  2314.338  2399.980     2.620     0.000   164.053    10.280    28.193    70.195   0.691   -31.433     0.000     0.000    99.279    45.624   -31.577    26.121     0.516     6.003    45.624   -31.577    39.850     0.496     0.000
     10.126  4502.6   0.150  -1.741  34.942  2314.183  2399.981     2.619     0.000   164.292    10.281    28.193    70.267   0.691   -31.361     0.000     0.000    99.279    51.995   -31.143    32.001     0.653     6.003    51.995   -31.143    35.341     0.602     0.000
      9.380  4502.6   0.150  -1.741  34.942  2313.953  2399.741     2.619     0.000   164.436    10.280    28.193    70.260   0.691   -31.370     0.000     0.691    98.593    52.157   -31.334    31.109     0.598     6.003    52.157   -31.334    46.584     0.587     0.000
      8.636  4502.6   0.150  -1.741  34.942  2313.864  2399.823     2.618     0.000   164.628    10.280    28.193    70.340   0.692   -31.289     0.000     0.296    98.985    33.008   -30.751    21.546     0.768     6.003    33.008   -30.751    31.280     0.616     0.000
      7.891  4502.6   0.150  -1.741  34.942  2313.660  2399.726     2.617     0.000   164.871    10.280    28.193    70.390   0.693   -31.240     0.000     0.373    98.909     5.621   -32.114     2.922     0.355     6.003     5.621   -32.114     0.000**********     0.000
      7.146  4502.6   0.150  -1.741  34.942  2313.414  2399.580     2.616     0.000   165.084    10.280    28.193    70.431   0.693   -31.200     0.000     0.150    99.130    36.168   -31.801    19.920     0.432     6.003    36.168   -31.801    33.871     0.582     0.000
      6.402  4502.6   0.150  -1.741  34.942  2313.157  2399.446     2.615     0.000   165.377    10.280    28.193    70.486   0.694   -31.144     0.000     0.000    99.279    47.196   -31.288    28.376     0.605     6.003    47.196   -31.288    30.790     0.565     0.000
      5.657  4502.6   0.150  -1.741  34.942  2312.907  2399.308     2.614     0.000   165.640    10.280    28.193    70.538   0.694   -31.095     0.000     0.000    99.279    39.990   -31.635    22.654     0.493     6.003    39.990   -31.635    34.289     0.478     0.000
      4.912  4502.6   0.150  -1.741  34.942  2312.783  2399.336     2.613     0.000   165.845    10.280    28.193    70.610   0.695   -31.021     0.000     0.000    99.279    34.804   -31.066    21.654     0.668     6.003    34.804   -31.066    28.696     0.550     0.000
      4.167  4502.6   0.150  -1.741  34.942  2312.519  2399.178     2.612     0.000   166.113    10.280    28.193    70.655   0.695   -30.978     0.000     0.000    99.279    43.597   -31.429    25.592     0.560     6.003    43.597   -31.429    29.566     0.562     0.000
      3.421  4502.6   0.150  -1.741  34.942  2312.320  2399.079     2.612     0.000   166.306    10.280    28.193    70.699   0.696   -30.935     0.000     0.000    99.279    30.898   -31.874    16.784     0.406     6.003    30.898   -31.874    29.680     0.553     0.000
      2.676  4502.6   0.150  -1.741  34.942  2312.106  2398.984     2.611     0.000   166.573    10.280    28.193    70.752   0.696   -30.881     0.000     0.000    99.279    39.258   -31.346    23.367     0.582     6.003    39.258   -31.346    26.089     0.532     0.000
      1.931  4502.6   0.150  -1.741  34.942  2311.996  2399.002     2.610     0.000   166.732    10.280    28.193    70.815   0.697   -30.818     0.000     0.568    98.715     7.378   -31.277     4.463     0.616     6.003     7.378   -31.277     0.000**********     0.000
      1.185  4502.6   0.150  -1.741  34.942  2311.682  2398.806     2.609     0.000   167.026    10.280    28.193    70.868   0.697   -30.768     0.000     0.000    99.279    21.733   -32.141    11.250     0.304     6.003    21.733   -32.141    11.382     0.303     0.000
      0.440  4502.6   0.150  -1.741  34.942  2311.434  2398.732     2.607     0.000   167.358    10.280    28.193    70.945   0.698   -30.690     0.000     0.000    99.279    35.788   -31.455    20.915     0.545     6.003    35.788   -31.455    23.015     0.504     0.000
