% age_kyrBP     D_m  k0_mix     T_C   S_mil    CO2_uM    ALK_uM    PO2_uM    NO3_uM     O2_uM     Ca_uM    SO4_mM    CO3_mM     ohm   dCO3_uM     POC_%     cal_%    opal_%   fsedPOC      d13C   fsedcal      d13C  fsedopal   fdisPOC      d13C   fdiscal      d13C  fdisopal
     24.224  3667.2   0.150  -1.415  34.903  2310.094  2396.039     2.595     0.000   162.828    10.271    28.162    71.527   0.824   -15.241     0.000    63.749    32.410    12.220   -22.091    17.259     3.210     3.914    12.220   -22.091    15.411     3.210     0.000
     23.477  3667.2   0.150  -1.425  34.901  2309.926  2396.371     2.601     0.000   164.011    10.269    28.160    71.768   0.827   -15.010     0.000    63.470    33.824    21.660   -22.535    29.466     3.014     3.914    21.660   -22.535    23.523     3.014     0.000
     22.731  3667.2   0.150  -1.426  34.901  2309.816  2396.407     2.602     0.000   163.973    10.268    28.160    71.837   0.828   -14.943     0.000    63.702    33.647    16.637   -22.424    22.819     3.087     3.914    16.637   -22.424    19.079     3.087     0.000
     21.988  3667.2   0.150  -1.426  34.901  2309.872  2396.514     2.603     0.000   164.000    10.269    28.160    71.863   0.828   -14.916     0.000    63.792    33.565    12.315   -21.974    17.437     3.274     3.914    12.315   -21.974    15.348     3.274     0.000
     21.244  3667.2   0.150  -1.426  34.901  2309.892  2396.560     2.603     0.000   164.049    10.269    28.160    71.877   0.828   -14.902     0.000    63.853    33.509    15.985   -22.379    21.979     3.116     3.914    15.985   -22.379    18.493     3.116     0.000
     20.502  3667.2   0.150  -1.426  34.901  2309.895  2396.568     2.603     0.000   164.040    10.269    28.160    71.878   0.828   -14.901     0.000    63.863    33.499    13.350   -21.992    18.867     3.267     3.914    13.350   -21.992    16.202     3.267     0.000
     19.759  3667.2   0.150  -1.426  34.901  2309.864  2396.540     2.603     0.000   164.044    10.269    28.160    71.879   0.828   -14.900     0.000    63.887    33.477    22.046   -22.383    30.254     3.089     3.914    22.046   -22.383    23.826     3.089     0.000
     19.016  3667.2   0.150  -1.426  34.901  2309.853  2396.542     2.603     0.000   164.075    10.269    28.160    71.886   0.828   -14.893     0.000    63.894    33.470    20.001   -22.487    27.244     3.059     3.914    20.001   -22.487    22.020     3.059     0.000
     18.274  3667.2   0.150  -1.426  34.901  2309.819  2396.525     2.603     0.000   164.115    10.269    28.160    71.894   0.828   -14.886     0.000    63.916    33.449    23.437   -22.475    31.948     3.056     3.914    23.437   -22.475    25.051     3.056     0.000
     17.531  3667.2   0.150  -1.426  34.901  2309.816  2396.540     2.603     0.000   164.135    10.269    28.160    71.902   0.829   -14.877     0.000    63.921    33.445    16.649   -22.400    22.840     3.111     3.914    16.649   -22.400    19.066     3.111     0.000
     16.790  3667.2   0.150  -1.426  34.901  2309.796  2396.540     2.603     0.000   164.170    10.269    28.160    71.911   0.829   -14.868     0.000    63.943    33.425    13.856   -22.005    19.555     3.263     3.914    13.856   -22.005    16.615     3.263     0.000
     16.048  3667.2   0.150  -1.426  34.901  2309.768  2396.536     2.603     0.000   164.217    10.269    28.160    71.923   0.829   -14.856     0.000    63.960    33.409    12.894   -22.117    18.061     3.235     3.914    12.894   -22.117    15.805     3.235     0.000
     15.306  3667.2   0.150  -1.426  34.901  2309.736  2396.523     2.602     0.000   164.244    10.269    28.160    71.932   0.829   -14.847     0.000    63.999    33.373    16.655   -22.398    22.848     3.112     3.914    16.655   -22.398    19.060     3.112     0.000
     14.565  3667.2   0.150  -1.426  34.901  2309.715  2396.524     2.602     0.000   164.282    10.269    28.160    71.942   0.829   -14.837     0.000    64.017    33.356    13.859   -22.003    19.559     3.264     3.914    13.859   -22.003    16.606     3.264     0.000
     13.824  3667.2   0.150  -1.426  34.901  2309.645  2396.480     2.602     0.000   164.317    10.268    28.160    71.954   0.829   -14.826     0.000    64.066    33.311    23.448   -22.472    31.965     3.058     3.914    23.448   -22.472    25.038     3.058     0.000
     13.083  3667.2   0.150  -1.426  34.901  2309.631  2396.499     2.602     0.000   164.387    10.269    28.160    71.970   0.829   -14.809     0.000    64.077    33.300    14.228   -22.254    19.732     3.179     3.914    14.228   -22.254    16.910     3.179     0.000
     12.343  3667.2   0.150  -1.426  34.901  2309.567  2396.474     2.602     0.000   164.460    10.269    28.160    71.987   0.830   -14.793     0.000    64.131    33.251    17.766   -22.175    24.749     3.181     3.914    17.766   -22.175    20.015     3.181     0.000
     11.603  3667.2   0.150  -1.426  34.901  2309.497  2396.450     2.602     0.000   164.546    10.268    28.160    72.010   0.830   -14.770     0.000    64.190    33.196    20.631   -22.488    28.089     3.058     3.914    20.631   -22.488    22.528     3.058     0.000
     10.864  3667.2   0.150  -1.426  34.901  2309.456  2396.455     2.602     0.000   164.588    10.269    28.160    72.030   0.830   -14.749     0.000    64.224    33.164    12.934   -21.965    18.304     3.283     3.914    12.934   -21.965    15.797     3.283     0.000
     10.125  3667.2   0.150  -1.426  34.901  2309.346  2396.401     2.601     0.000   164.706    10.268    28.160    72.057   0.830   -14.723     0.000    64.310    33.084    23.242   -22.484    31.651     3.052     3.914    23.242   -22.484    24.817     3.052     0.000
      9.387  3667.2   0.150  -1.426  34.901  2309.270  2396.384     2.601     0.000   164.798    10.268    28.160    72.085   0.831   -14.696     0.000    64.375    33.024    23.417   -22.477    31.906     3.055     3.914    23.417   -22.477    24.961     3.055     0.000
      8.650  3667.2   0.150  -1.426  34.901  2309.222  2396.399     2.601     0.000   164.892    10.269    28.160    72.114   0.831   -14.666     0.000    64.416    32.987    12.211   -21.961    17.284     3.289     3.914    12.211   -21.961    15.166     3.289     0.000
      7.913  3667.2   0.150  -1.426  34.901  2309.103  2396.348     2.601     0.000   165.030    10.268    28.160    72.146   0.831   -14.634     0.000    64.515    32.894    22.987   -22.485    31.295     3.052     3.914    22.987   -22.485    24.557     3.052     0.000
      7.177  3667.2   0.150  -1.426  34.901  2309.016  2396.327     2.600     0.000   165.118    10.268    28.160    72.177   0.832   -14.603     0.000    64.591    32.824    21.753   -22.489    29.608     3.053     3.914    21.753   -22.489    23.455     3.053     0.000
      6.442  3667.2   0.150  -1.426  34.901  2308.934  2396.319     2.600     0.000   165.244    10.268    28.160    72.211   0.832   -14.569     0.000    64.659    32.761    16.388   -22.106    22.945     3.212     3.914    16.388   -22.106    18.720     3.212     0.000
      5.708  3667.2   0.150  -1.426  34.901  2308.812  2396.278     2.600     0.000   165.396    10.268    28.160    72.249   0.833   -14.532     0.000    64.755    32.672    21.085   -22.319    29.054     3.116     3.914    21.085   -22.319    22.838     3.116     0.000
      4.975  3667.2   0.150  -1.426  34.901  2308.745  2396.282     2.600     0.000   165.504    10.268    28.160    72.282   0.833   -14.498     0.000    64.813    32.618    12.228   -21.957    17.312     3.290     3.914    12.228   -21.957    15.115     3.290     0.000
      4.242  3667.2   0.150  -1.426  34.901  2308.633  2396.241     2.599     0.000   165.637    10.268    28.160    72.315   0.833   -14.465     0.000    64.904    32.534    16.402   -22.103    22.967     3.212     3.914    16.402   -22.103    18.692     3.212     0.000
      3.511  3667.2   0.150  -1.426  34.901  2308.557  2396.231     2.599     0.000   165.739    10.268    28.160    72.347   0.834   -14.434     0.000    64.962    32.480    12.620   -22.059    17.743     3.256     3.914    12.620   -22.059    15.414     3.256     0.000
      2.779  3667.2   0.150  -1.426  34.901  2308.448  2396.189     2.599     0.000   165.857    10.268    28.160    72.378   0.834   -14.403     0.000    65.053    32.396    19.439   -22.464    26.514     3.072     3.914    19.439   -22.464    21.338     3.072     0.000
      2.049  3667.2   0.150  -1.426  34.901  2308.347  2396.155     2.598     0.000   165.995    10.268    28.160    72.410   0.834   -14.372     0.000    65.132    32.323    23.535   -22.461    32.097     3.061     3.914    23.535   -22.461    24.942     3.061     0.000
      1.320  3667.2   0.150  -1.426  34.901  2308.259  2396.139     2.598     0.000   166.081    10.268    28.160    72.442   0.835   -14.339     0.000    65.201    32.259    20.525   -22.287    28.345     3.130     3.914    20.525   -22.287    22.270     3.130     0.000
      0.591  3667.2   0.150  -1.426  34.901  2308.148  2396.112     2.598     0.000   166.257    10.268    28.160    72.483   0.835   -14.298     0.000    65.288    32.178    20.101   -22.471    27.396     3.066     3.914    20.101   -22.471    21.881     3.066     0.000
