% age_kyrBP     D_m  k0_mix     T_C   S_mil    CO2_uM    ALK_uM    PO2_uM    NO3_uM     O2_uM     Ca_uM    SO4_mM    CO3_mM     ohm   dCO3_uM     POC_%     cal_%    opal_%   fsedPOC      d13C   fsedcal      d13C  fsedopal   fdisPOC      d13C   fdiscal      d13C  fdisopal
     24.355  4074.3   0.150  -1.408  35.016  2293.974  2387.662     2.441     0.000   167.166    10.288    28.253    74.451   0.793   -19.489     0.000    43.209    48.844    18.648   -22.956    24.514     3.322     5.367    18.648   -22.956    21.879     3.322     0.000
     23.741  4074.3   0.150  -1.370  35.019  2287.073  2384.656     2.397     0.000   171.231    10.291    28.255    76.285   0.812   -17.639     0.000    49.286    44.139    20.452   -22.983    26.695     3.311     5.367    20.452   -22.983    22.947     3.311     0.000
     23.143  4074.3   0.150  -1.367  35.020  2285.939  2384.086     2.392     0.000   171.854    10.292    28.256    76.549   0.815   -17.371     0.000    50.145    43.398    18.171   -22.882    23.892     3.372     5.367    18.171   -22.882    20.869     3.372     0.000
     22.549  4074.3   0.150  -1.367  35.020  2285.684  2384.022     2.391     0.000   171.975    10.292    28.256    76.640   0.816   -17.279     0.000    50.427    43.152    15.053   -22.623    20.247     3.521     5.367    15.053   -22.623    18.118     3.521     0.000
     21.955  4074.3   0.150  -1.368  35.020  2285.737  2384.092     2.391     0.000   172.028    10.292    28.256    76.648   0.816   -17.271     0.000    50.515    43.076    20.181   -22.804    26.745     3.435     5.367    20.181   -22.804    22.608     3.435     0.000
     21.361  4074.3   0.150  -1.368  35.020  2285.761  2384.123     2.392     0.000   172.039    10.292    28.256    76.652   0.816   -17.266     0.000    50.560    43.037    24.249   -22.992    31.558     3.325     5.367    24.249   -22.992    26.196     3.325     0.000
     20.768  4074.3   0.150  -1.368  35.020  2285.767  2384.138     2.392     0.000   172.045    10.292    28.256    76.656   0.816   -17.262     0.000    50.561    43.036    20.788   -22.821    27.491     3.429     5.367    20.788   -22.821    23.141     3.429     0.000
     20.174  4074.3   0.150  -1.368  35.020  2285.748  2384.120     2.392     0.000   172.053    10.292    28.256    76.658   0.816   -17.261     0.000    50.578    43.022    24.097   -22.989    31.350     3.328     5.367    24.097   -22.989    26.061     3.328     0.000
     19.581  4074.3   0.150  -1.368  35.020  2285.759  2384.134     2.392     0.000   172.055    10.292    28.256    76.658   0.816   -17.261     0.000    50.572    43.027    21.387   -22.842    28.220     3.420     5.367    21.387   -22.842    23.668     3.420     0.000
     18.987  4074.3   0.150  -1.368  35.020  2285.734  2384.119     2.392     0.000   172.081    10.292    28.256    76.664   0.816   -17.255     0.000    50.598    43.004    23.885   -22.987    31.067     3.329     5.367    23.885   -22.987    25.872     3.329     0.000
     18.394  4074.3   0.150  -1.368  35.020  2285.734  2384.131     2.392     0.000   172.086    10.292    28.256    76.669   0.816   -17.250     0.000    50.614    42.990    21.973   -22.864    28.932     3.409     5.367    21.973   -22.864    24.182     3.409     0.000
     17.801  4074.3   0.150  -1.368  35.020  2285.731  2384.146     2.392     0.000   172.109    10.292    28.256    76.679   0.816   -17.239     0.000    50.617    42.988    16.035   -22.620    21.555     3.538     5.367    16.035   -22.620    18.944     3.538     0.000
     17.207  4074.3   0.150  -1.368  35.020  2285.702  2384.138     2.392     0.000   172.149    10.292    28.256    76.691   0.817   -17.227     0.000    50.646    42.963    16.573   -22.753    21.977     3.454     5.367    16.573   -22.753    19.414     3.454     0.000
     16.615  4074.3   0.150  -1.368  35.020  2285.691  2384.139     2.392     0.000   172.167    10.292    28.256    76.695   0.817   -17.223     0.000    50.686    42.927    17.364   -22.669    23.250     3.514     5.367    17.364   -22.669    20.124     3.514     0.000
     16.022  4074.3   0.150  -1.368  35.020  2285.649  2384.117     2.391     0.000   172.217    10.292    28.256    76.704   0.817   -17.215     0.000    50.743    42.878    24.265   -22.962    31.651     3.351     5.367    24.265   -22.962    26.198     3.351     0.000
     15.429  4074.3   0.150  -1.368  35.020  2285.639  2384.126     2.391     0.000   172.243    10.292    28.256    76.715   0.817   -17.203     0.000    50.759    42.864    19.951   -22.914    26.089     3.366     5.367    19.951   -22.914    22.389     3.366     0.000
     14.837  4074.3   0.150  -1.368  35.020  2285.614  2384.110     2.391     0.000   172.259    10.292    28.256    76.718   0.817   -17.201     0.000    50.801    42.827    23.917   -22.981    31.113     3.332     5.367    23.917   -22.981    25.887     3.332     0.000
     14.245  4074.3   0.150  -1.368  35.020  2285.601  2384.118     2.391     0.000   172.292    10.292    28.256    76.727   0.817   -17.192     0.000    50.829    42.803    23.042   -22.904    30.226     3.386     5.367    23.042   -22.904    25.111     3.386     0.000
     13.653  4074.3   0.150  -1.368  35.020  2285.591  2384.131     2.391     0.000   172.327    10.292    28.256    76.739   0.817   -17.179     0.000    50.849    42.785    17.905   -22.686    23.935     3.504     5.367    17.905   -22.686    20.586     3.504     0.000
     13.061  4074.3   0.150  -1.368  35.020  2285.568  2384.134     2.391     0.000   172.375    10.292    28.256    76.754   0.817   -17.164     0.000    50.876    42.762    15.045   -22.600    20.229     3.539     5.367    15.045   -22.600    18.080     3.539     0.000
     12.469  4074.3   0.150  -1.368  35.020  2285.522  2384.116     2.391     0.000   172.427    10.292    28.256    76.765   0.817   -17.154     0.000    50.962    42.687    22.029   -22.857    29.015     3.411     5.367    22.029   -22.857    24.207     3.411     0.000
     11.878  4074.3   0.150  -1.368  35.020  2285.499  2384.125     2.391     0.000   172.471    10.292    28.256    76.781   0.818   -17.137     0.000    51.009    42.646    17.925   -22.684    23.966     3.504     5.367    17.925   -22.684    20.593     3.504     0.000
     11.287  4074.3   0.150  -1.368  35.020  2285.456  2384.124     2.391     0.000   172.542    10.292    28.256    76.803   0.818   -17.115     0.000    51.066    42.596    15.255   -22.590    20.540     3.547     5.367    15.255   -22.590    18.244     3.547     0.000
     10.696  4074.3   0.150  -1.368  35.020  2285.392  2384.098     2.391     0.000   172.617    10.292    28.256    76.820   0.818   -17.099     0.000    51.170    42.506    23.889   -22.933    31.246     3.367     5.367    23.889   -22.933    25.836     3.367     0.000
     10.106  4074.3   0.150  -1.368  35.020  2285.352  2384.104     2.391     0.000   172.692    10.292    28.256    76.842   0.818   -17.077     0.000    51.246    42.439    21.493   -22.828    28.378     3.425     5.367    21.493   -22.828    23.715     3.425     0.000
      9.516  4074.3   0.150  -1.368  35.020  2285.313  2384.112     2.390     0.000   172.761    10.292    28.256    76.865   0.818   -17.053     0.000    51.316    42.379    18.517   -22.702    24.717     3.493     5.367    18.517   -22.702    21.090     3.493     0.000
      8.927  4074.3   0.150  -1.368  35.020  2285.263  2384.108     2.390     0.000   172.842    10.292    28.256    76.889   0.819   -17.030     0.000    51.394    42.311    16.965   -22.638    22.766     3.526     5.367    16.965   -22.638    19.718     3.526     0.000
      8.338  4074.3   0.150  -1.368  35.020  2285.214  2384.109     2.390     0.000   172.913    10.292    28.256    76.913   0.819   -17.005     0.000    51.475    42.240    15.795   -22.594    21.265     3.546     5.367    15.795   -22.594    18.674     3.546     0.000
      7.749  4074.3   0.150  -1.368  35.020  2285.124  2384.072     2.390     0.000   173.022    10.292    28.256    76.938   0.819   -16.981     0.000    51.600    42.131    24.276   -22.969    31.611     3.336     5.367    24.276   -22.969    26.149     3.336     0.000
      7.161  4074.3   0.150  -1.368  35.020  2285.069  2384.068     2.390     0.000   173.105    10.292    28.256    76.963   0.819   -16.956     0.000    51.696    42.048    24.443   -22.966    31.843     3.339     5.367    24.443   -22.966    26.290     3.339     0.000
      6.574  4074.3   0.150  -1.368  35.020  2285.028  2384.091     2.390     0.000   173.199    10.292    28.256    76.996   0.820   -16.922     0.000    51.765    41.988    15.195   -22.580    20.466     3.547     5.367    15.195   -22.580    18.141     3.547     0.000
      5.987  4074.3   0.150  -1.368  35.020  2284.961  2384.088     2.389     0.000   173.307    10.292    28.256    77.027   0.820   -16.892     0.000    51.875    41.893    15.346   -22.577    20.679     3.550     5.367    15.346   -22.577    18.260     3.550     0.000
      5.400  4074.3   0.150  -1.368  35.020  2284.874  2384.055     2.389     0.000   173.404    10.292    28.256    77.051   0.820   -16.868     0.000    52.010    41.775    23.854   -22.964    31.059     3.334     5.367    23.854   -22.964    25.747     3.334     0.000
      4.814  4074.3   0.150  -1.368  35.020  2284.819  2384.056     2.389     0.000   173.499    10.292    28.256    77.080   0.821   -16.839     0.000    52.105    41.692    22.737   -22.952    29.623     3.338     5.367    22.737   -22.952    24.752     3.338     0.000
      4.229  4074.3   0.150  -1.368  35.020  2284.778  2384.070     2.389     0.000   173.582    10.292    28.256    77.106   0.821   -16.813     0.000    52.189    41.619    19.211   -22.712    25.612     3.483     5.367    19.211   -22.712    21.638     3.483     0.000
      3.644  4074.3   0.150  -1.368  35.020  2284.716  2384.058     2.389     0.000   173.655    10.292    28.256    77.129   0.821   -16.790     0.000    52.287    41.534    22.234   -22.838    29.320     3.414     5.367    22.234   -22.838    24.296     3.414     0.000
      3.060  4074.3   0.150  -1.368  35.020  2284.666  2384.062     2.389     0.000   173.749    10.292    28.256    77.159   0.822   -16.760     0.000    52.344    41.484    15.376   -22.607    20.640     3.524     5.367    15.376   -22.607    18.249     3.524     0.000
      2.476  4074.3   0.150  -1.368  35.020  2284.616  2384.063     2.389     0.000   173.837    10.292    28.256    77.182   0.822   -16.736     0.000    52.439    41.401    16.247   -22.590    21.877     3.544     5.367    16.247   -22.590    18.994     3.544     0.000
      1.892  4074.3   0.150  -1.368  35.020  2284.556  2384.050     2.388     0.000   173.912    10.292    28.256    77.204   0.822   -16.715     0.000    52.543    41.311    19.861   -22.732    26.431     3.470     5.367    19.861   -22.732    22.185     3.470     0.000
      1.309  4074.3   0.150  -1.368  35.020  2284.474  2384.026     2.388     0.000   174.019    10.292    28.256    77.232   0.822   -16.688     0.000    52.655    41.213    24.421   -22.926    31.941     3.363     5.367    24.421   -22.926    26.204     3.363     0.000
      0.726  4074.3   0.150  -1.368  35.020  2284.399  2384.020     2.388     0.000   174.130    10.292    28.256    77.267   0.823   -16.653     0.000    52.769    41.114    23.279   -22.948    30.337     3.337     5.367    23.279   -22.948    25.184     3.337     0.000
      0.144  4074.3   0.150  -1.368  35.020  2284.333  2384.032     2.388     0.000   174.250    10.292    28.256    77.307   0.823   -16.612     0.000    52.876    41.021    17.375   -22.752    23.023     3.443     5.367    17.375   -22.752    19.973     3.443     0.000
