% age_kyrBP     D_m  k0_mix     T_C   S_mil    CO2_uM    ALK_uM    PO2_uM    NO3_uM     O2_uM     Ca_uM    SO4_mM    CO3_mM     ohm   dCO3_uM     POC_%     cal_%    opal_%   fsedPOC      d13C   fsedcal      d13C  fsedopal   fdisPOC      d13C   fdiscal      d13C  fdisopal
     20.595  5499.6   0.150  -1.365  34.923  2363.909  2458.688     2.781     0.000   132.610    10.306    28.178    74.232   0.610   -47.526     0.000     0.051     0.000     3.407   -20.815     5.362     3.545     0.000     3.407   -20.815     6.446     3.541     0.000
     16.113  5499.6   0.150  -1.365  34.923  2363.841  2458.698     2.781     0.000   132.731    10.306    28.178    74.271   0.610   -47.486     0.000     0.151     0.000     4.257   -20.844     6.662     3.511     0.000     4.257   -20.844     5.602     3.511     0.000
     11.631  5499.6   0.150  -1.365  34.923  2363.652  2458.668     2.780     0.000   132.982    10.306    28.178    74.345   0.611   -47.413     0.000     0.065     0.000     3.605   -20.818     5.662     3.537     0.000     3.605   -20.818     6.374     3.537     0.000
      7.149  5499.6   0.150  -1.365  34.923  2363.281  2458.618     2.779     0.000   133.449    10.306    28.178    74.497   0.612   -47.262     0.000     0.047     0.000     3.260   -20.805     5.147     3.584     0.000     3.260   -20.805     6.269     3.572     0.000
      2.667  5499.6   0.150  -1.365  34.923  2362.829  2458.564     2.778     0.000   134.072    10.306    28.178    74.686   0.613   -47.072     0.000     0.085     0.000     3.816   -20.823     5.985     3.527     0.000     3.816   -20.823     6.247     3.528     0.000
