% age_kyrBP     D_m  k0_mix     T_C   S_mil    CO2_uM    ALK_uM    PO2_uM    NO3_uM     O2_uM     Ca_uM    SO4_mM    CO3_mM     ohm   dCO3_uM     POC_%     cal_%    opal_%   fsedPOC      d13C   fsedcal      d13C  fsedopal   fdisPOC      d13C   fdiscal      d13C  fdisopal
     24.117  2931.3   0.150  -1.058  34.906  2331.158  2419.189     2.658     0.000   142.485    10.285    28.164    74.164   0.986    -1.039     0.000    58.886    37.767     3.570   -20.779     6.032     3.894     3.733     3.570   -20.779     2.591     3.894     0.000
     23.275  2931.3   0.150  -1.089  34.901  2338.248  2425.794     2.701     0.000   140.148    10.284    28.160    74.058   0.985    -1.138     0.000    58.556    39.064     3.442   -20.706     5.806     3.905     3.733     3.442   -20.706     2.505     3.905     0.000
     22.432  2931.3   0.150  -1.092  34.901  2338.321  2426.059     2.704     0.000   140.042    10.284    28.160    74.157   0.986    -1.041     0.000    58.739    38.917     3.662   -20.759     6.187     3.937     3.733     3.662   -20.759     2.661     3.937     0.000
     21.591  2931.3   0.150  -1.092  34.901  2338.438  2426.242     2.705     0.000   140.069    10.284    28.160    74.190   0.987    -1.008     0.000    58.809    38.852     3.586   -20.719     6.050     3.930     3.733     3.586   -20.719     2.595     3.930     0.000
     20.750  2931.3   0.150  -1.091  34.901  2338.380  2426.199     2.705     0.000   140.128    10.284    28.160    74.198   0.987    -1.000     0.000    58.837    38.825     3.540   -20.746     5.997     3.966     3.733     3.540   -20.746     2.558     3.966     0.000
     19.910  2931.3   0.150  -1.091  34.901  2338.427  2426.259     2.705     0.000   140.118    10.284    28.160    74.205   0.987    -0.992     0.000    58.842    38.820     3.371   -20.668     5.693     3.937     3.733     3.371   -20.668     2.425     3.937     0.000
     19.069  2931.3   0.150  -1.092  34.901  2338.424  2426.265     2.705     0.000   140.122    10.284    28.160    74.208   0.987    -0.990     0.000    58.846    38.816     3.660   -20.739     6.183     3.951     3.733     3.660   -20.739     2.650     3.951     0.000
     18.228  2931.3   0.150  -1.091  34.901  2338.356  2426.196     2.705     0.000   140.156    10.284    28.160    74.208   0.987    -0.990     0.000    58.852    38.811     3.424   -20.710     5.800     3.967     3.733     3.424   -20.710     2.466     3.967     0.000
     17.388  2931.3   0.150  -1.092  34.901  2338.409  2426.281     2.705     0.000   140.176    10.284    28.160    74.224   0.987    -0.974     0.000    58.862    38.801     3.468   -20.678     5.849     3.935     3.733     3.468   -20.678     2.497     3.935     0.000
     16.547  2931.3   0.150  -1.091  34.901  2338.331  2426.219     2.705     0.000   140.219    10.284    28.160    74.230   0.987    -0.969     0.000    58.878    38.786     3.640   -20.750     6.159     3.966     3.733     3.640   -20.750     2.631     3.966     0.000
     15.707  2931.3   0.150  -1.092  34.901  2338.334  2426.247     2.705     0.000   140.248    10.284    28.160    74.245   0.987    -0.953     0.000    58.891    38.774     3.664   -20.740     6.191     3.956     3.733     3.664   -20.740     2.647     3.956     0.000
     14.867  2931.3   0.150  -1.092  34.901  2338.330  2426.267     2.705     0.000   140.269    10.284    28.160    74.254   0.987    -0.944     0.000    58.904    38.762     3.619   -20.718     6.108     3.945     3.733     3.619   -20.718     2.610     3.945     0.000
     14.027  2931.3   0.150  -1.092  34.901  2338.316  2426.275     2.705     0.000   140.298    10.284    28.160    74.265   0.988    -0.932     0.000    58.916    38.751     3.529   -20.691     5.953     3.938     3.733     3.529   -20.691     2.538     3.938     0.000
     13.187  2931.3   0.150  -1.092  34.901  2338.274  2426.259     2.705     0.000   140.365    10.284    28.160    74.277   0.988    -0.920     0.000    58.931    38.736     3.431   -20.669     5.788     3.937     3.733     3.431   -20.669     2.459     3.937     0.000
     12.347  2931.3   0.150  -1.091  34.901  2338.192  2426.202     2.704     0.000   140.410    10.284    28.160    74.288   0.988    -0.910     0.000    58.951    38.717     3.641   -20.748     6.160     3.967     3.733     3.641   -20.748     2.621     3.967     0.000
     11.507  2931.3   0.150  -1.091  34.901  2338.150  2426.199     2.704     0.000   140.490    10.284    28.160    74.307   0.988    -0.891     0.000    58.973    38.696     3.350   -20.668     5.663     3.952     3.733     3.350   -20.668     2.391     3.952     0.000
     10.668  2931.3   0.150  -1.091  34.901  2338.082  2426.173     2.704     0.000   140.544    10.284    28.160    74.326   0.988    -0.872     0.000    59.001    38.670     3.361   -20.680     5.687     3.959     3.733     3.361   -20.680     2.397     3.959     0.000
      9.829  2931.3   0.150  -1.091  34.901  2338.011  2426.152     2.704     0.000   140.633    10.284    28.160    74.352   0.989    -0.846     0.000    59.032    38.641     3.394   -20.695     5.748     3.966     3.733     3.394   -20.695     2.418     3.966     0.000
      8.990  2931.3   0.150  -1.091  34.901  2337.941  2426.140     2.704     0.000   140.724    10.284    28.160    74.379   0.989    -0.819     0.000    59.066    38.609     3.445   -20.712     5.835     3.972     3.733     3.445   -20.712     2.453     3.972     0.000
      8.152  2931.3   0.150  -1.091  34.901  2337.876  2426.131     2.704     0.000   140.796    10.284    28.160    74.407   0.989    -0.792     0.000    59.101    38.576     3.463   -20.717     5.868     3.973     3.733     3.463   -20.717     2.463     3.973     0.000
      7.314  2931.3   0.150  -1.091  34.901  2337.805  2426.130     2.704     0.000   140.915    10.284    28.160    74.440   0.990    -0.758     0.000    59.141    38.538     3.485   -20.722     5.904     3.974     3.733     3.485   -20.722     2.474     3.974     0.000
      6.476  2931.3   0.150  -1.091  34.901  2337.728  2426.124     2.703     0.000   141.015    10.284    28.160    74.474   0.990    -0.724     0.000    59.182    38.499     3.504   -20.727     5.937     3.975     3.733     3.504   -20.727     2.483     3.975     0.000
      5.639  2931.3   0.150  -1.091  34.901  2337.642  2426.113     2.703     0.000   141.137    10.284    28.160    74.510   0.991    -0.688     0.000    59.227    38.458     3.484   -20.721     5.903     3.975     3.733     3.484   -20.721     2.462     3.975     0.000
      4.802  2931.3   0.150  -1.091  34.901  2337.561  2426.102     2.703     0.000   141.246    10.284    28.160    74.544   0.991    -0.655     0.000    59.268    38.418     3.465   -20.716     5.871     3.974     3.733     3.465   -20.716     2.442     3.974     0.000
      3.966  2931.3   0.150  -1.092  34.901  2337.556  2426.180     2.703     0.000   141.328    10.284    28.160    74.584   0.992    -0.614     0.000    59.309    38.380     3.591   -20.702     6.060     3.944     3.733     3.591   -20.702     2.533     3.944     0.000
      3.130  2931.3   0.150  -1.092  34.901  2337.482  2426.171     2.703     0.000   141.411    10.284    28.160    74.617   0.992    -0.581     0.000    59.346    38.344     3.637   -20.717     6.140     3.950     3.733     3.637   -20.717     2.563     3.950     0.000
      2.294  2931.3   0.150  -1.092  34.901  2337.395  2426.149     2.703     0.000   141.531    10.284    28.160    74.645   0.993    -0.553     0.000    59.384    38.309     3.666   -20.730     6.194     3.957     3.733     3.666   -20.730     2.582     3.957     0.000
      1.459  2931.3   0.150  -1.091  34.901  2337.318  2426.128     2.703     0.000   141.617    10.284    28.160    74.673   0.993    -0.525     0.000    59.419    38.276     3.361   -20.658     5.679     3.949     3.733     3.361   -20.658     2.340     3.949     0.000
      0.624  2931.3   0.150  -1.092  34.901  2337.254  2426.142     2.703     0.000   141.726    10.284    28.160    74.712   0.994    -0.486     0.000    59.458    38.239     3.419   -20.660     5.770     3.941     3.733     3.419   -20.660     2.379     3.941     0.000
