% age_kyrBP     D_m  k0_mix     T_C   S_mil    CO2_uM    ALK_uM    PO2_uM    NO3_uM     O2_uM     Ca_uM    SO4_mM    CO3_mM     ohm   dCO3_uM     POC_%     cal_%    opal_%   fsedPOC      d13C   fsedcal      d13C  fsedopal   fdisPOC      d13C   fdiscal      d13C  fdisopal
     24.470  1707.0   0.150   0.465  34.845  2291.830  2358.962     2.555     0.000   129.691    10.239    28.115    65.017   1.098     5.808     0.000    35.366    58.799     8.272   -20.378     7.153     4.109     7.003     8.272   -20.378     4.764     4.109     0.000
     23.941  1707.0   0.150   0.496  34.848  2285.967  2355.037     2.531     0.000   133.234    10.234    28.117    65.817   1.111     6.579     0.000    34.703    59.944     8.636   -20.324     7.433     4.095     7.003     8.636   -20.324     4.999     4.095     0.000
     23.413  1707.0   0.150   0.502  34.849  2283.802  2353.795     2.521     0.000   134.477    10.235    28.118    66.214   1.118     6.975     0.000    35.400    59.308     8.936   -20.305     7.673     4.093     7.003     8.936   -20.305     5.172     4.093     0.000
     22.886  1707.0   0.150   0.501  34.849  2283.316  2353.520     2.519     0.000   134.675    10.235    28.118    66.304   1.119     7.064     0.000    35.579    59.143     8.114   -20.370     7.002     4.158     7.003     8.114   -20.370     4.487     4.158     0.000
     22.360  1707.0   0.150   0.501  34.849  2283.252  2353.528     2.519     0.000   134.721    10.235    28.118    66.337   1.120     7.098     0.000    35.648    59.080     8.099   -20.353     6.991     4.162     7.003     8.099   -20.353     4.473     4.162     0.000
     21.834  1707.0   0.150   0.501  34.849  2283.305  2353.600     2.519     0.000   134.728    10.235    28.118    66.347   1.120     7.108     0.000    35.673    59.057     8.128   -20.337     7.015     4.161     7.003     8.128   -20.337     4.492     4.161     0.000
     21.308  1707.0   0.150   0.501  34.849  2283.341  2353.641     2.520     0.000   134.729    10.235    28.118    66.351   1.120     7.112     0.000    35.684    59.047     8.180   -20.323     7.058     4.159     7.003     8.180   -20.323     4.529     4.159     0.000
     20.783  1707.0   0.150   0.501  34.849  2283.347  2353.652     2.520     0.000   134.744    10.235    28.118    66.353   1.120     7.115     0.000    35.691    59.041     8.953   -20.316     7.691     4.134     7.003     8.953   -20.316     5.168     4.134     0.000
     20.256  1707.0   0.150   0.501  34.849  2283.341  2353.649     2.520     0.000   134.744    10.235    28.118    66.355   1.120     7.116     0.000    35.691    59.040     8.857   -20.326     7.612     4.143     7.003     8.857   -20.326     5.099     4.143     0.000
     19.730  1707.0   0.150   0.501  34.849  2283.335  2353.644     2.519     0.000   134.750    10.235    28.118    66.355   1.120     7.116     0.000    35.695    59.037     8.749   -20.333     7.523     4.151     7.003     8.749   -20.333     4.938     4.151     0.000
     19.204  1707.0   0.150   0.502  34.849  2283.329  2353.640     2.520     0.000   134.752    10.235    28.118    66.356   1.120     7.117     0.000    35.697    59.035     8.638   -20.341     7.432     4.159     7.003     8.638   -20.341     4.858     4.159     0.000
     18.679  1707.0   0.150   0.501  34.849  2283.326  2353.642     2.520     0.000   134.761    10.235    28.118    66.358   1.120     7.119     0.000    35.702    59.030     8.566   -20.280     7.375     4.141     7.003     8.566   -20.280     4.806     4.141     0.000
     18.153  1707.0   0.150   0.501  34.849  2283.326  2353.647     2.520     0.000   134.772    10.235    28.118    66.361   1.120     7.122     0.000    35.709    59.024     8.678   -20.274     7.466     4.136     7.003     8.678   -20.274     4.886     4.136     0.000
     17.627  1707.0   0.150   0.501  34.849  2283.323  2353.651     2.520     0.000   134.787    10.235    28.118    66.364   1.120     7.125     0.000    35.716    59.017     8.791   -20.270     7.559     4.130     7.003     8.791   -20.270     4.968     4.130     0.000
     17.101  1707.0   0.150   0.501  34.849  2283.298  2353.634     2.520     0.000   134.803    10.235    28.118    66.367   1.120     7.128     0.000    35.722    59.012     8.290   -20.355     7.147     4.179     7.003     8.290   -20.355     4.606     4.179     0.000
     16.575  1707.0   0.150   0.501  34.849  2283.291  2353.635     2.520     0.000   134.812    10.235    28.118    66.371   1.120     7.132     0.000    35.725    59.009     8.201   -20.354     7.074     4.183     7.003     8.201   -20.354     4.541     4.183     0.000
     16.050  1707.0   0.150   0.501  34.849  2283.303  2353.659     2.520     0.000   134.836    10.235    28.118    66.377   1.121     7.138     0.000    35.732    59.003     8.985   -20.270     7.717     4.126     7.003     8.985   -20.270     5.189     4.126     0.000
     15.524  1707.0   0.150   0.501  34.849  2283.299  2353.662     2.520     0.000   134.851    10.235    28.118    66.380   1.121     7.142     0.000    35.735    59.000     9.039   -20.275     7.762     4.127     7.003     9.039   -20.275     5.228     4.127     0.000
     14.998  1707.0   0.150   0.501  34.849  2283.269  2353.639     2.520     0.000   134.860    10.235    28.118    66.382   1.121     7.143     0.000    35.741    58.995     8.108   -20.340     6.999     4.182     7.003     8.108   -20.340     4.474     4.182     0.000
     14.472  1707.0   0.150   0.501  34.849  2283.264  2353.641     2.520     0.000   134.874    10.235    28.118    66.385   1.121     7.146     0.000    35.743    58.993     8.115   -20.328     7.005     4.178     7.003     8.115   -20.328     4.478     4.178     0.000
     13.947  1707.0   0.150   0.501  34.849  2283.276  2353.663     2.520     0.000   134.890    10.235    28.118    66.391   1.121     7.152     0.000    35.754    58.983     9.050   -20.292     7.772     4.133     7.003     9.050   -20.292     5.234     4.133     0.000
     13.421  1707.0   0.150   0.501  34.849  2283.264  2353.661     2.520     0.000   134.911    10.235    28.118    66.395   1.121     7.157     0.000    35.766    58.972     8.994   -20.302     7.727     4.139     7.003     8.994   -20.302     5.194     4.139     0.000
     12.895  1707.0   0.150   0.501  34.849  2283.239  2353.647     2.520     0.000   134.932    10.235    28.118    66.400   1.121     7.161     0.000    35.774    58.964     8.229   -20.305     7.099     4.166     7.003     8.229   -20.305     4.558     4.166     0.000
     12.369  1707.0   0.150   0.501  34.849  2283.242  2353.664     2.520     0.000   134.954    10.235    28.118    66.406   1.121     7.168     0.000    35.782    58.957     8.921   -20.312     7.666     4.145     7.003     8.921   -20.312     5.139     4.145     0.000
     11.844  1707.0   0.150   0.501  34.849  2283.218  2353.655     2.520     0.000   134.978    10.235    28.118    66.413   1.121     7.174     0.000    35.794    58.946     8.329   -20.294     7.182     4.159     7.003     8.329   -20.294     4.628     4.159     0.000
     11.318  1707.0   0.150   0.501  34.849  2283.213  2353.667     2.520     0.000   135.014    10.235    28.118    66.422   1.121     7.183     0.000    35.809    58.932     8.818   -20.322     7.582     4.152     7.003     8.818   -20.322     4.980     4.152     0.000
     10.792  1707.0   0.150   0.501  34.849  2283.194  2353.664     2.520     0.000   135.040    10.235    28.118    66.429   1.121     7.190     0.000    35.822    58.920     8.708   -20.330     7.492     4.160     7.003     8.708   -20.330     4.900     4.160     0.000
     10.267  1707.0   0.150   0.501  34.849  2283.176  2353.668     2.520     0.000   135.083    10.235    28.118    66.439   1.122     7.200     0.000    35.836    58.907     8.528   -20.278     7.346     4.147     7.003     8.528   -20.278     4.769     4.147     0.000
      9.742  1707.0   0.150   0.501  34.849  2283.161  2353.676     2.520     0.000   135.120    10.235    28.118    66.450   1.122     7.211     0.000    35.852    58.893     8.532   -20.277     7.350     4.147     7.003     8.532   -20.277     4.770     4.147     0.000
      9.216  1707.0   0.150   0.501  34.849  2283.140  2353.677     2.520     0.000   135.152    10.235    28.118    66.459   1.122     7.221     0.000    35.876    58.870     8.597   -20.336     7.402     4.167     7.003     8.597   -20.336     4.816     4.167     0.000
      8.691  1707.0   0.150   0.501  34.849  2283.125  2353.687     2.521     0.000   135.199    10.235    28.118    66.471   1.122     7.233     0.000    35.896    58.852     8.640   -20.270     7.439     4.141     7.003     8.640   -20.270     4.846     4.141     0.000
      8.165  1707.0   0.150   0.501  34.849  2283.101  2353.684     2.521     0.000   135.228    10.235    28.118    66.480   1.122     7.242     0.000    35.914    58.836     8.480   -20.342     7.306     4.173     7.003     8.480   -20.342     4.729     4.173     0.000
      7.640  1707.0   0.150   0.501  34.849  2283.080  2353.689     2.521     0.000   135.280    10.235    28.118    66.492   1.122     7.254     0.000    35.931    58.820     8.480   -20.341     7.307     4.174     7.003     8.480   -20.341     4.728     4.174     0.000
      7.115  1707.0   0.150   0.502  34.849  2283.054  2353.689     2.521     0.000   135.323    10.235    28.118    66.504   1.123     7.265     0.000    35.959    58.794     8.485   -20.341     7.310     4.174     7.003     8.485   -20.341     4.730     4.174     0.000
      6.590  1707.0   0.150   0.501  34.849  2283.044  2353.706     2.521     0.000   135.375    10.235    28.118    66.517   1.123     7.279     0.000    35.982    58.773     8.765   -20.263     7.542     4.136     7.003     8.765   -20.263     4.930     4.136     0.000
      6.065  1707.0   0.150   0.501  34.849  2283.021  2353.712     2.521     0.000   135.426    10.235    28.118    66.531   1.123     7.292     0.000    36.001    58.755     8.768   -20.263     7.544     4.136     7.003     8.768   -20.263     4.931     4.136     0.000
      5.540  1707.0   0.150   0.501  34.849  2282.994  2353.716     2.521     0.000   135.477    10.235    28.118    66.545   1.123     7.306     0.000    36.021    58.738     8.772   -20.262     7.548     4.136     7.003     8.772   -20.262     4.932     4.136     0.000
      5.015  1707.0   0.150   0.501  34.849  2282.972  2353.720     2.521     0.000   135.522    10.235    28.118    66.557   1.124     7.319     0.000    36.038    58.721     8.766   -20.261     7.543     4.137     7.003     8.766   -20.261     4.926     4.137     0.000
      4.490  1707.0   0.150   0.501  34.849  2282.940  2353.712     2.521     0.000   135.563    10.235    28.118    66.567   1.124     7.329     0.000    36.062    58.699     8.495   -20.338     7.321     4.174     7.003     8.495   -20.338     4.730     4.174     0.000
      3.965  1707.0   0.150   0.501  34.849  2282.919  2353.718     2.522     0.000   135.607    10.235    28.118    66.580   1.124     7.341     0.000    36.087    58.676     8.498   -20.337     7.323     4.175     7.003     8.498   -20.337     4.730     4.175     0.000
      3.440  1707.0   0.150   0.501  34.849  2282.900  2353.722     2.522     0.000   135.644    10.235    28.118    66.590   1.124     7.352     0.000    36.104    58.662     8.498   -20.337     7.324     4.175     7.003     8.498   -20.337     4.729     4.175     0.000
      2.916  1707.0   0.150   0.501  34.849  2282.883  2353.729     2.522     0.000   135.690    10.235    28.118    66.601   1.124     7.363     0.000    36.132    58.635     8.665   -20.264     7.463     4.143     7.003     8.665   -20.264     4.848     4.143     0.000
      2.391  1707.0   0.150   0.502  34.849  2282.854  2353.728     2.522     0.000   135.737    10.235    28.118    66.614   1.125     7.375     0.000    36.151    58.619     8.624   -20.329     7.428     4.168     7.003     8.624   -20.329     4.817     4.168     0.000
      1.867  1707.0   0.150   0.501  34.849  2282.839  2353.736     2.522     0.000   135.779    10.235    28.118    66.625   1.125     7.387     0.000    36.167    58.604     8.568   -20.268     7.384     4.149     7.003     8.568   -20.268     4.775     4.149     0.000
      1.342  1707.0   0.150   0.501  34.849  2282.819  2353.742     2.522     0.000   135.819    10.235    28.118    66.636   1.125     7.398     0.000    36.183    58.589     8.748   -20.320     7.530     4.162     7.003     8.748   -20.320     4.904     4.162     0.000
      0.818  1707.0   0.150   0.501  34.849  2282.791  2353.743     2.522     0.000   135.872    10.235    28.118    66.650   1.125     7.411     0.000    36.201    58.572     8.462   -20.274     7.298     4.156     7.003     8.462   -20.274     4.696     4.156     0.000
      0.293  1707.0   0.150   0.501  34.849  2282.766  2353.755     2.522     0.000   135.937    10.235    28.118    66.667   1.125     7.429     0.000    36.238    58.539     8.865   -20.309     7.627     4.155     7.003     8.865   -20.309     4.984     4.155     0.000
