% age_kyrBP     D_m  k0_mix     T_C   S_mil    CO2_uM    ALK_uM    PO2_uM    NO3_uM     O2_uM     Ca_uM    SO4_mM    CO3_mM     ohm   dCO3_uM     POC_%     cal_%    opal_%   fsedPOC      d13C   fsedcal      d13C  fsedopal   fdisPOC      d13C   fdiscal      d13C  fdisopal
     24.987   464.2   0.150   7.351  34.895  2208.300  2354.312     1.910     0.000   144.488    10.247    28.155   110.572   2.412    64.722     0.000    32.840     3.548   120.496   -21.070    26.617     3.894     3.987   120.496   -21.070     1.480     3.894     0.000
     24.979   464.2   0.150  11.223  34.875  2160.611  2347.387     1.496     0.000   141.992    10.247    28.139   136.412   2.990    90.795     0.000    41.598     4.713    69.195   -20.544    16.061     4.209     3.987    69.195   -20.544     7.488     4.209     0.000
     24.250   464.2   0.150  19.954  34.582  2000.169  2265.123     0.801     0.000   146.566    10.120    27.903   187.117   4.158   142.115     0.000    66.881    28.840    26.047   -20.046     6.277     3.895     3.987    26.047   -20.046     0.428     3.895     0.000
     23.575   464.2   0.150  19.898  34.577  1999.839  2262.352     0.820     0.000   144.844    10.110    27.899   185.447   4.117   140.400     0.000    67.798    29.024    23.183   -20.064     5.612     3.965     3.987    23.183   -20.064     0.370     3.965     0.000
     22.904   464.2   0.150  19.916  34.576  1999.799  2262.250     0.822     0.000   144.568    10.108    27.898   185.411   4.116   140.362     0.000    68.018    28.867    23.467   -20.099     5.686     3.990     3.987    23.467   -20.099     0.356     3.990     0.000
     22.234   464.2   0.150  19.955  34.577  1999.472  2262.187     0.820     0.000   144.678    10.108    27.899   185.591   4.120   140.544     0.000    68.051    28.838    25.649   -20.048     6.185     3.960     3.987    25.649   -20.048     0.369     3.960     0.000
     21.565   464.2   0.150  19.911  34.577  2000.008  2262.356     0.823     0.000   144.635    10.108    27.899   185.346   4.114   140.295     0.000    68.048    28.841    23.164   -20.074     5.615     4.005     3.987    23.164   -20.074     0.367     4.005     0.000
     20.895   464.2   0.150  19.943  34.577  1999.671  2262.297     0.821     0.000   144.656    10.108    27.899   185.529   4.118   140.481     0.000    68.058    28.832    24.954   -20.060     6.028     3.983     3.987    24.954   -20.060     0.366     3.983     0.000
     20.226   464.2   0.150  19.907  34.577  2000.056  2262.390     0.824     0.000   144.635    10.108    27.899   185.337   4.114   140.286     0.000    68.058    28.832    23.145   -20.047     5.608     4.004     3.987    23.145   -20.047     0.360     4.004     0.000
     19.556   464.2   0.150  19.938  34.577  1999.714  2262.312     0.822     0.000   144.661    10.108    27.899   185.509   4.118   140.460     0.000    68.061    28.830    25.399   -19.950     6.114     3.949     3.987    25.399   -19.950     0.368     3.949     0.000
     18.887   464.2   0.150  19.966  34.577  1999.415  2262.240     0.820     0.000   144.681    10.108    27.899   185.663   4.122   140.617     0.000    68.061    28.829    26.572   -19.987     6.390     3.950     3.987    26.572   -19.987     0.375     3.950     0.000
     18.217   464.2   0.150  19.949  34.577  1999.587  2262.282     0.821     0.000   144.672    10.108    27.899   185.575   4.120   140.527     0.000    68.063    28.827    25.981   -19.943     6.247     3.943     3.987    25.981   -19.943     0.372     3.943     0.000
     17.548   464.2   0.150  19.960  34.577  1999.472  2262.250     0.820     0.000   144.675    10.108    27.899   185.631   4.121   140.585     0.000    68.064    28.827    26.241   -20.009     6.318     3.963     3.987    26.241   -20.009     0.362     3.963     0.000
     16.879   464.2   0.150  19.920  34.577  1999.924  2262.354     0.823     0.000   144.634    10.108    27.899   185.402   4.115   140.352     0.000    68.061    28.829    23.493   -20.074     5.694     4.015     3.987    23.493   -20.074     0.360     4.015     0.000
     16.210   464.2   0.150  19.917  34.577  1999.936  2262.357     0.823     0.000   144.641    10.108    27.899   185.393   4.115   140.343     0.000    68.062    28.828    24.030   -19.979     5.803     3.979     3.987    24.030   -19.979     0.361     3.979     0.000
     15.540   464.2   0.150  19.913  34.577  2000.000  2262.373     0.823     0.000   144.632    10.108    27.899   185.364   4.115   140.313     0.000    68.062    28.829    23.162   -20.063     5.615     4.016     3.987    23.162   -20.063     0.367     4.016     0.000
     14.871   464.2   0.150  19.926  34.577  1999.830  2262.337     0.822     0.000   144.653    10.108    27.899   185.450   4.117   140.400     0.000    68.065    28.826    24.719   -19.958     5.959     3.965     3.987    24.719   -19.958     0.370     3.965     0.000
     14.201   464.2   0.150  19.967  34.577  1999.393  2262.234     0.820     0.000   144.683    10.108    27.899   185.672   4.122   140.626     0.000    68.066    28.825    26.643   -19.962     6.403     3.945     3.987    26.643   -19.962     0.366     3.945     0.000
     13.532   464.2   0.150  19.942  34.577  1999.688  2262.297     0.822     0.000   144.643    10.108    27.899   185.515   4.118   140.467     0.000    68.066    28.825    24.722   -20.057     5.975     3.996     3.987    24.722   -20.057     0.367     3.996     0.000
     12.863   464.2   0.150  19.907  34.577  2000.044  2262.381     0.824     0.000   144.631    10.108    27.899   185.337   4.114   140.286     0.000    68.063    28.827    23.197   -20.032     5.619     4.007     3.987    23.197   -20.032     0.365     4.007     0.000
     12.193   464.2   0.150  19.931  34.577  1999.806  2262.322     0.822     0.000   144.634    10.108    27.899   185.459   4.117   140.410     0.000    68.066    28.825    24.047   -20.069     5.821     4.009     3.987    24.047   -20.069     0.365     4.009     0.000
     11.524   464.2   0.150  19.912  34.577  2000.003  2262.373     0.824     0.000   144.627    10.108    27.899   185.360   4.114   140.309     0.000    68.067    28.824    23.495   -20.003     5.683     3.994     3.987    23.495   -20.003     0.364     3.994     0.000
     10.854   464.2   0.150  19.953  34.577  1999.527  2262.263     0.821     0.000   144.670    10.108    27.899   185.600   4.120   140.553     0.000    68.072    28.819    26.150   -19.940     6.286     3.944     3.987    26.150   -19.940     0.374     3.944     0.000
     10.185   464.2   0.150  19.959  34.577  1999.468  2262.240     0.821     0.000   144.660    10.108    27.899   185.633   4.121   140.587     0.000    68.075    28.817    26.080   -20.014     6.283     3.969     3.987    26.080   -20.014     0.366     3.969     0.000
      9.516   464.2   0.150  19.917  34.577  1999.932  2262.348     0.823     0.000   144.622    10.108    27.899   185.392   4.115   140.342     0.000    68.074    28.818    23.360   -20.069     5.663     4.018     3.987    23.360   -20.069     0.355     4.018     0.000
      8.847   464.2   0.150  19.921  34.577  1999.869  2262.336     0.823     0.000   144.636    10.108    27.899   185.420   4.116   140.370     0.000    68.078    28.814    24.262   -19.969     5.856     3.975     3.987    24.262   -19.969     0.368     3.975     0.000
      8.177   464.2   0.150  19.965  34.577  1999.388  2262.224     0.820     0.000   144.672    10.108    27.899   185.668   4.122   140.622     0.000    68.083    28.810    26.601   -19.950     6.392     3.943     3.987    26.601   -19.950     0.364     3.943     0.000
      7.509   464.2   0.150  19.924  34.577  1999.827  2262.324     0.823     0.000   144.636    10.108    27.899   185.440   4.116   140.390     0.000    68.082    28.810    24.498   -19.962     5.909     3.971     3.987    24.498   -19.962     0.369     3.971     0.000
      6.839   464.2   0.150  19.967  34.577  1999.364  2262.217     0.820     0.000   144.670    10.108    27.899   185.679   4.122   140.633     0.000    68.086    28.807    26.644   -19.954     6.403     3.945     3.987    26.644   -19.954     0.368     3.945     0.000
      6.170   464.2   0.150  19.945  34.577  1999.606  2262.262     0.822     0.000   144.632    10.108    27.899   185.547   4.119   140.499     0.000    68.088    28.805    24.976   -20.048     6.034     3.993     3.987    24.976   -20.048     0.360     3.993     0.000
      5.501   464.2   0.150  19.909  34.577  1999.988  2262.359     0.824     0.000   144.616    10.108    27.899   185.359   4.114   140.308     0.000    68.090    28.803    23.167   -20.038     5.614     4.012     3.987    23.167   -20.038     0.362     4.012     0.000
      4.832   464.2   0.150  19.940  34.577  1999.640  2262.265     0.822     0.000   144.632    10.108    27.899   185.523   4.118   140.475     0.000    68.095    28.798    24.742   -20.054     5.980     3.998     3.987    24.742   -20.054     0.361     3.998     0.000
      4.163   464.2   0.150  19.908  34.577  2000.001  2262.359     0.824     0.000   144.607    10.108    27.899   185.350   4.114   140.299     0.000    68.095    28.798    23.219   -20.028     5.624     4.009     3.987    23.219   -20.028     0.357     4.009     0.000
      3.494   464.2   0.150  19.936  34.577  1999.686  2262.275     0.823     0.000   144.618    10.108    27.899   185.506   4.118   140.457     0.000    68.099    28.795    24.511   -20.057     5.928     4.003     3.987    24.511   -20.057     0.357     4.003     0.000
      2.825   464.2   0.150  19.907  34.577  1999.975  2262.345     0.824     0.000   144.612    10.108    27.899   185.357   4.114   140.306     0.000    68.097    28.797    23.298   -20.018     5.641     4.006     3.987    23.298   -20.018     0.363     4.006     0.000
      2.156   464.2   0.150  19.933  34.577  1999.705  2262.280     0.823     0.000   144.620    10.108    27.899   185.496   4.118   140.447     0.000    68.101    28.793    24.288   -20.061     5.877     4.007     3.987    24.288   -20.061     0.363     4.007     0.000
      1.487   464.2   0.150  19.910  34.577  1999.944  2262.339     0.824     0.000   144.609    10.108    27.899   185.373   4.115   140.322     0.000    68.101    28.794    23.393   -20.008     5.662     4.002     3.987    23.393   -20.008     0.353     4.002     0.000
      0.818   464.2   0.150  19.929  34.577  1999.736  2262.281     0.823     0.000   144.612    10.108    27.899   185.475   4.117   140.425     0.000    68.105    28.789    24.076   -20.064     5.829     4.011     3.987    24.076   -20.064     0.354     4.011     0.000
      0.149   464.2   0.150  19.964  34.577  1999.346  2262.196     0.821     0.000   144.647    10.108    27.899   185.676   4.122   140.629     0.000    68.112    28.784    26.541   -19.985     6.386     3.959     3.987    26.541   -19.985     0.366     3.959     0.000
