% age_kyrBP     D_m  k0_mix     T_C   S_mil    CO2_uM    ALK_uM    PO2_uM    NO3_uM     O2_uM     Ca_uM    SO4_mM    CO3_mM     ohm   dCO3_uM     POC_%     cal_%    opal_%   fsedPOC      d13C   fsedcal      d13C  fsedopal   fdisPOC      d13C   fdiscal      d13C  fdisopal
     24.430  3271.9   0.150  -0.898  34.904  2325.060  2409.071     2.639     0.000   135.295    10.281    28.163    71.496   0.890    -8.858     0.000    81.342     0.000    52.406   -23.682    62.873     2.389     0.000    52.406   -23.682    47.963     2.389     0.000
     23.963  3271.9   0.150  -0.958  34.894  2339.769  2419.636     2.728     0.000   130.227    10.282    28.155    69.750   0.868   -10.568     0.000    83.546     0.000    36.590   -23.116    45.467     2.633     0.000    36.590   -23.116    34.741     2.633     0.000
     23.566  3271.9   0.150  -0.972  34.892  2342.539  2421.837     2.748     0.000   129.232    10.281    28.153    69.526   0.866   -10.794     0.000    86.050     0.000    48.686   -23.468    58.866     2.496     0.000    48.686   -23.468    46.008     2.496     0.000
     23.191  3271.9   0.150  -0.976  34.892  2343.037  2422.365     2.753     0.000   129.047    10.281    28.153    69.549   0.866   -10.773     0.000    86.732     0.000    48.827   -23.456    59.048     2.505     0.000    48.827   -23.456    46.173     2.505     0.000
     22.820  3271.9   0.150  -0.978  34.891  2342.800  2421.925     2.755     0.000   128.982    10.280    28.152    69.446   0.865   -10.881     0.000    86.900     0.000    36.921   -23.632    44.174     2.471     0.000    36.921   -23.632    35.232     2.471     0.000
     22.449  3271.9   0.150  -0.979  34.892  2342.936  2422.368     2.755     0.000   129.037    10.280    28.152    69.597   0.866   -10.728     0.000    86.876     0.000    65.952   -24.150    75.688     2.238     0.000    65.952   -24.150    31.294     2.238     0.000
     22.078  3271.9   0.150  -0.979  34.892  2343.149  2422.748     2.755     0.000   129.023    10.280    28.152    69.681   0.867   -10.643     0.000    86.852     0.000    46.682   -23.365    56.764     2.553     0.000    46.682   -23.365    44.273     2.553     0.000
     21.708  3271.9   0.150  -0.979  34.892  2342.845  2422.149     2.756     0.000   129.060    10.280    28.153    69.531   0.866   -10.796     0.000    86.923     0.000    35.511   -23.517    42.806     2.526     0.000    35.511   -23.517    34.003     2.526     0.000
     21.337  3271.9   0.150  -0.979  34.892  2343.200  2422.829     2.756     0.000   129.066    10.280    28.153    69.699   0.868   -10.625     0.000    86.842     0.000    34.146   -22.987    42.669     2.708     0.000    34.146   -22.987    32.778     2.708     0.000
     20.967  3271.9   0.150  -0.979  34.892  2343.045  2422.517     2.756     0.000   129.092    10.280    28.152    69.619   0.867   -10.706     0.000    86.926     0.000    53.012   -23.565    63.472     2.477     0.000    53.012   -23.565    49.769     2.477     0.000
     20.597  3271.9   0.150  -0.979  34.892  2342.929  2422.322     2.756     0.000   129.114    10.280    28.153    69.576   0.866   -10.750     0.000    86.940     0.000    65.388   -24.006    75.758     2.304     0.000    65.388   -24.006    31.061     2.304     0.000
     20.226  3271.9   0.150  -0.979  34.892  2343.293  2423.072     2.756     0.000   129.121    10.281    28.153    69.771   0.869   -10.552     0.000    86.853     0.000    61.173   -24.172    70.005     2.238     0.000    61.173   -24.172    29.120     2.238     0.000
     19.856  3271.9   0.150  -0.979  34.892  2342.850  2422.150     2.756     0.000   129.095    10.280    28.153    69.531   0.866   -10.796     0.000    86.945     0.000    58.865   -23.754    69.465     2.405     0.000    58.865   -23.754    54.891     2.405     0.000
     19.486  3271.9   0.150  -0.979  34.892  2343.015  2422.520     2.756     0.000   129.120    10.280    28.153    69.634   0.867   -10.690     0.000    86.908     0.000    66.420   -24.111    76.358     2.266     0.000    66.420   -24.111    31.483     2.266     0.000
     19.115  3271.9   0.150  -0.979  34.892  2343.214  2422.876     2.756     0.000   129.088    10.281    28.153    69.713   0.868   -10.611     0.000    86.878     0.000    44.612   -23.281    54.527     2.595     0.000    44.612   -23.281    42.483     2.595     0.000
     18.746  3271.9   0.150  -0.978  34.892  2342.880  2422.241     2.756     0.000   129.117    10.280    28.153    69.559   0.866   -10.767     0.000    86.962     0.000    63.380   -23.909    73.924     2.344     0.000    63.380   -23.909    30.192     2.344     0.000
     18.375  3271.9   0.150  -0.979  34.892  2343.101  2422.723     2.756     0.000   129.142    10.281    28.153    69.691   0.868   -10.633     0.000    86.877     0.000    64.037   -24.153    73.359     2.247     0.000    64.037   -24.153    30.411     2.247     0.000
     18.005  3271.9   0.150  -0.979  34.892  2343.044  2422.609     2.756     0.000   129.135    10.280    28.153    69.664   0.867   -10.660     0.000    86.908     0.000    45.786   -23.998    53.152     2.333     0.000    45.786   -23.998    43.517     2.333     0.000
     17.635  3271.9   0.150  -0.979  34.892  2342.922  2422.379     2.756     0.000   129.159    10.280    28.153    69.609   0.867   -10.716     0.000    86.934     0.000    66.108   -24.043    76.352     2.294     0.000    66.108   -24.043    31.360     2.294     0.000
     17.264  3271.9   0.150  -0.979  34.892  2343.223  2422.974     2.756     0.000   129.155    10.281    28.153    69.759   0.868   -10.564     0.000    86.858     0.000    40.622   -23.152    50.116     2.649     0.000    40.622   -23.152    38.222     2.649     0.000
     16.895  3271.9   0.150  -0.979  34.892  2342.813  2422.182     2.756     0.000   129.190    10.280    28.153    69.563   0.866   -10.763     0.000    86.985     0.000    60.552   -23.805    71.159     2.387     0.000    60.552   -23.805    28.955     2.387     0.000
     16.524  3271.9   0.150  -0.979  34.892  2343.011  2422.598     2.756     0.000   129.179    10.280    28.153    69.671   0.867   -10.654     0.000    86.867     0.000    33.101   -22.960    41.408     2.725     0.000    33.101   -22.960    31.918     2.725     0.000
     16.154  3271.9   0.150  -0.979  34.892  2343.069  2422.715     2.756     0.000   129.190    10.280    28.153    69.704   0.868   -10.621     0.000    86.905     0.000    50.941   -23.487    61.307     2.515     0.000    50.941   -23.487    47.937     2.515     0.000
     15.785  3271.9   0.150  -0.979  34.892  2342.867  2422.371     2.756     0.000   129.244    10.280    28.153    69.630   0.867   -10.695     0.000    86.941     0.000    66.083   -24.041    76.330     2.296     0.000    66.083   -24.041    31.339     2.296     0.000
     15.414  3271.9   0.150  -0.979  34.892  2343.157  2422.985     2.756     0.000   129.268    10.281    28.153    69.792   0.869   -10.531     0.000    86.854     0.000    59.576   -24.169    68.162     2.244     0.000    59.576   -24.169    55.377     2.244     0.000
     15.045  3271.9   0.150  -0.979  34.892  2342.761  2422.173     2.756     0.000   129.257    10.280    28.153    69.583   0.866   -10.743     0.000    86.992     0.000    60.593   -23.805    71.205     2.387     0.000    60.593   -23.805    28.964     2.387     0.000
     14.674  3271.9   0.150  -0.979  34.892  2342.960  2422.593     2.756     0.000   129.248    10.280    28.153    69.692   0.868   -10.633     0.000    86.874     0.000    33.108   -22.959    41.417     2.725     0.000    33.108   -22.959    31.917     2.725     0.000
     14.304  3271.9   0.150  -0.979  34.892  2343.018  2422.710     2.756     0.000   129.262    10.280    28.153    69.725   0.868   -10.599     0.000    86.911     0.000    50.948   -23.486    61.316     2.515     0.000    50.948   -23.486    47.934     2.515     0.000
     13.935  3271.9   0.150  -0.979  34.892  2342.821  2422.372     2.756     0.000   129.306    10.280    28.153    69.652   0.867   -10.673     0.000    86.948     0.000    66.064   -24.039    76.318     2.296     0.000    66.064   -24.039    31.321     2.296     0.000
     13.564  3271.9   0.150  -0.979  34.892  2343.125  2422.970     2.756     0.000   129.290    10.281    28.153    69.803   0.869   -10.521     0.000    86.872     0.000    40.641   -23.150    50.139     2.650     0.000    40.641   -23.150    38.219     2.650     0.000
     13.195  3271.9   0.150  -0.979  34.892  2342.691  2422.165     2.756     0.000   129.347    10.280    28.153    69.612   0.867   -10.715     0.000    86.965     0.000    36.845   -23.599    44.099     2.503     0.000    36.845   -23.599    35.094     2.503     0.000
     12.825  3271.9   0.150  -0.979  34.892  2342.944  2422.711     2.755     0.000   129.384    10.280    28.153    69.758   0.868   -10.566     0.000    86.898     0.000    64.117   -24.152    73.444     2.250     0.000    64.117   -24.152    30.416     2.250     0.000
     12.455  3271.9   0.150  -0.978  34.892  2342.844  2422.491     2.756     0.000   129.353    10.280    28.153    69.700   0.868   -10.625     0.000    86.945     0.000    55.088   -23.622    65.630     2.461     0.000    55.088   -23.622    51.530     2.461     0.000
     12.086  3271.9   0.150  -0.979  34.892  2342.808  2422.498     2.755     0.000   129.423    10.280    28.153    69.720   0.868   -10.605     0.000    86.935     0.000    66.450   -24.105    76.400     2.271     0.000    66.450   -24.105    31.457     2.271     0.000
     11.716  3271.9   0.150  -0.979  34.892  2342.926  2422.767     2.755     0.000   129.440    10.280    28.153    69.796   0.869   -10.528     0.000    86.919     0.000    51.853   -24.114    59.611     2.276     0.000    51.853   -24.114    48.684     2.276     0.000
     11.347  3271.9   0.150  -0.979  34.892  2342.672  2422.292     2.755     0.000   129.472    10.280    28.153    69.680   0.867   -10.645     0.000    86.974     0.000    65.425   -23.996    75.807     2.312     0.000    65.425   -23.996    31.030     2.312     0.000
     10.976  3271.9   0.150  -0.979  34.892  2343.030  2423.027     2.755     0.000   129.462    10.281    28.153    69.874   0.870   -10.449     0.000    86.856     0.000    38.788   -23.092    48.055     2.673     0.000    38.788   -23.092    36.611     2.673     0.000
     10.608  3271.9   0.150  -0.979  34.892  2342.571  2422.162     2.755     0.000   129.510    10.280    28.153    69.664   0.867   -10.663     0.000    87.007     0.000    62.070   -23.853    72.673     2.368     0.000    62.070   -23.853    29.573     2.368     0.000
     10.238  3271.9   0.150  -0.979  34.892  2342.963  2423.026     2.755     0.000   129.577    10.281    28.153    69.902   0.870   -10.420     0.000    86.905     0.000    62.714   -24.156    71.811     2.247     0.000    62.714   -24.156    29.734     2.247     0.000
      9.870  3271.9   0.150  -0.979  34.892  2342.515  2422.139     2.755     0.000   129.577    10.280    28.153    69.681   0.867   -10.645     0.000    87.022     0.000    60.608   -23.802    71.231     2.389     0.000    60.608   -23.802    28.926     2.389     0.000
      9.500  3271.9   0.150  -0.979  34.892  2342.743  2422.680     2.755     0.000   129.645    10.280    28.153    69.837   0.869   -10.487     0.000    86.923     0.000    64.131   -24.149    73.469     2.250     0.000    64.131   -24.149    30.386     2.250     0.000
      9.131  3271.9   0.150  -0.979  34.892  2342.538  2422.305     2.755     0.000   129.656    10.280    28.153    69.749   0.868   -10.577     0.000    86.981     0.000    41.888   -23.859    49.149     2.395     0.000    41.888   -23.859    39.316     2.395     0.000
      8.761  3271.9   0.150  -0.979  34.892  2342.631  2422.533     2.755     0.000   129.685    10.280    28.153    69.817   0.869   -10.509     0.000    86.924     0.000    32.423   -22.965    40.541     2.724     0.000    32.423   -22.965    31.295     2.724     0.000
      8.393  3271.9   0.150  -0.979  34.892  2342.477  2422.292     2.755     0.000   129.729    10.280    28.153    69.771   0.869   -10.555     0.000    86.996     0.000    43.793   -23.929    51.099     2.364     0.000    43.793   -23.929    41.769     2.364     0.000
      8.024  3271.9   0.150  -0.978  34.892  2342.538  2422.477     2.755     0.000   129.782    10.280    28.153    69.835   0.869   -10.490     0.000    86.959     0.000    66.034   -24.122    75.815     2.263     0.000    66.034   -24.122    31.222     2.263     0.000
      7.655  3271.9   0.150  -0.979  34.892  2342.546  2422.546     2.755     0.000   129.828    10.280    28.153    69.866   0.870   -10.459     0.000    86.971     0.000    45.846   -23.992    53.229     2.336     0.000    45.846   -23.992    43.484     2.336     0.000
      7.286  3271.9   0.150  -0.979  34.892  2342.470  2422.461     2.755     0.000   129.880    10.280    28.153    69.859   0.870   -10.466     0.000    86.979     0.000    66.503   -24.102    76.464     2.272     0.000    66.503   -24.102    31.417     2.272     0.000
      6.918  3271.9   0.150  -0.979  34.892  2342.362  2422.291     2.755     0.000   129.900    10.280    28.153    69.824   0.869   -10.502     0.000    87.013     0.000    43.799   -23.928    51.113     2.365     0.000    43.799   -23.928    41.751     2.365     0.000
      6.549  3271.9   0.150  -0.979  34.892  2342.425  2422.493     2.755     0.000   129.966    10.280    28.153    69.895   0.870   -10.429     0.000    86.978     0.000    66.040   -24.120    75.828     2.264     0.000    66.040   -24.120    31.197     2.264     0.000
      6.181  3271.9   0.150  -0.979  34.892  2342.301  2422.302     2.755     0.000   129.999    10.280    28.153    69.858   0.870   -10.468     0.000    87.014     0.000    41.887   -23.856    49.155     2.396     0.000    41.887   -23.856    39.269     2.396     0.000
      5.812  3271.9   0.150  -0.979  34.892  2342.515  2422.778     2.755     0.000   130.031    10.280    28.153    69.993   0.871   -10.331     0.000    86.938     0.000    34.179   -22.966    42.726     2.722     0.000    34.179   -22.966    32.681     2.722     0.000
      5.445  3271.9   0.150  -0.979  34.892  2342.154  2422.121     2.755     0.000   130.093    10.280    28.153    69.840   0.869   -10.487     0.000    87.072     0.000    60.601   -23.797    71.244     2.391     0.000    60.601   -23.797    28.851     2.391     0.000
      5.076  3271.9   0.150  -0.979  34.892  2342.545  2423.003     2.754     0.000   130.165    10.281    28.153    70.086   0.873   -10.237     0.000    86.952     0.000    61.223   -24.157    70.090     2.247     0.000    61.223   -24.157    28.999     2.247     0.000
      4.709  3271.9   0.150  -0.979  34.892  2342.125  2422.204     2.754     0.000   130.193    10.280    28.152    69.891   0.870   -10.435     0.000    87.053     0.000    64.551   -23.945    75.059     2.332     0.000    64.551   -23.945    30.553     2.332     0.000
      4.340  3271.9   0.150  -0.979  34.892  2342.399  2422.788     2.755     0.000   130.211    10.280    28.153    70.050   0.872   -10.274     0.000    86.984     0.000    44.649   -23.268    54.596     2.602     0.000    44.649   -23.268    42.372     2.602     0.000
      3.973  3271.9   0.150  -0.979  34.892  2342.117  2422.329     2.754     0.000   130.297    10.280    28.152    69.957   0.871   -10.368     0.000    87.031     0.000    66.497   -24.069    76.640     2.285     0.000    66.497   -24.069    31.372     2.285     0.000
      3.605  3271.9   0.150  -0.979  34.892  2342.205  2422.562     2.754     0.000   130.314    10.280    28.153    70.032   0.872   -10.293     0.000    87.021     0.000    45.805   -23.985    53.205     2.338     0.000    45.805   -23.985    43.377     2.338     0.000
      3.237  3271.9   0.150  -0.978  34.892  2342.227  2422.670     2.754     0.000   130.365    10.280    28.153    70.072   0.872   -10.252     0.000    87.008     0.000    65.239   -24.131    74.837     2.258     0.000    65.239   -24.131    30.765     2.258     0.000
      2.870  3271.9   0.150  -0.979  34.892  2341.930  2422.115     2.754     0.000   130.386    10.280    28.153    69.942   0.871   -10.385     0.000    87.071     0.000    36.888   -23.591    44.165     2.507     0.000    36.888   -23.591    34.989     2.507     0.000
      2.502  3271.9   0.150  -0.979  34.892  2342.328  2422.938     2.754     0.000   130.424    10.281    28.153    70.159   0.873   -10.165     0.000    86.982     0.000    42.618   -23.201    52.368     2.629     0.000    42.618   -23.201    39.752     2.629     0.000
      2.136  3271.9   0.150  -0.979  34.892  2342.045  2422.474     2.754     0.000   130.504    10.280    28.152    70.064   0.872   -10.261     0.000    87.052     0.000    66.499   -24.096    76.486     2.274     0.000    66.499   -24.096    31.323     2.274     0.000
      1.769  3271.9   0.150  -0.979  34.892  2341.814  2422.061     2.754     0.000   130.524    10.280    28.153    69.969   0.871   -10.358     0.000    87.110     0.000    40.089   -23.771    47.348     2.432     0.000    40.089   -23.771    37.694     2.432     0.000
      1.401  3271.9   0.150  -0.979  34.892  2342.274  2423.002     2.754     0.000   130.528    10.281    28.153    70.215   0.874   -10.109     0.000    86.975     0.000    38.818   -23.083    48.112     2.677     0.000    38.818   -23.083    36.492     2.677     0.000
      1.035  3271.9   0.150  -0.979  34.892  2341.919  2422.376     2.754     0.000   130.582    10.280    28.153    70.072   0.872   -10.254     0.000    87.048     0.000    32.348   -23.084    40.131     2.688     0.000    32.348   -23.084    31.128     2.688     0.000
      0.669  3271.9   0.150  -0.979  34.892  2341.713  2422.045     2.754     0.000   130.647    10.280    28.153    70.009   0.872   -10.319     0.000    87.123     0.000    40.139   -23.773    47.400     2.432     0.000    40.139   -23.773    37.719     2.432     0.000
      0.301  3271.9   0.150  -0.979  34.892  2342.154  2422.978     2.754     0.000   130.694    10.281    28.153    70.259   0.875   -10.064     0.000    86.988     0.000    38.835   -23.083    48.134     2.677     0.000    38.835   -23.083    36.488     2.677     0.000
