% age_kyrBP     D_m  k0_mix     T_C   S_mil    CO2_uM    ALK_uM    PO2_uM    NO3_uM     O2_uM     Ca_uM    SO4_mM    CO3_mM     ohm   dCO3_uM     POC_%     cal_%    opal_%   fsedPOC      d13C   fsedcal      d13C  fsedopal   fdisPOC      d13C   fdiscal      d13C  fdisopal
     23.862  3624.9   0.150  -1.372  34.900  2315.701  2401.803     2.621     0.000   159.024    10.272    28.159    71.783   0.834   -14.269     0.000    31.718    63.633     8.562   -21.649    12.554     3.320     3.250     8.562   -21.649    10.652     3.320     0.000
     22.683  3624.9   0.150  -1.377  34.899  2315.599  2402.050     2.625     0.000   159.180    10.271    28.159    71.951   0.836   -14.105     0.000    32.781    63.337     8.449   -21.618    12.427     3.371     3.250     8.449   -21.618    10.535     3.371     0.000
     21.509  3624.9   0.150  -1.377  34.899  2315.695  2402.212     2.626     0.000   159.233    10.271    28.159    71.986   0.837   -14.069     0.000    32.987    63.147     5.088   -21.471     7.582     3.471     3.250     5.088   -21.471     7.434     3.471     0.000
     20.335  3624.9   0.150  -1.377  34.899  2315.659  2402.192     2.626     0.000   159.243    10.271    28.159    71.992   0.837   -14.063     0.000    33.083    63.057     8.813   -21.609    12.933     3.368     3.250     8.813   -21.609    10.852     3.368     0.000
     19.162  3624.9   0.150  -1.377  34.899  2315.648  2402.191     2.626     0.000   159.276    10.271    28.159    71.998   0.837   -14.058     0.000    33.115    63.027     8.601   -21.603    12.609     3.362     3.250     8.601   -21.603    10.665     3.362     0.000
     17.989  3624.9   0.150  -1.377  34.899  2315.628  2402.193     2.626     0.000   159.298    10.271    28.159    72.008   0.837   -14.048     0.000    33.173    62.972     8.062   -21.597    11.818     3.363     3.250     8.062   -21.597    10.190     3.363     0.000
     16.816  3624.9   0.150  -1.377  34.899  2315.587  2402.187     2.626     0.000   159.370    10.271    28.159    72.024   0.837   -14.031     0.000    33.251    62.898     7.277   -21.586    10.685     3.377     3.250     7.277   -21.586     9.498     3.377     0.000
     15.644  3624.9   0.150  -1.377  34.899  2315.546  2402.180     2.626     0.000   159.431    10.271    28.159    72.041   0.837   -14.015     0.000    33.313    62.840     5.750   -21.515     8.515     3.438     3.250     5.750   -21.515     8.161     3.438     0.000
     14.473  3624.9   0.150  -1.377  34.899  2315.483  2402.149     2.626     0.000   159.495    10.271    28.159    72.055   0.837   -14.001     0.000    33.423    62.736     8.806   -21.601    12.918     3.371     3.250     8.806   -21.601    10.835     3.371     0.000
     13.302  3624.9   0.150  -1.377  34.899  2315.454  2402.163     2.626     0.000   159.570    10.271    28.159    72.075   0.838   -13.980     0.000    33.473    62.689     5.562   -21.467     8.314     3.509     3.250     5.562   -21.467     7.832     3.509     0.000
     12.131  3624.9   0.150  -1.377  34.899  2315.367  2402.131     2.625     0.000   159.657    10.271    28.159    72.102   0.838   -13.954     0.000    33.691    62.484     6.016   -21.531     8.891     3.425     3.250     6.016   -21.531     8.385     3.425     0.000
     10.962  3624.9   0.150  -1.377  34.899  2315.254  2402.089     2.625     0.000   159.767    10.271    28.159    72.134   0.838   -13.923     0.000    33.878    62.307     8.610   -21.597    12.623     3.366     3.250     8.610   -21.597    10.651     3.366     0.000
      9.794  3624.9   0.150  -1.377  34.899  2315.158  2402.078     2.625     0.000   159.918    10.271    28.159    72.174   0.839   -13.882     0.000    34.041    62.154     5.756   -21.512     8.524     3.439     3.250     5.756   -21.512     7.983     3.439     0.000
      8.628  3624.9   0.150  -1.377  34.899  2315.044  2402.056     2.624     0.000   160.059    10.271    28.159    72.217   0.839   -13.839     0.000    34.324    61.888     5.964   -21.479     8.898     3.494     3.250     5.964   -21.479     8.159     3.494     0.000
      7.463  3624.9   0.150  -1.377  34.899  2314.914  2402.028     2.624     0.000   160.252    10.271    28.159    72.265   0.840   -13.790     0.000    34.545    61.679     5.103   -21.444     7.645     3.525     3.250     5.103   -21.444     7.390     3.525     0.000
      6.299  3624.9   0.150  -1.377  34.899  2314.729  2401.957     2.624     0.000   160.449    10.271    28.159    72.318   0.840   -13.739     0.000    34.880    61.363     8.711   -21.594    12.776     3.369     3.250     8.711   -21.594    10.709     3.369     0.000
      5.138  3624.9   0.150  -1.377  34.899  2314.610  2401.951     2.623     0.000   160.629    10.271    28.159    72.371   0.841   -13.685     0.000    35.145    61.114     5.106   -21.441     7.651     3.526     3.250     5.106   -21.441     7.371     3.526     0.000
      3.978  3624.9   0.150  -1.377  34.899  2314.457  2401.903     2.623     0.000   160.810    10.271    28.159    72.420   0.842   -13.636     0.000    35.442    60.834     5.971   -21.474     8.910     3.496     3.250     5.971   -21.474     8.123     3.496     0.000
      2.820  3624.9   0.150  -1.377  34.899  2314.306  2401.849     2.622     0.000   160.965    10.271    28.159    72.465   0.842   -13.593     0.000    35.730    60.563     8.277   -21.576    12.193     3.405     3.250     8.277   -21.576    10.305     3.405     0.000
      1.664  3624.9   0.150  -1.377  34.899  2314.198  2401.842     2.622     0.000   161.131    10.271    28.159    72.513   0.843   -13.544     0.000    35.969    60.338     5.402   -21.450     8.085     3.519     3.250     5.402   -21.450     7.602     3.519     0.000
      0.509  3624.9   0.150  -1.377  34.899  2313.998  2401.768     2.622     0.000   161.378    10.271    28.159    72.571   0.843   -13.486     0.000    36.319    60.008     8.756   -21.590    12.866     3.386     3.250     8.756   -21.590    10.708     3.386     0.000
