% age_kyrBP     D_m  k0_mix     T_C   S_mil    CO2_uM    ALK_uM    PO2_uM    NO3_uM     O2_uM     Ca_uM    SO4_mM    CO3_mM     ohm   dCO3_uM     POC_%     cal_%    opal_%   fsedPOC      d13C   fsedcal      d13C  fsedopal   fdisPOC      d13C   fdiscal      d13C  fdisopal
     23.989  3890.2   0.150  -1.382  34.900  2314.040  2399.856     2.615     0.000   159.957    10.271    28.159    71.202   0.787   -19.315     0.000    25.187    70.652    12.634   -22.231    17.623     3.179     3.784    12.634   -22.231    15.897     3.179     0.000
     22.937  3890.2   0.150  -1.389  34.899  2313.921  2400.139     2.619     0.000   160.310    10.270    28.158    71.395   0.789   -19.128     0.000    26.134    70.352     7.121   -21.905    10.230     3.409     3.784     7.121   -21.905    10.812     3.400     0.000
     21.887  3890.2   0.150  -1.389  34.899  2313.933  2400.242     2.620     0.000   160.351    10.270    28.159    71.440   0.789   -19.083     0.000    26.502    70.004    13.570   -22.190    18.925     3.215     3.784    13.570   -22.190    16.805     3.215     0.000
     20.839  3890.2   0.150  -1.389  34.899  2313.956  2400.290     2.620     0.000   160.380    10.270    28.159    71.452   0.789   -19.071     0.000    26.630    69.883    12.704   -22.185    17.710     3.220     3.784    12.704   -22.185    15.979     3.220     0.000
     19.791  3890.2   0.150  -1.389  34.899  2313.961  2400.295     2.620     0.000   160.383    10.270    28.158    71.451   0.789   -19.071     0.000    26.629    69.883    11.450   -22.174    15.984     3.237     3.784    11.450   -22.174    14.939     3.237     0.000
     18.743  3890.2   0.150  -1.389  34.899  2313.952  2400.294     2.620     0.000   160.378    10.270    28.158    71.455   0.789   -19.067     0.000    26.614    69.897     9.888   -22.131    13.869     3.275     3.784     9.888   -22.131    13.272     3.275     0.000
     17.696  3890.2   0.150  -1.389  34.899  2313.902  2400.280     2.620     0.000   160.458    10.270    28.159    71.475   0.790   -19.048     0.000    26.702    69.814    13.261   -22.143    18.576     3.259     3.784    13.261   -22.143    16.552     3.259     0.000
     16.649  3890.2   0.150  -1.389  34.899  2313.884  2400.287     2.620     0.000   160.492    10.270    28.158    71.485   0.790   -19.037     0.000    26.752    69.766     7.049   -21.876    10.126     3.434     3.784     7.049   -21.876    10.745     3.424     0.000
     15.602  3890.2   0.150  -1.389  34.899  2313.840  2400.282     2.620     0.000   160.574    10.270    28.159    71.504   0.790   -19.018     0.000    26.863    69.661     8.185   -21.910    11.728     3.414     3.784     8.185   -21.910    11.751     3.414     0.000
     14.555  3890.2   0.150  -1.389  34.899  2313.793  2400.258     2.620     0.000   160.616    10.270    28.158    71.512   0.790   -19.010     0.000    26.935    69.592    10.309   -22.143    14.436     3.266     3.784    10.309   -22.143    13.640     3.266     0.000
     13.510  3890.2   0.150  -1.389  34.899  2313.747  2400.250     2.620     0.000   160.682    10.270    28.158    71.531   0.790   -18.992     0.000    27.012    69.519     7.281   -21.916    10.410     3.404     3.784     7.281   -21.916    10.945     3.397     0.000
     12.464  3890.2   0.150  -1.389  34.899  2313.686  2400.240     2.620     0.000   160.756    10.270    28.159    71.556   0.790   -18.967     0.000    27.155    69.382     7.910   -21.898    11.346     3.423     3.784     7.910   -21.898    11.501     3.421     0.000
     11.419  3890.2   0.150  -1.389  34.899  2313.586  2400.204     2.619     0.000   160.864    10.270    28.159    71.586   0.791   -18.937     0.000    27.371    69.177    11.676   -22.059    16.476     3.306     3.784    11.676   -22.059    14.849     3.306     0.000
     10.375  3890.2   0.150  -1.389  34.899  2313.503  2400.189     2.619     0.000   160.985    10.270    28.158    71.617   0.791   -18.906     0.000    27.539    69.017     7.269   -21.875    10.446     3.437     3.784     7.269   -21.875    10.926     3.429     0.000
      9.332  3890.2   0.150  -1.390  34.899  2313.384  2400.154     2.619     0.000   161.116    10.270    28.159    71.658   0.792   -18.866     0.000    27.769    68.798    12.123   -22.079    17.073     3.294     3.784    12.123   -22.079    15.529     3.294     0.000
      8.290  3890.2   0.150  -1.389  34.899  2313.263  2400.116     2.618     0.000   161.245    10.270    28.158    71.693   0.792   -18.831     0.000    28.143    68.442    12.144   -22.170    16.941     3.234     3.784    12.144   -22.170    15.265     3.234     0.000
      7.250  3890.2   0.150  -1.389  34.899  2313.154  2400.107     2.618     0.000   161.428    10.270    28.159    71.741   0.793   -18.782     0.000    28.275    68.315     7.275   -21.872    10.457     3.438     3.784     7.275   -21.872    10.919     3.431     0.000
      6.210  3890.2   0.150  -1.389  34.899  2312.983  2400.043     2.618     0.000   161.631    10.270    28.159    71.792   0.793   -18.732     0.000    28.571    68.034    13.870   -22.160    19.381     3.243     3.784    13.870   -22.160    17.024     3.243     0.000
      5.172  3890.2   0.150  -1.389  34.899  2312.849  2400.011     2.617     0.000   161.792    10.270    28.159    71.840   0.794   -18.685     0.000    28.799    67.816    13.770   -22.154    19.256     3.249     3.784    13.770   -22.154    16.937     3.249     0.000
      4.135  3890.2   0.150  -1.389  34.899  2312.734  2399.993     2.617     0.000   161.965    10.270    28.158    71.883   0.794   -18.640     0.000    28.945    67.678     7.300   -21.906    10.443     3.406     3.784     7.300   -21.906    10.916     3.400     0.000
      3.099  3890.2   0.150  -1.389  34.899  2312.619  2399.968     2.616     0.000   162.112    10.270    28.158    71.926   0.795   -18.598     0.000    29.153    67.479     7.072   -21.863    10.164     3.438     3.784     7.072   -21.863    10.705     3.429     0.000
      2.064  3890.2   0.150  -1.389  34.899  2312.499  2399.941     2.616     0.000   162.279    10.270    28.158    71.970   0.795   -18.554     0.000    29.397    67.247     7.931   -21.887    11.383     3.426     3.784     7.931   -21.887    11.462     3.425     0.000
      1.029  3890.2   0.150  -1.389  34.899  2312.347  2399.885     2.616     0.000   162.422    10.270    28.158    72.013   0.796   -18.512     0.000    29.661    66.995    11.138   -22.150    15.569     3.252     3.784    11.138   -22.150    14.313     3.252     0.000
