% age_kyrBP     D_m  k0_mix     T_C   S_mil    CO2_uM    ALK_uM    PO2_uM    NO3_uM     O2_uM     Ca_uM    SO4_mM    CO3_mM     ohm   dCO3_uM     POC_%     cal_%    opal_%   fsedPOC      d13C   fsedcal      d13C  fsedopal   fdisPOC      d13C   fdiscal      d13C  fdisopal
     23.727  4713.5   0.150  -1.393  34.927  2334.332  2426.188     2.667     0.000   151.484    10.291    28.181    73.363   0.695   -32.177     0.000     1.098    91.998     5.279   -21.053     8.481     3.787     3.267     5.279   -21.053     8.416     3.787     0.000
     22.425  4713.5   0.150  -1.399  34.927  2334.742  2427.082     2.672     0.000   151.343    10.291    28.181    73.611   0.697   -31.931     0.000     1.156    92.138     5.251   -21.023     8.437     3.811     3.267     5.251   -21.023     8.411     3.811     0.000
     21.123  4713.5   0.150  -1.399  34.927  2334.872  2427.298     2.673     0.000   151.412    10.291    28.181    73.656   0.698   -31.884     0.000     1.165    92.130     5.207   -21.007     8.369     3.823     3.267     5.207   -21.007     8.379     3.823     0.000
     19.821  4713.5   0.150  -1.399  34.927  2334.856  2427.292     2.673     0.000   151.410    10.291    28.181    73.660   0.698   -31.880     0.000     1.165    92.130     5.160   -20.999     8.298     3.832     3.267     5.160   -20.999     8.346     3.832     0.000
     18.518  4713.5   0.150  -1.399  34.927  2334.833  2427.283     2.673     0.000   151.430    10.291    28.181    73.667   0.698   -31.874     0.000     1.167    92.128     5.139   -20.997     8.267     3.838     3.267     5.139   -20.997     8.331     3.838     0.000
     17.217  4713.5   0.150  -1.399  34.927  2334.795  2427.278     2.673     0.000   151.493    10.291    28.181    73.682   0.698   -31.859     0.000     1.180    92.116     5.353   -21.012     8.601     3.827     3.267     5.353   -21.012     8.495     3.827     0.000
     15.915  4713.5   0.150  -1.399  34.927  2334.766  2427.287     2.673     0.000   151.551    10.291    28.181    73.700   0.698   -31.840     0.000     1.182    92.114     5.316   -21.009     8.541     3.828     3.267     5.316   -21.009     8.466     3.828     0.000
     14.613  4713.5   0.150  -1.399  34.927  2334.721  2427.275     2.673     0.000   151.597    10.291    28.181    73.716   0.698   -31.824     0.000     1.182    92.114     5.265   -21.004     8.460     3.830     3.267     5.265   -21.004     8.425     3.830     0.000
     13.311  4713.5   0.150  -1.399  34.927  2334.668  2427.265     2.673     0.000   151.684    10.291    28.181    73.737   0.699   -31.804     0.000     1.184    92.112     5.221   -20.998     8.392     3.832     3.267     5.221   -20.998     8.392     3.832     0.000
     12.009  4713.5   0.150  -1.399  34.927  2334.592  2427.246     2.672     0.000   151.732    10.291    28.181    73.763   0.699   -31.779     0.000     1.196    92.101     5.319   -21.011     8.553     3.836     3.267     5.319   -21.011     8.468     3.836     0.000
     10.707  4713.5   0.150  -1.399  34.927  2334.490  2427.224     2.672     0.000   151.872    10.291    28.181    73.800   0.699   -31.741     0.000     1.208    92.090     5.362   -21.012     8.618     3.832     3.267     5.362   -21.012     8.504     3.832     0.000
      9.405  4713.5   0.150  -1.399  34.927  2334.391  2427.217     2.672     0.000   152.027    10.291    28.181    73.844   0.700   -31.697     0.000     1.207    92.090     5.142   -20.993     8.273     3.842     3.267     5.142   -20.993     8.336     3.842     0.000
      8.103  4713.5   0.150  -1.399  34.927  2334.283  2427.210     2.672     0.000   152.159    10.291    28.181    73.892   0.700   -31.649     0.000     1.219    92.079     5.163   -20.995     8.308     3.844     3.267     5.163   -20.995     8.353     3.844     0.000
      6.802  4713.5   0.150  -1.399  34.927  2334.153  2427.197     2.671     0.000   152.360    10.291    28.181    73.948   0.701   -31.593     0.000     1.237    92.062     5.308   -21.004     8.529     3.831     3.267     5.308   -21.004     8.463     3.831     0.000
      5.500  4713.5   0.150  -1.399  34.927  2333.991  2427.161     2.671     0.000   152.547    10.291    28.181    74.007   0.701   -31.535     0.000     1.248    92.052     5.231   -21.000     8.416     3.842     3.267     5.231   -21.000     8.404     3.842     0.000
      4.198  4713.5   0.150  -1.399  34.927  2333.859  2427.147     2.671     0.000   152.732    10.291    28.181    74.063   0.702   -31.479     0.000     1.264    92.038     5.282   -21.003     8.497     3.841     3.267     5.282   -21.003     8.444     3.841     0.000
      2.897  4713.5   0.150  -1.399  34.927  2333.761  2427.155     2.670     0.000   152.870    10.291    28.181    74.114   0.702   -31.427     0.000     1.271    92.031     5.192   -20.990     8.348     3.837     3.267     5.192   -20.990     8.375     3.837     0.000
      1.595  4713.5   0.150  -1.399  34.927  2333.618  2427.118     2.670     0.000   153.034    10.291    28.181    74.164   0.703   -31.378     0.000     1.292    92.011     5.362   -21.006     8.619     3.835     3.267     5.362   -21.006     8.508     3.835     0.000
      0.293  4713.5   0.150  -1.399  34.927  2333.476  2427.113     2.670     0.000   153.254    10.291    28.181    74.230   0.703   -31.312     0.000     1.298    92.006     5.148   -20.987     8.284     3.844     3.267     5.148   -20.987     8.346     3.844     0.000
