% age_kyrBP     D_m  k0_mix     T_C   S_mil    CO2_uM    ALK_uM    PO2_uM    NO3_uM     O2_uM     Ca_uM    SO4_mM    CO3_mM     ohm   dCO3_uM     POC_%     cal_%    opal_%   fsedPOC      d13C   fsedcal      d13C  fsedopal   fdisPOC      d13C   fdiscal      d13C  fdisopal
     24.024  3593.0   0.150  -1.148  35.029  2280.502  2387.244     2.305     0.000   168.082    10.292    28.264    81.699   0.953    -4.034     0.000    55.242    33.290     4.142   -21.668     6.282     3.792     3.115     4.142   -21.668     3.668     3.792     0.000
     23.180  3593.0   0.150  -1.131  35.032  2276.614  2385.424     2.282     0.000   170.445    10.295    28.265    82.707   0.965    -3.010     0.000    59.542    30.498     5.701   -21.726     8.559     3.748     3.115     5.701   -21.726     4.778     3.748     0.000
     22.354  3593.0   0.150  -1.130  35.032  2276.086  2385.233     2.279     0.000   170.756    10.295    28.266    82.874   0.967    -2.841     0.000    60.016    30.151     5.713   -21.725     8.534     3.711     3.115     5.713   -21.725     4.753     3.711     0.000
     21.531  3593.0   0.150  -1.132  35.031  2276.248  2385.379     2.280     0.000   170.755    10.295    28.265    82.869   0.967    -2.844     0.000    60.051    30.125     4.958   -21.679     7.444     3.753     3.115     4.958   -21.679     4.121     3.753     0.000
     20.709  3593.0   0.150  -1.132  35.031  2276.247  2385.391     2.280     0.000   170.767    10.295    28.265    82.876   0.967    -2.837     0.000    60.056    30.121     4.315   -21.627     6.521     3.803     3.115     4.315   -21.627     3.583     3.803     0.000
     19.886  3593.0   0.150  -1.132  35.031  2276.245  2385.391     2.280     0.000   170.778    10.295    28.265    82.877   0.967    -2.837     0.000    60.060    30.118     4.121   -21.616     6.248     3.834     3.115     4.121   -21.616     3.422     3.834     0.000
     19.063  3593.0   0.150  -1.132  35.031  2276.245  2385.395     2.281     0.000   170.791    10.295    28.265    82.879   0.967    -2.834     0.000    60.066    30.113     4.339   -21.631     6.575     3.837     3.115     4.339   -21.631     3.603     3.837     0.000
     18.240  3593.0   0.150  -1.132  35.031  2276.203  2385.372     2.280     0.000   170.813    10.295    28.265    82.888   0.967    -2.826     0.000    60.090    30.095     6.210   -21.723     9.258     3.713     3.115     6.210   -21.723     5.169     3.713     0.000
     17.417  3593.0   0.150  -1.132  35.031  2276.199  2385.382     2.280     0.000   170.847    10.295    28.265    82.895   0.967    -2.819     0.000    60.102    30.087     5.532   -21.699     8.275     3.735     3.115     5.532   -21.699     4.597     3.735     0.000
     16.595  3593.0   0.150  -1.132  35.031  2276.160  2385.368     2.280     0.000   170.873    10.295    28.265    82.908   0.967    -2.807     0.000    60.126    30.069     6.639   -21.735     9.915     3.736     3.115     6.639   -21.735     5.528     3.736     0.000
     15.773  3593.0   0.150  -1.132  35.031  2276.135  2385.364     2.280     0.000   170.912    10.295    28.265    82.918   0.967    -2.796     0.000    60.150    30.051     7.015   -21.739    10.449     3.712     3.115     7.015   -21.739     5.844     3.712     0.000
     14.951  3593.0   0.150  -1.132  35.031  2276.121  2385.367     2.280     0.000   170.943    10.295    28.265    82.927   0.967    -2.787     0.000    60.168    30.037     6.602   -21.728     9.833     3.708     3.115     6.602   -21.728     5.492     3.708     0.000
     14.129  3593.0   0.150  -1.132  35.031  2276.105  2385.377     2.280     0.000   170.980    10.295    28.265    82.941   0.968    -2.774     0.000    60.184    30.025     5.721   -21.704     8.549     3.729     3.115     5.721   -21.704     4.746     3.729     0.000
     13.308  3593.0   0.150  -1.132  35.031  2276.070  2385.369     2.280     0.000   171.034    10.295    28.265    82.954   0.968    -2.761     0.000    60.210    30.005     6.786   -21.737    10.129     3.731     3.115     6.786   -21.737     5.643     3.731     0.000
     12.487  3593.0   0.150  -1.132  35.031  2276.052  2385.386     2.280     0.000   171.089    10.295    28.265    82.972   0.968    -2.742     0.000    60.229    29.991     4.198   -21.616     6.366     3.842     3.115     4.198   -21.616     3.467     3.842     0.000
     11.666  3593.0   0.150  -1.132  35.031  2276.005  2385.377     2.280     0.000   171.162    10.295    28.265    82.991   0.968    -2.723     0.000    60.272    29.959     5.152   -21.665     7.768     3.805     3.115     5.152   -21.665     4.258     3.805     0.000
     10.845  3593.0   0.150  -1.132  35.031  2275.947  2385.364     2.280     0.000   171.227    10.295    28.265    83.013   0.968    -2.702     0.000    60.320    29.922     6.653   -21.731     9.938     3.738     3.115     6.653   -21.731     5.517     3.738     0.000
     10.025  3593.0   0.150  -1.132  35.031  2275.884  2385.356     2.280     0.000   171.321    10.295    28.265    83.041   0.969    -2.674     0.000    60.372    29.883     6.812   -21.728    10.146     3.709     3.115     6.812   -21.728     5.645     3.709     0.000
      9.205  3593.0   0.150  -1.132  35.031  2275.843  2385.372     2.280     0.000   171.407    10.295    28.265    83.071   0.969    -2.644     0.000    60.415    29.851     5.360   -21.683     8.029     3.746     3.115     5.360   -21.683     4.416     3.746     0.000
      8.386  3593.0   0.150  -1.132  35.031  2275.768  2385.351     2.279     0.000   171.499    10.295    28.265    83.097   0.969    -2.618     0.000    60.475    29.805     7.010   -21.732    10.442     3.712     3.115     7.010   -21.732     5.800     3.712     0.000
      7.568  3593.0   0.150  -1.132  35.031  2275.710  2385.357     2.279     0.000   171.621    10.295    28.265    83.129   0.970    -2.585     0.000    60.527    29.766     5.928   -21.696     8.896     3.770     3.115     5.928   -21.696     4.880     3.770     0.000
      6.750  3593.0   0.150  -1.132  35.031  2275.651  2385.369     2.279     0.000   171.733    10.295    28.265    83.166   0.970    -2.548     0.000    60.579    29.727     4.278   -21.614     6.488     3.843     3.115     4.278   -21.614     3.495     3.843     0.000
      5.932  3593.0   0.150  -1.132  35.031  2275.567  2385.356     2.279     0.000   171.851    10.295    28.265    83.202   0.971    -2.512     0.000    60.646    29.676     4.629   -21.631     6.978     3.790     3.115     4.629   -21.631     3.779     3.790     0.000
      5.116  3593.0   0.150  -1.132  35.031  2275.497  2385.353     2.279     0.000   171.955    10.295    28.265    83.236   0.971    -2.479     0.000    60.712    29.627     5.173   -21.656     7.803     3.807     3.115     5.173   -21.656     4.225     3.807     0.000
      4.300  3593.0   0.150  -1.132  35.031  2275.438  2385.361     2.279     0.000   172.070    10.295    28.265    83.270   0.971    -2.444     0.000    60.769    29.584     4.285   -21.610     6.500     3.844     3.115     4.285   -21.610     3.481     3.844     0.000
      3.485  3593.0   0.150  -1.132  35.031  2275.365  2385.355     2.278     0.000   172.165    10.295    28.265    83.304   0.972    -2.410     0.000    60.824    29.542     4.182   -21.595     6.339     3.832     3.115     4.182   -21.595     3.389     3.832     0.000
      2.669  3593.0   0.150  -1.132  35.031  2275.305  2385.351     2.278     0.000   172.267    10.295    28.265    83.332   0.972    -2.382     0.000    60.881    29.499     4.814   -21.640     7.247     3.779     3.115     4.814   -21.640     3.907     3.779     0.000
      1.855  3593.0   0.150  -1.132  35.031  2275.236  2385.339     2.278     0.000   172.367    10.295    28.265    83.361   0.973    -2.353     0.000    60.938    29.456     5.389   -21.674     8.076     3.748     3.115     5.389   -21.674     4.380     3.748     0.000
      1.042  3593.0   0.150  -1.132  35.031  2275.160  2385.334     2.278     0.000   172.482    10.295    28.265    83.396   0.973    -2.318     0.000    61.000    29.410     5.558   -21.668     8.365     3.791     3.115     5.558   -21.668     4.514     3.791     0.000
      0.229  3593.0   0.150  -1.132  35.031  2275.064  2385.332     2.278     0.000   172.632    10.295    28.265    83.444   0.974    -2.271     0.000    61.077    29.351     5.372   -21.658     8.096     3.800     3.115     5.372   -21.658     4.349     3.800     0.000
