% age_kyrBP     D_m  k0_mix     T_C   S_mil    CO2_uM    ALK_uM    PO2_uM    NO3_uM     O2_uM     Ca_uM    SO4_mM    CO3_mM     ohm   dCO3_uM     POC_%     cal_%    opal_%   fsedPOC      d13C   fsedcal      d13C  fsedopal   fdisPOC      d13C   fdiscal      d13C  fdisopal
     24.538  1733.1   0.150   5.539  34.782  2229.824  2330.240     2.159     0.000   113.039    10.212    28.064    82.069   1.399    23.421     0.000    10.308    76.217    29.398   -20.126    12.243     3.945     8.242    29.398   -20.126    11.715     3.945     0.000
     24.067  1733.1   0.150   5.585  34.784  2224.426  2324.231     2.154     0.000   113.886    10.204    28.066    81.636   1.391    22.945     0.000     8.662    77.842    29.564   -20.312    12.372     4.044     8.242    29.564   -20.312    11.779     4.044     0.000
     23.596  1733.1   0.150   5.570  34.785  2222.739  2322.939     2.149     0.000   114.789    10.203    28.067    81.805   1.394    23.102     0.000     8.572    77.919    31.157   -20.328    13.023     4.057     8.242    31.157   -20.328    12.447     4.057     0.000
     23.125  1733.1   0.150   5.578  34.785  2222.173  2322.623     2.147     0.000   115.009    10.203    28.067    81.929   1.396    23.227     0.000     8.557    77.932    29.217   -20.074    12.130     3.973     8.242    29.217   -20.074    11.665     3.973     0.000
     22.653  1733.1   0.150   5.587  34.785  2221.902  2322.527     2.146     0.000   115.053    10.203    28.067    82.018   1.397    23.318     0.000     8.602    77.894    29.908   -20.333    12.534     4.090     8.242    29.908   -20.333    11.921     4.090     0.000
     22.182  1733.1   0.150   5.568  34.785  2222.215  2322.637     2.148     0.000   115.042    10.203    28.067    81.910   1.395    23.205     0.000     8.623    77.875    31.129   -20.254    12.990     4.056     8.242    31.129   -20.254    12.439     4.056     0.000
     21.711  1733.1   0.150   5.582  34.785  2222.082  2322.659     2.147     0.000   115.038    10.203    28.067    81.996   1.397    23.295     0.000     8.627    77.872    29.125   -20.067    12.115     3.997     8.242    29.125   -20.067    11.626     3.997     0.000
     21.239  1733.1   0.150   5.585  34.785  2222.040  2322.650     2.147     0.000   115.021    10.203    28.067    82.012   1.397    23.312     0.000     8.643    77.859    30.422   -20.355    12.757     4.113     8.242    30.422   -20.355    12.129     4.113     0.000
     20.768  1733.1   0.150   5.590  34.785  2221.978  2322.644     2.146     0.000   115.022    10.203    28.067    82.042   1.398    23.344     0.000     8.635    77.865    29.333   -20.224    12.260     4.068     8.242    29.333   -20.224    11.697     4.068     0.000
     20.297  1733.1   0.150   5.573  34.785  2222.229  2322.698     2.148     0.000   115.011    10.203    28.067    81.934   1.396    23.231     0.000     8.638    77.863    31.116   -20.322    13.027     4.101     8.242    31.116   -20.322    12.426     4.101     0.000
     19.826  1733.1   0.150   5.575  34.785  2222.218  2322.713     2.148     0.000   115.018    10.203    28.067    81.949   1.396    23.247     0.000     8.636    77.864    29.355   -20.055    12.187     3.998     8.242    29.355   -20.055    11.724     3.998     0.000
     19.354  1733.1   0.150   5.590  34.785  2221.977  2322.640     2.146     0.000   115.024    10.203    28.067    82.041   1.398    23.342     0.000     8.647    77.855    29.599   -20.277    12.400     4.096     8.242    29.599   -20.277    11.797     4.096     0.000
     18.883  1733.1   0.150   5.569  34.785  2222.296  2322.717     2.148     0.000   115.002    10.203    28.067    81.912   1.395    23.208     0.000     8.636    77.865    31.161   -20.274    13.023     4.085     8.242    31.161   -20.274    12.460     4.085     0.000
     18.412  1733.1   0.150   5.579  34.785  2222.154  2322.697     2.147     0.000   115.023    10.203    28.067    81.977   1.397    23.276     0.000     8.636    77.865    29.171   -20.047    12.122     4.001     8.242    29.171   -20.047    11.652     4.001     0.000
     17.940  1733.1   0.150   5.588  34.785  2222.019  2322.648     2.147     0.000   115.018    10.203    28.067    82.023   1.397    23.323     0.000     8.646    77.856    30.059   -20.327    12.602     4.116     8.242    30.059   -20.327    11.983     4.116     0.000
     17.469  1733.1   0.150   5.567  34.785  2222.346  2322.738     2.149     0.000   114.992    10.203    28.067    81.896   1.395    23.192     0.000     8.637    77.864    31.107   -20.218    12.973     4.063     8.242    31.107   -20.218    12.440     4.063     0.000
     16.998  1733.1   0.150   5.583  34.785  2222.105  2322.686     2.147     0.000   115.021    10.203    28.067    81.999   1.397    23.299     0.000     8.641    77.861    29.124   -20.064    12.122     4.013     8.242    29.124   -20.064    11.626     4.013     0.000
     16.527  1733.1   0.150   5.572  34.785  2222.277  2322.726     2.149     0.000   115.002    10.203    28.067    81.927   1.396    23.224     0.000     8.637    77.864    29.683   -20.064    12.329     4.007     8.242    29.683   -20.064    11.858     4.007     0.000
     16.055  1733.1   0.150   5.590  34.785  2222.000  2322.652     2.147     0.000   115.015    10.203    28.067    82.035   1.398    23.337     0.000     8.648    77.855    29.384   -20.234    12.297     4.084     8.242    29.384   -20.234    11.714     4.084     0.000
     15.584  1733.1   0.150   5.572  34.785  2222.276  2322.715     2.149     0.000   115.000    10.203    28.067    81.921   1.396    23.218     0.000     8.648    77.854    31.151   -20.305    13.033     4.101     8.242    31.151   -20.305    12.453     4.101     0.000
     15.113  1733.1   0.150   5.576  34.785  2222.228  2322.719     2.148     0.000   115.007    10.203    28.067    81.949   1.396    23.247     0.000     8.642    77.859    29.300   -20.042    12.171     4.001     8.242    29.300   -20.042    11.707     4.001     0.000
     14.641  1733.1   0.150   5.589  34.785  2222.025  2322.657     2.147     0.000   115.007    10.203    28.067    82.025   1.397    23.326     0.000     8.652    77.851    29.758   -20.293    12.470     4.107     8.242    29.758   -20.293    11.866     4.107     0.000
     14.170  1733.1   0.150   5.569  34.785  2222.347  2322.736     2.150     0.000   114.982    10.203    28.067    81.895   1.395    23.191     0.000     8.643    77.859    31.181   -20.254    13.021     4.080     8.242    31.181   -20.254    12.466     4.080     0.000
     13.699  1733.1   0.150   5.580  34.785  2222.176  2322.707     2.148     0.000   115.008    10.203    28.067    81.970   1.396    23.269     0.000     8.643    77.859    29.168   -20.045    12.129     4.006     8.242    29.168   -20.045    11.652     4.006     0.000
     13.227  1733.1   0.150   5.586  34.785  2222.073  2322.667     2.148     0.000   115.004    10.203    28.067    82.004   1.397    23.304     0.000     8.656    77.848    30.260   -20.335    12.687     4.121     8.242    30.260   -20.335    12.068     4.121     0.000
     12.756  1733.1   0.150   5.590  34.785  2222.037  2322.666     2.148     0.000   115.005    10.203    28.067    82.023   1.397    23.325     0.000     8.643    77.858    29.311   -20.188    12.251     4.067     8.242    29.311   -20.188    11.696     4.067     0.000
     12.285  1733.1   0.150   5.574  34.785  2222.275  2322.717     2.150     0.000   114.987    10.203    28.067    81.921   1.396    23.218     0.000     8.638    77.863    31.133   -20.328    13.039     4.114     8.242    31.133   -20.328    12.439     4.114     0.000
     11.814  1733.1   0.150   5.574  34.785  2222.309  2322.744     2.150     0.000   114.982    10.203    28.067    81.917   1.395    23.215     0.000     8.644    77.857    29.580   -20.050    12.288     4.004     8.242    29.580   -20.050    11.822     4.004     0.000
     11.342  1733.1   0.150   5.590  34.785  2222.053  2322.673     2.148     0.000   114.992    10.203    28.067    82.018   1.397    23.320     0.000     8.650    77.852    29.512   -20.251    12.362     4.093     8.242    29.512   -20.251    11.773     4.093     0.000
     10.871  1733.1   0.150   5.571  34.785  2222.359  2322.745     2.151     0.000   114.970    10.203    28.067    81.894   1.395    23.190     0.000     8.650    77.853    31.213   -20.283    13.057     4.095     8.242    31.213   -20.283    12.476     4.095     0.000
     10.400  1733.1   0.150   5.578  34.785  2222.275  2322.741     2.150     0.000   114.981    10.203    28.067    81.938   1.396    23.237     0.000     8.644    77.858    29.258   -20.039    12.156     4.003     8.242    29.258   -20.039    11.681     4.003     0.000
      9.928  1733.1   0.150   5.589  34.785  2222.105  2322.685     2.149     0.000   114.975    10.203    28.067    81.997   1.397    23.298     0.000     8.655    77.848    29.955   -20.306    12.559     4.113     8.242    29.955   -20.306    11.951     4.113     0.000
      9.457  1733.1   0.150   5.568  34.785  2222.435  2322.774     2.152     0.000   114.951    10.203    28.067    81.869   1.395    23.165     0.000     8.649    77.854    31.222   -20.231    13.031     4.073     8.242    31.222   -20.231    12.488     4.073     0.000
      8.986  1733.1   0.150   5.577  34.785  2222.296  2322.733     2.151     0.000   114.964    10.203    28.067    81.923   1.396    23.221     0.000     8.663    77.842    31.110   -20.341    13.046     4.122     8.242    31.110   -20.341    12.426     4.122     0.000
      8.515  1733.1   0.150   5.571  34.785  2222.413  2322.781     2.152     0.000   114.952    10.203    28.067    81.885   1.395    23.182     0.000     8.648    77.854    29.946   -20.071    12.443     4.012     8.242    29.946   -20.071    11.970     4.012     0.000
      8.043  1733.1   0.150   5.590  34.785  2222.123  2322.704     2.150     0.000   114.964    10.203    28.067    81.999   1.397    23.300     0.000     8.653    77.850    29.398   -20.206    12.300     4.077     8.242    29.398   -20.206    11.721     4.077     0.000
      7.572  1733.1   0.150   5.573  34.785  2222.389  2322.764     2.152     0.000   114.949    10.203    28.067    81.886   1.395    23.183     0.000     8.658    77.846    31.210   -20.310    13.074     4.109     8.242    31.210   -20.310    12.476     4.109     0.000
      7.101  1733.1   0.150   5.575  34.785  2222.391  2322.783     2.153     0.000   114.948    10.203    28.067    81.896   1.395    23.194     0.000     8.653    77.850    29.494   -20.039    12.255     4.004     8.242    29.494   -20.039    11.789     4.004     0.000
      6.629  1733.1   0.150   5.590  34.785  2222.160  2322.716     2.151     0.000   114.951    10.203    28.067    81.986   1.397    23.287     0.000     8.661    77.843    29.704   -20.266    12.451     4.101     8.242    29.704   -20.266    11.849     4.101     0.000
      6.158  1733.1   0.150   5.569  34.785  2222.496  2322.801     2.154     0.000   114.922    10.203    28.067    81.851   1.394    23.148     0.000     8.655    77.848    31.284   -20.263    13.081     4.089     8.242    31.284   -20.263    12.509     4.089     0.000
      5.687  1733.1   0.150   5.580  34.785  2222.333  2322.751     2.153     0.000   114.932    10.203    28.067    81.911   1.395    23.210     0.000     8.660    77.844    31.051   -20.347    13.027     4.127     8.242    31.051   -20.347    12.412     4.127     0.000
      5.216  1733.1   0.150   5.569  34.785  2222.533  2322.826     2.155     0.000   114.914    10.203    28.067    81.846   1.394    23.143     0.000     8.652    77.851    30.419   -20.093    12.653     4.022     8.242    30.419   -20.093    12.165     4.022     0.000
      4.744  1733.1   0.150   5.589  34.785  2222.225  2322.747     2.153     0.000   114.932    10.203    28.067    81.968   1.396    23.270     0.000     8.660    77.844    29.322   -20.156    12.258     4.060     8.242    29.322   -20.156    11.697     4.060     0.000
      4.273  1733.1   0.150   5.576  34.785  2222.438  2322.790     2.155     0.000   114.912    10.203    28.067    81.876   1.395    23.174     0.000     8.662    77.843    31.219   -20.328    13.090     4.120     8.242    31.219   -20.328    12.484     4.120     0.000
      3.802  1733.1   0.150   5.573  34.785  2222.515  2322.833     2.155     0.000   114.909    10.203    28.067    81.859   1.394    23.157     0.000     8.669    77.836    29.852   -20.049    12.411     4.009     8.242    29.852   -20.049    11.936     4.009     0.000
      3.331  1733.1   0.150   5.567  34.785  2222.600  2322.848     2.156     0.000   114.893    10.203    28.067    81.822   1.394    23.118     0.000     8.661    77.843    31.190   -20.185    13.010     4.059     8.242    31.190   -20.185    12.478     4.059     0.000
      2.860  1733.1   0.150   5.584  34.785  2222.346  2322.788     2.155     0.000   114.914    10.203    28.067    81.928   1.396    23.229     0.000     8.664    77.840    29.271   -20.069    12.190     4.022     8.242    29.271   -20.069    11.692     4.022     0.000
      2.388  1733.1   0.150   5.583  34.785  2222.359  2322.777     2.155     0.000   114.914    10.203    28.067    81.915   1.395    23.215     0.000     8.677    77.830    30.889   -20.344    12.965     4.129     8.242    30.889   -20.344    12.340     4.129     0.000
      1.917  1733.1   0.150   5.568  34.785  2222.626  2322.862     2.157     0.000   114.884    10.203    28.067    81.816   1.394    23.113     0.000     8.671    77.835    30.815   -20.123    12.836     4.036     8.242    30.815   -20.123    12.325     4.036     0.000
      1.446  1733.1   0.150   5.588  34.785  2222.328  2322.789     2.155     0.000   114.903    10.203    28.067    81.936   1.396    23.238     0.000     8.672    77.834    29.371   -20.113    12.261     4.043     8.242    29.371   -20.113    11.728     4.043     0.000
      0.975  1733.1   0.150   5.578  34.785  2222.493  2322.838     2.157     0.000   114.895    10.203    28.067    81.875   1.395    23.175     0.000     8.670    77.836    29.386   -20.026    12.221     4.005     8.242    29.386   -20.026    11.742     4.005     0.000
      0.503  1733.1   0.150   5.589  34.785  2222.333  2322.779     2.156     0.000   114.885    10.203    28.067    81.928   1.396    23.229     0.000     8.671    77.835    30.100   -20.294    12.629     4.115     8.242    30.100   -20.294    12.010     4.115     0.000
      0.032  1733.1   0.150   5.568  34.785  2222.670  2322.876     2.159     0.000   114.861    10.203    28.067    81.800   1.393    23.097     0.000     8.677    77.830    31.363   -20.219    13.103     4.076     8.242    31.363   -20.219    12.563     4.076     0.000
