% age_kyrBP     D_m  k0_mix     T_C   S_mil    CO2_uM    ALK_uM    PO2_uM    NO3_uM     O2_uM     Ca_uM    SO4_mM    CO3_mM     ohm   dCO3_uM     POC_%     cal_%    opal_%   fsedPOC      d13C   fsedcal      d13C  fsedopal   fdisPOC      d13C   fdiscal      d13C  fdisopal
     24.366  5602.2   0.150  -0.968  35.031  2299.542  2411.492     2.345     0.000   146.043    10.287    28.265    81.541   0.654   -43.194     0.000     0.092    20.121     2.535   -20.831     4.203     3.838     1.755     2.535   -20.831     4.139     3.838     0.000
     23.720  5602.2   0.150  -0.794  35.054  2279.988  2404.674     2.186     0.000   158.491    10.307    28.284    87.858   0.705   -36.739     0.000     0.216    20.127     2.225   -20.813     3.697     3.891     1.755     2.225   -20.813     3.929     3.889     0.000
     23.074  5602.2   0.150  -0.782  35.056  2276.929  2403.038     2.168     0.000   160.421    10.310    28.285    88.555   0.711   -36.013     0.000     0.245    20.121     2.200   -20.836     3.660     3.929     1.755     2.200   -20.836     3.899     3.925     0.000
     22.428  5602.2   0.150  -0.778  35.056  2275.719  2402.375     2.161     0.000   161.031    10.310    28.285    88.827   0.713   -35.738     0.000     0.271    20.116     2.406   -20.839     3.996     3.922     1.755     2.406   -20.839     4.033     3.921     0.000
     21.783  5602.2   0.150  -0.781  35.056  2275.952  2402.571     2.163     0.000   161.051    10.310    28.285    88.811   0.713   -35.751     0.000     0.284    20.113     2.701   -20.825     4.471     3.889     1.755     2.701   -20.825     4.210     3.889     0.000
     21.137  5602.2   0.150  -0.781  35.056  2276.005  2402.624     2.163     0.000   161.034    10.310    28.285    88.813   0.713   -35.749     0.000     0.284    20.113     2.709   -20.793     4.478     3.872     1.755     2.709   -20.793     4.217     3.872     0.000
     20.491  5602.2   0.150  -0.781  35.056  2275.961  2402.604     2.163     0.000   161.050    10.310    28.285    88.821   0.713   -35.742     0.000     0.277    20.114     2.520   -20.779     4.172     3.882     1.755     2.520   -20.779     4.112     3.882     0.000
     19.846  5602.2   0.150  -0.781  35.056  2276.001  2402.627     2.163     0.000   161.046    10.310    28.285    88.816   0.713   -35.746     0.000     0.285    20.113     2.720   -20.814     4.500     3.893     1.755     2.720   -20.814     4.222     3.893     0.000
     19.200  5602.2   0.150  -0.781  35.056  2276.003  2402.635     2.163     0.000   161.042    10.310    28.285    88.820   0.713   -35.742     0.000     0.284    20.113     2.695   -20.786     4.454     3.876     1.755     2.695   -20.786     4.209     3.876     0.000
     18.554  5602.2   0.150  -0.781  35.056  2275.973  2402.619     2.163     0.000   161.055    10.310    28.285    88.822   0.713   -35.740     0.000     0.276    20.115     2.486   -20.775     4.117     3.889     1.755     2.486   -20.775     4.092     3.889     0.000
     17.908  5602.2   0.150  -0.781  35.056  2275.954  2402.605     2.163     0.000   161.073    10.310    28.285    88.825   0.713   -35.739     0.000     0.259    20.118     2.202   -20.781     3.661     3.931     1.755     2.202   -20.781     3.904     3.928     0.000
     17.262  5602.2   0.150  -0.781  35.056  2275.972  2402.626     2.163     0.000   161.082    10.310    28.285    88.827   0.713   -35.736     0.000     0.260    20.118     2.217   -20.815     3.690     3.953     1.755     2.217   -20.815     3.911     3.950     0.000
     16.617  5602.2   0.150  -0.781  35.056  2275.913  2402.598     2.163     0.000   161.120    10.310    28.285    88.842   0.713   -35.721     0.000     0.275    20.115     2.449   -20.772     4.058     3.895     1.755     2.449   -20.772     4.071     3.895     0.000
     15.971  5602.2   0.150  -0.781  35.056  2275.901  2402.597     2.163     0.000   161.138    10.310    28.285    88.852   0.713   -35.712     0.000     0.260    20.118     2.187   -20.783     3.637     3.937     1.755     2.187   -20.783     3.893     3.934     0.000
     15.325  5602.2   0.150  -0.781  35.056  2275.924  2402.617     2.163     0.000   161.150    10.310    28.285    88.847   0.713   -35.716     0.000     0.262    20.117     2.236   -20.816     3.721     3.954     1.755     2.236   -20.816     3.924     3.951     0.000
     14.679  5602.2   0.150  -0.781  35.056  2275.946  2402.642     2.163     0.000   161.154    10.310    28.285    88.852   0.713   -35.711     0.000     0.277    20.114     2.488   -20.822     4.128     3.930     1.755     2.488   -20.822     4.087     3.930     0.000
     14.034  5602.2   0.150  -0.781  35.056  2275.921  2402.640     2.163     0.000   161.187    10.310    28.285    88.860   0.713   -35.702     0.000     0.288    20.112     2.733   -20.805     4.522     3.893     1.755     2.733   -20.805     4.233     3.893     0.000
     13.388  5602.2   0.150  -0.781  35.056  2275.885  2402.628     2.163     0.000   161.217    10.310    28.285    88.873   0.713   -35.690     0.000     0.286    20.113     2.680   -20.780     4.430     3.879     1.755     2.680   -20.780     4.205     3.879     0.000
     12.742  5602.2   0.150  -0.781  35.056  2275.906  2402.648     2.163     0.000   161.233    10.310    28.285    88.876   0.714   -35.686     0.000     0.280    20.114     2.531   -20.821     4.197     3.925     1.755     2.531   -20.821     4.114     3.925     0.000
     12.097  5602.2   0.150  -0.781  35.056  2275.900  2402.665     2.163     0.000   161.265    10.310    28.285    88.887   0.714   -35.675     0.000     0.290    20.112     2.741   -20.802     4.534     3.890     1.755     2.741   -20.802     4.239     3.890     0.000
     11.451  5602.2   0.150  -0.781  35.056  2275.840  2402.641     2.163     0.000   161.319    10.310    28.285    88.903   0.714   -35.659     0.000     0.288    20.112     2.662   -20.777     4.401     3.879     1.755     2.662   -20.777     4.197     3.879     0.000
     10.805  5602.2   0.150  -0.781  35.056  2275.823  2402.643     2.163     0.000   161.341    10.310    28.285    88.912   0.714   -35.651     0.000     0.278    20.114     2.414   -20.770     4.001     3.900     1.755     2.414   -20.770     4.052     3.900     0.000
     10.159  5602.2   0.150  -0.781  35.056  2275.765  2402.624     2.163     0.000   161.403    10.310    28.285    88.933   0.714   -35.631     0.000     0.264    20.117     2.181   -20.785     3.630     3.942     1.755     2.181   -20.785     3.893     3.939     0.000
      9.514  5602.2   0.150  -0.781  35.056  2275.774  2402.656     2.163     0.000   161.445    10.310    28.285    88.945   0.714   -35.618     0.000     0.290    20.112     2.642   -20.775     4.369     3.881     1.755     2.642   -20.775     4.189     3.881     0.000
      8.868  5602.2   0.150  -0.781  35.056  2275.734  2402.644     2.163     0.000   161.492    10.310    28.285    88.958   0.714   -35.605     0.000     0.278    20.114     2.376   -20.769     3.940     3.905     1.755     2.376   -20.769     4.029     3.905     0.000
      8.222  5602.2   0.150  -0.781  35.056  2275.699  2402.641     2.163     0.000   161.536    10.310    28.285    88.978   0.714   -35.585     0.000     0.267    20.117     2.179   -20.789     3.627     3.946     1.755     2.179   -20.789     3.892     3.942     0.000
      7.576  5602.2   0.150  -0.781  35.056  2275.696  2402.662     2.163     0.000   161.595    10.310    28.285    88.987   0.714   -35.576     0.000     0.274    20.115     2.289   -20.817     3.807     3.952     1.755     2.289   -20.817     3.965     3.950     0.000
      6.930  5602.2   0.150  -0.781  35.056  2275.674  2402.675     2.163     0.000   161.653    10.310    28.285    89.009   0.715   -35.553     0.000     0.291    20.112     2.580   -20.818     4.277     3.921     1.755     2.580   -20.818     4.151     3.921     0.000
      6.285  5602.2   0.150  -0.781  35.056  2275.589  2402.641     2.163     0.000   161.721    10.310    28.285    89.034   0.715   -35.529     0.000     0.270    20.116     2.182   -20.792     3.632     3.950     1.755     2.182   -20.792     3.896     3.946     0.000
      5.639  5602.2   0.150  -0.781  35.056  2275.575  2402.664     2.163     0.000   161.787    10.310    28.285    89.054   0.715   -35.509     0.000     0.280    20.114     2.318   -20.816     3.856     3.950     1.755     2.318   -20.816     3.987     3.948     0.000
      4.993  5602.2   0.150  -0.781  35.056  2275.550  2402.679     2.163     0.000   161.844    10.310    28.285    89.075   0.715   -35.487     0.000     0.297    20.110     2.623   -20.815     4.348     3.916     1.755     2.623   -20.815     4.181     3.916     0.000
      4.348  5602.2   0.150  -0.781  35.056  2275.538  2402.703     2.163     0.000   161.907    10.310    28.285    89.092   0.715   -35.470     0.000     0.303    20.109     2.752   -20.790     4.551     3.886     1.755     2.752   -20.790     4.258     3.886     0.000
      3.702  5602.2   0.150  -0.781  35.056  2275.492  2402.687     2.163     0.000   161.949    10.310    28.285    89.109   0.715   -35.454     0.000     0.285    20.113     2.351   -20.815     3.909     3.948     1.755     2.351   -20.815     4.011     3.947     0.000
      3.056  5602.2   0.150  -0.781  35.056  2275.463  2402.694     2.163     0.000   162.011    10.310    28.285    89.127   0.716   -35.435     0.000     0.302    20.109     2.663   -20.813     4.411     3.912     1.755     2.663   -20.813     4.206     3.912     0.000
      2.411  5602.2   0.150  -0.781  35.056  2275.422  2402.695     2.163     0.000   162.080    10.310    28.285    89.148   0.716   -35.414     0.000     0.306    20.109     2.748   -20.784     4.545     3.885     1.755     2.748   -20.784     4.259     3.885     0.000
      1.765  5602.2   0.150  -0.781  35.056  2275.368  2402.680     2.163     0.000   162.132    10.310    28.285    89.165   0.716   -35.397     0.000     0.302    20.109     2.601   -20.768     4.304     3.885     1.755     2.601   -20.768     4.178     3.885     0.000
      1.119  5602.2   0.150  -0.781  35.056  2275.354  2402.699     2.163     0.000   162.188    10.310    28.285    89.187   0.716   -35.375     0.000     0.307    20.108     2.697   -20.808     4.467     3.908     1.755     2.697   -20.808     4.231     3.908     0.000
      0.474  5602.2   0.150  -0.781  35.056  2275.321  2402.718     2.163     0.000   162.263    10.310    28.285    89.213   0.716   -35.348     0.000     0.310    20.108     2.742   -20.780     4.535     3.884     1.755     2.742   -20.780     4.260     3.884     0.000
