% age_kyrBP     D_m  k0_mix     T_C   S_mil    CO2_uM    ALK_uM    PO2_uM    NO3_uM     O2_uM     Ca_uM    SO4_mM    CO3_mM     ohm   dCO3_uM     POC_%     cal_%    opal_%   fsedPOC      d13C   fsedcal      d13C  fsedopal   fdisPOC      d13C   fdiscal      d13C  fdisopal
     24.130  2800.7   0.150  -0.722  34.882  2280.022  2368.217     2.457     0.000   175.938    10.249    28.145    73.393   0.998    -0.117     0.000    62.622    34.319     4.941   -20.477     7.559     3.865     3.715     4.941   -20.477     3.539     3.865     0.000
     23.328  2800.7   0.150  -0.724  34.882  2278.728  2367.594     2.454     0.000   176.845    10.249    28.145    73.703   1.003     0.187     0.000    63.617    34.379     5.016   -20.496     7.681     3.904     3.715     5.016   -20.496     3.551     3.904     0.000
     22.530  2800.7   0.150  -0.724  34.882  2278.582  2367.587     2.455     0.000   176.835    10.249    28.145    73.770   1.003     0.254     0.000    63.790    34.248     5.016   -20.435     7.664     3.896     3.715     5.016   -20.435     3.541     3.896     0.000
     21.734  2800.7   0.150  -0.724  34.882  2278.647  2367.689     2.455     0.000   176.953    10.249    28.145    73.789   1.004     0.273     0.000    63.830    34.210     5.157   -20.417     7.872     3.891     3.715     5.157   -20.417     3.649     3.891     0.000
     20.938  2800.7   0.150  -0.724  34.882  2278.642  2367.693     2.455     0.000   176.913    10.249    28.145    73.794   1.004     0.278     0.000    63.848    34.193     5.131   -20.396     7.827     3.890     3.715     5.131   -20.396     3.628     3.890     0.000
     20.142  2800.7   0.150  -0.724  34.882  2278.649  2367.708     2.455     0.000   176.960    10.249    28.145    73.798   1.004     0.283     0.000    63.851    34.191     5.031   -20.415     7.686     3.908     3.715     5.031   -20.415     3.548     3.908     0.000
     19.346  2800.7   0.150  -0.724  34.882  2278.626  2367.691     2.455     0.000   176.962    10.249    28.145    73.800   1.004     0.285     0.000    63.852    34.190     5.154   -20.412     7.870     3.903     3.715     5.154   -20.412     3.645     3.903     0.000
     18.550  2800.7   0.150  -0.724  34.882  2278.610  2367.689     2.455     0.000   176.998    10.249    28.145    73.807   1.004     0.291     0.000    63.857    34.185     5.139   -20.390     7.838     3.896     3.715     5.139   -20.390     3.631     3.896     0.000
     17.754  2800.7   0.150  -0.724  34.882  2278.602  2367.696     2.455     0.000   176.998    10.249    28.145    73.815   1.004     0.299     0.000    63.864    34.178     5.046   -20.407     7.706     3.910     3.715     5.046   -20.407     3.557     3.910     0.000
     16.959  2800.7   0.150  -0.724  34.882  2278.570  2367.684     2.455     0.000   177.035    10.249    28.145    73.824   1.004     0.308     0.000    63.875    34.168     5.158   -20.405     7.874     3.903     3.715     5.158   -20.405     3.644     3.903     0.000
     16.163  2800.7   0.150  -0.724  34.882  2278.552  2367.686     2.455     0.000   177.094    10.249    28.145    73.834   1.004     0.318     0.000    63.883    34.160     5.131   -20.388     7.827     3.898     3.715     5.131   -20.388     3.621     3.898     0.000
     15.368  2800.7   0.150  -0.724  34.882  2278.543  2367.695     2.455     0.000   177.110    10.249    28.145    73.843   1.004     0.327     0.000    63.893    34.151     5.096   -20.441     7.795     3.923     3.715     5.096   -20.441     3.592     3.923     0.000
     14.572  2800.7   0.150  -0.724  34.882  2278.513  2367.684     2.455     0.000   177.144    10.249    28.145    73.851   1.005     0.336     0.000    63.901    34.144     5.160   -20.400     7.876     3.902     3.715     5.160   -20.400     3.641     3.902     0.000
     13.777  2800.7   0.150  -0.724  34.882  2278.507  2367.701     2.455     0.000   177.180    10.249    28.145    73.863   1.005     0.348     0.000    63.910    34.135     5.003   -20.466     7.665     3.940     3.715     5.003   -20.466     3.515     3.940     0.000
     12.982  2800.7   0.150  -0.724  34.882  2278.469  2367.686     2.455     0.000   177.201    10.249    28.145    73.874   1.005     0.358     0.000    63.924    34.122     5.132   -20.424     7.842     3.915     3.715     5.132   -20.424     3.615     3.915     0.000
     12.187  2800.7   0.150  -0.724  34.882  2278.446  2367.700     2.455     0.000   177.269    10.249    28.145    73.892   1.005     0.377     0.000    63.938    34.109     4.966   -20.467     7.609     3.943     3.715     4.966   -20.467     3.481     3.943     0.000
     11.392  2800.7   0.150  -0.724  34.882  2278.391  2367.686     2.455     0.000   177.332    10.249    28.145    73.911   1.005     0.396     0.000    63.956    34.091     5.070   -20.449     7.759     3.930     3.715     5.070   -20.449     3.560     3.930     0.000
     10.597  2800.7   0.150  -0.724  34.882  2278.345  2367.677     2.455     0.000   177.375    10.249    28.145    73.929   1.006     0.413     0.000    63.976    34.073     5.163   -20.399     7.880     3.903     3.715     5.163   -20.399     3.631     3.903     0.000
      9.803  2800.7   0.150  -0.724  34.882  2278.301  2367.692     2.455     0.000   177.489    10.249    28.145    73.958   1.006     0.443     0.000    63.998    34.052     5.028   -20.460     7.702     3.937     3.715     5.028   -20.460     3.520     3.937     0.000
      9.009  2800.7   0.150  -0.724  34.882  2278.263  2367.698     2.455     0.000   177.521    10.249    28.145    73.980   1.006     0.465     0.000    64.022    34.029     4.967   -20.444     7.603     3.935     3.715     4.967   -20.444     3.468     3.935     0.000
      8.215  2800.7   0.150  -0.724  34.882  2278.203  2367.692     2.455     0.000   177.597    10.249    28.145    74.006   1.007     0.490     0.000    64.046    34.007     5.016   -20.462     7.685     3.940     3.715     5.016   -20.462     3.503     3.940     0.000
      7.421  2800.7   0.150  -0.724  34.882  2278.129  2367.677     2.455     0.000   177.685    10.249    28.145    74.033   1.007     0.517     0.000    64.075    33.979     5.157   -20.406     7.875     3.908     3.715     5.157   -20.406     3.609     3.908     0.000
      6.628  2800.7   0.150  -0.724  34.882  2278.079  2367.690     2.455     0.000   177.779    10.249    28.145    74.064   1.007     0.549     0.000    64.102    33.954     5.030   -20.458     7.704     3.938     3.715     5.030   -20.458     3.504     3.938     0.000
      5.835  2800.7   0.150  -0.724  34.882  2278.001  2367.688     2.454     0.000   177.930    10.249    28.145    74.101   1.008     0.586     0.000    64.133    33.924     4.962   -20.452     7.599     3.940     3.715     4.962   -20.452     3.445     3.940     0.000
      5.042  2800.7   0.150  -0.724  34.882  2277.929  2367.676     2.454     0.000   177.998    10.249    28.145    74.130   1.008     0.614     0.000    64.162    33.897     5.074   -20.446     7.766     3.931     3.715     5.074   -20.446     3.528     3.931     0.000
      4.250  2800.7   0.150  -0.724  34.882  2277.874  2367.683     2.454     0.000   178.105    10.249    28.145    74.160   1.009     0.645     0.000    64.190    33.870     4.976   -20.464     7.625     3.945     3.715     4.976   -20.464     3.447     3.945     0.000
      3.457  2800.7   0.150  -0.724  34.882  2277.822  2367.681     2.454     0.000   178.151    10.249    28.145    74.184   1.009     0.668     0.000    64.215    33.847     4.982   -20.431     7.623     3.931     3.715     4.982   -20.431     3.448     3.931     0.000
      2.665  2800.7   0.150  -0.724  34.882  2277.753  2367.668     2.454     0.000   178.262    10.249    28.145    74.210   1.009     0.695     0.000    64.241    33.823     5.094   -20.389     7.775     3.907     3.715     5.094   -20.389     3.531     3.907     0.000
      1.874  2800.7   0.150  -0.724  34.882  2277.693  2367.662     2.454     0.000   178.311    10.249    28.145    74.237   1.010     0.721     0.000    64.266    33.798     5.159   -20.383     7.870     3.901     3.715     5.159   -20.383     3.578     3.901     0.000
      1.082  2800.7   0.150  -0.724  34.882  2277.640  2367.676     2.454     0.000   178.428    10.249    28.145    74.269   1.010     0.754     0.000    64.291    33.775     4.984   -20.429     7.626     3.932     3.715     4.984   -20.429     3.436     3.932     0.000
      0.292  2800.7   0.150  -0.724  34.882  2277.551  2367.663     2.454     0.000   178.522    10.249    28.145    74.306   1.011     0.790     0.000    64.325    33.743     5.076   -20.443     7.769     3.933     3.715     5.076   -20.443     3.502     3.933     0.000
