% age_kyrBP     D_m  k0_mix     T_C   S_mil    CO2_uM    ALK_uM    PO2_uM    NO3_uM     O2_uM     Ca_uM    SO4_mM    CO3_mM     ohm   dCO3_uM     POC_%     cal_%    opal_%   fsedPOC      d13C   fsedcal      d13C  fsedopal   fdisPOC      d13C   fdiscal      d13C  fdisopal
     24.074  3525.8   0.150  -1.391  34.901  2312.927  2398.932     2.608     0.000   160.940    10.271    28.160    71.831   0.851   -12.612     0.000    55.245    40.527     7.217   -21.684    10.565     3.362     3.513     7.217   -21.684     9.511     3.362     0.000
     23.156  3525.8   0.150  -1.399  34.900  2312.818  2399.259     2.613     0.000   161.552    10.270    28.159    72.043   0.853   -12.408     0.000    55.363    41.478     9.909   -21.908    14.175     3.246     3.513     9.909   -21.908    11.818     3.246     0.000
     22.242  3525.8   0.150  -1.400  34.900  2312.802  2399.346     2.614     0.000   161.486    10.270    28.159    72.092   0.854   -12.359     0.000    55.623    41.258    10.062   -21.746    14.580     3.328     3.513    10.062   -21.746    11.941     3.328     0.000
     21.329  3525.8   0.150  -1.400  34.900  2312.861  2399.442     2.615     0.000   161.562    10.270    28.159    72.112   0.854   -12.339     0.000    55.718    41.170     9.659   -21.721    14.022     3.347     3.513     9.659   -21.721    11.576     3.347     0.000
     20.416  3525.8   0.150  -1.400  34.900  2312.841  2399.430     2.615     0.000   161.561    10.270    28.159    72.116   0.854   -12.335     0.000    55.756    41.135    11.953   -21.943    16.996     3.224     3.513    11.953   -21.943    13.718     3.224     0.000
     19.504  3525.8   0.150  -1.400  34.900  2312.841  2399.432     2.615     0.000   161.556    10.270    28.159    72.117   0.854   -12.334     0.000    55.758    41.132    11.575   -21.934    16.472     3.233     3.513    11.575   -21.934    13.380     3.233     0.000
     18.592  3525.8   0.150  -1.400  34.900  2312.820  2399.430     2.615     0.000   161.598    10.270    28.159    72.125   0.854   -12.326     0.000    55.773    41.119    10.066   -21.731    14.587     3.343     3.513    10.066   -21.731    11.934     3.343     0.000
     17.680  3525.8   0.150  -1.400  34.900  2312.792  2399.424     2.615     0.000   161.641    10.270    28.159    72.135   0.854   -12.316     0.000    55.809    41.086    10.489   -21.749    15.172     3.332     3.513    10.489   -21.749    12.308     3.332     0.000
     16.768  3525.8   0.150  -1.400  34.900  2312.750  2399.412     2.615     0.000   161.698    10.270    28.159    72.150   0.854   -12.301     0.000    55.851    41.047    10.350   -21.895    14.783     3.263     3.513    10.350   -21.895    12.178     3.263     0.000
     15.857  3525.8   0.150  -1.400  34.900  2312.722  2399.408     2.614     0.000   161.734    10.270    28.159    72.162   0.854   -12.289     0.000    55.883    41.016     9.071   -21.824    13.040     3.306     3.513     9.071   -21.824    11.036     3.306     0.000
     14.947  3525.8   0.150  -1.400  34.900  2312.693  2399.404     2.614     0.000   161.774    10.270    28.159    72.174   0.855   -12.277     0.000    55.920    40.982     7.954   -21.721    11.534     3.361     3.513     7.954   -21.721    10.039     3.361     0.000
     14.036  3525.8   0.150  -1.400  34.900  2312.626  2399.367     2.614     0.000   161.831    10.270    28.159    72.186   0.855   -12.265     0.000    55.988    40.919    14.259   -21.937    20.274     3.225     3.513    14.259   -21.937    15.725     3.225     0.000
     13.126  3525.8   0.150  -1.400  34.900  2312.586  2399.362     2.614     0.000   161.901    10.270    28.159    72.203   0.855   -12.248     0.000    56.044    40.867    13.498   -21.943    19.172     3.218     3.513    13.498   -21.943    15.096     3.218     0.000
     12.217  3525.8   0.150  -1.400  34.900  2312.534  2399.357     2.614     0.000   161.984    10.270    28.159    72.225   0.855   -12.226     0.000    56.101    40.814    10.072   -21.726    14.597     3.346     3.513    10.072   -21.726    11.906     3.346     0.000
     11.308  3525.8   0.150  -1.400  34.900  2312.444  2399.322     2.614     0.000   162.063    10.270    28.159    72.250   0.856   -12.202     0.000    56.195    40.727    13.090   -21.873    18.724     3.262     3.513    13.090   -21.873    14.747     3.262     0.000
     10.400  3525.8   0.150  -1.400  34.900  2312.355  2399.294     2.613     0.000   162.174    10.270    28.159    72.279   0.856   -12.173     0.000    56.292    40.637    13.933   -21.940    19.795     3.220     3.513    13.933   -21.940    15.426     3.220     0.000
      9.493  3525.8   0.150  -1.400  34.900  2312.280  2399.290     2.613     0.000   162.288    10.270    28.159    72.312   0.856   -12.140     0.000    56.389    40.546    10.938   -21.764    15.793     3.322     3.513    10.938   -21.764    12.647     3.322     0.000
      8.587  3525.8   0.150  -1.400  34.900  2312.165  2399.250     2.613     0.000   162.411    10.270    28.159    72.348   0.857   -12.105     0.000    56.513    40.431    14.098   -21.937    20.035     3.221     3.513    14.098   -21.937    15.538     3.221     0.000
      7.682  3525.8   0.150  -1.400  34.900  2312.071  2399.235     2.613     0.000   162.553    10.270    28.159    72.384   0.857   -12.068     0.000    56.626    40.326    12.277   -21.829    17.625     3.285     3.513    12.277   -21.829    13.892     3.285     0.000
      6.778  3525.8   0.150  -1.400  34.900  2311.956  2399.208     2.612     0.000   162.707    10.270    28.159    72.427   0.858   -12.025     0.000    56.760    40.202    12.337   -21.934    17.538     3.228     3.513    12.337   -21.934    13.927     3.228     0.000
      5.876  3525.8   0.150  -1.400  34.900  2311.852  2399.196     2.612     0.000   162.847    10.270    28.159    72.470   0.858   -11.982     0.000    56.878    40.092     7.776   -21.623    11.379     3.416     3.513     7.776   -21.623     9.781     3.416     0.000
      4.975  3525.8   0.150  -1.400  34.900  2311.733  2399.165     2.612     0.000   162.999    10.270    28.159    72.511   0.859   -11.941     0.000    57.010    39.969     7.417   -21.611    10.861     3.422     3.513     7.417   -21.611     9.448     3.422     0.000
      4.075  3525.8   0.150  -1.400  34.900  2311.587  2399.103     2.611     0.000   163.149    10.270    28.159    72.550   0.859   -11.903     0.000    57.166    39.824    13.959   -21.934    19.836     3.221     3.513    13.959   -21.934    15.356     3.221     0.000
      3.176  3525.8   0.150  -1.400  34.900  2311.490  2399.083     2.611     0.000   163.278    10.270    28.159    72.586   0.859   -11.867     0.000    57.279    39.719    13.536   -21.935    19.232     3.221     3.513    13.536   -21.935    14.998     3.221     0.000
      2.278  3525.8   0.150  -1.400  34.900  2311.389  2399.062     2.611     0.000   163.424    10.270    28.159    72.624   0.860   -11.829     0.000    57.395    39.611    12.355   -21.930    17.567     3.229     3.513    12.355   -21.930    13.873     3.229     0.000
      1.382  3525.8   0.150  -1.400  34.900  2311.276  2399.032     2.610     0.000   163.550    10.270    28.159    72.662   0.860   -11.791     0.000    57.512    39.502    12.299   -21.822    17.661     3.287     3.513    12.299   -21.822    13.814     3.287     0.000
      0.487  3525.8   0.150  -1.400  34.900  2311.154  2399.013     2.610     0.000   163.749    10.270    28.159    72.712   0.861   -11.741     0.000    57.635    39.388     7.326   -21.605    10.728     3.423     3.513     7.326   -21.605     9.299     3.423     0.000
