% age_kyrBP     D_m  k0_mix     T_C   S_mil    CO2_uM    ALK_uM    PO2_uM    NO3_uM     O2_uM     Ca_uM    SO4_mM    CO3_mM     ohm   dCO3_uM     POC_%     cal_%    opal_%   fsedPOC      d13C   fsedcal      d13C  fsedopal   fdisPOC      d13C   fdiscal      d13C  fdisopal
     21.635  4903.9   0.150  -1.401  34.927  2337.994  2430.690     2.684     0.000   149.476    10.293    28.181    73.565   0.673   -35.747     0.000     0.908    10.203     6.418   -21.274     9.841     3.599     0.174     6.418   -21.274     9.762     3.599     0.000
     18.205  4903.9   0.150  -1.401  34.927  2337.931  2430.682     2.684     0.000   149.562    10.293    28.181    73.591   0.673   -35.722     0.000     0.911    10.219     6.319   -21.269     9.702     3.605     0.174     6.319   -21.269     9.688     3.605     0.000
     14.775  4903.9   0.150  -1.401  34.927  2337.839  2430.681     2.684     0.000   149.697    10.293    28.181    73.635   0.674   -35.678     0.000     0.920    10.218     6.431   -21.263     9.857     3.603     0.174     6.431   -21.263     9.773     3.603     0.000
     11.345  4903.9   0.150  -1.401  34.927  2337.640  2430.629     2.684     0.000   149.944    10.293    28.181    73.703   0.674   -35.611     0.000     0.929    10.217     6.254   -21.266     9.615     3.618     0.174     6.254   -21.266     9.638     3.618     0.000
      7.916  4903.9   0.150  -1.401  34.927  2337.392  2430.628     2.683     0.000   150.303    10.293    28.181    73.821   0.675   -35.492     0.000     0.953    10.214     6.362   -21.262     9.762     3.604     0.174     6.362   -21.262     9.726     3.604     0.000
      4.487  4903.9   0.150  -1.401  34.927  2337.030  2430.587     2.682     0.000   150.800    10.293    28.181    73.974   0.677   -35.339     0.000     0.981    10.211     6.442   -21.257     9.875     3.606     0.174     6.442   -21.257     9.789     3.606     0.000
      1.058  4903.9   0.150  -1.401  34.927  2336.683  2430.527     2.681     0.000   151.236    10.293    28.181    74.109   0.678   -35.204     0.000     1.006    10.209     6.377   -21.254     9.789     3.625     0.174     6.377   -21.254     9.742     3.625     0.000
