% age_kyrBP     D_m  k0_mix     T_C   S_mil    CO2_uM    ALK_uM    PO2_uM    NO3_uM     O2_uM     Ca_uM    SO4_mM    CO3_mM     ohm   dCO3_uM     POC_%     cal_%    opal_%   fsedPOC      d13C   fsedcal      d13C  fsedopal   fdisPOC      d13C   fdiscal      d13C  fdisopal
     24.523  1276.1   0.150   1.698  34.809  2278.401  2349.594     2.479     0.000   123.060    10.227    28.086    67.357   1.241    13.076     0.000    29.309    62.368    10.788   -20.238     7.385     4.119     7.783    10.788   -20.238     5.337     4.119     0.000
     24.044  1276.1   0.150   1.731  34.811  2273.108  2344.719     2.467     0.000   125.393    10.221    28.087    67.446   1.242    13.125     0.000    27.567    64.345    12.199   -20.124     8.248     4.052     7.783    12.199   -20.124     6.246     4.052     0.000
     23.565  1276.1   0.150   1.735  34.812  2270.682  2343.262     2.457     0.000   126.776    10.220    28.088    67.865   1.249    13.540     0.000    28.016    63.949    12.148   -20.060     8.208     4.049     7.783    12.148   -20.060     6.184     4.049     0.000
     23.086  1276.1   0.150   1.739  34.812  2270.038  2342.882     2.454     0.000   127.066    10.220    28.088    67.982   1.251    13.656     0.000    28.131    63.846    12.517   -20.043     8.442     4.045     7.783    12.517   -20.043     6.394     4.045     0.000
     22.607  1276.1   0.150   1.729  34.812  2270.003  2342.876     2.455     0.000   127.125    10.220    28.089    67.993   1.252    13.667     0.000    28.206    63.780    11.141   -20.120     7.582     4.121     7.783    11.141   -20.120     5.517     4.121     0.000
     22.128  1276.1   0.150   1.735  34.812  2269.939  2342.875     2.454     0.000   127.141    10.220    28.089    68.024   1.252    13.699     0.000    28.238    63.751    11.322   -20.157     7.697     4.130     7.783    11.322   -20.157     5.619     4.130     0.000
     21.650  1276.1   0.150   1.737  34.812  2269.988  2342.947     2.454     0.000   127.128    10.220    28.089    68.036   1.252    13.711     0.000    28.240    63.750    12.454   -20.021     8.401     4.059     7.783    12.454   -20.021     6.350     4.059     0.000
     21.171  1276.1   0.150   1.730  34.812  2270.075  2342.988     2.455     0.000   127.138    10.220    28.089    68.013   1.252    13.687     0.000    28.255    63.737    10.879   -20.138     7.420     4.150     7.783    10.879   -20.138     5.319     4.150     0.000
     20.692  1276.1   0.150   1.737  34.812  2270.007  2342.958     2.455     0.000   127.125    10.220    28.089    68.030   1.252    13.705     0.000    28.246    63.744    11.698   -20.119     7.933     4.119     7.783    11.698   -20.119     5.843     4.119     0.000
     20.213  1276.1   0.150   1.732  34.812  2270.049  2342.975     2.455     0.000   127.132    10.220    28.089    68.022   1.252    13.697     0.000    28.254    63.737    10.887   -20.176     7.425     4.166     7.783    10.887   -20.176     5.322     4.166     0.000
     19.735  1276.1   0.150   1.739  34.812  2269.976  2342.949     2.454     0.000   127.136    10.220    28.089    68.043   1.253    13.718     0.000    28.255    63.737    12.507   -20.029     8.443     4.072     7.783    12.507   -20.029     6.382     4.072     0.000
     19.256  1276.1   0.150   1.731  34.812  2270.055  2342.984     2.455     0.000   127.148    10.220    28.089    68.021   1.252    13.696     0.000    28.253    63.738    11.376   -20.079     7.732     4.124     7.783    11.376   -20.079     5.652     4.124     0.000
     18.777  1276.1   0.150   1.734  34.812  2270.027  2342.968     2.455     0.000   127.141    10.220    28.089    68.028   1.252    13.703     0.000    28.252    63.740    11.112   -20.160     7.564     4.156     7.783    11.112   -20.160     5.495     4.156     0.000
     18.299  1276.1   0.150   1.738  34.812  2269.983  2342.958     2.455     0.000   127.147    10.220    28.089    68.044   1.253    13.719     0.000    28.254    63.738    12.517   -20.012     8.445     4.069     7.783    12.517   -20.012     6.387     4.069     0.000
     17.820  1276.1   0.150   1.730  34.812  2270.062  2342.989     2.455     0.000   127.163    10.220    28.089    68.020   1.252    13.694     0.000    28.258    63.734    11.049   -20.111     7.526     4.147     7.783    11.049   -20.111     5.460     4.147     0.000
     17.341  1276.1   0.150   1.736  34.812  2270.005  2342.965     2.455     0.000   127.162    10.220    28.089    68.037   1.252    13.712     0.000    28.264    63.729    11.451   -20.132     7.780     4.138     7.783    11.451   -20.132     5.695     4.138     0.000
     16.863  1276.1   0.150   1.732  34.812  2270.035  2342.981     2.455     0.000   127.177    10.220    28.089    68.031   1.252    13.706     0.000    28.267    63.726    10.891   -20.171     7.428     4.171     7.783    10.891   -20.171     5.324     4.171     0.000
     16.385  1276.1   0.150   1.739  34.812  2269.963  2342.957     2.455     0.000   127.177    10.220    28.089    68.053   1.253    13.728     0.000    28.268    63.725    12.498   -20.025     8.437     4.076     7.783    12.498   -20.025     6.375     4.076     0.000
     15.906  1276.1   0.150   1.731  34.812  2270.038  2342.992     2.455     0.000   127.203    10.220    28.089    68.033   1.252    13.708     0.000    28.273    63.721    11.375   -20.076     7.733     4.128     7.783    11.375   -20.076     5.650     4.128     0.000
     15.427  1276.1   0.150   1.734  34.812  2270.012  2342.979     2.455     0.000   127.197    10.220    28.089    68.040   1.252    13.715     0.000    28.271    63.722    11.118   -20.156     7.569     4.158     7.783    11.118   -20.156     5.498     4.158     0.000
     14.949  1276.1   0.150   1.738  34.812  2269.965  2342.969     2.455     0.000   127.209    10.220    28.089    68.058   1.253    13.733     0.000    28.276    63.718    12.534   -20.009     8.458     4.071     7.783    12.534   -20.009     6.396     4.071     0.000
     14.470  1276.1   0.150   1.730  34.812  2270.042  2342.999     2.456     0.000   127.226    10.220    28.089    68.034   1.252    13.708     0.000    28.280    63.715    11.047   -20.107     7.526     4.148     7.783    11.047   -20.107     5.457     4.148     0.000
     13.991  1276.1   0.150   1.735  34.812  2269.989  2342.977     2.455     0.000   127.217    10.220    28.089    68.050   1.253    13.725     0.000    28.282    63.713    11.461   -20.130     7.786     4.140     7.783    11.461   -20.130     5.700     4.140     0.000
     13.513  1276.1   0.150   1.737  34.812  2269.971  2342.980     2.455     0.000   127.238    10.220    28.089    68.060   1.253    13.735     0.000    28.280    63.714    12.432   -20.013     8.384     4.073     7.783    12.432   -20.013     6.335     4.073     0.000
     13.034  1276.1   0.150   1.730  34.812  2270.035  2343.004     2.456     0.000   127.259    10.220    28.089    68.039   1.252    13.714     0.000    28.290    63.705    10.838   -20.136     7.396     4.164     7.783    10.838   -20.136     5.292     4.164     0.000
     12.555  1276.1   0.150   1.737  34.812  2269.957  2342.975     2.456     0.000   127.252    10.220    28.089    68.064   1.253    13.739     0.000    28.294    63.701    11.841   -20.100     8.025     4.119     7.783    11.841   -20.100     5.927     4.119     0.000
     12.077  1276.1   0.150   1.734  34.812  2269.986  2342.990     2.456     0.000   127.274    10.220    28.089    68.057   1.253    13.732     0.000    28.302    63.695    11.129   -20.154     7.577     4.158     7.783    11.129   -20.154     5.504     4.158     0.000
     11.599  1276.1   0.150   1.738  34.812  2269.941  2342.984     2.456     0.000   127.298    10.220    28.089    68.076   1.253    13.751     0.000    28.306    63.691    12.535   -20.007     8.459     4.071     7.783    12.535   -20.007     6.396     4.071     0.000
     11.120  1276.1   0.150   1.730  34.812  2270.018  2343.018     2.456     0.000   127.318    10.220    28.089    68.054   1.253    13.729     0.000    28.310    63.687    11.063   -20.106     7.537     4.149     7.783    11.063   -20.106     5.466     4.149     0.000
     10.641  1276.1   0.150   1.735  34.812  2269.958  2342.996     2.456     0.000   127.322    10.220    28.089    68.074   1.253    13.749     0.000    28.317    63.681    11.473   -20.127     7.796     4.140     7.783    11.473   -20.127     5.705     4.140     0.000
     10.163  1276.1   0.150   1.737  34.812  2269.934  2343.001     2.456     0.000   127.357    10.220    28.089    68.087   1.253    13.762     0.000    28.326    63.673    12.436   -20.003     8.396     4.073     7.783    12.436   -20.003     6.337     4.073     0.000
      9.685  1276.1   0.150   1.739  34.812  2269.907  2342.996     2.456     0.000   127.371    10.220    28.089    68.097   1.254    13.772     0.000    28.333    63.667    12.521   -20.020     8.454     4.077     7.783    12.521   -20.020     6.386     4.077     0.000
      9.206  1276.1   0.150   1.731  34.812  2269.981  2343.035     2.457     0.000   127.403    10.220    28.089    68.080   1.253    13.754     0.000    28.339    63.662    11.401   -20.071     7.751     4.128     7.783    11.401   -20.071     5.663     4.128     0.000
      8.727  1276.1   0.150   1.734  34.812  2269.945  2343.023     2.457     0.000   127.417    10.220    28.089    68.092   1.253    13.766     0.000    28.339    63.662    11.142   -20.152     7.587     4.159     7.783    11.142   -20.152     5.509     4.159     0.000
      8.249  1276.1   0.150   1.731  34.812  2269.967  2343.039     2.457     0.000   127.441    10.220    28.089    68.087   1.253    13.762     0.000    28.347    63.655    10.794   -20.163     7.371     4.177     7.783    10.794   -20.163     5.263     4.177     0.000
      7.771  1276.1   0.150   1.738  34.812  2269.882  2343.015     2.457     0.000   127.463    10.220    28.089    68.118   1.254    13.793     0.000    28.359    63.644    12.388   -20.043     8.373     4.089     7.783    12.388   -20.043     6.305     4.089     0.000
      7.292  1276.1   0.150   1.737  34.812  2269.893  2343.027     2.457     0.000   127.490    10.220    28.089    68.116   1.254    13.791     0.000    28.368    63.636    11.737   -20.104     7.964     4.127     7.783    11.737   -20.104     5.859     4.127     0.000
      6.814  1276.1   0.150   1.736  34.812  2269.895  2343.042     2.458     0.000   127.528    10.220    28.089    68.122   1.254    13.798     0.000    28.374    63.630    12.357   -20.004     8.348     4.079     7.783    12.357   -20.004     6.286     4.079     0.000
      6.336  1276.1   0.150   1.738  34.812  2269.857  2343.033     2.458     0.000   127.549    10.220    28.089    68.138   1.254    13.813     0.000    28.387    63.619    12.571   -20.005     8.487     4.074     7.783    12.571   -20.005     6.413     4.074     0.000
      5.857  1276.1   0.150   1.731  34.812  2269.930  2343.073     2.458     0.000   127.589    10.220    28.089    68.121   1.254    13.796     0.000    28.399    63.608    11.186   -20.090     7.617     4.143     7.783    11.186   -20.090     5.532     4.143     0.000
      5.379  1276.1   0.150   1.734  34.812  2269.889  2343.068     2.458     0.000   127.617    10.220    28.089    68.137   1.254    13.812     0.000    28.408    63.601    11.894   -20.030     8.063     4.103     7.783    11.894   -20.030     6.009     4.103     0.000
      4.901  1276.1   0.150   1.736  34.812  2269.853  2343.064     2.458     0.000   127.638    10.220    28.089    68.152   1.255    13.827     0.000    28.414    63.595    12.418   -20.000     8.387     4.077     7.783    12.418   -20.000     6.320     4.077     0.000
      4.422  1276.1   0.150   1.730  34.812  2269.904  2343.084     2.459     0.000   127.670    10.220    28.089    68.138   1.254    13.813     0.000    28.427    63.584    10.825   -20.136     7.393     4.171     7.783    10.825   -20.136     5.276     4.171     0.000
      3.944  1276.1   0.150   1.731  34.812  2269.886  2343.091     2.459     0.000   127.697    10.220    28.089    68.149   1.254    13.824     0.000    28.437    63.575    11.308   -20.076     7.697     4.137     7.783    11.308   -20.076     5.603     4.137     0.000
      3.466  1276.1   0.150   1.734  34.812  2269.850  2343.085     2.459     0.000   127.713    10.220    28.089    68.163   1.255    13.838     0.000    28.446    63.567    12.012   -20.019     8.139     4.098     7.783    12.012   -20.019     6.078     4.098     0.000
      2.988  1276.1   0.150   1.737  34.812  2269.811  2343.077     2.459     0.000   127.739    10.220    28.089    68.179   1.255    13.855     0.000    28.452    63.561    12.478   -19.996     8.426     4.075     7.783    12.478   -19.996     6.354     4.075     0.000
      2.510  1276.1   0.150   1.739  34.812  2269.778  2343.068     2.459     0.000   127.759    10.220    28.089    68.191   1.255    13.866     0.000    28.465    63.550    12.579   -20.012     8.497     4.079     7.783    12.579   -20.012     6.414     4.079     0.000
      2.031  1276.1   0.150   1.731  34.812  2269.850  2343.108     2.460     0.000   127.797    10.220    28.089    68.175   1.255    13.850     0.000    28.472    63.544    11.429   -20.063     7.774     4.131     7.783    11.429   -20.063     5.672     4.131     0.000
      1.553  1276.1   0.150   1.735  34.812  2269.809  2343.101     2.460     0.000   127.816    10.220    28.089    68.191   1.255    13.867     0.000    28.479    63.537    12.123   -20.013     8.208     4.093     7.783    12.123   -20.013     6.141     4.093     0.000
      1.075  1276.1   0.150   1.737  34.812  2269.775  2343.096     2.460     0.000   127.838    10.220    28.089    68.205   1.256    13.881     0.000    28.487    63.530    12.547   -19.993     8.473     4.074     7.783    12.547   -19.993     6.393     4.074     0.000
      0.597  1276.1   0.150   1.739  34.812  2269.742  2343.086     2.460     0.000   127.870    10.220    28.089    68.216   1.256    13.892     0.000    28.496    63.523    12.543   -20.016     8.477     4.083     7.783    12.543   -20.016     6.391     4.083     0.000
      0.118  1276.1   0.150   1.738  34.812  2269.748  2343.102     2.460     0.000   127.901    10.220    28.089    68.220   1.256    13.896     0.000    28.514    63.507    12.033   -20.075     8.156     4.115     7.783    12.033   -20.075     6.087     4.115     0.000
