% age_kyrBP     D_m  k0_mix     T_C   S_mil    CO2_uM    ALK_uM    PO2_uM    NO3_uM     O2_uM     Ca_uM    SO4_mM    CO3_mM     ohm   dCO3_uM     POC_%     cal_%    opal_%   fsedPOC      d13C   fsedcal      d13C  fsedopal   fdisPOC      d13C   fdiscal      d13C  fdisopal
     23.969  3510.6   0.150  -1.392  34.902  2311.646  2397.985     2.603     0.000   162.388    10.270    28.161    71.994   0.855   -12.213     0.000    57.067    37.727     8.610   -21.618    12.632     3.270     3.044     8.610   -21.618    10.641     3.270     0.000
     22.956  3510.6   0.150  -1.398  34.901  2311.428  2398.179     2.607     0.000   162.741    10.269    28.160    72.192   0.857   -12.021     0.000    57.464    38.437     9.053   -21.617    13.245     3.277     3.044     9.053   -21.617    10.962     3.277     0.000
     21.947  3510.6   0.150  -1.398  34.901  2311.446  2398.286     2.608     0.000   162.766    10.269    28.160    72.235   0.858   -11.978     0.000    57.711    38.238    12.811   -21.654    18.659     3.251     3.044    12.811   -21.654    14.475     3.251     0.000
     20.939  3510.6   0.150  -1.398  34.901  2311.476  2398.341     2.608     0.000   162.801    10.269    28.160    72.249   0.858   -11.964     0.000    57.798    38.160    12.146   -21.666    17.643     3.240     3.044    12.146   -21.666    13.777     3.240     0.000
     19.932  3510.6   0.150  -1.399  34.901  2311.475  2398.344     2.608     0.000   162.795    10.269    28.160    72.250   0.858   -11.962     0.000    57.797    38.161    11.239   -21.566    16.481     3.303     3.044    11.239   -21.566    12.994     3.303     0.000
     18.925  3510.6   0.150  -1.399  34.901  2311.474  2398.357     2.608     0.000   162.828    10.269    28.160    72.257   0.858   -11.955     0.000    57.796    38.162     6.765   -21.359    10.109     3.434     3.044     6.765   -21.359     8.912     3.434     0.000
     17.918  3510.6   0.150  -1.399  34.901  2311.439  2398.336     2.608     0.000   162.825    10.269    28.160    72.263   0.858   -11.949     0.000    57.842    38.120    10.011   -21.501    14.761     3.341     3.044    10.011   -21.501    11.794     3.341     0.000
     16.912  3510.6   0.150  -1.399  34.901  2311.407  2398.341     2.608     0.000   162.924    10.269    28.160    72.281   0.858   -11.931     0.000    57.873    38.092     6.680   -21.356     9.981     3.434     3.044     6.680   -21.356     8.829     3.434     0.000
     15.906  3510.6   0.150  -1.399  34.901  2311.358  2398.318     2.608     0.000   162.957    10.269    28.160    72.292   0.858   -11.920     0.000    57.933    38.038    10.425   -21.520    15.344     3.330     3.044    10.425   -21.520    12.152     3.330     0.000
     14.900  3510.6   0.150  -1.398  34.901  2311.313  2398.297     2.608     0.000   162.976    10.269    28.160    72.304   0.859   -11.909     0.000    57.988    37.988    12.760   -21.656    18.540     3.249     3.044    12.760   -21.656    14.411     3.249     0.000
     13.895  3510.6   0.150  -1.399  34.901  2311.287  2398.308     2.608     0.000   163.058    10.269    28.160    72.322   0.859   -11.890     0.000    58.011    37.967     7.910   -21.508    11.656     3.349     3.044     7.910   -21.508     9.905     3.349     0.000
     12.891  3510.6   0.150  -1.398  34.901  2311.222  2398.282     2.607     0.000   163.130    10.269    28.160    72.340   0.859   -11.873     0.000    58.095    37.891    10.973   -21.647    15.961     3.260     3.044    10.973   -21.647    12.625     3.260     0.000
     11.888  3510.6   0.150  -1.399  34.901  2311.165  2398.277     2.607     0.000   163.208    10.269    28.160    72.365   0.859   -11.848     0.000    58.151    37.841     6.906   -21.357    10.320     3.436     3.044     6.906   -21.357     9.001     3.436     0.000
     10.885  3510.6   0.150  -1.398  34.901  2311.048  2398.228     2.607     0.000   163.337    10.269    28.160    72.396   0.860   -11.817     0.000    58.272    37.732    12.971   -21.643    18.882     3.262     3.044    12.971   -21.643    14.551     3.262     0.000
      9.884  3510.6   0.150  -1.399  34.901  2310.976  2398.226     2.607     0.000   163.452    10.269    28.160    72.430   0.860   -11.783     0.000    58.356    37.656     7.571   -21.474    11.188     3.367     3.044     7.571   -21.474     9.568     3.367     0.000
      8.883  3510.6   0.150  -1.399  34.901  2310.860  2398.190     2.606     0.000   163.587    10.269    28.160    72.466   0.861   -11.747     0.000    58.497    37.528    12.011   -21.595    17.559     3.289     3.044    12.011   -21.595    13.589     3.289     0.000
      7.885  3510.6   0.150  -1.399  34.901  2310.766  2398.181     2.606     0.000   163.732    10.269    28.160    72.507   0.861   -11.706     0.000    58.603    37.432     7.013   -21.409    10.420     3.400     3.044     7.013   -21.409     9.047     3.400     0.000
      6.887  3510.6   0.150  -1.399  34.901  2310.624  2398.129     2.606     0.000   163.875    10.269    28.160    72.548   0.861   -11.665     0.000    58.769    37.282    12.922   -21.650    18.782     3.252     3.044    12.922   -21.650    14.459     3.252     0.000
      5.891  3510.6   0.150  -1.399  34.901  2310.504  2398.109     2.605     0.000   164.041    10.269    28.160    72.596   0.862   -11.618     0.000    58.920    37.146    10.992   -21.642    15.990     3.262     3.044    10.992   -21.642    12.553     3.262     0.000
      4.897  3510.6   0.150  -1.398  34.901  2310.360  2398.063     2.605     0.000   164.218    10.269    28.160    72.642   0.863   -11.572     0.000    59.082    36.999    12.846   -21.631    18.717     3.268     3.044    12.846   -21.631    14.366     3.268     0.000
      3.905  3510.6   0.150  -1.399  34.901  2310.253  2398.043     2.605     0.000   164.357    10.269    28.160    72.682   0.863   -11.532     0.000    59.216    36.878     9.628   -21.471    14.228     3.358     3.044     9.628   -21.471    11.311     3.358     0.000
      2.914  3510.6   0.150  -1.399  34.901  2310.133  2398.006     2.604     0.000   164.493    10.269    28.160    72.722   0.864   -11.492     0.000    59.373    36.736    12.186   -21.648    17.707     3.251     3.044    12.186   -21.648    13.644     3.251     0.000
      1.925  3510.6   0.150  -1.399  34.901  2310.016  2397.976     2.604     0.000   164.639    10.269    28.160    72.762   0.864   -11.452     0.000    59.503    36.619    12.799   -21.646    18.603     3.252     3.044    12.799   -21.646    14.287     3.252     0.000
      0.938  3510.6   0.150  -1.399  34.901  2309.912  2397.968     2.604     0.000   164.793    10.269    28.160    72.808   0.865   -11.406     0.000    59.616    36.516     6.924   -21.348    10.350     3.439     3.044     6.924   -21.348     8.869     3.439     0.000
