% age_kyrBP     D_m  k0_mix     T_C   S_mil    CO2_uM    ALK_uM    PO2_uM    NO3_uM     O2_uM     Ca_uM    SO4_mM    CO3_mM     ohm   dCO3_uM     POC_%     cal_%    opal_%   fsedPOC      d13C   fsedcal      d13C  fsedopal   fdisPOC      d13C   fdiscal      d13C  fdisopal
     23.881  3831.0   0.150  -1.361  34.899  2317.423  2403.335     2.629     0.000   157.468    10.272    28.158    71.409   0.798   -18.079     0.000    15.249    79.985     7.864   -21.927    11.329     3.365     3.540     7.864   -21.927    10.494     3.365     0.000
     22.715  3831.0   0.150  -1.366  34.898  2317.369  2403.635     2.633     0.000   157.643    10.272    28.158    71.580   0.800   -17.913     0.000    16.015    79.690     6.138   -21.828     8.923     3.458     3.540     6.138   -21.828     9.006     3.457     0.000
     21.551  3831.0   0.150  -1.367  34.898  2317.424  2403.752     2.634     0.000   157.675    10.272    28.158    71.611   0.800   -17.882     0.000    16.256    79.462     8.497   -21.936    12.136     3.335     3.540     8.497   -21.936    11.061     3.335     0.000
     20.388  3831.0   0.150  -1.367  34.898  2317.411  2403.758     2.634     0.000   157.704    10.272    28.158    71.621   0.800   -17.873     0.000    16.294    79.426     8.647   -21.930    12.350     3.341     3.540     8.647   -21.930    11.192     3.341     0.000
     19.225  3831.0   0.150  -1.367  34.898  2317.399  2403.756     2.634     0.000   157.722    10.272    28.158    71.625   0.800   -17.868     0.000    16.322    79.399     8.782   -21.928    12.543     3.344     3.540     8.782   -21.928    11.310     3.344     0.000
     18.062  3831.0   0.150  -1.367  34.898  2317.366  2403.745     2.634     0.000   157.757    10.272    28.158    71.635   0.800   -17.859     0.000    16.407    79.319     8.900   -21.927    12.713     3.346     3.540     8.900   -21.927    11.417     3.346     0.000
     16.900  3831.0   0.150  -1.367  34.898  2317.353  2403.767     2.634     0.000   157.831    10.272    28.158    71.653   0.801   -17.840     0.000    16.387    79.338     5.336   -21.776     7.785     3.507     3.540     5.336   -21.776     8.151     3.501     0.000
     15.737  3831.0   0.150  -1.367  34.898  2317.280  2403.725     2.634     0.000   157.880    10.272    28.158    71.666   0.801   -17.828     0.000    16.517    79.214     8.902   -21.925    12.716     3.348     3.540     8.902   -21.925    11.416     3.348     0.000
     14.575  3831.0   0.150  -1.367  34.898  2317.238  2403.716     2.633     0.000   157.941    10.272    28.158    71.681   0.801   -17.812     0.000    16.599    79.136     8.785   -21.924    12.548     3.347     3.540     8.785   -21.924    11.316     3.347     0.000
     13.414  3831.0   0.150  -1.367  34.898  2317.210  2403.731     2.633     0.000   158.016    10.272    28.158    71.702   0.801   -17.790     0.000    16.603    79.133     5.768   -21.789     8.403     3.496     3.540     5.768   -21.789     8.693     3.492     0.000
     12.252  3831.0   0.150  -1.367  34.898  2317.109  2403.684     2.633     0.000   158.116    10.272    28.158    71.726   0.801   -17.767     0.000    16.812    78.935     8.162   -21.919    11.663     3.352     3.540     8.162   -21.919    10.775     3.352     0.000
     11.092  3831.0   0.150  -1.367  34.898  2317.031  2403.677     2.633     0.000   158.218    10.272    28.158    71.760   0.802   -17.733     0.000    16.918    78.834     7.078   -21.836    10.241     3.444     3.540     7.078   -21.836     9.830     3.444     0.000
      9.931  3831.0   0.150  -1.367  34.898  2316.916  2403.638     2.632     0.000   158.351    10.272    28.158    71.795   0.802   -17.698     0.000    17.109    78.653     6.269   -21.857     9.031     3.413     3.540     6.269   -21.857     9.134     3.413     0.000
      8.772  3831.0   0.150  -1.367  34.898  2316.781  2403.598     2.632     0.000   158.517    10.272    28.158    71.839   0.803   -17.655     0.000    17.318    78.454     9.179   -21.923    13.130     3.361     3.540     9.179   -21.923    11.660     3.361     0.000
      7.614  3831.0   0.150  -1.367  34.898  2316.675  2403.595     2.632     0.000   158.700    10.272    28.158    71.889   0.803   -17.605     0.000    17.480    78.301     5.775   -21.785     8.415     3.497     3.540     5.775   -21.785     8.521     3.496     0.000
      6.456  3831.0   0.150  -1.367  34.898  2316.519  2403.544     2.631     0.000   158.856    10.272    28.158    71.937   0.804   -17.557     0.000    17.770    78.026     7.913   -21.869    11.400     3.413     3.540     7.913   -21.869    10.559     3.413     0.000
      5.299  3831.0   0.150  -1.367  34.898  2316.348  2403.489     2.631     0.000   159.064    10.271    28.158    71.991   0.804   -17.504     0.000    18.047    77.763     9.024   -21.917    12.897     3.352     3.540     9.024   -21.917    11.530     3.352     0.000
      4.143  3831.0   0.150  -1.367  34.898  2316.215  2403.463     2.631     0.000   159.253    10.271    28.158    72.041   0.805   -17.453     0.000    18.217    77.601     6.554   -21.867     9.426     3.402     3.540     6.554   -21.867     9.192     3.402     0.000
      2.989  3831.0   0.150  -1.367  34.898  2316.071  2403.417     2.630     0.000   159.408    10.271    28.158    72.086   0.805   -17.409     0.000    18.482    77.350     8.363   -21.911    11.952     3.352     3.540     8.363   -21.911    10.953     3.352     0.000
      1.836  3831.0   0.150  -1.367  34.898  2315.965  2403.411     2.630     0.000   159.569    10.271    28.158    72.134   0.806   -17.361     0.000    18.599    77.239     5.120   -21.753     7.473     3.510     3.540     5.120   -21.753     7.929     3.502     0.000
      0.683  3831.0   0.150  -1.367  34.898  2315.781  2403.347     2.629     0.000   159.778    10.271    28.158    72.189   0.807   -17.306     0.000    18.961    76.895     8.910   -21.906    12.774     3.378     3.540     8.910   -21.906    11.429     3.378     0.000
