% age_kyrBP     D_m  k0_mix     T_C   S_mil    CO2_uM    ALK_uM    PO2_uM    NO3_uM     O2_uM     Ca_uM    SO4_mM    CO3_mM     ohm   dCO3_uM     POC_%     cal_%    opal_%   fsedPOC      d13C   fsedcal      d13C  fsedopal   fdisPOC      d13C   fdiscal      d13C  fdisopal
     24.259  4476.7   0.150  -1.889  35.063  2286.902  2379.566     2.437     0.000   190.673    10.299    28.291    73.147   0.722   -28.228     0.000     0.656    86.428    32.678   -30.209    23.202     0.873     5.662    32.678   -30.209    30.272     0.868     0.000
     23.504  4476.7   0.150  -1.888  35.064  2283.010  2377.303     2.420     0.000   192.867    10.298    28.291    73.881   0.729   -27.499     0.000     1.941    91.524    65.239   -30.904    41.877     0.686     5.662    65.239   -30.904    57.585     0.679     0.000
     22.750  4476.7   0.150  -1.888  35.064  2282.693  2377.334     2.418     0.000   192.992    10.299    28.292    74.051   0.730   -27.327     0.000     0.337    93.319    57.253   -30.521    38.738     0.808     5.662    57.253   -30.521    45.964     0.724     0.000
     22.749  4476.7   0.150  -1.888  35.064  2282.721  2377.375     2.418     0.000   192.982    10.299    28.292    74.058   0.731   -27.319     0.000     4.111    89.786    49.801   -30.371    34.371     0.852     5.662    49.801   -30.371     0.000**********     0.000
     22.748  4476.7   0.150  -1.888  35.064  2282.584  2377.132     2.418     0.000   192.986    10.298    28.292    74.002   0.730   -27.378     0.000     2.404    91.385    33.477   -31.750    18.822     0.393     5.662    33.477   -31.750    33.371     0.593     0.000
     21.996  4476.7   0.150  -1.888  35.064  2282.724  2377.392     2.419     0.000   193.039    10.299    28.292    74.062   0.731   -27.315     0.000     0.600    93.087    29.250   -30.119    20.823     0.942     5.662    29.250   -30.119    26.954     0.940     0.000
     21.241  4476.7   0.150  -1.888  35.064  2282.816  2377.588     2.419     0.000   193.080    10.299    28.292    74.120   0.731   -27.257     0.000     0.000    93.650    66.271   -30.829    42.799     0.735     5.662    66.271   -30.829    51.328     0.726     0.000
     20.487  4476.7   0.150  -1.888  35.064  2282.760  2377.481     2.419     0.000   193.068    10.299    28.292    74.090   0.731   -27.288     0.000     0.000    93.650    22.391   -31.986    12.028     0.323     5.662    22.391   -31.986    12.523     0.322     0.000
     20.487  4476.7   0.150  -1.888  35.064  2282.801  2377.540     2.419     0.000   193.069    10.299    28.292    74.099   0.731   -27.277     0.000     4.338    89.587    53.123   -30.421    36.313     0.854     5.662    53.123   -30.421     0.000**********     0.000
     20.486  4476.7   0.150  -1.888  35.064  2282.688  2377.301     2.419     0.000   193.061    10.299    28.292    74.035   0.730   -27.343     0.000     1.655    92.099    45.428   -30.279    31.630     0.898     5.662    45.428   -30.279    40.539     0.888     0.000
     19.733  4476.7   0.150  -1.888  35.064  2282.766  2377.456     2.419     0.000   193.055    10.299    28.292    74.074   0.731   -27.303     0.000     0.423    93.253    26.444   -30.114    18.807     0.957     5.662    26.444   -30.114    24.377     0.956     0.000
     18.978  4476.7   0.150  -1.888  35.064  2282.787  2377.579     2.419     0.000   193.115    10.299    28.292    74.126   0.731   -27.250     0.000     0.000    93.650    67.008   -30.789    43.468     0.754     5.662    67.008   -30.789    53.273     0.745     0.000
     18.223  4476.7   0.150  -1.888  35.064  2282.665  2377.334     2.419     0.000   193.121    10.299    28.292    74.062   0.731   -27.316     0.000     1.287    92.444    42.042   -30.217    29.484     0.922     5.662    42.042   -30.217    38.324     0.913     0.000
     17.469  4476.7   0.150  -1.888  35.064  2282.653  2377.411     2.419     0.000   193.190    10.299    28.292    74.105   0.731   -27.272     0.000     0.500    93.181    56.679   -31.100    35.103     0.652     5.662    56.679   -31.100    47.831     0.733     0.000
     17.468  4476.7   0.150  -1.888  35.064  2282.701  2377.505     2.419     0.000   193.191    10.299    28.292    74.133   0.731   -27.245     0.000     4.544    89.394    60.679   -30.987    38.211     0.692     5.662    60.679   -30.987     0.000**********     0.000
     17.468  4476.7   0.150  -1.888  35.064  2282.613  2377.276     2.419     0.000   193.159    10.299    28.292    74.061   0.731   -27.317     0.000     3.647    90.234    15.289   -30.525    10.303     0.849     5.662    15.289   -30.525    18.003     0.782     0.000
     16.715  4476.7   0.150  -1.888  35.064  2282.676  2377.520     2.419     0.000   193.240    10.299    28.292    74.152   0.731   -27.224     0.000     0.000    93.650    67.378   -30.762    43.872     0.763     5.662    67.378   -30.762    49.911     0.739     0.000
     15.960  4476.7   0.150  -1.888  35.064  2282.619  2377.458     2.419     0.000   193.277    10.299    28.292    74.146   0.731   -27.232     0.000     0.084    93.570    36.895   -31.628    21.065     0.459     5.662    36.895   -31.628    33.932     0.612     0.000
     15.206  4476.7   0.150  -1.888  35.064  2282.563  2377.402     2.418     0.000   193.326    10.299    28.292    74.144   0.731   -27.233     0.000     0.363    93.310    58.636   -31.041    36.626     0.674     5.662    58.636   -31.041    48.740     0.740     0.000
     15.205  4476.7   0.150  -1.888  35.064  2282.605  2377.486     2.418     0.000   193.328    10.299    28.292    74.169   0.732   -27.208     0.000     4.686    89.261    62.233   -30.937    39.474     0.709     5.662    62.233   -30.937     0.000**********     0.000
     15.204  4476.7   0.150  -1.888  35.064  2282.467  2377.212     2.418     0.000   193.332    10.299    28.292    74.096   0.731   -27.283     0.000     1.958    91.815    64.971   -30.853    41.728     0.737     5.662    64.971   -30.853    57.301     0.729     0.000
     14.451  4476.7   0.150  -1.888  35.064  2282.589  2377.494     2.418     0.000   193.362    10.299    28.292    74.179   0.732   -27.199     0.000     0.842    92.861    12.792   -32.086     6.721     0.301     5.662    12.792   -32.086     0.000**********     0.000
     13.697  4476.7   0.150  -1.888  35.064  2282.538  2377.476     2.418     0.000   193.419    10.299    28.292    74.193   0.732   -27.184     0.000     0.000    93.650    40.159   -31.541    23.250     0.491     5.662    40.159   -31.541    33.554     0.612     0.000
     13.697  4476.7   0.150  -1.888  35.064  2282.612  2377.579     2.418     0.000   193.403    10.299    28.292    74.212   0.732   -27.164     0.000     3.027    90.814    35.113   -30.135    24.876     0.949     5.662    35.113   -30.135     0.000**********     0.000
     13.696  4476.7   0.150  -1.888  35.064  2282.479  2377.359     2.418     0.000   193.421    10.299    28.292    74.166   0.732   -27.212     0.000     1.350    92.386    46.312   -31.378    27.502     0.552     5.662    46.312   -31.378    41.456     0.686     0.000
     12.942  4476.7   0.150  -1.888  35.064  2282.369  2377.218     2.418     0.000   193.496    10.299    28.292    74.149   0.731   -27.230     0.000     1.811    91.954    63.566   -30.893    40.582     0.724     5.662    63.566   -30.893    55.932     0.715     0.000
     12.188  4476.7   0.150  -1.888  35.064  2282.404  2377.396     2.418     0.000   193.588    10.299    28.292    74.221   0.732   -27.157     0.000     0.056    93.597    59.485   -30.567    39.824     0.817     5.662    59.485   -30.567    47.448     0.734     0.000
     12.187  4476.7   0.150  -1.888  35.064  2282.453  2377.478     2.418     0.000   193.579    10.299    28.292    74.235   0.732   -27.141     0.000     4.284    89.637    52.595   -30.421    35.911     0.860     5.662    52.595   -30.421     0.000**********     0.000
     12.186  4476.7   0.150  -1.888  35.064  2282.304  2377.206     2.418     0.000   193.579    10.298    28.292    74.173   0.732   -27.206     0.000     2.696    91.125    29.644   -31.804    16.432     0.394     5.662    29.644   -31.804    30.027     0.605     0.000
     11.433  4476.7   0.150  -1.888  35.064  2282.291  2377.300     2.418     0.000   193.675    10.299    28.292    74.223   0.732   -27.155     0.000     1.135    92.586    48.879   -31.303    29.362     0.579     5.662    48.879   -31.303    43.138     0.699     0.000
     10.678  4476.7   0.150  -1.888  35.064  2282.313  2377.436     2.418     0.000   193.755    10.299    28.292    74.281   0.733   -27.096     0.000     1.209    92.517    10.958   -31.163     6.730     0.650     5.662    10.958   -31.163    12.739     0.677     0.000
      9.925  4476.7   0.150  -1.888  35.064  2282.190  2377.371     2.417     0.000   193.902    10.299    28.292    74.311   0.733   -27.066     0.000     0.332    93.339    55.966   -30.502    37.805     0.836     5.662    55.966   -30.502    44.950     0.752     0.000
      9.924  4476.7   0.150  -1.888  35.064  2282.217  2377.410     2.417     0.000   193.893    10.299    28.292    74.317   0.733   -27.060     0.000     4.050    89.857    49.069   -30.352    33.813     0.880     5.662    49.069   -30.352     0.000**********     0.000
      9.923  4476.7   0.150  -1.888  35.064  2282.083  2377.170     2.417     0.000   193.895    10.298    28.292    74.262   0.733   -27.118     0.000     2.377    91.424    33.002   -31.715    18.573     0.426     5.662    33.002   -31.715    32.813     0.623     0.000
      9.170  4476.7   0.150  -1.888  35.064  2282.073  2377.316     2.417     0.000   194.034    10.299    28.292    74.339   0.733   -27.039     0.000     0.856    92.847    51.194   -31.233    31.080     0.604     5.662    51.194   -31.233    44.593     0.711     0.000
      8.416  4476.7   0.150  -1.888  35.064  2282.075  2377.469     2.417     0.000   194.150    10.299    28.292    74.416   0.734   -26.961     0.000     0.000    93.650    65.015   -30.826    41.927     0.744     5.662    65.015   -30.826    50.309     0.735     0.000
      7.661  4476.7   0.150  -1.888  35.064  2281.856  2377.172     2.416     0.000   194.288    10.299    28.292    74.369   0.734   -27.009     0.000     1.491    92.254    44.521   -30.293    30.910     0.899     5.662    44.521   -30.293    40.755     0.888     0.000
      6.907  4476.7   0.150  -1.888  35.064  2281.798  2377.283     2.416     0.000   194.443    10.299    28.292    74.455   0.734   -26.924     0.000     0.655    93.037    53.216   -31.169    32.619     0.627     5.662    53.216   -31.169    45.672     0.720     0.000
      6.153  4476.7   0.150  -1.888  35.064  2281.743  2377.337     2.416     0.000   194.580    10.299    28.292    74.506   0.735   -26.872     0.000     0.000    93.650    10.843   -31.165     6.660     0.647     5.662    10.843   -31.165    10.874     0.677     0.000
      6.153  4476.7   0.150  -1.888  35.064  2281.718  2377.333     2.415     0.000   194.617    10.299    28.292    74.516   0.735   -26.862     0.000     4.999    88.968    65.263   -30.802    42.245     0.750     5.662    65.263   -30.802     0.000**********     0.000
      6.152  4476.7   0.150  -1.888  35.064  2281.581  2377.059     2.415     0.000   194.620    10.298    28.292    74.445   0.734   -26.934     0.000     2.307    91.489    64.922   -30.742    42.407     0.767     5.662    64.922   -30.742    57.668     0.762     0.000
      5.398  4476.7   0.150  -1.888  35.064  2281.561  2377.167     2.415     0.000   194.740    10.299    28.292    74.508   0.735   -26.870     0.000     1.262    92.467    40.721   -30.244    28.448     0.913     5.662    40.721   -30.244    37.103     0.905     0.000
      4.645  4476.7   0.150  -1.888  35.064  2281.527  2377.277     2.415     0.000   194.884    10.299    28.292    74.581   0.736   -26.797     0.000     0.199    93.463    23.107   -30.176    16.298     0.943     5.662    23.107   -30.176    21.520     0.944     0.000
      3.890  4476.7   0.150  -1.888  35.064  2281.458  2377.364     2.415     0.000   195.044    10.299    28.292    74.660   0.736   -26.717     0.000     0.001    93.649    65.286   -30.781    42.403     0.756     5.662    65.286   -30.781    52.913     0.748     0.000
      3.136  4476.7   0.150  -1.888  35.064  2281.324  2377.258     2.414     0.000   195.163    10.298    28.292    74.668   0.737   -26.711     0.000     0.552    93.133    28.824   -31.798    16.001     0.395     5.662    28.824   -31.798    27.668     0.569     0.000
      2.382  4476.7   0.150  -1.888  35.064  2281.254  2377.248     2.414     0.000   195.285    10.299    28.292    74.697   0.737   -26.681     0.000     0.058    93.595    20.448   -30.233    14.320     0.928     5.662    20.448   -30.233    18.954     0.932     0.000
      1.627  4476.7   0.150  -1.888  35.064  2281.162  2377.247     2.414     0.000   195.412    10.299    28.292    74.741   0.737   -26.638     0.000     1.358    92.378     9.884   -31.717     5.548     0.449     5.662     9.884   -31.717    11.813     0.597     0.000
      1.626  4476.7   0.150  -1.888  35.064  2281.183  2377.314     2.414     0.000   195.440    10.299    28.292    74.767   0.738   -26.611     0.000     4.717    89.232    60.180   -30.654    39.812     0.790     5.662    60.180   -30.654     0.000**********     0.000
      1.625  4476.7   0.150  -1.888  35.064  2281.030  2377.009     2.414     0.000   195.426    10.298    28.292    74.685   0.737   -26.695     0.000     3.483    90.388    17.950   -32.032     9.549     0.312     5.662    17.950   -32.032    20.214     0.564     0.000
      0.873  4476.7   0.150  -1.888  35.064  2280.967  2377.072     2.413     0.000   195.599    10.298    28.292    74.747   0.737   -26.633     0.000     1.239    92.489    40.076   -30.260    27.943     0.908     5.662    40.076   -30.260    36.527     0.899     0.000
      0.119  4476.7   0.150  -1.888  35.064  2280.918  2377.260     2.413     0.000   195.814    10.299    28.292    74.865   0.738   -26.513     0.000     0.000    93.650    54.126   -31.114    33.460     0.646     5.662    54.126   -31.114    34.998     0.659     0.000
