% age_kyrBP     D_m  k0_mix     T_C   S_mil    CO2_uM    ALK_uM    PO2_uM    NO3_uM     O2_uM     Ca_uM    SO4_mM    CO3_mM     ohm   dCO3_uM     POC_%     cal_%    opal_%   fsedPOC      d13C   fsedcal      d13C  fsedopal   fdisPOC      d13C   fdiscal      d13C  fdisopal
     24.172  3813.4   0.150  -1.410  34.902  2310.897  2396.611     2.600     0.000   162.123    10.270    28.161    71.206   0.798   -18.010     0.000    49.820    46.132    12.304   -22.437    16.922     3.176     4.085    12.304   -22.437    16.234     3.176     0.000
     23.334  3813.4   0.150  -1.419  34.900  2310.682  2396.886     2.606     0.000   163.118    10.269    28.160    71.440   0.801   -17.786     0.000    49.516    47.417    12.876   -22.460    17.610     3.176     4.085    12.876   -22.460    16.597     3.176     0.000
     22.498  3813.4   0.150  -1.420  34.900  2310.586  2396.909     2.606     0.000   163.026    10.268    28.160    71.494   0.801   -17.734     0.000    49.911    47.061    21.989   -22.654    29.553     3.062     4.085    21.989   -22.654    24.789     3.062     0.000
     21.664  3813.4   0.150  -1.420  34.900  2310.688  2397.057     2.607     0.000   163.084    10.269    28.160    71.522   0.802   -17.705     0.000    49.979    46.997    12.105   -22.189    16.872     3.296     4.085    12.105   -22.189    15.937     3.296     0.000
     20.830  3813.4   0.150  -1.420  34.900  2310.665  2397.058     2.607     0.000   163.121    10.269    28.160    71.532   0.802   -17.695     0.000    50.052    46.929    16.109   -22.350    22.149     3.209     4.085    16.109   -22.350    19.622     3.209     0.000
     19.997  3813.4   0.150  -1.420  34.900  2310.670  2397.061     2.607     0.000   163.119    10.269    28.160    71.532   0.802   -17.695     0.000    50.036    46.944    12.398   -22.380    17.024     3.227     4.085    12.398   -22.380    16.177     3.227     0.000
     19.163  3813.4   0.150  -1.420  34.900  2310.629  2397.027     2.607     0.000   163.148    10.269    28.160    71.532   0.802   -17.696     0.000    50.089    46.894    21.329   -22.665    28.591     3.065     4.085    21.329   -22.665    24.202     3.065     0.000
     18.330  3813.4   0.150  -1.420  34.900  2310.633  2397.050     2.607     0.000   163.162    10.269    28.160    71.543   0.802   -17.684     0.000    50.094    46.889    16.109   -22.343    22.150     3.215     4.085    16.109   -22.343    19.619     3.215     0.000
     17.497  3813.4   0.150  -1.420  34.900  2310.580  2397.016     2.607     0.000   163.209    10.269    28.160    71.550   0.802   -17.678     0.000    50.157    46.830    21.422   -22.596    28.877     3.099     4.085    21.422   -22.596    24.279     3.099     0.000
     16.664  3813.4   0.150  -1.420  34.900  2310.551  2397.009     2.607     0.000   163.229    10.269    28.160    71.560   0.802   -17.668     0.000    50.197    46.792    20.536   -22.666    27.521     3.068     4.085    20.536   -22.666    23.498     3.068     0.000
     15.831  3813.4   0.150  -1.420  34.900  2310.535  2397.022     2.607     0.000   163.288    10.269    28.160    71.575   0.802   -17.652     0.000    50.219    46.772    15.278   -22.573    20.651     3.135     4.085    15.278   -22.573    18.862     3.135     0.000
     15.000  3813.4   0.150  -1.420  34.900  2310.509  2397.024     2.607     0.000   163.326    10.269    28.160    71.590   0.802   -17.637     0.000    50.236    46.756    11.176   -22.151    15.603     3.323     4.085    11.176   -22.151    15.039     3.323     0.000
     14.167  3813.4   0.150  -1.420  34.900  2310.464  2396.999     2.607     0.000   163.352    10.269    28.160    71.597   0.802   -17.630     0.000    50.307    46.689    17.218   -22.634    23.148     3.098     4.085    17.218   -22.634    20.580     3.098     0.000
     13.336  3813.4   0.150  -1.420  34.900  2310.393  2396.964     2.606     0.000   163.458    10.269    28.160    71.612   0.803   -17.616     0.000    50.422    46.581    22.111   -22.642    29.697     3.079     4.085    22.111   -22.642    24.870     3.079     0.000
     12.505  3813.4   0.150  -1.420  34.900  2310.358  2396.974     2.606     0.000   163.519    10.269    28.160    71.635   0.803   -17.592     0.000    50.467    46.539    16.583   -22.617    22.328     3.109     4.085    16.583   -22.617    20.017     3.109     0.000
     11.675  3813.4   0.150  -1.420  34.900  2310.303  2396.972     2.606     0.000   163.624    10.269    28.160    71.662   0.803   -17.565     0.000    50.530    46.479    11.184   -22.150    15.616     3.323     4.085    11.184   -22.150    15.026     3.323     0.000
     10.845  3813.4   0.150  -1.420  34.900  2310.210  2396.927     2.606     0.000   163.671    10.269    28.160    71.681   0.803   -17.547     0.000    50.669    46.349    19.408   -22.488    26.374     3.145     4.085    19.408   -22.488    22.476     3.145     0.000
     10.016  3813.4   0.150  -1.420  34.900  2310.123  2396.904     2.605     0.000   163.791    10.269    28.160    71.711   0.804   -17.516     0.000    50.762    46.261    18.467   -22.652    24.782     3.083     4.085    18.467   -22.652    21.643     3.083     0.000
      9.188  3813.4   0.150  -1.420  34.900  2310.057  2396.913     2.605     0.000   163.924    10.269    28.160    71.749   0.804   -17.478     0.000    50.844    46.185    11.420   -22.149    15.947     3.323     4.085    11.420   -22.149    15.209     3.323     0.000
      8.361  3813.4   0.150  -1.420  34.900  2309.958  2396.884     2.605     0.000   164.018    10.269    28.160    71.781   0.804   -17.446     0.000    50.960    46.076    11.303   -22.217    15.700     3.296     4.085    11.303   -22.217    15.095     3.296     0.000
      7.534  3813.4   0.150  -1.420  34.900  2309.830  2396.829     2.605     0.000   164.169    10.268    28.160    71.812   0.805   -17.417     0.000    51.141    45.905    21.042   -22.565    28.424     3.111     4.085    21.042   -22.565    23.875     3.111     0.000
      6.708  3813.4   0.150  -1.420  34.900  2309.727  2396.808     2.604     0.000   164.294    10.268    28.160    71.851   0.805   -17.378     0.000    51.273    45.782    20.018   -22.511    27.149     3.134     4.085    20.018   -22.511    22.964     3.134     0.000
      5.884  3813.4   0.150  -1.420  34.900  2309.624  2396.798     2.604     0.000   164.454    10.269    28.160    71.897   0.806   -17.331     0.000    51.387    45.674    12.942   -22.415    17.712     3.213     4.085    12.942   -22.415    16.503     3.213     0.000
      5.060  3813.4   0.150  -1.420  34.900  2309.484  2396.740     2.604     0.000   164.611    10.268    28.160    71.932   0.806   -17.297     0.000    51.594    45.480    21.843   -22.607    29.411     3.093     4.085    21.843   -22.607    24.548     3.093     0.000
      4.238  3813.4   0.150  -1.420  34.900  2309.404  2396.744     2.603     0.000   164.746    10.268    28.160    71.975   0.807   -17.253     0.000    51.720    45.361    11.441   -22.142    15.981     3.325     4.085    11.441   -22.142    15.162     3.325     0.000
      3.417  3813.4   0.150  -1.420  34.900  2309.305  2396.715     2.603     0.000   164.842    10.268    28.160    72.006   0.807   -17.223     0.000    51.923    45.171    15.510   -22.300    21.389     3.236     4.085    15.510   -22.300    18.590     3.236     0.000
      2.597  3813.4   0.150  -1.420  34.900  2309.172  2396.655     2.603     0.000   165.001    10.268    28.160    72.038   0.807   -17.192     0.000    52.147    44.960    21.509   -22.584    29.010     3.103     4.085    21.509   -22.584    24.235     3.103     0.000
      1.778  3813.4   0.150  -1.420  34.900  2309.095  2396.648     2.602     0.000   165.092    10.268    28.160    72.071   0.808   -17.158     0.000    52.284    44.832    19.106   -22.649    25.634     3.080     4.085    19.106   -22.649    22.116     3.080     0.000
      0.961  3813.4   0.150  -1.420  34.900  2308.950  2396.598     2.602     0.000   165.264    10.268    28.160    72.115   0.808   -17.115     0.000    52.447    44.678    22.208   -22.630    29.843     3.083     4.085    22.208   -22.630    24.830     3.083     0.000
      0.145  3813.4   0.150  -1.420  34.900  2308.836  2396.593     2.602     0.000   165.456    10.268    28.160    72.169   0.809   -17.060     0.000    52.623    44.514    13.523   -22.453    18.448     3.194     4.085    13.523   -22.453    16.897     3.194     0.000
