% age_kyrBP     D_m  k0_mix     T_C   S_mil    CO2_uM    ALK_uM    PO2_uM    NO3_uM     O2_uM     Ca_uM    SO4_mM    CO3_mM     ohm   dCO3_uM     POC_%     cal_%    opal_%   fsedPOC      d13C   fsedcal      d13C  fsedopal   fdisPOC      d13C   fdiscal      d13C  fdisopal
     23.847  3409.1   0.150  -1.371  34.900  2314.238  2400.553     2.615     0.000   160.303    10.271    28.160    72.192   0.874   -10.380     0.000    47.384    46.928     4.435   -21.237     6.764     3.479     2.918     4.435   -21.237     6.026     3.479     0.000
     22.689  3409.1   0.150  -1.376  34.900  2314.119  2400.777     2.618     0.000   160.441    10.270    28.159    72.358   0.876   -10.219     0.000    48.026    47.244     4.870   -21.237     7.435     3.518     2.918     4.870   -21.237     6.357     3.518     0.000
     21.535  3409.1   0.150  -1.376  34.900  2314.198  2400.921     2.619     0.000   160.485    10.271    28.159    72.391   0.877   -10.184     0.000    48.231    47.070     4.379   -21.195     6.685     3.521     2.918     4.379   -21.195     5.923     3.521     0.000
     20.382  3409.1   0.150  -1.376  34.900  2314.183  2400.923     2.619     0.000   160.504    10.271    28.159    72.400   0.877   -10.176     0.000    48.294    47.014     4.909   -21.229     7.446     3.479     2.918     4.909   -21.229     6.382     3.479     0.000
     19.230  3409.1   0.150  -1.376  34.900  2314.167  2400.915     2.619     0.000   160.520    10.271    28.159    72.403   0.877   -10.173     0.000    48.317    46.993     6.268   -21.275     9.495     3.479     2.918     6.268   -21.275     7.567     3.479     0.000
     18.078  3409.1   0.150  -1.376  34.900  2314.143  2400.912     2.619     0.000   160.552    10.271    28.159    72.413   0.877   -10.163     0.000    48.355    46.958     5.388   -21.237     8.205     3.518     2.918     5.388   -21.237     6.795     3.518     0.000
     16.926  3409.1   0.150  -1.376  34.900  2314.084  2400.886     2.619     0.000   160.627    10.271    28.159    72.429   0.877   -10.148     0.000    48.434    46.887     7.319   -21.317    10.973     3.400     2.918     7.319   -21.317     8.481     3.400     0.000
     15.775  3409.1   0.150  -1.376  34.900  2314.041  2400.874     2.619     0.000   160.669    10.270    28.159    72.443   0.877   -10.134     0.000    48.497    46.829     7.562   -21.319    11.337     3.401     2.918     7.562   -21.319     8.690     3.401     0.000
     14.625  3409.1   0.150  -1.376  34.900  2314.022  2400.889     2.619     0.000   160.729    10.271    28.159    72.459   0.877   -10.117     0.000    48.535    46.794     4.510   -21.195     6.899     3.551     2.918     4.510   -21.195     6.018     3.551     0.000
     13.475  3409.1   0.150  -1.376  34.900  2313.969  2400.873     2.619     0.000   160.804    10.271    28.159    72.477   0.878   -10.099     0.000    48.609    46.727     4.511   -21.194     6.899     3.551     2.918     4.511   -21.194     6.014     3.551     0.000
     12.326  3409.1   0.150  -1.376  34.900  2313.895  2400.854     2.618     0.000   160.902    10.271    28.159    72.502   0.878   -10.074     0.000    48.712    46.634     4.735   -21.205     7.236     3.546     2.918     4.735   -21.205     6.201     3.546     0.000
     11.178  3409.1   0.150  -1.376  34.900  2313.798  2400.823     2.618     0.000   160.992    10.271    28.159    72.533   0.878   -10.044     0.000    48.850    46.508     5.392   -21.233     8.211     3.521     2.918     5.392   -21.233     6.765     3.521     0.000
     10.031  3409.1   0.150  -1.376  34.900  2313.680  2400.783     2.618     0.000   161.128    10.270    28.159    72.569   0.879   -10.008     0.000    49.008    46.365     6.751   -21.289    10.199     3.463     2.918     6.751   -21.289     7.943     3.463     0.000
      8.886  3409.1   0.150  -1.376  34.900  2313.584  2400.777     2.618     0.000   161.286    10.271    28.159    72.612   0.879    -9.964     0.000    49.161    46.225     4.347   -21.180     6.648     3.548     2.918     4.347   -21.180     5.834     3.548     0.000
      7.742  3409.1   0.150  -1.376  34.900  2313.449  2400.736     2.617     0.000   161.446    10.270    28.159    72.656   0.880    -9.921     0.000    49.359    46.045     6.042   -21.257     9.167     3.493     2.918     6.042   -21.257     7.298     3.493     0.000
      6.600  3409.1   0.150  -1.376  34.900  2313.320  2400.712     2.617     0.000   161.603    10.270    28.159    72.706   0.880    -9.871     0.000    49.548    45.873     4.516   -21.190     6.909     3.553     2.918     4.516   -21.190     5.954     3.553     0.000
      5.460  3409.1   0.150  -1.376  34.900  2313.139  2400.648     2.616     0.000   161.818    10.270    28.159    72.760   0.881    -9.818     0.000    49.794    45.650     7.860   -21.320    11.797     3.413     2.918     7.860   -21.320     8.860     3.413     0.000
      4.322  3409.1   0.150  -1.376  34.900  2313.000  2400.611     2.616     0.000   161.995    10.270    28.159    72.808   0.882    -9.770     0.000    49.991    45.470     7.844   -21.319    11.779     3.417     2.918     7.844   -21.319     8.833     3.417     0.000
      3.186  3409.1   0.150  -1.376  34.900  2312.898  2400.604     2.616     0.000   162.146    10.270    28.159    72.853   0.882    -9.724     0.000    50.169    45.308     4.353   -21.175     6.657     3.549     2.918     4.353   -21.175     5.662     3.549     0.000
      2.052  3409.1   0.150  -1.376  34.900  2312.768  2400.571     2.615     0.000   162.327    10.270    28.159    72.899   0.883    -9.679     0.000    50.426    45.075     5.040   -21.210     7.694     3.538     2.918     5.040   -21.210     6.358     3.538     0.000
      0.920  3409.1   0.150  -1.376  34.900  2312.608  2400.515     2.615     0.000   162.467    10.270    28.159    72.947   0.883    -9.631     0.000    50.679    44.845     7.411   -21.307    11.160     3.440     2.918     7.411   -21.307     8.416     3.440     0.000
