% age_kyrBP     D_m  k0_mix     T_C   S_mil    CO2_uM    ALK_uM    PO2_uM    NO3_uM     O2_uM     Ca_uM    SO4_mM    CO3_mM     ohm   dCO3_uM     POC_%     cal_%    opal_%   fsedPOC      d13C   fsedcal      d13C  fsedopal   fdisPOC      d13C   fdiscal      d13C  fdisopal
     23.442  4720.2   0.150  -1.409  34.928  2331.922  2423.735     2.660     0.000   153.371    10.290    28.182    73.281   0.693   -32.410     0.000     7.975    69.525    11.667   -21.655    17.658     3.547     2.214    11.667   -21.655    17.536     3.547     0.000
     21.841  4720.2   0.150  -1.411  34.928  2332.031  2424.158     2.663     0.000   153.307    10.289    28.182    73.438   0.695   -32.254     0.000     8.246    69.532    11.710   -21.632    17.726     3.570     2.214    11.710   -21.632    17.590     3.570     0.000
     20.241  4720.2   0.150  -1.411  34.928  2332.068  2424.235     2.663     0.000   153.331    10.290    28.182    73.459   0.695   -32.233     0.000     8.282    69.505    11.813   -21.634    17.857     3.563     2.214    11.813   -21.634    17.681     3.563     0.000
     18.641  4720.2   0.150  -1.411  34.928  2332.045  2424.226     2.663     0.000   153.357    10.290    28.182    73.465   0.695   -32.226     0.000     8.291    69.498    11.814   -21.630    17.857     3.566     2.214    11.814   -21.630    17.682     3.566     0.000
     17.040  4720.2   0.150  -1.411  34.928  2331.990  2424.216     2.663     0.000   153.457    10.289    28.182    73.486   0.695   -32.206     0.000     8.320    69.476    11.730   -21.620    17.758     3.582     2.214    11.730   -21.620    17.609     3.582     0.000
     15.446  4720.2   0.150  -1.411  34.928  2331.957  2424.228     2.663     0.000   153.513    10.290    28.182    73.509   0.696   -32.183     0.000     9.782    68.368    11.681   -21.615    17.675     3.580     2.214    11.681   -21.615    17.534     3.580     0.000
     13.853  4720.2   0.150  -1.411  34.928  2331.909  2424.222     2.662     0.000   153.562    10.290    28.182    73.528   0.696   -32.164     0.000     9.828    68.333    11.805   -21.626    17.844     3.569     2.214    11.805   -21.626    17.644     3.569     0.000
     12.261  4720.2   0.150  -1.411  34.928  2331.832  2424.215     2.662     0.000   153.697    10.290    28.182    73.562   0.696   -32.130     0.000     9.890    68.286    11.708   -21.617    17.706     3.575     2.214    11.708   -21.617    17.556     3.575     0.000
     10.669  4720.2   0.150  -1.411  34.928  2331.700  2424.173     2.662     0.000   153.818    10.289    28.182    73.602   0.696   -32.090     0.000     9.987    68.213    11.871   -21.629    17.949     3.571     2.214    11.871   -21.629    17.703     3.571     0.000
      9.077  4720.2   0.150  -1.411  34.928  2331.572  2424.163     2.662     0.000   154.008    10.289    28.182    73.659   0.697   -32.033     0.000    10.103    68.125    11.747   -21.617    17.785     3.584     2.214    11.747   -21.617    17.592     3.584     0.000
      7.487  4720.2   0.150  -1.411  34.928  2331.434  2424.157     2.661     0.000   154.219    10.289    28.182    73.722   0.698   -31.969     0.000    10.231    68.028    11.731   -21.616    17.739     3.574     2.214    11.731   -21.616    17.576     3.574     0.000
      5.897  4720.2   0.150  -1.411  34.928  2331.273  2424.145     2.661     0.000   154.422    10.289    28.182    73.793   0.698   -31.899     0.000    10.382    67.913    11.701   -21.611    17.704     3.580     2.214    11.701   -21.611    17.548     3.580     0.000
      4.307  4720.2   0.150  -1.411  34.928  2331.088  2424.104     2.661     0.000   154.655    10.289    28.182    73.860   0.699   -31.833     0.000    10.538    67.795    11.883   -21.625    17.972     3.573     2.214    11.883   -21.625    17.711     3.573     0.000
      2.719  4720.2   0.150  -1.411  34.928  2330.921  2424.069     2.660     0.000   154.864    10.289    28.182    73.922   0.699   -31.771     0.000    10.674    67.692    11.885   -21.624    17.974     3.573     2.214    11.885   -21.624    17.712     3.573     0.000
      1.131  4720.2   0.150  -1.411  34.928  2330.764  2424.046     2.660     0.000   155.044    10.289    28.182    73.986   0.700   -31.707     0.000    10.816    67.585    11.883   -21.622    17.970     3.573     2.214    11.883   -21.622    17.710     3.573     0.000
