 =================================
 === GLOBAL SEDIMENT DIAG DATA ===
 =================================
  
 --- DEEP-SEA SEDIMENT GRID ------
  
 ---------------------------------
 Total # deep-sea grid pts :   914
 Total deep-sea area       :  0.359608E+15 m2
 ---------------------------------
 POC rain                  :  0.177915E+15 mol yr-1 =   2.135 GtC yr-1
 POC diss                  :  0.177915E+15 mol yr-1 =   2.135 GtC yr-1
 Total POC pres            :  0.000000E+00 mol yr-1 =   0.000 GtC yr-1   =    0.00 %
 Mean wt% POC              :  0.00 %
 ---------------------------------
 CaCO3 rain                :  0.138727E+15 mol yr-1 =   1.665 GtC yr-1
 CaCO3 diss                :  0.107251E+15 mol yr-1 =   1.287 GtC yr-1
 Total CaCO3 pres          :  0.314760E+14 mol yr-1 =   0.378 GtC yr-1   =   22.69 %
 Mean wt% CaCO3            :  7.48 %
 ---------------------------------
 CaCO3/POC rain ratio      :  0.780
 ---------------------------------
 opal rain                 :  0.114642E+14    mol yr-1
 opal diss                 :  0.000000E+00    mol yr-1
 Total opal pres           :  0.114642E+14 mol yr-1 =                       100.00 %
 Mean wt% opal             :  1.31 %
 ---------------------------------
  
 --- REEF SEDIMENT GRID ----------
  
 ---------------------------------
 Total # reef grid pts     :     0
 Total reef area           :  0.000000E+00 m2
 Active # reef grid pts    :     0
 Active reef area          :  0.000000E+00 m2
 ---------------------------------
 CaCO3 rain                :  0.000000E+00 mol yr-1 =   0.000 GtC yr-1
 CaCO3 diss                :  0.000000E+00 mol yr-1 =   0.000 GtC yr-1
 Total CaCO3 pres          :  0.000000E+00 mol yr-1 =   0.000 GtC yr-1   =    0.00 %
 Mean wt% CaCO3            :  0.00 %
 ---------------------------------
 Mean weighted d13C CaCO3  :  0.00 o/oo
 ---------------------------------
  
 --- SHALLOW SEDIMENT GRID -------
  
 ---------------------------------
 Total # grid pts          :     0
 Total area                :  0.000000E+00 m2
 ---------------------------------
 ---------------------------------
 POC rain                  :  0.000000E+00 mol yr-1 =   0.000 GtC yr-1
 POC diss                  :  0.000000E+00 mol yr-1 =   0.000 GtC yr-1
 Total POC pres            :  0.000000E+00 mol yr-1 =   0.000 GtC yr-1   =    0.00 %
 Mean wt% POC              :  0.00 %
 ---------------------------------
 CaCO3 rain                :  0.000000E+00 mol yr-1 =   0.000 GtC yr-1
 CaCO3 diss                :  0.000000E+00 mol yr-1 =   0.000 GtC yr-1
 Total CaCO3 pres          :  0.000000E+00 mol yr-1 =   0.000 GtC yr-1   =    0.00 %
 Mean wt% CaCO3            :  0.00 %
 ---------------------------------
 CaCO3/POC rain ratio      :  0.000
 ---------------------------------
 opal rain                 :  0.000000E+00    mol yr-1
 opal diss                 :  0.000000E+00    mol yr-1
 Total opal pres           :  0.000000E+00 mol yr-1 =                         0.00 %
 Mean wt% opal             :  0.00 %
 ---------------------------------
  
 --- TOTAL SEDIMENT GRID ---------
 --- (equivalent to ocean grid) --
  
 ---------------------------------
 Total # sediment grid pts :   914
 Total sediment area       :  0.359608E+15 m2
  
